[
  {
    "ean": "6409620003363",
    "urlSlug": "snellman-meetvursti-100g-ohuen-ohut-6409620003363",
    "name": "Snellman meetvursti 100g ohuen ohut",
    "pictureUrls": [
      {
        "original": "https://public.keskofiles.com/f/k-ruoka/product/6409620003363"
      }
    ],
    "section": "1203",
    "departmentId": "102",
    "contentUnit": "KG",
    "contentSize": 0.1,
    "netWeight": 0.1,
    "available": true,
    "isUtility": false,
    "preprocessedPricing": {
      "products": {},
      "simplePromotions": {},
      "basketPromotions": {}
    },
    "tosPricing": {
      "basketPromotions": []
    },
    "simplePricePlussa": false,
    "pricingUnit": "kpl",
    "referencePrice": {
      "_type": "Big",
      "value": "23.5"
    },
    "visiblePrice": {
      "_type": "Big",
      "value": "2.35"
    },
    "visiblePriceUnit": "kpl",
    "isDiscounted": false
  },
  {
    "ean": "6410405075512",
    "urlSlug": "pirkka-parhaat-lammas-krakowa-190g-6410405075512",
    "name": "Pirkka Parhaat lammaskrakovanmakkara 190g",
    "pictureUrls": [
      {
        "original": "https://public.keskofiles.com/f/k-ruoka/product/6410405075512"
      }
    ],
    "section": "1213",
    "departmentId": "102",
    "contentUnit": "KG",
    "contentSize": 0.19,
    "netWeight": 0.19,
    "available": true,
    "isUtility": false,
    "preprocessedPricing": {
      "products": {},
      "simplePromotions": {},
      "basketPromotions": {}
    },
    "tosPricing": {
      "basketPromotions": []
    },
    "simplePricePlussa": false,
    "pricingUnit": "kpl",
    "referencePrice": {
      "_type": "Big",
      "value": "7.84210526315789473684"
    },
    "visiblePrice": {
      "_type": "Big",
      "value": "1.49"
    },
    "visiblePriceUnit": "kpl",
    "isDiscounted": true
  },
  {
    "ean": "4101060003706",
    "urlSlug": "klumper-ilmakuivattu-kinkku-80g-4101060003706",
    "name": "Klümper ilmakuivattu kinkku 80g",
    "pictureUrls": [
      {
        "original": "https://public.keskofiles.com/f/k-ruoka/product/4101060003706"
      }
    ],
    "section": "1208",
    "departmentId": "102",
    "contentUnit": "KG",
    "contentSize": 0.08,
    "netWeight": 0.08,
    "available": true,
    "isUtility": false,
    "preprocessedPricing": {
      "products": {},
      "simplePromotions": {},
      "basketPromotions": {}
    },
    "tosPricing": {
      "basketPromotions": []
    },
    "simplePricePlussa": false,
    "pricingUnit": "kpl",
    "referencePrice": {
      "_type": "Big",
      "value": "30.625"
    },
    "visiblePrice": {
      "_type": "Big",
      "value": "2.45"
    },
    "visiblePriceUnit": "kpl",
    "isDiscounted": false
  },
  {
    "ean": "6408083505568",
    "urlSlug": "lapin-liha-kotasavumeetvursti-450g-6408083505568",
    "name": "Lapin Liha kotasavumeetvursti 450g",
    "pictureUrls": [
      {
        "original": "https://public.keskofiles.com/f/k-ruoka/product/6408083505568"
      }
    ],
    "section": "1203",
    "departmentId": "102",
    "contentUnit": "KG",
    "contentSize": 0.45,
    "netWeight": 0.45,
    "available": true,
    "isUtility": false,
    "preprocessedPricing": {
      "products": {},
      "simplePromotions": {},
      "basketPromotions": {}
    },
    "tosPricing": {
      "basketPromotions": []
    },
    "simplePricePlussa": false,
    "pricingUnit": "kpl",
    "referencePrice": {
      "_type": "Big",
      "value": "11.66666666666666666667"
    },
    "visiblePrice": {
      "_type": "Big",
      "value": "5.25"
    },
    "visiblePriceUnit": "kpl",
    "isDiscounted": false
  },
  {
    "ean": "6407870074881",
    "urlSlug": "atria-hiillos-grillimakkara-400g-6407870074881",
    "name": "Atria hiillos grillimakkara 400g perinteinen",
    "pictureUrls": [
      {
        "original": "https://public.keskofiles.com/f/k-ruoka/product/6407870074881"
      }
    ],
    "section": "1215",
    "departmentId": "102",
    "contentUnit": "KG",
    "contentSize": 0.4,
    "netWeight": 0.4,
    "available": true,
    "isUtility": false,
    "preprocessedPricing": {
      "products": {},
      "simplePromotions": {},
      "basketPromotions": {}
    },
    "tosPricing": {
      "basketPromotions": []
    },
    "simplePricePlussa": false,
    "pricingUnit": "kpl",
    "referencePrice": {
      "_type": "Big",
      "value": "4.875"
    },
    "visiblePrice": {
      "_type": "Big",
      "value": "1.95"
    },
    "visiblePriceUnit": "kpl",
    "isDiscounted": false
  },
  {
    "ean": "6409710007912",
    "urlSlug": "pouttu-savukuutio-230g-pss-6409710007912",
    "name": "Pouttu savukuutio 230g pussi",
    "pictureUrls": [
      {
        "original": "https://public.keskofiles.com/f/k-ruoka/product/6409710007912"
      }
    ],
    "section": "1218",
    "departmentId": "102",
    "contentUnit": "KG",
    "contentSize": 0.23,
    "netWeight": 0.23,
    "available": true,
    "isUtility": false,
    "preprocessedPricing": {
      "products": {},
      "simplePromotions": {},
      "basketPromotions": {}
    },
    "tosPricing": {
      "basketPromotions": []
    },
    "simplePricePlussa": false,
    "pricingUnit": "kpl",
    "referencePrice": {
      "_type": "Big",
      "value": "6.73913043478260869565"
    },
    "visiblePrice": {
      "_type": "Big",
      "value": "1.55"
    },
    "visiblePriceUnit": "kpl",
    "isDiscounted": false
  },
  {
    "ean": "6409100041830",
    "urlSlug": "hk-venalainenmeetvursti--200g-6409100041830",
    "name": "HK venäläinen meetvursti  200g",
    "pictureUrls": [
      {
        "original": "https://public.keskofiles.com/f/k-ruoka/product/6409100041830"
      }
    ],
    "section": "1203",
    "departmentId": "102",
    "contentUnit": "KG",
    "contentSize": 0.2,
    "netWeight": 0.2,
    "available": true,
    "isUtility": false,
    "preprocessedPricing": {
      "products": {},
      "simplePromotions": {},
      "basketPromotions": {}
    },
    "tosPricing": {
      "basketPromotions": []
    },
    "simplePricePlussa": false,
    "pricingUnit": "kpl",
    "referencePrice": {
      "_type": "Big",
      "value": "13.95"
    },
    "visiblePrice": {
      "_type": "Big",
      "value": "2.79"
    },
    "visiblePriceUnit": "kpl",
    "isDiscounted": false,
    "discountType": "PLUSSA",
    "batchSize": 2,
    "batchPrice": {
      "_type": "Big",
      "value": "4.3"
    }
  },
  {
    "ean": "6408720009992",
    "urlSlug": "wigren-naudanlihameetwursti-100-80g-6408720009992",
    "name": "Wigren Naudanlihameetwursti 100% 80g",
    "pictureUrls": [
      {
        "original": "https://public.keskofiles.com/f/k-ruoka/product/6408720009992"
      }
    ],
    "section": "1202",
    "departmentId": "102",
    "contentUnit": "KG",
    "contentSize": 0.08,
    "netWeight": 0.08,
    "available": true,
    "isUtility": false,
    "preprocessedPricing": {
      "products": {},
      "simplePromotions": {},
      "basketPromotions": {}
    },
    "tosPricing": {
      "basketPromotions": []
    },
    "simplePricePlussa": false,
    "pricingUnit": "kpl",
    "referencePrice": {
      "_type": "Big",
      "value": "37.5"
    },
    "visiblePrice": {
      "_type": "Big",
      "value": "3"
    },
    "visiblePriceUnit": "kpl",
    "isDiscounted": false
  },
  {
    "ean": "6409100026714",
    "urlSlug": "kariniemen-kp-min-pihvi-360g-sitr-oliivi-6409100026714",
    "name": "Kariniemen kananpojan minuttipihvi sitruuna-oliiviöljy 360g",
    "pictureUrls": [
      {
        "original": "https://public.keskofiles.com/f/k-ruoka/product/6409100026714"
      }
    ],
    "section": "1053",
    "departmentId": "102",
    "contentUnit": "KG",
    "contentSize": 0.36,
    "netWeight": 0.36,
    "available": true,
    "isUtility": false,
    "preprocessedPricing": {
      "products": {},
      "simplePromotions": {},
      "basketPromotions": {}
    },
    "tosPricing": {
      "basketPromotions": []
    },
    "simplePricePlussa": false,
    "pricingUnit": "kpl",
    "referencePrice": {
      "_type": "Big",
      "value": "15.25"
    },
    "visiblePrice": {
      "_type": "Big",
      "value": "5.49"
    },
    "visiblePriceUnit": "kpl",
    "isDiscounted": false
  },
  {
    "ean": "6407720025070",
    "urlSlug": "kariniemen-kananp-fileesuikale-450g-hun-6407720025070",
    "name": "Kariniemen kananpojan fileesuikale 450g hunajamarinadissa",
    "pictureUrls": [
      {
        "original": "https://public.keskofiles.com/f/k-ruoka/product/6407720025070"
      }
    ],
    "section": "1052",
    "departmentId": "102",
    "contentUnit": "KG",
    "contentSize": 0.45,
    "netWeight": 0.45,
    "available": true,
    "isUtility": false,
    "preprocessedPricing": {
      "products": {},
      "simplePromotions": {},
      "basketPromotions": {}
    },
    "tosPricing": {
      "basketPromotions": []
    },
    "simplePricePlussa": false,
    "pricingUnit": "kpl",
    "referencePrice": {
      "_type": "Big",
      "value": "8.77777777777777777778"
    },
    "visiblePrice": {
      "_type": "Big",
      "value": "3.95"
    },
    "visiblePriceUnit": "kpl",
    "isDiscounted": false
  },
  {
    "ean": "6409290001478",
    "urlSlug": "wursti-extrapalvikalkkuna-300g-viip-6409290001478",
    "name": "Wursti Extrapalvikalkkuna 300g",
    "pictureUrls": [
      {
        "original": "https://public.keskofiles.com/f/k-ruoka/product/6409290001478"
      }
    ],
    "section": "1207",
    "departmentId": "102",
    "contentUnit": "KG",
    "contentSize": 0.3,
    "netWeight": 0.1,
    "available": true,
    "isUtility": false,
    "preprocessedPricing": {
      "products": {},
      "simplePromotions": {},
      "basketPromotions": {}
    },
    "tosPricing": {
      "basketPromotions": []
    },
    "simplePricePlussa": false,
    "pricingUnit": "kpl",
    "referencePrice": {
      "_type": "Big",
      "value": "13.3"
    },
    "visiblePrice": {
      "_type": "Big",
      "value": "3.99"
    },
    "visiblePriceUnit": "kpl",
    "isDiscounted": true
  },
  {
    "ean": "6406970004903",
    "urlSlug": "vataja-ylikypsa-kylki-400g-6406970004903",
    "name": "Vataja ylikypsä kylki 400g",
    "pictureUrls": [
      {
        "original": "https://public.keskofiles.com/f/k-ruoka/product/6406970004903"
      }
    ],
    "section": "1219",
    "departmentId": "102",
    "contentUnit": "KG",
    "contentSize": 0.4,
    "netWeight": 0.4,
    "available": true,
    "isUtility": false,
    "preprocessedPricing": {
      "products": {},
      "simplePromotions": {},
      "basketPromotions": {}
    },
    "tosPricing": {
      "basketPromotions": []
    },
    "simplePricePlussa": false,
    "pricingUnit": "kpl",
    "referencePrice": {
      "_type": "Big",
      "value": "13.725"
    },
    "visiblePrice": {
      "_type": "Big",
      "value": "5.49"
    },
    "visiblePriceUnit": "kpl",
    "isDiscounted": false
  },
  {
    "ean": "6409710002825",
    "urlSlug": "pouttu-kalkkunapekoni-110g-6409710002825",
    "name": "Pouttu kalkkunapekoni 110g",
    "pictureUrls": [
      {
        "original": "https://public.keskofiles.com/f/k-ruoka/product/6409710002825"
      }
    ],
    "section": "1217",
    "departmentId": "102",
    "contentUnit": "KG",
    "contentSize": 0.11,
    "netWeight": 0.11,
    "available": true,
    "isUtility": false,
    "preprocessedPricing": {
      "products": {},
      "simplePromotions": {},
      "basketPromotions": {}
    },
    "tosPricing": {
      "basketPromotions": []
    },
    "simplePricePlussa": false,
    "pricingUnit": "kpl",
    "referencePrice": {
      "_type": "Big",
      "value": "16.81818181818181818182"
    },
    "visiblePrice": {
      "_type": "Big",
      "value": "1.85"
    },
    "visiblePriceUnit": "kpl",
    "isDiscounted": false
  },
  {
    "ean": "6405691550409",
    "urlSlug": "tamminen-naudanjauheliha-300g-luomu-17-6405691550409",
    "name": "Tamminen naudanjauheliha luomu 17% 300g",
    "pictureUrls": [
      {
        "original": "https://public.keskofiles.com/f/k-ruoka/product/6405691550409"
      }
    ],
    "section": "1000",
    "departmentId": "102",
    "contentUnit": "KG",
    "contentSize": 0.3,
    "netWeight": 0.3,
    "available": true,
    "isUtility": false,
    "preprocessedPricing": {
      "products": {},
      "simplePromotions": {},
      "basketPromotions": {}
    },
    "tosPricing": {
      "basketPromotions": []
    },
    "simplePricePlussa": false,
    "pricingUnit": "kpl",
    "referencePrice": {
      "_type": "Big",
      "value": "12.83333333333333333333"
    },
    "visiblePrice": {
      "_type": "Big",
      "value": "3.85"
    },
    "visiblePriceUnit": "kpl",
    "isDiscounted": false
  },
  {
    "ean": "6405053007800",
    "urlSlug": "makuliha-porkkanamaisteri-150g-6405053007800",
    "name": "Makuliha porkkanamaisteri 150g",
    "pictureUrls": [
      {
        "original": "https://public.keskofiles.com/f/k-ruoka/product/6405053007800"
      }
    ],
    "section": "1213",
    "departmentId": "102",
    "contentUnit": "KG",
    "contentSize": 0.15,
    "netWeight": 0.15,
    "available": true,
    "isUtility": false,
    "preprocessedPricing": {
      "products": {},
      "simplePromotions": {},
      "basketPromotions": {}
    },
    "tosPricing": {
      "basketPromotions": []
    },
    "simplePricePlussa": false,
    "pricingUnit": "kpl",
    "referencePrice": {
      "_type": "Big",
      "value": "19.26666666666666666667"
    },
    "visiblePrice": {
      "_type": "Big",
      "value": "2.89"
    },
    "visiblePriceUnit": "kpl",
    "isDiscounted": false
  },
  {
    "ean": "6409100023126",
    "urlSlug": "kariniemen-kp-sisafilee-400g-kook-inkiv-6409100023126",
    "name": "Kariniemen Kananpojan sisäfilee kookos-inkivääri 400g",
    "pictureUrls": [
      {
        "original": "https://public.keskofiles.com/f/k-ruoka/product/6409100023126"
      }
    ],
    "section": "1053",
    "departmentId": "102",
    "contentUnit": "KG",
    "contentSize": 0.4,
    "netWeight": 0.4,
    "available": true,
    "isUtility": false,
    "preprocessedPricing": {
      "products": {},
      "simplePromotions": {},
      "basketPromotions": {}
    },
    "tosPricing": {
      "basketPromotions": []
    },
    "simplePricePlussa": false,
    "pricingUnit": "kpl",
    "referencePrice": {
      "_type": "Big",
      "value": "15.225"
    },
    "visiblePrice": {
      "_type": "Big",
      "value": "6.09"
    },
    "visiblePriceUnit": "kpl",
    "isDiscounted": false
  },
  {
    "ean": "2377285800006",
    "urlSlug": "kariniemen-kananpojan-grilliboxi2xn17kg-2377285800006",
    "name": "Kariniemen kananpojan  grilliboxi, koipi-, reisi- ja siipipaloja marinadissa n. 1,7 kg",
    "pictureUrls": [
      {
        "original": "https://public.keskofiles.com/f/k-ruoka/product/2377285800006"
      }
    ],
    "section": "1051",
    "departmentId": "102",
    "contentUnit": "KG",
    "contentSize": 1,
    "netWeight": 0,
    "available": true,
    "isUtility": false,
    "preprocessedPricing": {
      "products": {},
      "simplePromotions": {},
      "basketPromotions": {}
    },
    "tosPricing": {
      "basketPromotions": []
    },
    "simplePricePlussa": false,
    "pricingUnit": "kg",
    "referencePrice": {
      "_type": "Big",
      "value": "4.49"
    },
    "visiblePrice": {
      "_type": "Big",
      "value": "4.49"
    },
    "visiblePriceUnit": "kg",
    "isDiscounted": false
  },
  {
    "ean": "6409620029004",
    "urlSlug": "snellman-maksapasteija-200g-6409620029004",
    "name": "Snellman Maksapasteija 200 g",
    "pictureUrls": [
      {
        "original": "https://public.keskofiles.com/f/k-ruoka/product/6409620029004"
      }
    ],
    "section": "1204",
    "departmentId": "102",
    "contentUnit": "KG",
    "contentSize": 0.2,
    "netWeight": 0.2,
    "available": true,
    "isUtility": false,
    "preprocessedPricing": {
      "products": {},
      "simplePromotions": {},
      "basketPromotions": {}
    },
    "tosPricing": {
      "basketPromotions": []
    },
    "simplePricePlussa": false,
    "pricingUnit": "kpl",
    "referencePrice": {
      "_type": "Big",
      "value": "9.75"
    },
    "visiblePrice": {
      "_type": "Big",
      "value": "1.95"
    },
    "visiblePriceUnit": "kpl",
    "isDiscounted": false
  },
  {
    "ean": "6409620007804",
    "urlSlug": "snellman-ohuenohut-pippurinen-kinkku150g-6409620007804",
    "name": "Snellman Pippurinen kinkku ohuen ohut 150 g",
    "pictureUrls": [
      {
        "original": "https://public.keskofiles.com/f/k-ruoka/product/6409620007804"
      }
    ],
    "section": "1206",
    "departmentId": "102",
    "contentUnit": "KG",
    "contentSize": 0.15,
    "netWeight": 0.15,
    "available": true,
    "isUtility": false,
    "preprocessedPricing": {
      "products": {},
      "simplePromotions": {},
      "basketPromotions": {}
    },
    "tosPricing": {
      "basketPromotions": []
    },
    "simplePricePlussa": false,
    "pricingUnit": "kpl",
    "referencePrice": {
      "_type": "Big",
      "value": "15.26666666666666666667"
    },
    "visiblePrice": {
      "_type": "Big",
      "value": "2.29"
    },
    "visiblePriceUnit": "kpl",
    "isDiscounted": true
  },
  {
    "ean": "6408080003036",
    "urlSlug": "lapin-liha-kylmasavupaisti-poro-100g-6408080003036",
    "name": "Lapin Liha kylmäsavupaisti poro 100g",
    "pictureUrls": [
      {
        "original": "https://public.keskofiles.com/f/k-ruoka/product/6408080003036"
      }
    ],
    "section": "1208",
    "departmentId": "102",
    "contentUnit": "KG",
    "contentSize": 0.1,
    "netWeight": 0.1,
    "available": true,
    "isUtility": false,
    "preprocessedPricing": {
      "products": {},
      "simplePromotions": {},
      "basketPromotions": {}
    },
    "tosPricing": {
      "basketPromotions": []
    },
    "simplePricePlussa": false,
    "pricingUnit": "kpl",
    "referencePrice": {
      "_type": "Big",
      "value": "82.9"
    },
    "visiblePrice": {
      "_type": "Big",
      "value": "8.29"
    },
    "visiblePriceUnit": "kpl",
    "isDiscounted": false
  },
  {
    "ean": "6409100061999",
    "urlSlug": "hk-ylikypsa-loimukinkku-300g-ohuen-ohut-6409100061999",
    "name": "HK ohuenohut ylikypsä loimukinkku 300g",
    "pictureUrls": [
      {
        "original": "https://public.keskofiles.com/f/k-ruoka/product/6409100061999"
      }
    ],
    "section": "1206",
    "departmentId": "102",
    "contentUnit": "KG",
    "contentSize": 0.3,
    "netWeight": 0.3,
    "available": true,
    "isUtility": false,
    "preprocessedPricing": {
      "products": {},
      "simplePromotions": {},
      "basketPromotions": {}
    },
    "tosPricing": {
      "basketPromotions": []
    },
    "simplePricePlussa": false,
    "pricingUnit": "kpl",
    "referencePrice": {
      "_type": "Big",
      "value": "9.96666666666666666667"
    },
    "visiblePrice": {
      "_type": "Big",
      "value": "2.99"
    },
    "visiblePriceUnit": "kpl",
    "isDiscounted": false
  },
  {
    "ean": "6407870070104",
    "urlSlug": "atria-balkan-200g-6407870070104",
    "name": "Atria balkan 200g",
    "pictureUrls": [
      {
        "original": "https://public.keskofiles.com/f/k-ruoka/product/6407870070104"
      }
    ],
    "section": "1201",
    "departmentId": "102",
    "contentUnit": "KG",
    "contentSize": 0.2,
    "netWeight": 0.2,
    "available": true,
    "isUtility": false,
    "preprocessedPricing": {
      "products": {},
      "simplePromotions": {},
      "basketPromotions": {}
    },
    "tosPricing": {
      "basketPromotions": []
    },
    "simplePricePlussa": false,
    "pricingUnit": "kpl",
    "referencePrice": {
      "_type": "Big",
      "value": "9.45"
    },
    "visiblePrice": {
      "_type": "Big",
      "value": "1.89"
    },
    "visiblePriceUnit": "kpl",
    "isDiscounted": false
  },
  {
    "ean": "6407870070296",
    "urlSlug": "atria-lauantaimakkara-225g-kevyt-6407870070296",
    "name": "Atria lauantaimakkara lätt 9% 225g",
    "pictureUrls": [
      {
        "original": "https://public.keskofiles.com/f/k-ruoka/product/6407870070296"
      }
    ],
    "section": "1200",
    "departmentId": "102",
    "contentUnit": "KG",
    "contentSize": 0.225,
    "netWeight": 0.225,
    "available": true,
    "isUtility": false,
    "preprocessedPricing": {
      "products": {},
      "simplePromotions": {},
      "basketPromotions": {}
    },
    "tosPricing": {
      "basketPromotions": []
    },
    "simplePricePlussa": false,
    "pricingUnit": "kpl",
    "referencePrice": {
      "_type": "Big",
      "value": "3.95555555555555555556"
    },
    "visiblePrice": {
      "_type": "Big",
      "value": "0.89"
    },
    "visiblePriceUnit": "kpl",
    "isDiscounted": false
  },
  {
    "ean": "7311170032061",
    "urlSlug": "abba-pasteija-145g-tonnikala-msc-7311170032061",
    "name": "Abba tonnikalapasteija 145 g MSC",
    "pictureUrls": [
      {
        "original": "https://public.keskofiles.com/f/k-ruoka/product/7311170032061"
      }
    ],
    "section": "1163",
    "departmentId": "102",
    "contentUnit": "KG",
    "contentSize": 0.145,
    "netWeight": 0.145,
    "available": true,
    "isUtility": false,
    "preprocessedPricing": {
      "products": {},
      "simplePromotions": {},
      "basketPromotions": {}
    },
    "tosPricing": {
      "basketPromotions": []
    },
    "simplePricePlussa": false,
    "pricingUnit": "kpl",
    "referencePrice": {
      "_type": "Big",
      "value": "17.86206896551724137931"
    },
    "visiblePrice": {
      "_type": "Big",
      "value": "2.59"
    },
    "visiblePriceUnit": "kpl",
    "isDiscounted": false
  },
  {
    "ean": "6407810011761",
    "urlSlug": "atria-kalkkunan-ohut-fileeleike-480g-nat-6407810011761",
    "name": "Atria kalkkunan fileeleike naturel 480g",
    "pictureUrls": [
      {
        "original": "https://public.keskofiles.com/f/k-ruoka/product/6407810011761"
      }
    ],
    "section": "1063",
    "departmentId": "102",
    "contentUnit": "KG",
    "contentSize": 0.48,
    "netWeight": 0.48,
    "available": true,
    "isUtility": false,
    "preprocessedPricing": {
      "products": {},
      "simplePromotions": {},
      "basketPromotions": {}
    },
    "tosPricing": {
      "basketPromotions": []
    },
    "simplePricePlussa": false,
    "pricingUnit": "kpl",
    "referencePrice": {
      "_type": "Big",
      "value": "17.6875"
    },
    "visiblePrice": {
      "_type": "Big",
      "value": "8.49"
    },
    "visiblePriceUnit": "kpl",
    "isDiscounted": false
  },
  {
    "ean": "6405244029000",
    "urlSlug": "tamminen-ilmakuivattu-salami-100g-6405244029000",
    "name": "Tamminen ilmakuivattu salami 100g",
    "pictureUrls": [
      {
        "original": "https://public.keskofiles.com/f/k-ruoka/product/6405244029000"
      }
    ],
    "section": "1202",
    "departmentId": "102",
    "contentUnit": "KG",
    "contentSize": 0.1,
    "netWeight": 0.1,
    "available": true,
    "isUtility": false,
    "preprocessedPricing": {
      "products": {},
      "simplePromotions": {},
      "basketPromotions": {}
    },
    "tosPricing": {
      "basketPromotions": []
    },
    "simplePricePlussa": false,
    "pricingUnit": "kpl",
    "referencePrice": {
      "_type": "Big",
      "value": "30.9"
    },
    "visiblePrice": {
      "_type": "Big",
      "value": "3.09"
    },
    "visiblePriceUnit": "kpl",
    "isDiscounted": false
  },
  {
    "ean": "6410405132000",
    "urlSlug": "pirkka-maksamakkara-300g-6410405132000",
    "name": "Pirkka maksamakkara 300g",
    "pictureUrls": [
      {
        "original": "https://public.keskofiles.com/f/k-ruoka/product/6410405132000"
      }
    ],
    "section": "1204",
    "departmentId": "102",
    "contentUnit": "KG",
    "contentSize": 0.3,
    "netWeight": 0.3,
    "available": true,
    "isUtility": false,
    "preprocessedPricing": {
      "products": {},
      "simplePromotions": {},
      "basketPromotions": {}
    },
    "tosPricing": {
      "basketPromotions": []
    },
    "simplePricePlussa": false,
    "pricingUnit": "kpl",
    "referencePrice": {
      "_type": "Big",
      "value": "3.96666666666666666667"
    },
    "visiblePrice": {
      "_type": "Big",
      "value": "1.19"
    },
    "visiblePriceUnit": "kpl",
    "isDiscounted": false
  },
  {
    "ean": "6409710000463",
    "urlSlug": "pouttu-gouter-700g-tanko-6409710000463",
    "name": "Pouttu gouter tanko 700g",
    "pictureUrls": [
      {
        "original": "https://public.keskofiles.com/f/k-ruoka/product/6409710000463"
      }
    ],
    "section": "1200",
    "departmentId": "102",
    "contentUnit": "KG",
    "contentSize": 0.7,
    "netWeight": 0.7,
    "available": true,
    "isUtility": false,
    "preprocessedPricing": {
      "products": {},
      "simplePromotions": {},
      "basketPromotions": {}
    },
    "tosPricing": {
      "basketPromotions": []
    },
    "simplePricePlussa": false,
    "pricingUnit": "kpl",
    "referencePrice": {
      "_type": "Big",
      "value": "4.27142857142857142857"
    },
    "visiblePrice": {
      "_type": "Big",
      "value": "2.99"
    },
    "visiblePriceUnit": "kpl",
    "isDiscounted": true
  },
  {
    "ean": "2386446800007",
    "urlSlug": "pirkka-kalkkunan-fileep-2xn600g-ohut-suo-2386446800007",
    "name": "Pirkka suomalainen ohut kalkkunanfileepihvi 6kpl/n.600g",
    "pictureUrls": [
      {
        "original": "https://public.keskofiles.com/f/k-ruoka/product/2386446800007"
      }
    ],
    "section": "1063",
    "departmentId": "102",
    "contentUnit": "KG",
    "contentSize": 1,
    "netWeight": 0,
    "available": true,
    "isUtility": false,
    "preprocessedPricing": {
      "products": {},
      "simplePromotions": {},
      "basketPromotions": {}
    },
    "tosPricing": {
      "basketPromotions": []
    },
    "simplePricePlussa": false,
    "pricingUnit": "kg",
    "referencePrice": {
      "_type": "Big",
      "value": "13.7"
    },
    "visiblePrice": {
      "_type": "Big",
      "value": "13.7"
    },
    "visiblePriceUnit": "kg",
    "isDiscounted": false
  },
  {
    "ean": "7392555502119",
    "urlSlug": "ridderheims-white-angel-olutmakkara-50g-7392555502119",
    "name": "Ridderheims 50g White Angel olutmakkara",
    "pictureUrls": [
      {
        "original": "https://public.keskofiles.com/f/k-ruoka/product/7392555502119"
      }
    ],
    "section": "1202",
    "departmentId": "102",
    "contentUnit": "KG",
    "contentSize": 0.05,
    "netWeight": 0.05,
    "available": true,
    "isUtility": false,
    "preprocessedPricing": {
      "products": {},
      "simplePromotions": {},
      "basketPromotions": {}
    },
    "tosPricing": {
      "basketPromotions": []
    },
    "simplePricePlussa": false,
    "pricingUnit": "kpl",
    "referencePrice": {
      "_type": "Big",
      "value": "39"
    },
    "visiblePrice": {
      "_type": "Big",
      "value": "1.95"
    },
    "visiblePriceUnit": "kpl",
    "isDiscounted": false
  }
]