[
  {
    "ean": "0070177084745",
    "urlSlug": "twinings-tee-25x2g-mustaherukka-0070177084745",
    "name": "Twinings tee 25x2g mustaherukka",
    "pictureUrls": [
      {
        "original": "https://public.keskofiles.com/f/k-ruoka/product/0070177084745"
      }
    ],
    "section": "3445",
    "departmentId": "108",
    "contentUnit": "KG",
    "contentSize": 0.05,
    "netWeight": 0.05,
    "available": true,
    "isUtility": false,
    "preprocessedPricing": {
      "products": {},
      "simplePromotions": {},
      "basketPromotions": {}
    },
    "tosPricing": {
      "basketPromotions": []
    },
    "simplePricePlussa": false,
    "pricingUnit": "kpl",
    "referencePrice": {
      "_type": "Big",
      "value": "89"
    },
    "visiblePrice": {
      "_type": "Big",
      "value": "4.45"
    },
    "visiblePriceUnit": "kpl",
    "isDiscounted": false
  },
  {
    "ean": "0070177084769",
    "urlSlug": "twinings-tee-25x2g-vanilja-0070177084769",
    "name": "Twinings tee 25x2g vanilja",
    "pictureUrls": [
      {
        "original": "https://public.keskofiles.com/f/k-ruoka/product/0070177084769"
      }
    ],
    "section": "3445",
    "departmentId": "108",
    "contentUnit": "KG",
    "contentSize": 0.05,
    "netWeight": 0.05,
    "available": true,
    "isUtility": false,
    "preprocessedPricing": {
      "products": {},
      "simplePromotions": {},
      "basketPromotions": {}
    },
    "tosPricing": {
      "basketPromotions": []
    },
    "simplePricePlussa": false,
    "pricingUnit": "kpl",
    "referencePrice": {
      "_type": "Big",
      "value": "89"
    },
    "visiblePrice": {
      "_type": "Big",
      "value": "4.45"
    },
    "visiblePriceUnit": "kpl",
    "isDiscounted": false
  },
  {
    "ean": "0070177087807",
    "urlSlug": "twinings-tee-200g-lady-grey-0070177087807",
    "name": "Twinings tee 200g lady grey",
    "pictureUrls": [
      {
        "original": "https://public.keskofiles.com/f/k-ruoka/product/0070177087807"
      }
    ],
    "section": "3440",
    "departmentId": "108",
    "contentUnit": "KG",
    "contentSize": 0.2,
    "netWeight": 0.2,
    "available": true,
    "isUtility": false,
    "preprocessedPricing": {
      "products": {},
      "simplePromotions": {},
      "basketPromotions": {}
    },
    "tosPricing": {
      "basketPromotions": []
    },
    "simplePricePlussa": false,
    "pricingUnit": "kpl",
    "referencePrice": {
      "_type": "Big",
      "value": "34.45"
    },
    "visiblePrice": {
      "_type": "Big",
      "value": "6.89"
    },
    "visiblePriceUnit": "kpl",
    "isDiscounted": false
  },
  {
    "ean": "0070177090463",
    "urlSlug": "twinings-tee-200g-english-breakfast-0070177090463",
    "name": "Twinings English Breakfast 200g",
    "pictureUrls": [
      {
        "original": "https://public.keskofiles.com/f/k-ruoka/product/0070177090463"
      }
    ],
    "section": "3440",
    "departmentId": "108",
    "contentUnit": "KG",
    "contentSize": 0.2,
    "netWeight": 0.221,
    "available": true,
    "isUtility": false,
    "preprocessedPricing": {
      "products": {},
      "simplePromotions": {},
      "basketPromotions": {}
    },
    "tosPricing": {
      "basketPromotions": []
    },
    "simplePricePlussa": false,
    "pricingUnit": "kpl",
    "referencePrice": {
      "_type": "Big",
      "value": "33.45"
    },
    "visiblePrice": {
      "_type": "Big",
      "value": "6.69"
    },
    "visiblePriceUnit": "kpl",
    "isDiscounted": false
  },
  {
    "ean": "0070177173296",
    "urlSlug": "twinings-vihrea-tee-25x16g-earl-grey-0070177173296",
    "name": "Twinings vihreä tee 25x1,6g earl grey",
    "pictureUrls": [
      {
        "original": "https://public.keskofiles.com/f/k-ruoka/product/0070177173296"
      }
    ],
    "section": "3453",
    "departmentId": "108",
    "contentUnit": "KG",
    "contentSize": 0.04,
    "netWeight": 0.04,
    "available": true,
    "isUtility": false,
    "preprocessedPricing": {
      "products": {},
      "simplePromotions": {},
      "basketPromotions": {}
    },
    "tosPricing": {
      "basketPromotions": []
    },
    "simplePricePlussa": false,
    "pricingUnit": "kpl",
    "referencePrice": {
      "_type": "Big",
      "value": "112.25"
    },
    "visiblePrice": {
      "_type": "Big",
      "value": "4.49"
    },
    "visiblePriceUnit": "kpl",
    "isDiscounted": false
  },
  {
    "ean": "0070177173302",
    "urlSlug": "twinings-vihrea-tee-25x16g-sitruuna-0070177173302",
    "name": "Twinings vihreä tee 25x1,6g sitruuna",
    "pictureUrls": [
      {
        "original": "https://public.keskofiles.com/f/k-ruoka/product/0070177173302"
      }
    ],
    "section": "3453",
    "departmentId": "108",
    "contentUnit": "KG",
    "contentSize": 0.04,
    "netWeight": 0.04,
    "available": true,
    "isUtility": false,
    "preprocessedPricing": {
      "products": {},
      "simplePromotions": {},
      "basketPromotions": {}
    },
    "tosPricing": {
      "basketPromotions": []
    },
    "simplePricePlussa": false,
    "pricingUnit": "kpl",
    "referencePrice": {
      "_type": "Big",
      "value": "112.25"
    },
    "visiblePrice": {
      "_type": "Big",
      "value": "4.49"
    },
    "visiblePriceUnit": "kpl",
    "isDiscounted": false
  },
  {
    "ean": "0070177173357",
    "urlSlug": "twinings-vihrea-tee-25x18g-chai-0070177173357",
    "name": "Twinings vihreä tee 25x1,8g chai",
    "pictureUrls": [
      {
        "original": "https://public.keskofiles.com/f/k-ruoka/product/0070177173357"
      }
    ],
    "section": "3453",
    "departmentId": "108",
    "contentUnit": "KG",
    "contentSize": 0.045,
    "netWeight": 0.045,
    "available": true,
    "isUtility": false,
    "preprocessedPricing": {
      "products": {},
      "simplePromotions": {},
      "basketPromotions": {}
    },
    "tosPricing": {
      "basketPromotions": []
    },
    "simplePricePlussa": false,
    "pricingUnit": "kpl",
    "referencePrice": {
      "_type": "Big",
      "value": "99.77777777777777777778"
    },
    "visiblePrice": {
      "_type": "Big",
      "value": "4.49"
    },
    "visiblePriceUnit": "kpl",
    "isDiscounted": false
  },
  {
    "ean": "0070177175221",
    "urlSlug": "twinings-vihrea-tee-25x16g-inkivaari-0070177175221",
    "name": "Twinings vihreä tee 25x1,6g inkivääri",
    "pictureUrls": [
      {
        "original": "https://public.keskofiles.com/f/k-ruoka/product/0070177175221"
      }
    ],
    "section": "3453",
    "departmentId": "108",
    "contentUnit": "KG",
    "contentSize": 0.04,
    "netWeight": 0.04,
    "available": true,
    "isUtility": false,
    "preprocessedPricing": {
      "products": {},
      "simplePromotions": {},
      "basketPromotions": {}
    },
    "tosPricing": {
      "basketPromotions": []
    },
    "simplePricePlussa": false,
    "pricingUnit": "kpl",
    "referencePrice": {
      "_type": "Big",
      "value": "112.25"
    },
    "visiblePrice": {
      "_type": "Big",
      "value": "4.49"
    },
    "visiblePriceUnit": "kpl",
    "isDiscounted": false
  },
  {
    "ean": "0070177177737",
    "urlSlug": "twinings-20x1g-pure-camomile-tee-0070177177737",
    "name": "Twinings 20x1g pure camomile tee",
    "pictureUrls": [
      {
        "original": "https://public.keskofiles.com/f/k-ruoka/product/0070177177737"
      }
    ],
    "section": "3463",
    "departmentId": "108",
    "contentUnit": "KG",
    "contentSize": 0.02,
    "netWeight": 0.02,
    "available": true,
    "isUtility": false,
    "preprocessedPricing": {
      "products": {},
      "simplePromotions": {},
      "basketPromotions": {}
    },
    "tosPricing": {
      "basketPromotions": []
    },
    "simplePricePlussa": false,
    "pricingUnit": "kpl",
    "referencePrice": {
      "_type": "Big",
      "value": "247.5"
    },
    "visiblePrice": {
      "_type": "Big",
      "value": "4.95"
    },
    "visiblePriceUnit": "kpl",
    "isDiscounted": false
  },
  {
    "ean": "4001744061353",
    "urlSlug": "light-live-rose-alkhton-kuohv-075l-klp-4001744061353",
    "name": "Light Live 0,75l Rosé alkoholiton kuohuviini",
    "pictureUrls": [
      {
        "original": "https://public.keskofiles.com/f/k-ruoka/product/4001744061353"
      }
    ],
    "section": "5177",
    "departmentId": "108",
    "contentUnit": "L",
    "contentSize": 0.75,
    "netWeight": 1.36,
    "available": true,
    "isUtility": false,
    "preprocessedPricing": {
      "products": {},
      "simplePromotions": {},
      "basketPromotions": {}
    },
    "tosPricing": {
      "basketPromotions": []
    },
    "simplePricePlussa": false,
    "pricingUnit": "kpl",
    "referencePrice": {
      "_type": "Big",
      "value": "10"
    },
    "visiblePrice": {
      "_type": "Big",
      "value": "7.6"
    },
    "visiblePriceUnit": "kpl",
    "isDiscounted": false
  },
  {
    "ean": "4003310013988",
    "urlSlug": "henkell-kuohuviini-00-075l-klp-4003310013988",
    "name": "Henkell kuohuviini 0,0% 0,75l klp",
    "pictureUrls": [
      {
        "original": "https://public.keskofiles.com/f/k-ruoka/product/4003310013988"
      }
    ],
    "section": "5177",
    "departmentId": "108",
    "contentUnit": "L",
    "contentSize": 0.75,
    "netWeight": 0.565,
    "available": true,
    "isUtility": false,
    "preprocessedPricing": {
      "products": {},
      "simplePromotions": {},
      "basketPromotions": {}
    },
    "tosPricing": {
      "basketPromotions": []
    },
    "simplePricePlussa": false,
    "pricingUnit": "kpl",
    "referencePrice": {
      "_type": "Big",
      "value": "9.05333333333333333333"
    },
    "visiblePrice": {
      "_type": "Big",
      "value": "6.89"
    },
    "visiblePriceUnit": "kpl",
    "isDiscounted": false
  },
  {
    "ean": "4009427021779",
    "urlSlug": "carl-jung-chardonnay-075l-alkoholiton-4009427021779",
    "name": "Carl Jung Chardonnay 0,75l alkoholiton",
    "pictureUrls": [
      {
        "original": "https://public.keskofiles.com/f/k-ruoka/product/4009427021779"
      }
    ],
    "section": "5177",
    "departmentId": "108",
    "contentUnit": "L",
    "contentSize": 0.75,
    "netWeight": 0.75,
    "available": true,
    "isUtility": false,
    "preprocessedPricing": {
      "products": {},
      "simplePromotions": {},
      "basketPromotions": {}
    },
    "tosPricing": {
      "basketPromotions": []
    },
    "simplePricePlussa": false,
    "pricingUnit": "kpl",
    "referencePrice": {
      "_type": "Big",
      "value": "6.78666666666666666667"
    },
    "visiblePrice": {
      "_type": "Big",
      "value": "5.09"
    },
    "visiblePriceUnit": "kpl",
    "isDiscounted": false
  },
  {
    "ean": "0000040534695",
    "urlSlug": "clausthaler-olut-05-033l-klp-0000040534695",
    "name": "Clausthaler olut 0,5% 0,33l klp",
    "pictureUrls": [
      {
        "original": "https://public.keskofiles.com/f/k-ruoka/product/0000040534695"
      }
    ],
    "section": "5253",
    "departmentId": "108",
    "contentUnit": "L",
    "contentSize": 0.33,
    "netWeight": 0.33,
    "available": true,
    "isUtility": false,
    "preprocessedPricing": {
      "products": {},
      "simplePromotions": {},
      "basketPromotions": {}
    },
    "tosPricing": {
      "basketPromotions": []
    },
    "simplePricePlussa": false,
    "pricingUnit": "kpl",
    "referencePrice": {
      "_type": "Big",
      "value": "5.72727272727272727273"
    },
    "visiblePrice": {
      "_type": "Big",
      "value": "1.99"
    },
    "visiblePriceUnit": "kpl",
    "isDiscounted": false
  },
  {
    "ean": "6413605017665",
    "urlSlug": "hartwall-jaffa-033l-tlk-6-pack-6413605017665",
    "name": "Hartwall Jaffa appelsiini 0,33l tlk 6-pack",
    "pictureUrls": [
      {
        "original": "https://public.keskofiles.com/f/k-ruoka/product/6413605017665"
      }
    ],
    "section": "5016",
    "departmentId": "108",
    "contentUnit": "L",
    "contentSize": 1.98,
    "netWeight": 2.04,
    "available": true,
    "isUtility": false,
    "preprocessedPricing": {
      "products": {},
      "simplePromotions": {},
      "basketPromotions": {}
    },
    "tosPricing": {
      "basketPromotions": []
    },
    "simplePricePlussa": false,
    "pricingUnit": "kpl",
    "referencePrice": {
      "_type": "Big",
      "value": "2.06565656565656565657"
    },
    "visiblePrice": {
      "_type": "Big",
      "value": "4.99"
    },
    "visiblePriceUnit": "kpl",
    "isDiscounted": false
  },
  {
    "ean": "6415130028505",
    "urlSlug": "marli-juissi-1l-sokeriton-paarynamehuj-6415130028505",
    "name": "Marli Juissi 1l sokeriton päärynämehujuoma",
    "pictureUrls": [
      {
        "original": "https://public.keskofiles.com/f/k-ruoka/product/6415130028505"
      }
    ],
    "section": "3345",
    "departmentId": "108",
    "contentUnit": "L",
    "contentSize": 1,
    "netWeight": 1.003,
    "available": true,
    "isUtility": false,
    "preprocessedPricing": {
      "products": {},
      "simplePromotions": {},
      "basketPromotions": {}
    },
    "tosPricing": {
      "basketPromotions": []
    },
    "simplePricePlussa": false,
    "pricingUnit": "kpl",
    "referencePrice": {
      "_type": "Big",
      "value": "0.99"
    },
    "visiblePrice": {
      "_type": "Big",
      "value": "0.99"
    },
    "visiblePriceUnit": "kpl",
    "isDiscounted": false
  },
  {
    "ean": "6416453062320",
    "urlSlug": "fazer-kaakaojauhe-200g-6416453062320",
    "name": "Fazer kaakaojauhe 200g",
    "pictureUrls": [
      {
        "original": "https://public.keskofiles.com/f/k-ruoka/product/6416453062320"
      }
    ],
    "section": "3484",
    "departmentId": "108",
    "contentUnit": "KG",
    "contentSize": 0.2,
    "netWeight": 0.2,
    "available": true,
    "isUtility": false,
    "preprocessedPricing": {
      "products": {},
      "simplePromotions": {},
      "basketPromotions": {}
    },
    "tosPricing": {
      "basketPromotions": []
    },
    "simplePricePlussa": false,
    "pricingUnit": "kpl",
    "referencePrice": {
      "_type": "Big",
      "value": "12.45"
    },
    "visiblePrice": {
      "_type": "Big",
      "value": "2.49"
    },
    "visiblePriceUnit": "kpl",
    "isDiscounted": false
  },
  {
    "ean": "6410405112156",
    "urlSlug": "pirkka-kivennaisvesi-mustikka-15l-kmp-6410405112156",
    "name": "Pirkka mustikanmakuinen kivennäisvesi 1,5l",
    "pictureUrls": [
      {
        "original": "https://public.keskofiles.com/f/k-ruoka/product/6410405112156"
      }
    ],
    "section": "5026",
    "departmentId": "108",
    "contentUnit": "L",
    "contentSize": 1.5,
    "netWeight": 1.5,
    "available": true,
    "isUtility": false,
    "preprocessedPricing": {
      "products": {},
      "simplePromotions": {},
      "basketPromotions": {}
    },
    "tosPricing": {
      "basketPromotions": []
    },
    "simplePricePlussa": false,
    "pricingUnit": "kpl",
    "referencePrice": {
      "_type": "Big",
      "value": "0.46"
    },
    "visiblePrice": {
      "_type": "Big",
      "value": "1.09"
    },
    "visiblePriceUnit": "kpl",
    "isDiscounted": false,
    "discountType": "PLUSSA",
    "batchSize": 4,
    "batchPrice": {
      "_type": "Big",
      "value": "4"
    }
  },
  {
    "ean": "6415130036333",
    "urlSlug": "trip-juoma-2dl-vadelma-3-pack-6415130036333",
    "name": "Trip juoma 2dl vadelma 3-pack",
    "pictureUrls": [
      {
        "original": "https://public.keskofiles.com/f/k-ruoka/product/6415130036333"
      }
    ],
    "section": "3301",
    "departmentId": "108",
    "contentUnit": "L",
    "contentSize": 0.6,
    "netWeight": 0.627,
    "available": true,
    "isUtility": false,
    "preprocessedPricing": {
      "products": {},
      "simplePromotions": {},
      "basketPromotions": {}
    },
    "tosPricing": {
      "basketPromotions": []
    },
    "simplePricePlussa": false,
    "pricingUnit": "kpl",
    "referencePrice": {
      "_type": "Big",
      "value": "2.08333333333333333333"
    },
    "visiblePrice": {
      "_type": "Big",
      "value": "1.25"
    },
    "visiblePriceUnit": "kpl",
    "isDiscounted": false
  },
  {
    "ean": "6430030797757",
    "urlSlug": "arizona-500ml-mustikkatee-juoma-kmp-6430030797757",
    "name": "AriZona 500ml mustikka tee",
    "pictureUrls": [
      {
        "original": "https://public.keskofiles.com/f/k-ruoka/product/6430030797757"
      }
    ],
    "section": "3343",
    "departmentId": "108",
    "contentUnit": "L",
    "contentSize": 0.5,
    "netWeight": 0.5,
    "available": true,
    "isUtility": false,
    "preprocessedPricing": {
      "products": {},
      "simplePromotions": {},
      "basketPromotions": {}
    },
    "tosPricing": {
      "basketPromotions": []
    },
    "simplePricePlussa": false,
    "pricingUnit": "kpl",
    "referencePrice": {
      "_type": "Big",
      "value": "3.7"
    },
    "visiblePrice": {
      "_type": "Big",
      "value": "2.05"
    },
    "visiblePriceUnit": "kpl",
    "isDiscounted": false
  },
  {
    "ean": "6430042708994",
    "urlSlug": "sonatural-raakamehu-ome-inkiv-250ml-6430042708994",
    "name": "Sonatural raakamehu inkivääri-omena 250ml",
    "pictureUrls": [
      {
        "original": "https://public.keskofiles.com/f/k-ruoka/product/6430042708994"
      }
    ],
    "section": "1910",
    "departmentId": "108",
    "contentUnit": "L",
    "contentSize": 0.25,
    "netWeight": 0.275,
    "available": true,
    "isUtility": false,
    "preprocessedPricing": {
      "products": {},
      "simplePromotions": {},
      "basketPromotions": {}
    },
    "tosPricing": {
      "basketPromotions": []
    },
    "simplePricePlussa": false,
    "pricingUnit": "kpl",
    "referencePrice": {
      "_type": "Big",
      "value": "14.36"
    },
    "visiblePrice": {
      "_type": "Big",
      "value": "3.59"
    },
    "visiblePriceUnit": "kpl",
    "isDiscounted": false
  },
  {
    "ean": "7391603500206",
    "urlSlug": "brunneby-paarynamehu-05l-7391603500206",
    "name": "Brunneby päärynämehu vahva tiiviste 0,5l",
    "pictureUrls": [
      {
        "original": "https://public.keskofiles.com/f/k-ruoka/product/7391603500206"
      }
    ],
    "section": "3359",
    "departmentId": "108",
    "contentUnit": "L",
    "contentSize": 0.5,
    "netWeight": 0.61,
    "available": true,
    "isUtility": false,
    "preprocessedPricing": {
      "products": {},
      "simplePromotions": {},
      "basketPromotions": {}
    },
    "tosPricing": {
      "basketPromotions": []
    },
    "simplePricePlussa": false,
    "pricingUnit": "kpl",
    "referencePrice": {
      "_type": "Big",
      "value": "11.58"
    },
    "visiblePrice": {
      "_type": "Big",
      "value": "5.79"
    },
    "visiblePriceUnit": "kpl",
    "isDiscounted": false
  },
  {
    "ean": "7310860007679",
    "urlSlug": "tropicana-pp-1-l-original-orange-7310860007679",
    "name": "Tropicana Pure Premium® 1 l Original",
    "pictureUrls": [
      {
        "original": "https://public.keskofiles.com/f/k-ruoka/product/7310860007679"
      }
    ],
    "section": "1915",
    "departmentId": "108",
    "contentUnit": "L",
    "contentSize": 1,
    "netWeight": 1,
    "available": true,
    "isUtility": false,
    "preprocessedPricing": {
      "products": {},
      "simplePromotions": {},
      "basketPromotions": {}
    },
    "tosPricing": {
      "basketPromotions": []
    },
    "simplePricePlussa": false,
    "pricingUnit": "kpl",
    "referencePrice": {
      "_type": "Big",
      "value": "3.95"
    },
    "visiblePrice": {
      "_type": "Big",
      "value": "3.95"
    },
    "visiblePriceUnit": "kpl",
    "isDiscounted": false
  },
  {
    "ean": "6410405215536",
    "urlSlug": "pirkka-parhaat-eloisa-vihrea-tee-20p-utz-6410405215536",
    "name": "Pirkka Parhaat Eloisa vihreä tee tyrni & sitruunaruoho 20ps UTZ",
    "pictureUrls": [
      {
        "original": "https://public.keskofiles.com/f/k-ruoka/product/6410405215536"
      }
    ],
    "section": "3453",
    "departmentId": "108",
    "contentUnit": "KG",
    "contentSize": 0.035,
    "netWeight": 0.035,
    "available": true,
    "isUtility": false,
    "preprocessedPricing": {
      "products": {},
      "simplePromotions": {},
      "basketPromotions": {}
    },
    "tosPricing": {
      "basketPromotions": []
    },
    "simplePricePlussa": false,
    "pricingUnit": "kpl",
    "referencePrice": {
      "_type": "Big",
      "value": "99.71428571428571428571"
    },
    "visiblePrice": {
      "_type": "Big",
      "value": "3.49"
    },
    "visiblePriceUnit": "kpl",
    "isDiscounted": false
  },
  {
    "ean": "6410405190819",
    "urlSlug": "pirkka-aurinkohedelma-sinkkie-15l-kmp-6410405190819",
    "name": "Pirkka Aurinkohedelmä Sinkki+E 1,5l",
    "pictureUrls": [
      {
        "original": "https://public.keskofiles.com/f/k-ruoka/product/6410405190819"
      }
    ],
    "section": "5026",
    "departmentId": "108",
    "contentUnit": "L",
    "contentSize": 1.5,
    "netWeight": 1.5,
    "available": true,
    "isUtility": false,
    "preprocessedPricing": {
      "products": {},
      "simplePromotions": {},
      "basketPromotions": {}
    },
    "tosPricing": {
      "basketPromotions": []
    },
    "simplePricePlussa": false,
    "pricingUnit": "kpl",
    "referencePrice": {
      "_type": "Big",
      "value": "0.79333333333333333333"
    },
    "visiblePrice": {
      "_type": "Big",
      "value": "1.59"
    },
    "visiblePriceUnit": "kpl",
    "isDiscounted": false
  },
  {
    "ean": "6426000004956",
    "urlSlug": "nomnom-hedelmahuikka-pers-mang-025l-tlk-6426000004956",
    "name": "Nomnom Hedelmähuikka persikka-mango 0,25l",
    "pictureUrls": [
      {
        "original": "https://public.keskofiles.com/f/k-ruoka/product/6426000004956"
      }
    ],
    "section": "5024",
    "departmentId": "108",
    "contentUnit": "L",
    "contentSize": 0.25,
    "netWeight": 0.25,
    "available": true,
    "isUtility": false,
    "preprocessedPricing": {
      "products": {},
      "simplePromotions": {},
      "basketPromotions": {}
    },
    "tosPricing": {
      "basketPromotions": []
    },
    "simplePricePlussa": false,
    "pricingUnit": "kpl",
    "referencePrice": {
      "_type": "Big",
      "value": "6"
    },
    "visiblePrice": {
      "_type": "Big",
      "value": "1.65"
    },
    "visiblePriceUnit": "kpl",
    "isDiscounted": false
  },
  {
    "ean": "6419800052999",
    "urlSlug": "olvi-vichy-sitruuna-lime--mg-05l-kmp-6419800052999",
    "name": "Olvi Vichy sitruuna-lime + Mg 0,5l",
    "pictureUrls": [
      {
        "original": "https://public.keskofiles.com/f/k-ruoka/product/6419800052999"
      }
    ],
    "section": "5024",
    "departmentId": "108",
    "contentUnit": "L",
    "contentSize": 0.5,
    "netWeight": 0.501,
    "available": true,
    "isUtility": false,
    "preprocessedPricing": {
      "products": {},
      "simplePromotions": {},
      "basketPromotions": {}
    },
    "tosPricing": {
      "basketPromotions": []
    },
    "simplePricePlussa": false,
    "pricingUnit": "kpl",
    "referencePrice": {
      "_type": "Big",
      "value": "2.98"
    },
    "visiblePrice": {
      "_type": "Big",
      "value": "1.69"
    },
    "visiblePriceUnit": "kpl",
    "isDiscounted": true
  },
  {
    "ean": "6420610111882",
    "urlSlug": "bonne--4-hedelmataysmehu-premium-1l-6420610111882",
    "name": "Bonne Monihedelmä 100 % täysmehu premium 1 l",
    "pictureUrls": [
      {
        "original": "https://public.keskofiles.com/f/k-ruoka/product/6420610111882"
      }
    ],
    "section": "3339",
    "departmentId": "108",
    "contentUnit": "L",
    "contentSize": 1,
    "netWeight": 1.03,
    "available": true,
    "isUtility": false,
    "preprocessedPricing": {
      "products": {},
      "simplePromotions": {},
      "basketPromotions": {}
    },
    "tosPricing": {
      "basketPromotions": []
    },
    "simplePricePlussa": false,
    "pricingUnit": "kpl",
    "referencePrice": {
      "_type": "Big",
      "value": "1.99"
    },
    "visiblePrice": {
      "_type": "Big",
      "value": "1.99"
    },
    "visiblePriceUnit": "kpl",
    "isDiscounted": false
  },
  {
    "ean": "6415130068945",
    "urlSlug": "marli-juissi-xoxo-vesimelonimehujuoma-1l-6415130068945",
    "name": "Marli juissi xoxo vesimelonimehujuoma1l",
    "pictureUrls": [
      {
        "original": "https://public.keskofiles.com/f/k-ruoka/product/6415130068945"
      }
    ],
    "section": "3349",
    "departmentId": "108",
    "contentUnit": "L",
    "contentSize": 1,
    "netWeight": 1.027,
    "available": true,
    "isUtility": false,
    "preprocessedPricing": {
      "products": {},
      "simplePromotions": {},
      "basketPromotions": {}
    },
    "tosPricing": {
      "basketPromotions": []
    },
    "simplePricePlussa": false,
    "pricingUnit": "kpl",
    "referencePrice": {
      "_type": "Big",
      "value": "0.99"
    },
    "visiblePrice": {
      "_type": "Big",
      "value": "0.99"
    },
    "visiblePriceUnit": "kpl",
    "isDiscounted": false
  },
  {
    "ean": "6415131402366",
    "urlSlug": "trip-juoma-2dl-hedelma-6415131402366",
    "name": "Mehukatti Trip 2 dl Hedelmäjuoma",
    "pictureUrls": [
      {
        "original": "https://public.keskofiles.com/f/k-ruoka/product/6415131402366"
      }
    ],
    "section": "3301",
    "departmentId": "108",
    "contentUnit": "L",
    "contentSize": 0.2,
    "netWeight": 0.209,
    "available": true,
    "isUtility": false,
    "preprocessedPricing": {
      "products": {},
      "simplePromotions": {},
      "basketPromotions": {}
    },
    "tosPricing": {
      "basketPromotions": []
    },
    "simplePricePlussa": false,
    "pricingUnit": "kpl",
    "referencePrice": {
      "_type": "Big",
      "value": "2.05"
    },
    "visiblePrice": {
      "_type": "Big",
      "value": "0.41"
    },
    "visiblePriceUnit": "kpl",
    "isDiscounted": false
  },
  {
    "ean": "6430032801643",
    "urlSlug": "raikastamo-vaalea-luomuglogi-1l-6430032801643",
    "name": "Raikastamo vaalea luomuglögi 1l",
    "pictureUrls": [],
    "section": "5090",
    "departmentId": "108",
    "contentUnit": "L",
    "contentSize": 1,
    "netWeight": 1.05,
    "available": true,
    "isUtility": false,
    "preprocessedPricing": {
      "products": {},
      "simplePromotions": {},
      "basketPromotions": {}
    },
    "tosPricing": {
      "basketPromotions": []
    },
    "simplePricePlussa": false,
    "pricingUnit": "kpl",
    "referencePrice": {
      "_type": "Big",
      "value": "3.19"
    },
    "visiblePrice": {
      "_type": "Big",
      "value": "3.19"
    },
    "visiblePriceUnit": "kpl",
    "isDiscounted": false
  }
]