[
  {
    "ean": "0000080052043",
    "urlSlug": "tic-tac-minttupastilli-18g-0000080052043",
    "name": "Tic Tac 18g Minttupastilli",
    "pictureUrls": [
      {
        "original": "https://public.keskofiles.com/f/k-ruoka/product/0000080052043"
      }
    ],
    "section": "4243",
    "departmentId": "109",
    "contentUnit": "KG",
    "contentSize": 0.018,
    "netWeight": 0.018,
    "available": true,
    "isUtility": false,
    "preprocessedPricing": {
      "products": {},
      "simplePromotions": {},
      "basketPromotions": {}
    },
    "tosPricing": {
      "basketPromotions": []
    },
    "simplePricePlussa": false,
    "pricingUnit": "kpl",
    "referencePrice": {
      "_type": "Big",
      "value": "52.77777777777777777778"
    },
    "visiblePrice": {
      "_type": "Big",
      "value": "0.95"
    },
    "visiblePriceUnit": "kpl",
    "isDiscounted": false
  },
  {
    "ean": "0000084196675",
    "urlSlug": "chupa-chups-tikkari-12g-hedelma-0000084196675",
    "name": "Chupa Chups Fruit tikkari 12g",
    "pictureUrls": [
      {
        "original": "https://public.keskofiles.com/f/k-ruoka/product/0000084196675"
      }
    ],
    "section": "4290",
    "departmentId": "109",
    "contentUnit": "KG",
    "contentSize": 0.012,
    "netWeight": 0.012,
    "available": true,
    "isUtility": false,
    "preprocessedPricing": {
      "products": {},
      "simplePromotions": {},
      "basketPromotions": {}
    },
    "tosPricing": {
      "basketPromotions": []
    },
    "simplePricePlussa": false,
    "pricingUnit": "kpl",
    "referencePrice": {
      "_type": "Big",
      "value": "23.33333333333333333333"
    },
    "visiblePrice": {
      "_type": "Big",
      "value": "0.28"
    },
    "visiblePriceUnit": "kpl",
    "isDiscounted": false
  },
  {
    "ean": "0000084198570",
    "urlSlug": "chupa-chups-tikkari-12g-fruit-unive-0000084198570",
    "name": "Chupa Chups tikkari 12g fruit Unive",
    "pictureUrls": [
      {
        "original": "https://public.keskofiles.com/f/k-ruoka/product/0000084198570"
      }
    ],
    "section": "4290",
    "departmentId": "109",
    "contentUnit": "KG",
    "contentSize": 0.012,
    "netWeight": 0.012,
    "available": true,
    "isUtility": false,
    "preprocessedPricing": {
      "products": {},
      "simplePromotions": {},
      "basketPromotions": {}
    },
    "tosPricing": {
      "basketPromotions": []
    },
    "simplePricePlussa": false,
    "pricingUnit": "kpl",
    "referencePrice": {
      "_type": "Big",
      "value": "23.33333333333333333333"
    },
    "visiblePrice": {
      "_type": "Big",
      "value": "0.28"
    },
    "visiblePriceUnit": "kpl",
    "isDiscounted": false
  },
  {
    "ean": "0000087108262",
    "urlSlug": "mentos-pastilli-rulla-38g-hedelma-0000087108262",
    "name": "Mentos Fruit 38g",
    "pictureUrls": [
      {
        "original": "https://public.keskofiles.com/f/k-ruoka/product/0000087108262"
      }
    ],
    "section": "4295",
    "departmentId": "109",
    "contentUnit": "KG",
    "contentSize": 0.038,
    "netWeight": 0.038,
    "available": true,
    "isUtility": false,
    "preprocessedPricing": {
      "products": {},
      "simplePromotions": {},
      "basketPromotions": {}
    },
    "tosPricing": {
      "basketPromotions": []
    },
    "simplePricePlussa": false,
    "pricingUnit": "kpl",
    "referencePrice": {
      "_type": "Big",
      "value": "17.10526315789473684211"
    },
    "visiblePrice": {
      "_type": "Big",
      "value": "0.65"
    },
    "visiblePriceUnit": "kpl",
    "isDiscounted": false
  },
  {
    "ean": "0000087317688",
    "urlSlug": "mentos-pastillirulla-38g-shakies-0000087317688",
    "name": "Mentos pastillirulla 38g shakies",
    "pictureUrls": [
      {
        "original": "https://public.keskofiles.com/f/k-ruoka/product/0000087317688"
      }
    ],
    "section": "4295",
    "departmentId": "109",
    "contentUnit": "KG",
    "contentSize": 0.038,
    "netWeight": 0.038,
    "available": true,
    "isUtility": false,
    "preprocessedPricing": {
      "products": {},
      "simplePromotions": {},
      "basketPromotions": {}
    },
    "tosPricing": {
      "basketPromotions": []
    },
    "simplePricePlussa": false,
    "pricingUnit": "kpl",
    "referencePrice": {
      "_type": "Big",
      "value": "17.10526315789473684211"
    },
    "visiblePrice": {
      "_type": "Big",
      "value": "0.65"
    },
    "visiblePriceUnit": "kpl",
    "isDiscounted": false
  },
  {
    "ean": "6420256014134",
    "urlSlug": "tupla-maxi-suklaapatukka-50g-utz-6420256014134",
    "name": "Tupla Maxi suklaapatukka 50g UTZ",
    "pictureUrls": [
      {
        "original": "https://public.keskofiles.com/f/k-ruoka/product/6420256014134"
      }
    ],
    "section": "4220",
    "departmentId": "109",
    "contentUnit": "KG",
    "contentSize": 0.05,
    "netWeight": 0.05,
    "available": true,
    "isUtility": false,
    "preprocessedPricing": {
      "products": {},
      "simplePromotions": {},
      "basketPromotions": {}
    },
    "tosPricing": {
      "basketPromotions": []
    },
    "simplePricePlussa": false,
    "pricingUnit": "kpl",
    "referencePrice": {
      "_type": "Big",
      "value": "12.4"
    },
    "visiblePrice": {
      "_type": "Big",
      "value": "0.62"
    },
    "visiblePriceUnit": "kpl",
    "isDiscounted": true,
    "discountType": "PLUSSA",
    "plussaDiscountPercentage": {
      "_type": "Big",
      "value": "-11.29032258064516129"
    },
    "batchSize": 4,
    "batchPrice": {
      "_type": "Big",
      "value": "2.2"
    }
  },
  {
    "ean": "6430013251481",
    "urlSlug": "real-snacks-junior-90g-luomu-mansikka-6430013251481",
    "name": "Real Snacks Junior 90g luomu mansikka",
    "pictureUrls": [
      {
        "original": "https://public.keskofiles.com/f/k-ruoka/product/6430013251481"
      }
    ],
    "section": "4320",
    "departmentId": "109",
    "contentUnit": "KG",
    "contentSize": 0.09,
    "netWeight": 0.09,
    "available": true,
    "isUtility": false,
    "preprocessedPricing": {
      "products": {},
      "simplePromotions": {},
      "basketPromotions": {}
    },
    "tosPricing": {
      "basketPromotions": []
    },
    "simplePricePlussa": false,
    "pricingUnit": "kpl",
    "referencePrice": {
      "_type": "Big",
      "value": "19.44444444444444444444"
    },
    "visiblePrice": {
      "_type": "Big",
      "value": "1.75"
    },
    "visiblePriceUnit": "kpl",
    "isDiscounted": false
  },
  {
    "ean": "7622210926593",
    "urlSlug": "marabou-premium-90g-eko-milk-7622210926593",
    "name": "Marabou Premium 90g EKO Milk",
    "pictureUrls": [
      {
        "original": "https://public.keskofiles.com/f/k-ruoka/product/7622210926593"
      }
    ],
    "section": "4213",
    "departmentId": "109",
    "contentUnit": "KG",
    "contentSize": 0.09,
    "netWeight": 0.09,
    "available": true,
    "isUtility": false,
    "preprocessedPricing": {
      "products": {},
      "simplePromotions": {},
      "basketPromotions": {}
    },
    "tosPricing": {
      "basketPromotions": []
    },
    "simplePricePlussa": false,
    "pricingUnit": "kpl",
    "referencePrice": {
      "_type": "Big",
      "value": "20.55555555555555555556"
    },
    "visiblePrice": {
      "_type": "Big",
      "value": "1.85"
    },
    "visiblePriceUnit": "kpl",
    "isDiscounted": false
  },
  {
    "ean": "6418257901805",
    "urlSlug": "weekend-snacks-crisp-mix-180g-6418257901805",
    "name": "Crisp Mix 180g Kermaviilin- ja juustonmakuinen perunasnacks-sekoitus",
    "pictureUrls": [
      {
        "original": "https://public.keskofiles.com/f/k-ruoka/product/6418257901805"
      }
    ],
    "section": "4320",
    "departmentId": "109",
    "contentUnit": "KG",
    "contentSize": 0.18,
    "netWeight": 0.18,
    "available": true,
    "isUtility": false,
    "preprocessedPricing": {
      "products": {},
      "simplePromotions": {},
      "basketPromotions": {}
    },
    "tosPricing": {
      "basketPromotions": []
    },
    "simplePricePlussa": false,
    "pricingUnit": "kpl",
    "referencePrice": {
      "_type": "Big",
      "value": "14.16666666666666666667"
    },
    "visiblePrice": {
      "_type": "Big",
      "value": "2.55"
    },
    "visiblePriceUnit": "kpl",
    "isDiscounted": false
  },
  {
    "ean": "5701073065082",
    "urlSlug": "dr-oetker-mantelirouhe-50g-kuorittu-5701073065082",
    "name": "Dr. Oetker Mantelirouhe kuorittu 50g",
    "pictureUrls": [
      {
        "original": "https://public.keskofiles.com/f/k-ruoka/product/5701073065082"
      }
    ],
    "section": "4410",
    "departmentId": "106",
    "contentUnit": "KG",
    "contentSize": 0.05,
    "netWeight": 0.05,
    "available": true,
    "isUtility": false,
    "preprocessedPricing": {
      "products": {},
      "simplePromotions": {},
      "basketPromotions": {}
    },
    "tosPricing": {
      "basketPromotions": []
    },
    "simplePricePlussa": false,
    "pricingUnit": "kpl",
    "referencePrice": {
      "_type": "Big",
      "value": "27"
    },
    "visiblePrice": {
      "_type": "Big",
      "value": "1.35"
    },
    "visiblePriceUnit": "kpl",
    "isDiscounted": false
  },
  {
    "ean": "6420295004691",
    "urlSlug": "makulaku-premium-250g-mint--choco-6420295004691",
    "name": "Makulaku premium lakritsi 250g mint & choco",
    "pictureUrls": [],
    "section": "4255",
    "departmentId": "109",
    "contentUnit": "KG",
    "contentSize": 0.25,
    "netWeight": 0.25,
    "available": true,
    "isUtility": false,
    "preprocessedPricing": {
      "products": {},
      "simplePromotions": {},
      "basketPromotions": {}
    },
    "tosPricing": {
      "basketPromotions": []
    },
    "simplePricePlussa": false,
    "pricingUnit": "kpl",
    "referencePrice": {
      "_type": "Big",
      "value": "7.8"
    },
    "visiblePrice": {
      "_type": "Big",
      "value": "1.95"
    },
    "visiblePriceUnit": "kpl",
    "isDiscounted": false
  },
  {
    "ean": "4000417925008",
    "urlSlug": "ritter-sport-cocoa-creme-100g-4000417925008",
    "name": "Ritter Sport Cocoa Creme 100g",
    "pictureUrls": [
      {
        "original": "https://public.keskofiles.com/f/k-ruoka/product/4000417925008"
      }
    ],
    "section": "4212",
    "departmentId": "109",
    "contentUnit": "KG",
    "contentSize": 0.1,
    "netWeight": 0.1,
    "available": true,
    "isUtility": false,
    "preprocessedPricing": {
      "products": {},
      "simplePromotions": {},
      "basketPromotions": {}
    },
    "tosPricing": {
      "basketPromotions": []
    },
    "simplePricePlussa": false,
    "pricingUnit": "kpl",
    "referencePrice": {
      "_type": "Big",
      "value": "16.5"
    },
    "visiblePrice": {
      "_type": "Big",
      "value": "1.65"
    },
    "visiblePriceUnit": "kpl",
    "isDiscounted": false
  },
  {
    "ean": "7622210757401",
    "urlSlug": "marabou-premium-90g-eco-seasalt-7622210757401",
    "name": "Marabou Premium 90g Eco Seasalt",
    "pictureUrls": [
      {
        "original": "https://public.keskofiles.com/f/k-ruoka/product/7622210757401"
      }
    ],
    "section": "4213",
    "departmentId": "109",
    "contentUnit": "KG",
    "contentSize": 0.09,
    "netWeight": 0.09,
    "available": true,
    "isUtility": false,
    "preprocessedPricing": {
      "products": {},
      "simplePromotions": {},
      "basketPromotions": {}
    },
    "tosPricing": {
      "basketPromotions": []
    },
    "simplePricePlussa": false,
    "pricingUnit": "kpl",
    "referencePrice": {
      "_type": "Big",
      "value": "20.55555555555555555556"
    },
    "visiblePrice": {
      "_type": "Big",
      "value": "1.85"
    },
    "visiblePriceUnit": "kpl",
    "isDiscounted": false
  },
  {
    "ean": "4000539726309",
    "urlSlug": "lindt-lindor-suklaakalenteri-158g-4000539726309",
    "name": "Lindt Lindor suklaakalenteri 158g",
    "pictureUrls": [
      {
        "original": "https://public.keskofiles.com/f/k-ruoka/product/4000539726309"
      }
    ],
    "section": "4267",
    "departmentId": "109",
    "contentUnit": "KG",
    "contentSize": 0.158,
    "netWeight": 0.158,
    "available": true,
    "isUtility": false,
    "preprocessedPricing": {
      "products": {},
      "simplePromotions": {},
      "basketPromotions": {}
    },
    "tosPricing": {
      "basketPromotions": []
    },
    "simplePricePlussa": false,
    "pricingUnit": "kpl",
    "referencePrice": {
      "_type": "Big",
      "value": "78.1645569620253164557"
    },
    "visiblePrice": {
      "_type": "Big",
      "value": "12.35"
    },
    "visiblePriceUnit": "kpl",
    "isDiscounted": false
  },
  {
    "ean": "6420224610375",
    "urlSlug": "santa-claus-400g-maitosuklaa-toffee-6420224610375",
    "name": "Santa Claus 400g maitosuklaa toffee",
    "pictureUrls": [],
    "section": "4264",
    "departmentId": "109",
    "contentUnit": "KG",
    "contentSize": 0.4,
    "netWeight": 0.4,
    "available": true,
    "isUtility": false,
    "preprocessedPricing": {
      "products": {},
      "simplePromotions": {},
      "basketPromotions": {}
    },
    "tosPricing": {
      "basketPromotions": []
    },
    "simplePricePlussa": false,
    "pricingUnit": "kpl",
    "referencePrice": {
      "_type": "Big",
      "value": "18.725"
    },
    "visiblePrice": {
      "_type": "Big",
      "value": "7.49"
    },
    "visiblePriceUnit": "kpl",
    "isDiscounted": false
  },
  {
    "ean": "5412956213420",
    "urlSlug": "cachet-100g-luomu-tummasuklaalevy-5412956213420",
    "name": "Cachet 100g luomu tummasuklaalevy 85% kaakao",
    "pictureUrls": [
      {
        "original": "https://public.keskofiles.com/f/k-ruoka/product/5412956213420"
      }
    ],
    "section": "4213",
    "departmentId": "109",
    "contentUnit": "KG",
    "contentSize": 0.1,
    "netWeight": 0.1,
    "available": true,
    "isUtility": false,
    "preprocessedPricing": {
      "products": {},
      "simplePromotions": {},
      "basketPromotions": {}
    },
    "tosPricing": {
      "basketPromotions": []
    },
    "simplePricePlussa": false,
    "pricingUnit": "kpl",
    "referencePrice": {
      "_type": "Big",
      "value": "28.5"
    },
    "visiblePrice": {
      "_type": "Big",
      "value": "2.85"
    },
    "visiblePriceUnit": "kpl",
    "isDiscounted": false
  },
  {
    "ean": "4008400160429",
    "urlSlug": "rocher-konvehtipatukka-4kpl50g-4008400160429",
    "name": "Rocher konvehtipatukka 4kpl/50g",
    "pictureUrls": [
      {
        "original": "https://public.keskofiles.com/f/k-ruoka/product/4008400160429"
      }
    ],
    "section": "4225",
    "departmentId": "109",
    "contentUnit": "KG",
    "contentSize": 0.05,
    "netWeight": 0.05,
    "available": true,
    "isUtility": false,
    "preprocessedPricing": {
      "products": {},
      "simplePromotions": {},
      "basketPromotions": {}
    },
    "tosPricing": {
      "basketPromotions": []
    },
    "simplePricePlussa": false,
    "pricingUnit": "kpl",
    "referencePrice": {
      "_type": "Big",
      "value": "35"
    },
    "visiblePrice": {
      "_type": "Big",
      "value": "1.75"
    },
    "visiblePriceUnit": "kpl",
    "isDiscounted": false
  },
  {
    "ean": "7622210107756",
    "urlSlug": "marabou-symphonietta-suklaakonvehti-190g-7622210107756",
    "name": "Marabou Symphonietta suklaakonvehti 190g",
    "pictureUrls": [
      {
        "original": "https://public.keskofiles.com/f/k-ruoka/product/7622210107756"
      }
    ],
    "section": "4260",
    "departmentId": "109",
    "contentUnit": "KG",
    "contentSize": 0.19,
    "netWeight": 0.19,
    "available": true,
    "isUtility": false,
    "preprocessedPricing": {
      "products": {},
      "simplePromotions": {},
      "basketPromotions": {}
    },
    "tosPricing": {
      "basketPromotions": []
    },
    "simplePricePlussa": false,
    "pricingUnit": "kpl",
    "referencePrice": {
      "_type": "Big",
      "value": "15.73684210526315789474"
    },
    "visiblePrice": {
      "_type": "Big",
      "value": "2.99"
    },
    "visiblePriceUnit": "kpl",
    "isDiscounted": false
  },
  {
    "ean": "6411401017629",
    "urlSlug": "fami-suklaapatukka-32g-6411401017629",
    "name": "Fami suklaapatukka 32g",
    "pictureUrls": [
      {
        "original": "https://public.keskofiles.com/f/k-ruoka/product/6411401017629"
      }
    ],
    "section": "4223",
    "departmentId": "109",
    "contentUnit": "KG",
    "contentSize": 0.032,
    "netWeight": 0.032,
    "available": true,
    "isUtility": false,
    "preprocessedPricing": {
      "products": {},
      "simplePromotions": {},
      "basketPromotions": {}
    },
    "tosPricing": {
      "basketPromotions": []
    },
    "simplePricePlussa": false,
    "pricingUnit": "kpl",
    "referencePrice": {
      "_type": "Big",
      "value": "20.9375"
    },
    "visiblePrice": {
      "_type": "Big",
      "value": "0.67"
    },
    "visiblePriceUnit": "kpl",
    "isDiscounted": false
  },
  {
    "ean": "6410405069023",
    "urlSlug": "pirkka-yrtin-ja-kermanm-perunasnacks200g-6410405069023",
    "name": "Pirkka yrtin-ja kermanmakuinen perunasnacks 200 g",
    "pictureUrls": [
      {
        "original": "https://public.keskofiles.com/f/k-ruoka/product/6410405069023"
      }
    ],
    "section": "4320",
    "departmentId": "109",
    "contentUnit": "KG",
    "contentSize": 0.2,
    "netWeight": 0.2,
    "available": true,
    "isUtility": false,
    "preprocessedPricing": {
      "products": {},
      "simplePromotions": {},
      "basketPromotions": {}
    },
    "tosPricing": {
      "basketPromotions": []
    },
    "simplePricePlussa": false,
    "pricingUnit": "kpl",
    "referencePrice": {
      "_type": "Big",
      "value": "8.95"
    },
    "visiblePrice": {
      "_type": "Big",
      "value": "1.79"
    },
    "visiblePriceUnit": "kpl",
    "isDiscounted": false
  },
  {
    "ean": "6410405060075",
    "urlSlug": "pirkka-perunalastut-100g-sourcream-onion-6410405060075",
    "name": "Pirkka perunalastu sourcream & onion 100g",
    "pictureUrls": [
      {
        "original": "https://public.keskofiles.com/f/k-ruoka/product/6410405060075"
      }
    ],
    "section": "4301",
    "departmentId": "109",
    "contentUnit": "KG",
    "contentSize": 0.1,
    "netWeight": 0.1,
    "available": true,
    "isUtility": false,
    "preprocessedPricing": {
      "products": {},
      "simplePromotions": {},
      "basketPromotions": {}
    },
    "tosPricing": {
      "basketPromotions": []
    },
    "simplePricePlussa": false,
    "pricingUnit": "kpl",
    "referencePrice": {
      "_type": "Big",
      "value": "8.9"
    },
    "visiblePrice": {
      "_type": "Big",
      "value": "0.89"
    },
    "visiblePriceUnit": "kpl",
    "isDiscounted": false
  },
  {
    "ean": "5701090034368",
    "urlSlug": "haribo-makeispussi-80g-click-mix-5701090034368",
    "name": "HARIBO Click Mix 80g viinikumi, lakritsi, rae, täytelakritsi ja vaahto",
    "pictureUrls": [
      {
        "original": "https://public.keskofiles.com/f/k-ruoka/product/5701090034368"
      }
    ],
    "section": "4250",
    "departmentId": "109",
    "contentUnit": "KG",
    "contentSize": 0.08,
    "netWeight": 0.08,
    "available": true,
    "isUtility": false,
    "preprocessedPricing": {
      "products": {},
      "simplePromotions": {},
      "basketPromotions": {}
    },
    "tosPricing": {
      "basketPromotions": []
    },
    "simplePricePlussa": false,
    "pricingUnit": "kpl",
    "referencePrice": {
      "_type": "Big",
      "value": "8.625"
    },
    "visiblePrice": {
      "_type": "Big",
      "value": "0.69"
    },
    "visiblePriceUnit": "kpl",
    "isDiscounted": false
  },
  {
    "ean": "6412500002318",
    "urlSlug": "panda-riisisuklaa-130g-6412500002318",
    "name": "Panda riisisuklaa 130g",
    "pictureUrls": [
      {
        "original": "https://public.keskofiles.com/f/k-ruoka/product/6412500002318"
      }
    ],
    "section": "4212",
    "departmentId": "109",
    "contentUnit": "KG",
    "contentSize": 0.13,
    "netWeight": 0.13,
    "available": true,
    "isUtility": false,
    "preprocessedPricing": {
      "products": {},
      "simplePromotions": {},
      "basketPromotions": {}
    },
    "tosPricing": {
      "basketPromotions": []
    },
    "simplePricePlussa": false,
    "pricingUnit": "kpl",
    "referencePrice": {
      "_type": "Big",
      "value": "12.69230769230769230769"
    },
    "visiblePrice": {
      "_type": "Big",
      "value": "1.65"
    },
    "visiblePriceUnit": "kpl",
    "isDiscounted": false
  },
  {
    "ean": "6408641021905",
    "urlSlug": "pirkka-perunalastu-300g-sourcream-onion-6408641021905",
    "name": "Pirkka perunalastu sourcream & onion 300g",
    "pictureUrls": [
      {
        "original": "https://public.keskofiles.com/f/k-ruoka/product/6408641021905"
      }
    ],
    "section": "4301",
    "departmentId": "109",
    "contentUnit": "KG",
    "contentSize": 0.3,
    "netWeight": 0.3,
    "available": true,
    "isUtility": false,
    "preprocessedPricing": {
      "products": {},
      "simplePromotions": {},
      "basketPromotions": {}
    },
    "tosPricing": {
      "basketPromotions": []
    },
    "simplePricePlussa": false,
    "pricingUnit": "kpl",
    "referencePrice": {
      "_type": "Big",
      "value": "5.96666666666666666667"
    },
    "visiblePrice": {
      "_type": "Big",
      "value": "1.79"
    },
    "visiblePriceUnit": "kpl",
    "isDiscounted": false
  },
  {
    "ean": "6411401037139",
    "urlSlug": "fazer-pastillirasia-38g-super-salmiakki-6411401037139",
    "name": "Super Salmiakki 38g pastilleja",
    "pictureUrls": [
      {
        "original": "https://public.keskofiles.com/f/k-ruoka/product/6411401037139"
      }
    ],
    "section": "4242",
    "departmentId": "109",
    "contentUnit": "KG",
    "contentSize": 0.038,
    "netWeight": 0.038,
    "available": true,
    "isUtility": false,
    "preprocessedPricing": {
      "products": {},
      "simplePromotions": {},
      "basketPromotions": {}
    },
    "tosPricing": {
      "basketPromotions": []
    },
    "simplePricePlussa": false,
    "pricingUnit": "kpl",
    "referencePrice": {
      "_type": "Big",
      "value": "26.05263157894736842105"
    },
    "visiblePrice": {
      "_type": "Big",
      "value": "0.99"
    },
    "visiblePriceUnit": "kpl",
    "isDiscounted": false
  },
  {
    "ean": "6416453117334",
    "urlSlug": "xylimax-moomin-pastilli-55g-metsman-per-6416453117334",
    "name": "Xylimax Moomin pastilli 55g metsmansikka-persikkavadelma",
    "pictureUrls": [
      {
        "original": "https://public.keskofiles.com/f/k-ruoka/product/6416453117334"
      }
    ],
    "section": "4241",
    "departmentId": "109",
    "contentUnit": "KG",
    "contentSize": 0.055,
    "netWeight": 0.055,
    "available": true,
    "isUtility": false,
    "preprocessedPricing": {
      "products": {},
      "simplePromotions": {},
      "basketPromotions": {}
    },
    "tosPricing": {
      "basketPromotions": []
    },
    "simplePricePlussa": false,
    "pricingUnit": "kpl",
    "referencePrice": {
      "_type": "Big",
      "value": "40.90909090909090909091"
    },
    "visiblePrice": {
      "_type": "Big",
      "value": "2.25"
    },
    "visiblePriceUnit": "kpl",
    "isDiscounted": false
  },
  {
    "ean": "6416453025325",
    "urlSlug": "fazer-present-260g-3-pack-55kpl-ppa-6416453025325",
    "name": "Fazer Present 260g 3-pack",
    "pictureUrls": [
      {
        "original": "https://public.keskofiles.com/f/k-ruoka/product/6416453025325"
      }
    ],
    "section": "4260",
    "departmentId": "109",
    "contentUnit": "KG",
    "contentSize": 0.78,
    "netWeight": 0.78,
    "available": true,
    "isUtility": false,
    "preprocessedPricing": {
      "products": {},
      "simplePromotions": {},
      "basketPromotions": {}
    },
    "tosPricing": {
      "basketPromotions": []
    },
    "simplePricePlussa": false,
    "pricingUnit": "kpl",
    "referencePrice": {
      "_type": "Big",
      "value": "14.03846153846153846154"
    },
    "visiblePrice": {
      "_type": "Big",
      "value": "10.95"
    },
    "visiblePriceUnit": "kpl",
    "isDiscounted": false
  },
  {
    "ean": "6410405209658",
    "urlSlug": "pirkka-pinjansiemen-100g-6410405209658",
    "name": "Pirkka pinjansiemen 100g",
    "pictureUrls": [
      {
        "original": "https://public.keskofiles.com/f/k-ruoka/product/6410405209658"
      }
    ],
    "section": "4415",
    "departmentId": "106",
    "contentUnit": "KG",
    "contentSize": 0.1,
    "netWeight": 0.1,
    "available": true,
    "isUtility": false,
    "preprocessedPricing": {
      "products": {},
      "simplePromotions": {},
      "basketPromotions": {}
    },
    "tosPricing": {
      "basketPromotions": []
    },
    "simplePricePlussa": false,
    "pricingUnit": "kpl",
    "referencePrice": {
      "_type": "Big",
      "value": "40.9"
    },
    "visiblePrice": {
      "_type": "Big",
      "value": "4.09"
    },
    "visiblePriceUnit": "kpl",
    "isDiscounted": false
  },
  {
    "ean": "6416453061392",
    "urlSlug": "fazer-lakritsi-20g-salmiak-6416453061392",
    "name": "Fazer lakritsi 20g salmiak",
    "pictureUrls": [
      {
        "original": "https://public.keskofiles.com/f/k-ruoka/product/6416453061392"
      }
    ],
    "section": "4291",
    "departmentId": "109",
    "contentUnit": "KG",
    "contentSize": 0.02,
    "netWeight": 0.02,
    "available": true,
    "isUtility": false,
    "preprocessedPricing": {
      "products": {},
      "simplePromotions": {},
      "basketPromotions": {}
    },
    "tosPricing": {
      "basketPromotions": []
    },
    "simplePricePlussa": false,
    "pricingUnit": "kpl",
    "referencePrice": {
      "_type": "Big",
      "value": "14.5"
    },
    "visiblePrice": {
      "_type": "Big",
      "value": "0.29"
    },
    "visiblePriceUnit": "kpl",
    "isDiscounted": false
  },
  {
    "ean": "6420256014585",
    "urlSlug": "malaco-crazy-face-sour-60g-6420256014585",
    "name": "Malaco Crazy Face Sour 60g",
    "pictureUrls": [
      {
        "original": "https://public.keskofiles.com/f/k-ruoka/product/6420256014585"
      }
    ],
    "section": "4295",
    "departmentId": "109",
    "contentUnit": "KG",
    "contentSize": 0.06,
    "netWeight": 0.06,
    "available": true,
    "isUtility": false,
    "preprocessedPricing": {
      "products": {},
      "simplePromotions": {},
      "basketPromotions": {}
    },
    "tosPricing": {
      "basketPromotions": []
    },
    "simplePricePlussa": false,
    "pricingUnit": "kpl",
    "referencePrice": {
      "_type": "Big",
      "value": "16.5"
    },
    "visiblePrice": {
      "_type": "Big",
      "value": "0.99"
    },
    "visiblePriceUnit": "kpl",
    "isDiscounted": false
  }
]