[
  {
    "ean": "6411401025204",
    "urlSlug": "geisha-sydan-suklaakonvehti-225g-6411401025204",
    "name": "Geisha Sydän rasia 225g",
    "pictureUrls": [
      {
        "original": "https://public.keskofiles.com/f/k-ruoka/product/6411401025204"
      }
    ],
    "section": "4264",
    "departmentId": "109",
    "contentUnit": "KG",
    "contentSize": 0.225,
    "netWeight": 0.225,
    "available": true,
    "isUtility": false,
    "preprocessedPricing": {
      "products": {},
      "simplePromotions": {},
      "basketPromotions": {}
    },
    "tosPricing": {
      "basketPromotions": []
    },
    "simplePricePlussa": false,
    "pricingUnit": "kpl",
    "referencePrice": {
      "_type": "Big",
      "value": "33.28888888888888888889"
    },
    "visiblePrice": {
      "_type": "Big",
      "value": "7.49"
    },
    "visiblePriceUnit": "kpl",
    "isDiscounted": false
  },
  {
    "ean": "5774540703206",
    "urlSlug": "bonbon-murkun-lirut-mix-kirpea-125g-5774540703206",
    "name": "BonBon Murkun Lirut Mix kirpeä125g",
    "pictureUrls": [
      {
        "original": "https://public.keskofiles.com/f/k-ruoka/product/5774540703206"
      }
    ],
    "section": "4250",
    "departmentId": "109",
    "contentUnit": "KG",
    "contentSize": 0.125,
    "netWeight": 0.125,
    "available": true,
    "isUtility": false,
    "preprocessedPricing": {
      "products": {},
      "simplePromotions": {},
      "basketPromotions": {}
    },
    "tosPricing": {
      "basketPromotions": []
    },
    "simplePricePlussa": false,
    "pricingUnit": "kpl",
    "referencePrice": {
      "_type": "Big",
      "value": "11.6"
    },
    "visiblePrice": {
      "_type": "Big",
      "value": "1.45"
    },
    "visiblePriceUnit": "kpl",
    "isDiscounted": false
  },
  {
    "ean": "7310532105566",
    "urlSlug": "estrella-275g-manhattan-silea-src-onion-7310532105566",
    "name": "Estrella 275g Manhattan sileä Sourcream&onion chips",
    "pictureUrls": [
      {
        "original": "https://public.keskofiles.com/f/k-ruoka/product/7310532105566"
      }
    ],
    "section": "4301",
    "departmentId": "109",
    "contentUnit": "KG",
    "contentSize": 0.275,
    "netWeight": 0.275,
    "available": true,
    "isUtility": false,
    "preprocessedPricing": {
      "products": {},
      "simplePromotions": {},
      "basketPromotions": {}
    },
    "tosPricing": {
      "basketPromotions": []
    },
    "simplePricePlussa": false,
    "pricingUnit": "kpl",
    "referencePrice": {
      "_type": "Big",
      "value": "7.23636363636363636364"
    },
    "visiblePrice": {
      "_type": "Big",
      "value": "1.99"
    },
    "visiblePriceUnit": "kpl",
    "isDiscounted": false
  },
  {
    "ean": "4008400230726",
    "urlSlug": "kinder-maxi-surprise-chokladagg-100g-4008400230726",
    "name": "Kinder Maxi Surprise 100g Joulu",
    "pictureUrls": [
      {
        "original": "https://public.keskofiles.com/f/k-ruoka/product/4008400230726"
      }
    ],
    "section": "4268",
    "departmentId": "109",
    "contentUnit": "KG",
    "contentSize": 0.1,
    "netWeight": 0.1,
    "available": true,
    "isUtility": false,
    "preprocessedPricing": {
      "products": {},
      "simplePromotions": {},
      "basketPromotions": {}
    },
    "tosPricing": {
      "basketPromotions": []
    },
    "simplePricePlussa": false,
    "pricingUnit": "kpl",
    "referencePrice": {
      "_type": "Big",
      "value": "59.9"
    },
    "visiblePrice": {
      "_type": "Big",
      "value": "5.99"
    },
    "visiblePriceUnit": "kpl",
    "isDiscounted": false
  },
  {
    "ean": "6416453018273",
    "urlSlug": "fazer-whitemilk-suklaalevy-100g-6416453018273",
    "name": "Fazer White&milk suklaalevy 100g",
    "pictureUrls": [
      {
        "original": "https://public.keskofiles.com/f/k-ruoka/product/6416453018273"
      }
    ],
    "section": "4210",
    "departmentId": "109",
    "contentUnit": "KG",
    "contentSize": 0.1,
    "netWeight": 0.1,
    "available": true,
    "isUtility": false,
    "preprocessedPricing": {
      "products": {},
      "simplePromotions": {},
      "basketPromotions": {}
    },
    "tosPricing": {
      "basketPromotions": []
    },
    "simplePricePlussa": false,
    "pricingUnit": "kpl",
    "referencePrice": {
      "_type": "Big",
      "value": "17.9"
    },
    "visiblePrice": {
      "_type": "Big",
      "value": "1.79"
    },
    "visiblePriceUnit": "kpl",
    "isDiscounted": false
  },
  {
    "ean": "6414203310103",
    "urlSlug": "meira-cashewpahkina-70g-kuorittu-6414203310103",
    "name": "Meira cashewpähkinä 70g kuorittu",
    "pictureUrls": [
      {
        "original": "https://public.keskofiles.com/f/k-ruoka/product/6414203310103"
      }
    ],
    "section": "4414",
    "departmentId": "106",
    "contentUnit": "KG",
    "contentSize": 0.07,
    "netWeight": 0.07,
    "available": true,
    "isUtility": false,
    "preprocessedPricing": {
      "products": {},
      "simplePromotions": {},
      "basketPromotions": {}
    },
    "tosPricing": {
      "basketPromotions": []
    },
    "simplePricePlussa": false,
    "pricingUnit": "kpl",
    "referencePrice": {
      "_type": "Big",
      "value": "34.14285714285714285714"
    },
    "visiblePrice": {
      "_type": "Big",
      "value": "2.39"
    },
    "visiblePriceUnit": "kpl",
    "isDiscounted": false
  },
  {
    "ean": "6416453015227",
    "urlSlug": "karl-fazer-maitosuklaa-195g-domino-6416453015227",
    "name": "Karl Fazer maitosuklaa 195g Domino",
    "pictureUrls": [
      {
        "original": "https://public.keskofiles.com/f/k-ruoka/product/6416453015227"
      }
    ],
    "section": "4212",
    "departmentId": "109",
    "contentUnit": "KG",
    "contentSize": 0.195,
    "netWeight": 0.195,
    "available": true,
    "isUtility": false,
    "preprocessedPricing": {
      "products": {},
      "simplePromotions": {},
      "basketPromotions": {}
    },
    "tosPricing": {
      "basketPromotions": []
    },
    "simplePricePlussa": false,
    "pricingUnit": "kpl",
    "referencePrice": {
      "_type": "Big",
      "value": "12.56410256410256410256"
    },
    "visiblePrice": {
      "_type": "Big",
      "value": "2.45"
    },
    "visiblePriceUnit": "kpl",
    "isDiscounted": true,
    "discountType": "PLUSSA",
    "plussaDiscountPercentage": {
      "_type": "Big",
      "value": "-10.204081632653061224"
    },
    "batchSize": 2,
    "batchPrice": {
      "_type": "Big",
      "value": "4.4"
    }
  },
  {
    "ean": "6416453036598",
    "urlSlug": "musta-pantteri-makeissekoitus-80g-sal-6416453036598",
    "name": "Musta Pantteri 80g salmiakkilakritsi",
    "pictureUrls": [
      {
        "original": "https://public.keskofiles.com/f/k-ruoka/product/6416453036598"
      }
    ],
    "section": "4251",
    "departmentId": "109",
    "contentUnit": "KG",
    "contentSize": 0.08,
    "netWeight": 0.08,
    "available": true,
    "isUtility": false,
    "preprocessedPricing": {
      "products": {},
      "simplePromotions": {},
      "basketPromotions": {}
    },
    "tosPricing": {
      "basketPromotions": []
    },
    "simplePricePlussa": false,
    "pricingUnit": "kpl",
    "referencePrice": {
      "_type": "Big",
      "value": "12.375"
    },
    "visiblePrice": {
      "_type": "Big",
      "value": "0.99"
    },
    "visiblePriceUnit": "kpl",
    "isDiscounted": false
  },
  {
    "ean": "5706779062243",
    "urlSlug": "earth-control-250g-sweet-apricots-5706779062243",
    "name": "Earth Control 250g Sweet Apricots",
    "pictureUrls": [
      {
        "original": "https://public.keskofiles.com/f/k-ruoka/product/5706779062243"
      }
    ],
    "section": "4407",
    "departmentId": "106",
    "contentUnit": "KG",
    "contentSize": 0.25,
    "netWeight": 0.25,
    "available": true,
    "isUtility": false,
    "preprocessedPricing": {
      "products": {},
      "simplePromotions": {},
      "basketPromotions": {}
    },
    "tosPricing": {
      "basketPromotions": []
    },
    "simplePricePlussa": false,
    "pricingUnit": "kpl",
    "referencePrice": {
      "_type": "Big",
      "value": "11.4"
    },
    "visiblePrice": {
      "_type": "Big",
      "value": "2.85"
    },
    "visiblePriceUnit": "kpl",
    "isDiscounted": false
  },
  {
    "ean": "5706779060973",
    "urlSlug": "ec-xl-paahd-suolattu-cashew-380g-5706779060973",
    "name": "EC XL paahd-suolattu cashew 380g",
    "pictureUrls": [
      {
        "original": "https://public.keskofiles.com/f/k-ruoka/product/5706779060973"
      }
    ],
    "section": "4350",
    "departmentId": "109",
    "contentUnit": "KG",
    "contentSize": 0.38,
    "netWeight": 0.38,
    "available": true,
    "isUtility": false,
    "preprocessedPricing": {
      "products": {},
      "simplePromotions": {},
      "basketPromotions": {}
    },
    "tosPricing": {
      "basketPromotions": []
    },
    "simplePricePlussa": false,
    "pricingUnit": "kpl",
    "referencePrice": {
      "_type": "Big",
      "value": "20.92105263157894736842"
    },
    "visiblePrice": {
      "_type": "Big",
      "value": "7.95"
    },
    "visiblePriceUnit": "kpl",
    "isDiscounted": true
  },
  {
    "ean": "4009900509909",
    "urlSlug": "airwaves-cool-purukumi-35g-ice-mint-4009900509909",
    "name": "Airwaves cool purukumi 35g ice mint",
    "pictureUrls": [
      {
        "original": "https://public.keskofiles.com/f/k-ruoka/product/4009900509909"
      }
    ],
    "section": "4204",
    "departmentId": "109",
    "contentUnit": "KG",
    "contentSize": 0.035,
    "netWeight": 0.035,
    "available": true,
    "isUtility": false,
    "preprocessedPricing": {
      "products": {},
      "simplePromotions": {},
      "basketPromotions": {}
    },
    "tosPricing": {
      "basketPromotions": []
    },
    "simplePricePlussa": false,
    "pricingUnit": "kpl",
    "referencePrice": {
      "_type": "Big",
      "value": "34"
    },
    "visiblePrice": {
      "_type": "Big",
      "value": "1.19"
    },
    "visiblePriceUnit": "kpl",
    "isDiscounted": false
  },
  {
    "ean": "6409941301346",
    "urlSlug": "reformi-lakritsi-nallekarkki-100g-luomu-6409941301346",
    "name": "Reformi lakritsi nallekarkki 100g luomu",
    "pictureUrls": [
      {
        "original": "https://public.keskofiles.com/f/k-ruoka/product/6409941301346"
      }
    ],
    "section": "4255",
    "departmentId": "109",
    "contentUnit": "KG",
    "contentSize": 0.1,
    "netWeight": 0.1,
    "available": true,
    "isUtility": false,
    "preprocessedPricing": {
      "products": {},
      "simplePromotions": {},
      "basketPromotions": {}
    },
    "tosPricing": {
      "basketPromotions": []
    },
    "simplePricePlussa": false,
    "pricingUnit": "kpl",
    "referencePrice": {
      "_type": "Big",
      "value": "25.9"
    },
    "visiblePrice": {
      "_type": "Big",
      "value": "2.59"
    },
    "visiblePriceUnit": "kpl",
    "isDiscounted": false
  },
  {
    "ean": "5010775196582",
    "urlSlug": "my-little-pony-joulukalenteri-90g-5010775196582",
    "name": "My Little Pony joulukalenteri 90g",
    "pictureUrls": [
      {
        "original": "https://public.keskofiles.com/f/k-ruoka/product/5010775196582"
      }
    ],
    "section": "4267",
    "departmentId": "109",
    "contentUnit": "KG",
    "contentSize": 0.09,
    "netWeight": 0.09,
    "available": true,
    "isUtility": false,
    "preprocessedPricing": {
      "products": {},
      "simplePromotions": {},
      "basketPromotions": {}
    },
    "tosPricing": {
      "basketPromotions": []
    },
    "simplePricePlussa": false,
    "pricingUnit": "kpl",
    "referencePrice": {
      "_type": "Big",
      "value": "36.11111111111111111111"
    },
    "visiblePrice": {
      "_type": "Big",
      "value": "3.25"
    },
    "visiblePriceUnit": "kpl",
    "isDiscounted": false
  },
  {
    "ean": "5706779060041",
    "urlSlug": "earth-control-175g-paahdettu-salaattisek-5706779060041",
    "name": "Earth Control 175g paahdettu salaattisekoitus",
    "pictureUrls": [
      {
        "original": "https://public.keskofiles.com/f/k-ruoka/product/5706779060041"
      }
    ],
    "section": "4416",
    "departmentId": "106",
    "contentUnit": "KG",
    "contentSize": 0.175,
    "netWeight": 0.175,
    "available": true,
    "isUtility": false,
    "preprocessedPricing": {
      "products": {},
      "simplePromotions": {},
      "basketPromotions": {}
    },
    "tosPricing": {
      "basketPromotions": []
    },
    "simplePricePlussa": false,
    "pricingUnit": "kpl",
    "referencePrice": {
      "_type": "Big",
      "value": "17.08571428571428571429"
    },
    "visiblePrice": {
      "_type": "Big",
      "value": "2.99"
    },
    "visiblePriceUnit": "kpl",
    "isDiscounted": false,
    "discountType": "PLUSSA",
    "batchSize": 2,
    "batchPrice": {
      "_type": "Big",
      "value": "5"
    }
  },
  {
    "ean": "3046920028004",
    "urlSlug": "lindt-suklaalevy-100g-tumma-70-3046920028004",
    "name": "Lindt Excellence 70% tumma suklaa 100g",
    "pictureUrls": [
      {
        "original": "https://public.keskofiles.com/f/k-ruoka/product/3046920028004"
      }
    ],
    "section": "4213",
    "departmentId": "109",
    "contentUnit": "KG",
    "contentSize": 0.1,
    "netWeight": 0.1,
    "available": true,
    "isUtility": false,
    "preprocessedPricing": {
      "products": {},
      "simplePromotions": {},
      "basketPromotions": {}
    },
    "tosPricing": {
      "basketPromotions": []
    },
    "simplePricePlussa": false,
    "pricingUnit": "kpl",
    "referencePrice": {
      "_type": "Big",
      "value": "24.9"
    },
    "visiblePrice": {
      "_type": "Big",
      "value": "2.49"
    },
    "visiblePriceUnit": "kpl",
    "isDiscounted": false
  },
  {
    "ean": "7310350118595",
    "urlSlug": "lakerol-classic-pastilli-25g-salvi-7310350118595",
    "name": "Läkerol classic pastilli 25g salvi",
    "pictureUrls": [
      {
        "original": "https://public.keskofiles.com/f/k-ruoka/product/7310350118595"
      }
    ],
    "section": "4240",
    "departmentId": "109",
    "contentUnit": "KG",
    "contentSize": 0.025,
    "netWeight": 0.025,
    "available": true,
    "isUtility": false,
    "preprocessedPricing": {
      "products": {},
      "simplePromotions": {},
      "basketPromotions": {}
    },
    "tosPricing": {
      "basketPromotions": []
    },
    "simplePricePlussa": false,
    "pricingUnit": "kpl",
    "referencePrice": {
      "_type": "Big",
      "value": "46"
    },
    "visiblePrice": {
      "_type": "Big",
      "value": "1.15"
    },
    "visiblePriceUnit": "kpl",
    "isDiscounted": false
  },
  {
    "ean": "6430056282626",
    "urlSlug": "cocovi-super5-siemen-ja-marja-260g-luomu-6430056282626",
    "name": "Cocovi Super5 siemenet ja marjat 260g luomu",
    "pictureUrls": [
      {
        "original": "https://public.keskofiles.com/f/k-ruoka/product/6430056282626"
      }
    ],
    "section": "4406",
    "departmentId": "106",
    "contentUnit": "KG",
    "contentSize": 0.26,
    "netWeight": 0.26,
    "available": true,
    "isUtility": false,
    "preprocessedPricing": {
      "products": {},
      "simplePromotions": {},
      "basketPromotions": {}
    },
    "tosPricing": {
      "basketPromotions": []
    },
    "simplePricePlussa": false,
    "pricingUnit": "kpl",
    "referencePrice": {
      "_type": "Big",
      "value": "30.38461538461538461538"
    },
    "visiblePrice": {
      "_type": "Big",
      "value": "7.9"
    },
    "visiblePriceUnit": "kpl",
    "isDiscounted": true
  },
  {
    "ean": "6416453014855",
    "urlSlug": "kismet-omar-suklaavohveli-55g-6416453014855",
    "name": "Kismet Omar suklaavohveli 55g",
    "pictureUrls": [
      {
        "original": "https://public.keskofiles.com/f/k-ruoka/product/6416453014855"
      }
    ],
    "section": "4222",
    "departmentId": "109",
    "contentUnit": "KG",
    "contentSize": 0.055,
    "netWeight": 0.055,
    "available": true,
    "isUtility": false,
    "preprocessedPricing": {
      "products": {},
      "simplePromotions": {},
      "basketPromotions": {}
    },
    "tosPricing": {
      "basketPromotions": []
    },
    "simplePricePlussa": false,
    "pricingUnit": "kpl",
    "referencePrice": {
      "_type": "Big",
      "value": "10.72727272727272727273"
    },
    "visiblePrice": {
      "_type": "Big",
      "value": "0.59"
    },
    "visiblePriceUnit": "kpl",
    "isDiscounted": false,
    "discountType": "PLUSSA",
    "batchSize": 4,
    "batchPrice": {
      "_type": "Big",
      "value": "2.2"
    }
  },
  {
    "ean": "6420611721127",
    "urlSlug": "candywell-zahara-salmiakkijauhe-50g-6420611721127",
    "name": "Candywell Zahara salmiakkijauhe 50g",
    "pictureUrls": [
      {
        "original": "https://public.keskofiles.com/f/k-ruoka/product/6420611721127"
      }
    ],
    "section": "4251",
    "departmentId": "109",
    "contentUnit": "KG",
    "contentSize": 0.05,
    "netWeight": 0.05,
    "available": true,
    "isUtility": false,
    "preprocessedPricing": {
      "products": {},
      "simplePromotions": {},
      "basketPromotions": {}
    },
    "tosPricing": {
      "basketPromotions": []
    },
    "simplePricePlussa": false,
    "pricingUnit": "kpl",
    "referencePrice": {
      "_type": "Big",
      "value": "37"
    },
    "visiblePrice": {
      "_type": "Big",
      "value": "1.85"
    },
    "visiblePriceUnit": "kpl",
    "isDiscounted": false
  },
  {
    "ean": "5708413011433",
    "urlSlug": "muumi-hedelmamix-12x14g-5708413011433",
    "name": "Muumi hedelmämix 12x14g",
    "pictureUrls": [
      {
        "original": "https://public.keskofiles.com/f/k-ruoka/product/5708413011433"
      }
    ],
    "section": "4405",
    "departmentId": "106",
    "contentUnit": "KG",
    "contentSize": 0.168,
    "netWeight": 0.168,
    "available": true,
    "isUtility": false,
    "preprocessedPricing": {
      "products": {},
      "simplePromotions": {},
      "basketPromotions": {}
    },
    "tosPricing": {
      "basketPromotions": []
    },
    "simplePricePlussa": false,
    "pricingUnit": "kpl",
    "referencePrice": {
      "_type": "Big",
      "value": "14.58333333333333333333"
    },
    "visiblePrice": {
      "_type": "Big",
      "value": "2.45"
    },
    "visiblePriceUnit": "kpl",
    "isDiscounted": false
  },
  {
    "ean": "6410405209634",
    "urlSlug": "k-menu-cashewpahkina-300g-suolpaah-6410405209634",
    "name": "K-Menu paahdetut ja suolatut cashewpähkinät 300g",
    "pictureUrls": [
      {
        "original": "https://public.keskofiles.com/f/k-ruoka/product/6410405209634"
      }
    ],
    "section": "4350",
    "departmentId": "109",
    "contentUnit": "KG",
    "contentSize": 0.3,
    "netWeight": 0.3,
    "available": true,
    "isUtility": false,
    "preprocessedPricing": {
      "products": {},
      "simplePromotions": {},
      "basketPromotions": {}
    },
    "tosPricing": {
      "basketPromotions": []
    },
    "simplePricePlussa": false,
    "pricingUnit": "kpl",
    "referencePrice": {
      "_type": "Big",
      "value": "16.96666666666666666667"
    },
    "visiblePrice": {
      "_type": "Big",
      "value": "5.09"
    },
    "visiblePriceUnit": "kpl",
    "isDiscounted": false
  },
  {
    "ean": "6414203310202",
    "urlSlug": "meira-hasselpahkinan-sydan-300g-6414203310202",
    "name": "Meira Hasselpähkinän sydän 300g iso",
    "pictureUrls": [
      {
        "original": "https://public.keskofiles.com/f/k-ruoka/product/6414203310202"
      }
    ],
    "section": "4417",
    "departmentId": "106",
    "contentUnit": "KG",
    "contentSize": 0.3,
    "netWeight": 0.3,
    "available": true,
    "isUtility": false,
    "preprocessedPricing": {
      "products": {},
      "simplePromotions": {},
      "basketPromotions": {}
    },
    "tosPricing": {
      "basketPromotions": []
    },
    "simplePricePlussa": false,
    "pricingUnit": "kpl",
    "referencePrice": {
      "_type": "Big",
      "value": "32.16666666666666666667"
    },
    "visiblePrice": {
      "_type": "Big",
      "value": "9.65"
    },
    "visiblePriceUnit": "kpl",
    "isDiscounted": false
  },
  {
    "ean": "3046920043489",
    "urlSlug": "lindt-creation-creme-brulee-150g-3046920043489",
    "name": "Lindt Creation crème brûlée maitotäytesuklaalevy 150g",
    "pictureUrls": [
      {
        "original": "https://public.keskofiles.com/f/k-ruoka/product/3046920043489"
      }
    ],
    "section": "4213",
    "departmentId": "109",
    "contentUnit": "KG",
    "contentSize": 0.15,
    "netWeight": 0.15,
    "available": true,
    "isUtility": false,
    "preprocessedPricing": {
      "products": {},
      "simplePromotions": {},
      "basketPromotions": {}
    },
    "tosPricing": {
      "basketPromotions": []
    },
    "simplePricePlussa": false,
    "pricingUnit": "kpl",
    "referencePrice": {
      "_type": "Big",
      "value": "24.6"
    },
    "visiblePrice": {
      "_type": "Big",
      "value": "3.69"
    },
    "visiblePriceUnit": "kpl",
    "isDiscounted": false
  },
  {
    "ean": "6410405068989",
    "urlSlug": "pirkka-raesekoitus-200g-pss-6410405068989",
    "name": "Pirkka raesekoitus 200 g",
    "pictureUrls": [
      {
        "original": "https://public.keskofiles.com/f/k-ruoka/product/6410405068989"
      }
    ],
    "section": "4254",
    "departmentId": "109",
    "contentUnit": "KG",
    "contentSize": 0.2,
    "netWeight": 0.2,
    "available": true,
    "isUtility": false,
    "preprocessedPricing": {
      "products": {},
      "simplePromotions": {},
      "basketPromotions": {}
    },
    "tosPricing": {
      "basketPromotions": []
    },
    "simplePricePlussa": false,
    "pricingUnit": "kpl",
    "referencePrice": {
      "_type": "Big",
      "value": "9.25"
    },
    "visiblePrice": {
      "_type": "Big",
      "value": "1.85"
    },
    "visiblePriceUnit": "kpl",
    "isDiscounted": false
  },
  {
    "ean": "6405187030392",
    "urlSlug": "grefinn-supernuts-saksanpahkina-500g-6405187030392",
    "name": "Grefinn supernuts Saksanpähkinä 500g",
    "pictureUrls": [
      {
        "original": "https://public.keskofiles.com/f/k-ruoka/product/6405187030392"
      }
    ],
    "section": "4417",
    "departmentId": "106",
    "contentUnit": "KG",
    "contentSize": 0.5,
    "netWeight": 0.5,
    "available": true,
    "isUtility": false,
    "preprocessedPricing": {
      "products": {},
      "simplePromotions": {},
      "basketPromotions": {}
    },
    "tosPricing": {
      "basketPromotions": []
    },
    "simplePricePlussa": false,
    "pricingUnit": "kpl",
    "referencePrice": {
      "_type": "Big",
      "value": "25.9"
    },
    "visiblePrice": {
      "_type": "Big",
      "value": "12.95"
    },
    "visiblePriceUnit": "kpl",
    "isDiscounted": false
  },
  {
    "ean": "6410381094286",
    "urlSlug": "taffel-popcorn-160g-cheese-6410381094286",
    "name": "Taffel popcorn 160g cheese",
    "pictureUrls": [
      {
        "original": "https://public.keskofiles.com/f/k-ruoka/product/6410381094286"
      }
    ],
    "section": "4331",
    "departmentId": "109",
    "contentUnit": "KG",
    "contentSize": 0.16,
    "netWeight": 0.16,
    "available": true,
    "isUtility": false,
    "preprocessedPricing": {
      "products": {},
      "simplePromotions": {},
      "basketPromotions": {}
    },
    "tosPricing": {
      "basketPromotions": []
    },
    "simplePricePlussa": false,
    "pricingUnit": "kpl",
    "referencePrice": {
      "_type": "Big",
      "value": "15.5625"
    },
    "visiblePrice": {
      "_type": "Big",
      "value": "2.49"
    },
    "visiblePriceUnit": "kpl",
    "isDiscounted": false
  },
  {
    "ean": "8000500003787",
    "urlSlug": "ferrero-rocher-konvehtirasia-200g-8000500003787",
    "name": "Ferrero Rocher konvehti 200g",
    "pictureUrls": [
      {
        "original": "https://public.keskofiles.com/f/k-ruoka/product/8000500003787"
      }
    ],
    "section": "4265",
    "departmentId": "109",
    "contentUnit": "KG",
    "contentSize": 0.2,
    "netWeight": 0.2,
    "available": true,
    "isUtility": false,
    "preprocessedPricing": {
      "products": {},
      "simplePromotions": {},
      "basketPromotions": {}
    },
    "tosPricing": {
      "basketPromotions": []
    },
    "simplePricePlussa": false,
    "pricingUnit": "kpl",
    "referencePrice": {
      "_type": "Big",
      "value": "29.95"
    },
    "visiblePrice": {
      "_type": "Big",
      "value": "5.99"
    },
    "visiblePriceUnit": "kpl",
    "isDiscounted": false
  },
  {
    "ean": "6430505001532",
    "urlSlug": "biokia-mustikkajauhe-30g-6430505001532",
    "name": "biokia mustikkajauhe 30g",
    "pictureUrls": [
      {
        "original": "https://public.keskofiles.com/f/k-ruoka/product/6430505001532"
      }
    ],
    "section": "4406",
    "departmentId": "106",
    "contentUnit": "KG",
    "contentSize": 0.03,
    "netWeight": 0.03,
    "available": true,
    "isUtility": false,
    "preprocessedPricing": {
      "products": {},
      "simplePromotions": {},
      "basketPromotions": {}
    },
    "tosPricing": {
      "basketPromotions": []
    },
    "simplePricePlussa": false,
    "pricingUnit": "kpl",
    "referencePrice": {
      "_type": "Big",
      "value": "131.66666666666666666667"
    },
    "visiblePrice": {
      "_type": "Big",
      "value": "3.95"
    },
    "visiblePriceUnit": "kpl",
    "isDiscounted": false
  },
  {
    "ean": "7350043520403",
    "urlSlug": "ekorrens-ekologiska-80g-back-to-basics-7350043520403",
    "name": "Ekorrens Ekologiska 80g Back to Basics viinikumi",
    "pictureUrls": [
      {
        "original": "https://public.keskofiles.com/f/k-ruoka/product/7350043520403"
      }
    ],
    "section": "4250",
    "departmentId": "109",
    "contentUnit": "KG",
    "contentSize": 0.08,
    "netWeight": 0.08,
    "available": true,
    "isUtility": false,
    "preprocessedPricing": {
      "products": {},
      "simplePromotions": {},
      "basketPromotions": {}
    },
    "tosPricing": {
      "basketPromotions": []
    },
    "simplePricePlussa": false,
    "pricingUnit": "kpl",
    "referencePrice": {
      "_type": "Big",
      "value": "24.375"
    },
    "visiblePrice": {
      "_type": "Big",
      "value": "1.95"
    },
    "visiblePriceUnit": "kpl",
    "isDiscounted": false
  },
  {
    "ean": "7312631211308",
    "urlSlug": "risenta-auringonkukansiemen200g-paahdett-7312631211308",
    "name": "Risenta Auringonkukansiemen paahdettu 200g",
    "pictureUrls": [
      {
        "original": "https://public.keskofiles.com/f/k-ruoka/product/7312631211308"
      }
    ],
    "section": "4416",
    "departmentId": "106",
    "contentUnit": "KG",
    "contentSize": 0.2,
    "netWeight": 0.2,
    "available": true,
    "isUtility": false,
    "preprocessedPricing": {
      "products": {},
      "simplePromotions": {},
      "basketPromotions": {}
    },
    "tosPricing": {
      "basketPromotions": []
    },
    "simplePricePlussa": false,
    "pricingUnit": "kpl",
    "referencePrice": {
      "_type": "Big",
      "value": "8.95"
    },
    "visiblePrice": {
      "_type": "Big",
      "value": "1.79"
    },
    "visiblePriceUnit": "kpl",
    "isDiscounted": false
  }
]