[
  {
    "ean": "7310100574305",
    "urlSlug": "semper-160g-chia-suolakeksit-gton-7310100574305",
    "name": "Semper 160g chia suolakeksit gluteeniton",
    "pictureUrls": [
      {
        "original": "https://public.keskofiles.com/f/k-ruoka/product/7310100574305"
      }
    ],
    "section": "3171",
    "departmentId": "101",
    "contentUnit": "KG",
    "contentSize": 0.16,
    "netWeight": 0.16,
    "available": true,
    "isUtility": false,
    "preprocessedPricing": {
      "products": {},
      "simplePromotions": {},
      "basketPromotions": {}
    },
    "tosPricing": {
      "basketPromotions": []
    },
    "simplePricePlussa": false,
    "pricingUnit": "kpl",
    "referencePrice": {
      "_type": "Big",
      "value": "24.9375"
    },
    "visiblePrice": {
      "_type": "Big",
      "value": "3.99"
    },
    "visiblePriceUnit": "kpl",
    "isDiscounted": false
  },
  {
    "ean": "6420400008200",
    "urlSlug": "linkosuo-lol-oat-hedelma-40g-6420400008200",
    "name": "Linkosuo LOL Oat Hedelmä 40g",
    "pictureUrls": [],
    "section": "3151",
    "departmentId": "101",
    "contentUnit": "KG",
    "contentSize": 0.04,
    "netWeight": 0.04,
    "available": true,
    "isUtility": false,
    "preprocessedPricing": {
      "products": {},
      "simplePromotions": {},
      "basketPromotions": {}
    },
    "tosPricing": {
      "basketPromotions": []
    },
    "simplePricePlussa": false,
    "pricingUnit": "kpl",
    "referencePrice": {
      "_type": "Big",
      "value": "34.75"
    },
    "visiblePrice": {
      "_type": "Big",
      "value": "1.39"
    },
    "visiblePriceUnit": "kpl",
    "isDiscounted": false
  },
  {
    "ean": "6438207011170",
    "urlSlug": "sunnuntai-ruisperunataikina-400g-lton-pa-6438207011170",
    "name": "Sunnuntai ruisperunataikina laktoositon 400g",
    "pictureUrls": [
      {
        "original": "https://public.keskofiles.com/f/k-ruoka/product/6438207011170"
      }
    ],
    "section": "1483",
    "departmentId": "107",
    "contentUnit": "KG",
    "contentSize": 0.4,
    "netWeight": 0.4,
    "available": true,
    "isUtility": false,
    "preprocessedPricing": {
      "products": {},
      "simplePromotions": {},
      "basketPromotions": {}
    },
    "tosPricing": {
      "basketPromotions": []
    },
    "simplePricePlussa": false,
    "pricingUnit": "kpl",
    "referencePrice": {
      "_type": "Big",
      "value": "6.225"
    },
    "visiblePrice": {
      "_type": "Big",
      "value": "2.49"
    },
    "visiblePriceUnit": "kpl",
    "isDiscounted": false
  },
  {
    "ean": "6413467392801",
    "urlSlug": "fazer-juurespaahto-bataatt-porkkana-320g-6413467392801",
    "name": "Fazer juurespaahto bataatti-porkkana 320g",
    "pictureUrls": [
      {
        "original": "https://public.keskofiles.com/f/k-ruoka/product/6413467392801"
      }
    ],
    "section": "1411",
    "departmentId": "101",
    "contentUnit": "KG",
    "contentSize": 0.32,
    "netWeight": 0.32,
    "available": true,
    "isUtility": false,
    "preprocessedPricing": {
      "products": {},
      "simplePromotions": {},
      "basketPromotions": {}
    },
    "tosPricing": {
      "basketPromotions": []
    },
    "simplePricePlussa": false,
    "pricingUnit": "kpl",
    "referencePrice": {
      "_type": "Big",
      "value": "6.09375"
    },
    "visiblePrice": {
      "_type": "Big",
      "value": "1.95"
    },
    "visiblePriceUnit": "kpl",
    "isDiscounted": false
  },
  {
    "ean": "6405506133476",
    "urlSlug": "salonen-kaura100-240g-6405506133476",
    "name": "Perheleipuri Salonen kaura 100 240g kauraleipä",
    "pictureUrls": [
      {
        "original": "https://public.keskofiles.com/f/k-ruoka/product/6405506133476"
      }
    ],
    "section": "1412",
    "departmentId": "101",
    "contentUnit": "KG",
    "contentSize": 0.24,
    "netWeight": 0.24,
    "available": true,
    "isUtility": false,
    "preprocessedPricing": {
      "products": {},
      "simplePromotions": {},
      "basketPromotions": {}
    },
    "tosPricing": {
      "basketPromotions": []
    },
    "simplePricePlussa": false,
    "pricingUnit": "kpl",
    "referencePrice": {
      "_type": "Big",
      "value": "8.125"
    },
    "visiblePrice": {
      "_type": "Big",
      "value": "1.95"
    },
    "visiblePriceUnit": "kpl",
    "isDiscounted": false
  },
  {
    "ean": "5410471111238",
    "urlSlug": "jules-destrooper-voivohveli-100g-5410471111238",
    "name": "Jules Destrooper voivohveli 100g",
    "pictureUrls": [
      {
        "original": "https://public.keskofiles.com/f/k-ruoka/product/5410471111238"
      }
    ],
    "section": "3111",
    "departmentId": "101",
    "contentUnit": "KG",
    "contentSize": 0.1,
    "netWeight": 0.1,
    "available": true,
    "isUtility": false,
    "preprocessedPricing": {
      "products": {},
      "simplePromotions": {},
      "basketPromotions": {}
    },
    "tosPricing": {
      "basketPromotions": []
    },
    "simplePricePlussa": false,
    "pricingUnit": "kpl",
    "referencePrice": {
      "_type": "Big",
      "value": "28.9"
    },
    "visiblePrice": {
      "_type": "Big",
      "value": "2.89"
    },
    "visiblePriceUnit": "kpl",
    "isDiscounted": false
  },
  {
    "ean": "6438207011101",
    "urlSlug": "sunnuntai-piirakkataikina-400g-lakton-pa-6438207011101",
    "name": "Sunnuntai piirakkataikina 400g laktoositon pakaste",
    "pictureUrls": [
      {
        "original": "https://public.keskofiles.com/f/k-ruoka/product/6438207011101"
      }
    ],
    "section": "1483",
    "departmentId": "107",
    "contentUnit": "KG",
    "contentSize": 0.4,
    "netWeight": 0.4,
    "available": true,
    "isUtility": false,
    "preprocessedPricing": {
      "products": {},
      "simplePromotions": {},
      "basketPromotions": {}
    },
    "tosPricing": {
      "basketPromotions": []
    },
    "simplePricePlussa": false,
    "pricingUnit": "kpl",
    "referencePrice": {
      "_type": "Big",
      "value": "6.225"
    },
    "visiblePrice": {
      "_type": "Big",
      "value": "2.49"
    },
    "visiblePriceUnit": "kpl",
    "isDiscounted": false
  },
  {
    "ean": "6420615450832",
    "urlSlug": "vanajan-kanelikorppu-340g-6420615450832",
    "name": "Vanajan Kanelikorppu 340 g",
    "pictureUrls": [
      {
        "original": "https://public.keskofiles.com/f/k-ruoka/product/6420615450832"
      }
    ],
    "section": "3930",
    "departmentId": "101",
    "contentUnit": "KG",
    "contentSize": 0.34,
    "netWeight": 0.34,
    "available": true,
    "isUtility": false,
    "preprocessedPricing": {
      "products": {},
      "simplePromotions": {},
      "basketPromotions": {}
    },
    "tosPricing": {
      "basketPromotions": []
    },
    "simplePricePlussa": false,
    "pricingUnit": "kpl",
    "referencePrice": {
      "_type": "Big",
      "value": "5.14705882352941176471"
    },
    "visiblePrice": {
      "_type": "Big",
      "value": "1.75"
    },
    "visiblePriceUnit": "kpl",
    "isDiscounted": false
  },
  {
    "ean": "0000073130710",
    "urlSlug": "marabou-choco-moment-30g-0000073130710",
    "name": "Marabou choco moment maitosuklaa 30g",
    "pictureUrls": [
      {
        "original": "https://public.keskofiles.com/f/k-ruoka/product/0000073130710"
      }
    ],
    "section": "3111",
    "departmentId": "101",
    "contentUnit": "KPL",
    "contentSize": 1,
    "netWeight": 0.03,
    "available": true,
    "isUtility": false,
    "preprocessedPricing": {
      "products": {},
      "simplePromotions": {},
      "basketPromotions": {}
    },
    "tosPricing": {
      "basketPromotions": []
    },
    "simplePricePlussa": false,
    "pricingUnit": "kpl",
    "referencePrice": {
      "_type": "Big",
      "value": "0.51"
    },
    "visiblePrice": {
      "_type": "Big",
      "value": "0.51"
    },
    "visiblePriceUnit": "kpl",
    "isDiscounted": false
  },
  {
    "ean": "6410402005116",
    "urlSlug": "pirkka-cocktailpasteija-490g-muna-rii-pa-6410402005116",
    "name": "Pirkka muna-riisipasteija 14kpl/490 g pakaste",
    "pictureUrls": [
      {
        "original": "https://public.keskofiles.com/f/k-ruoka/product/6410402005116"
      }
    ],
    "section": "1457",
    "departmentId": "107",
    "contentUnit": "KG",
    "contentSize": 0.49,
    "netWeight": 0.49,
    "available": true,
    "isUtility": false,
    "preprocessedPricing": {
      "products": {},
      "simplePromotions": {},
      "basketPromotions": {}
    },
    "tosPricing": {
      "basketPromotions": []
    },
    "simplePricePlussa": false,
    "pricingUnit": "kpl",
    "referencePrice": {
      "_type": "Big",
      "value": "5.28571428571428571429"
    },
    "visiblePrice": {
      "_type": "Big",
      "value": "2.59"
    },
    "visiblePriceUnit": "kpl",
    "isDiscounted": false
  },
  {
    "ean": "6410402013364",
    "urlSlug": "pirkka-pikku-tuulihatut-20kpl250g-pa-6410402013364",
    "name": "Pirkka tuulihatut 20kpl/250g pakaste",
    "pictureUrls": [
      {
        "original": "https://public.keskofiles.com/f/k-ruoka/product/6410402013364"
      }
    ],
    "section": "1435",
    "departmentId": "107",
    "contentUnit": "KG",
    "contentSize": 0.25,
    "netWeight": 0.25,
    "available": true,
    "isUtility": false,
    "preprocessedPricing": {
      "products": {},
      "simplePromotions": {},
      "basketPromotions": {}
    },
    "tosPricing": {
      "basketPromotions": []
    },
    "simplePricePlussa": false,
    "pricingUnit": "kpl",
    "referencePrice": {
      "_type": "Big",
      "value": "9.4"
    },
    "visiblePrice": {
      "_type": "Big",
      "value": "2.35"
    },
    "visiblePriceUnit": "kpl",
    "isDiscounted": false
  },
  {
    "ean": "6413467392702",
    "urlSlug": "fazer-juuresleipa-3kpl165g-gton-6413467392702",
    "name": "Fazer juuresleipä 3kpl/165g gluteeniton",
    "pictureUrls": [
      {
        "original": "https://public.keskofiles.com/f/k-ruoka/product/6413467392702"
      }
    ],
    "section": "1460",
    "departmentId": "101",
    "contentUnit": "KG",
    "contentSize": 0.165,
    "netWeight": 0.165,
    "available": true,
    "isUtility": false,
    "preprocessedPricing": {
      "products": {},
      "simplePromotions": {},
      "basketPromotions": {}
    },
    "tosPricing": {
      "basketPromotions": []
    },
    "simplePricePlussa": false,
    "pricingUnit": "kpl",
    "referencePrice": {
      "_type": "Big",
      "value": "16.90909090909090909091"
    },
    "visiblePrice": {
      "_type": "Big",
      "value": "2.79"
    },
    "visiblePriceUnit": "kpl",
    "isDiscounted": false
  },
  {
    "ean": "6411402164803",
    "urlSlug": "oululainen-reilu-taysjyvaviipaleet-550g-6411402164803",
    "name": "Oululainen Reilu Täysjyvä 550 g täysjyväleipä",
    "pictureUrls": [
      {
        "original": "https://public.keskofiles.com/f/k-ruoka/product/6411402164803"
      }
    ],
    "section": "1418",
    "departmentId": "101",
    "contentUnit": "KG",
    "contentSize": 0.55,
    "netWeight": 0.55,
    "available": true,
    "isUtility": false,
    "preprocessedPricing": {
      "products": {},
      "simplePromotions": {},
      "basketPromotions": {}
    },
    "tosPricing": {
      "basketPromotions": []
    },
    "simplePricePlussa": false,
    "pricingUnit": "kpl",
    "referencePrice": {
      "_type": "Big",
      "value": "3"
    },
    "visiblePrice": {
      "_type": "Big",
      "value": "1.65"
    },
    "visiblePriceUnit": "kpl",
    "isDiscounted": false
  },
  {
    "ean": "7312631490567",
    "urlSlug": "risenta-122g-linssikakku-tilli-ruohosipu-7312631490567",
    "name": "Risenta linssikakku tilli-ruohosipuli 122g",
    "pictureUrls": [
      {
        "original": "https://public.keskofiles.com/f/k-ruoka/product/7312631490567"
      }
    ],
    "section": "3951",
    "departmentId": "101",
    "contentUnit": "KG",
    "contentSize": 0.122,
    "netWeight": 0.122,
    "available": true,
    "isUtility": false,
    "preprocessedPricing": {
      "products": {},
      "simplePromotions": {},
      "basketPromotions": {}
    },
    "tosPricing": {
      "basketPromotions": []
    },
    "simplePricePlussa": false,
    "pricingUnit": "kpl",
    "referencePrice": {
      "_type": "Big",
      "value": "17.62295081967213114754"
    },
    "visiblePrice": {
      "_type": "Big",
      "value": "2.15"
    },
    "visiblePriceUnit": "kpl",
    "isDiscounted": false
  },
  {
    "ean": "6430024243673",
    "urlSlug": "vuohelan-pizzataikina-250g-gluteenito-pa-6430024243673",
    "name": "Vuohelan pizzataikina 250g gluteeniton",
    "pictureUrls": [
      {
        "original": "https://public.keskofiles.com/f/k-ruoka/product/6430024243673"
      }
    ],
    "section": "1468",
    "departmentId": "107",
    "contentUnit": "KG",
    "contentSize": 0.25,
    "netWeight": 0.25,
    "available": true,
    "isUtility": false,
    "preprocessedPricing": {
      "products": {},
      "simplePromotions": {},
      "basketPromotions": {}
    },
    "tosPricing": {
      "basketPromotions": []
    },
    "simplePricePlussa": false,
    "pricingUnit": "kpl",
    "referencePrice": {
      "_type": "Big",
      "value": "11.4"
    },
    "visiblePrice": {
      "_type": "Big",
      "value": "2.85"
    },
    "visiblePriceUnit": "kpl",
    "isDiscounted": false
  },
  {
    "ean": "6431901640455",
    "urlSlug": "moilas-ruk-cockpiirak-n30kpl870g-kyp-pa-6431901640455",
    "name": "Moilas rukinen cocktailpiirakka noin 30kpl/870g kypsäpakaste",
    "pictureUrls": [
      {
        "original": "https://public.keskofiles.com/f/k-ruoka/product/6431901640455"
      }
    ],
    "section": "1457",
    "departmentId": "107",
    "contentUnit": "KG",
    "contentSize": 0.87,
    "netWeight": 0.87,
    "available": true,
    "isUtility": false,
    "preprocessedPricing": {
      "products": {},
      "simplePromotions": {},
      "basketPromotions": {}
    },
    "tosPricing": {
      "basketPromotions": []
    },
    "simplePricePlussa": false,
    "pricingUnit": "kpl",
    "referencePrice": {
      "_type": "Big",
      "value": "6.31034482758620689655"
    },
    "visiblePrice": {
      "_type": "Big",
      "value": "5.49"
    },
    "visiblePriceUnit": "kpl",
    "isDiscounted": false
  },
  {
    "ean": "7312080474125",
    "urlSlug": "leksands-ruutupala-400g-jalkiuuni-7312080474125",
    "name": "Leksands ruutupala 400g jälkiuuni",
    "pictureUrls": [
      {
        "original": "https://public.keskofiles.com/f/k-ruoka/product/7312080474125"
      }
    ],
    "section": "3900",
    "departmentId": "101",
    "contentUnit": "KG",
    "contentSize": 0.4,
    "netWeight": 0.4,
    "available": true,
    "isUtility": false,
    "preprocessedPricing": {
      "products": {},
      "simplePromotions": {},
      "basketPromotions": {}
    },
    "tosPricing": {
      "basketPromotions": []
    },
    "simplePricePlussa": false,
    "pricingUnit": "kpl",
    "referencePrice": {
      "_type": "Big",
      "value": "7.725"
    },
    "visiblePrice": {
      "_type": "Big",
      "value": "3.09"
    },
    "visiblePriceUnit": "kpl",
    "isDiscounted": false
  },
  {
    "ean": "6411402890917",
    "urlSlug": "vuoksenpiirakka-10-kpl-6411402890917",
    "name": "Omasta jauholeipomosta Vuoksenpiirakka 10 kpl",
    "pictureUrls": [
      {
        "original": "https://public.keskofiles.com/f/k-ruoka/product/6411402890917"
      }
    ],
    "section": "1442",
    "departmentId": "101",
    "contentUnit": "KG",
    "contentSize": 0.37,
    "netWeight": 0,
    "available": true,
    "isUtility": false,
    "preprocessedPricing": {
      "products": {},
      "simplePromotions": {},
      "basketPromotions": {}
    },
    "tosPricing": {
      "basketPromotions": []
    },
    "simplePricePlussa": false,
    "pricingUnit": "kpl",
    "referencePrice": {
      "_type": "Big",
      "value": "12.13513513513513513514"
    },
    "visiblePrice": {
      "_type": "Big",
      "value": "4.49"
    },
    "visiblePriceUnit": "kpl",
    "isDiscounted": false
  },
  {
    "ean": "7311070347289",
    "urlSlug": "pagen-gifflar-vanilja-korvapuusti-260g-7311070347289",
    "name": "Pågen gifflar vanilja korvapuusti 260g",
    "pictureUrls": [
      {
        "original": "https://public.keskofiles.com/f/k-ruoka/product/7311070347289"
      }
    ],
    "section": "1420",
    "departmentId": "101",
    "contentUnit": "KG",
    "contentSize": 0.26,
    "netWeight": 0.26,
    "available": true,
    "isUtility": false,
    "preprocessedPricing": {
      "products": {},
      "simplePromotions": {},
      "basketPromotions": {}
    },
    "tosPricing": {
      "basketPromotions": []
    },
    "simplePricePlussa": false,
    "pricingUnit": "kpl",
    "referencePrice": {
      "_type": "Big",
      "value": "7.65384615384615384615"
    },
    "visiblePrice": {
      "_type": "Big",
      "value": "1.99"
    },
    "visiblePriceUnit": "kpl",
    "isDiscounted": false
  },
  {
    "ean": "6410405213488",
    "urlSlug": "pirkka-parh-cocktpiir-6210g-riista-pa-6410405213488",
    "name": "Pirkka Parhaat kypsä cocktailpiirakka riista 6kpl/210g pakaste",
    "pictureUrls": [
      {
        "original": "https://public.keskofiles.com/f/k-ruoka/product/6410405213488"
      }
    ],
    "section": "1457",
    "departmentId": "107",
    "contentUnit": "KG",
    "contentSize": 0.21,
    "netWeight": 0.21,
    "available": true,
    "isUtility": false,
    "preprocessedPricing": {
      "products": {},
      "simplePromotions": {},
      "basketPromotions": {}
    },
    "tosPricing": {
      "basketPromotions": []
    },
    "simplePricePlussa": false,
    "pricingUnit": "kpl",
    "referencePrice": {
      "_type": "Big",
      "value": "9.47619047619047619048"
    },
    "visiblePrice": {
      "_type": "Big",
      "value": "1.99"
    },
    "visiblePriceUnit": "kpl",
    "isDiscounted": false
  },
  {
    "ean": "6410349879009",
    "urlSlug": "oululainen-kaurakorppu-180g-6410349879009",
    "name": "Oululainen kaurakorppu 180g",
    "pictureUrls": [
      {
        "original": "https://public.keskofiles.com/f/k-ruoka/product/6410349879009"
      }
    ],
    "section": "3911",
    "departmentId": "101",
    "contentUnit": "KG",
    "contentSize": 0.18,
    "netWeight": 0.18,
    "available": true,
    "isUtility": false,
    "preprocessedPricing": {
      "products": {},
      "simplePromotions": {},
      "basketPromotions": {}
    },
    "tosPricing": {
      "basketPromotions": []
    },
    "simplePricePlussa": false,
    "pricingUnit": "kpl",
    "referencePrice": {
      "_type": "Big",
      "value": "9.72222222222222222222"
    },
    "visiblePrice": {
      "_type": "Big",
      "value": "1.75"
    },
    "visiblePriceUnit": "kpl",
    "isDiscounted": false
  },
  {
    "ean": "6410405174161",
    "urlSlug": "pirkka-eleonora-murokeksi-175g-6410405174161",
    "name": "Pirkka Eleonora murokeksi 175g",
    "pictureUrls": [
      {
        "original": "https://public.keskofiles.com/f/k-ruoka/product/6410405174161"
      }
    ],
    "section": "3142",
    "departmentId": "101",
    "contentUnit": "KG",
    "contentSize": 0.175,
    "netWeight": 0.175,
    "available": true,
    "isUtility": false,
    "preprocessedPricing": {
      "products": {},
      "simplePromotions": {},
      "basketPromotions": {}
    },
    "tosPricing": {
      "basketPromotions": []
    },
    "simplePricePlussa": false,
    "pricingUnit": "kpl",
    "referencePrice": {
      "_type": "Big",
      "value": "7.71428571428571428571"
    },
    "visiblePrice": {
      "_type": "Big",
      "value": "1.35"
    },
    "visiblePriceUnit": "kpl",
    "isDiscounted": false
  },
  {
    "ean": "6431903311230",
    "urlSlug": "moilas-leipa-600g-tumma-gton-viip-pa-6431903311230",
    "name": "Moilas tumma leipä 600g gluteeniton, pakaste",
    "pictureUrls": [
      {
        "original": "https://public.keskofiles.com/f/k-ruoka/product/6431903311230"
      }
    ],
    "section": "1466",
    "departmentId": "107",
    "contentUnit": "KG",
    "contentSize": 0.6,
    "netWeight": 0.6,
    "available": true,
    "isUtility": false,
    "preprocessedPricing": {
      "products": {},
      "simplePromotions": {},
      "basketPromotions": {}
    },
    "tosPricing": {
      "basketPromotions": []
    },
    "simplePricePlussa": false,
    "pricingUnit": "kpl",
    "referencePrice": {
      "_type": "Big",
      "value": "6.58333333333333333333"
    },
    "visiblePrice": {
      "_type": "Big",
      "value": "3.95"
    },
    "visiblePriceUnit": "kpl",
    "isDiscounted": false
  },
  {
    "ean": "7300400481618",
    "urlSlug": "wasa-nakkileipa-220g-sesam-gourmet-7300400481618",
    "name": "Wasa näkkileipä 220g sesam gourmet",
    "pictureUrls": [
      {
        "original": "https://public.keskofiles.com/f/k-ruoka/product/7300400481618"
      }
    ],
    "section": "3901",
    "departmentId": "101",
    "contentUnit": "KG",
    "contentSize": 0.22,
    "netWeight": 0.22,
    "available": true,
    "isUtility": false,
    "preprocessedPricing": {
      "products": {},
      "simplePromotions": {},
      "basketPromotions": {}
    },
    "tosPricing": {
      "basketPromotions": []
    },
    "simplePricePlussa": false,
    "pricingUnit": "kpl",
    "referencePrice": {
      "_type": "Big",
      "value": "9.04545454545454545455"
    },
    "visiblePrice": {
      "_type": "Big",
      "value": "1.99"
    },
    "visiblePriceUnit": "kpl",
    "isDiscounted": false
  },
  {
    "ean": "6410402015672",
    "urlSlug": "pirkka-metsamansikanmak-vohveli-325g-6410402015672",
    "name": "Pirkka metsämansikanmakuinen vohveli 325g",
    "pictureUrls": [
      {
        "original": "https://public.keskofiles.com/f/k-ruoka/product/6410402015672"
      }
    ],
    "section": "3133",
    "departmentId": "101",
    "contentUnit": "KG",
    "contentSize": 0.325,
    "netWeight": 0.325,
    "available": true,
    "isUtility": false,
    "preprocessedPricing": {
      "products": {},
      "simplePromotions": {},
      "basketPromotions": {}
    },
    "tosPricing": {
      "basketPromotions": []
    },
    "simplePricePlussa": false,
    "pricingUnit": "kpl",
    "referencePrice": {
      "_type": "Big",
      "value": "5.69230769230769230769"
    },
    "visiblePrice": {
      "_type": "Big",
      "value": "1.85"
    },
    "visiblePriceUnit": "kpl",
    "isDiscounted": false
  },
  {
    "ean": "8710508770863",
    "urlSlug": "hellema-peanut-cookies-150g-8710508770863",
    "name": "Hellema Peanut Cookies 150g",
    "pictureUrls": [],
    "section": "3112",
    "departmentId": "101",
    "contentUnit": "KG",
    "contentSize": 0.15,
    "netWeight": 0.15,
    "available": true,
    "isUtility": false,
    "preprocessedPricing": {
      "products": {},
      "simplePromotions": {},
      "basketPromotions": {}
    },
    "tosPricing": {
      "basketPromotions": []
    },
    "simplePricePlussa": false,
    "pricingUnit": "kpl",
    "referencePrice": {
      "_type": "Big",
      "value": "8.33333333333333333333"
    },
    "visiblePrice": {
      "_type": "Big",
      "value": "1.25"
    },
    "visiblePriceUnit": "kpl",
    "isDiscounted": false
  },
  {
    "ean": "7310100571410",
    "urlSlug": "semper-korppu-150g-gton-7310100571410",
    "name": "Semper Kardemummakorput 150g gluteeniton keksi",
    "pictureUrls": [
      {
        "original": "https://public.keskofiles.com/f/k-ruoka/product/7310100571410"
      }
    ],
    "section": "3931",
    "departmentId": "101",
    "contentUnit": "KG",
    "contentSize": 0.15,
    "netWeight": 0.15,
    "available": true,
    "isUtility": false,
    "preprocessedPricing": {
      "products": {},
      "simplePromotions": {},
      "basketPromotions": {}
    },
    "tosPricing": {
      "basketPromotions": []
    },
    "simplePricePlussa": false,
    "pricingUnit": "kpl",
    "referencePrice": {
      "_type": "Big",
      "value": "34.33333333333333333333"
    },
    "visiblePrice": {
      "_type": "Big",
      "value": "5.15"
    },
    "visiblePriceUnit": "kpl",
    "isDiscounted": false
  },
  {
    "ean": "6430036731311",
    "urlSlug": "satumaista-kaurarieska-320g-6430036731311",
    "name": "Satumaista kaurarieska 320g",
    "pictureUrls": [
      {
        "original": "https://public.keskofiles.com/f/k-ruoka/product/6430036731311"
      }
    ],
    "section": "1416",
    "departmentId": "101",
    "contentUnit": "KG",
    "contentSize": 0.32,
    "netWeight": 0,
    "available": true,
    "isUtility": false,
    "preprocessedPricing": {
      "products": {},
      "simplePromotions": {},
      "basketPromotions": {}
    },
    "tosPricing": {
      "basketPromotions": []
    },
    "simplePricePlussa": false,
    "pricingUnit": "kpl",
    "referencePrice": {
      "_type": "Big",
      "value": "7.34375"
    },
    "visiblePrice": {
      "_type": "Big",
      "value": "2.35"
    },
    "visiblePriceUnit": "kpl",
    "isDiscounted": false
  },
  {
    "ean": "7311070337273",
    "urlSlug": "pagen-limppu-900g-7311070337273",
    "name": "PågenLimppu 900g viipaloitu sekaleipä",
    "pictureUrls": [
      {
        "original": "https://public.keskofiles.com/f/k-ruoka/product/7311070337273"
      }
    ],
    "section": "1418",
    "departmentId": "101",
    "contentUnit": "KG",
    "contentSize": 0.9,
    "netWeight": 0.9,
    "available": true,
    "isUtility": false,
    "preprocessedPricing": {
      "products": {},
      "simplePromotions": {},
      "basketPromotions": {}
    },
    "tosPricing": {
      "basketPromotions": []
    },
    "simplePricePlussa": false,
    "pricingUnit": "kpl",
    "referencePrice": {
      "_type": "Big",
      "value": "1.76666666666666666667"
    },
    "visiblePrice": {
      "_type": "Big",
      "value": "1.59"
    },
    "visiblePriceUnit": "kpl",
    "isDiscounted": true
  },
  {
    "ean": "7312930000955",
    "urlSlug": "almondy-marabou-400g-marenkikakku-pa-7312930000955",
    "name": "Almondy Marenkikakku Marabou 400 g",
    "pictureUrls": [
      {
        "original": "https://public.keskofiles.com/f/k-ruoka/product/7312930000955"
      }
    ],
    "section": "1435",
    "departmentId": "107",
    "contentUnit": "KG",
    "contentSize": 0.4,
    "netWeight": 0.4,
    "available": true,
    "isUtility": false,
    "preprocessedPricing": {
      "products": {},
      "simplePromotions": {},
      "basketPromotions": {}
    },
    "tosPricing": {
      "basketPromotions": []
    },
    "simplePricePlussa": false,
    "pricingUnit": "kpl",
    "referencePrice": {
      "_type": "Big",
      "value": "15.475"
    },
    "visiblePrice": {
      "_type": "Big",
      "value": "6.19"
    },
    "visiblePriceUnit": "kpl",
    "isDiscounted": false
  }
]