[
  {
    "ean": "5700551128516",
    "urlSlug": "bf-herkkuluutikku-kanafile-60kpl-660g-5700551128516",
    "name": "Best Friend Bones herkkuluutikku kanafile 60kpl 660g",
    "pictureUrls": [
      {
        "original": "https://public.keskofiles.com/f/k-ruoka/product/5700551128516"
      }
    ],
    "section": "3715",
    "departmentId": "110",
    "contentUnit": "KG",
    "contentSize": 0.66,
    "netWeight": 0.66,
    "available": true,
    "isUtility": false,
    "preprocessedPricing": {
      "products": {},
      "simplePromotions": {},
      "basketPromotions": {}
    },
    "tosPricing": {
      "basketPromotions": []
    },
    "simplePricePlussa": false,
    "pricingUnit": "kpl",
    "referencePrice": {
      "_type": "Big",
      "value": "14.92424242424242424242"
    },
    "visiblePrice": {
      "_type": "Big",
      "value": "9.85"
    },
    "visiblePriceUnit": "kpl",
    "isDiscounted": false
  },
  {
    "ean": "4008429087912",
    "urlSlug": "perfectfit-kissan-kuiva-750g-steril-kana-4008429087912",
    "name": "Perfect Fit 750g Adult Sterile kana",
    "pictureUrls": [
      {
        "original": "https://public.keskofiles.com/f/k-ruoka/product/4008429087912"
      }
    ],
    "section": "3701",
    "departmentId": "110",
    "contentUnit": "KG",
    "contentSize": 0.75,
    "netWeight": 0.75,
    "available": true,
    "isUtility": false,
    "preprocessedPricing": {
      "products": {},
      "simplePromotions": {},
      "basketPromotions": {}
    },
    "tosPricing": {
      "basketPromotions": []
    },
    "simplePricePlussa": false,
    "pricingUnit": "kpl",
    "referencePrice": {
      "_type": "Big",
      "value": "8.65333333333333333333"
    },
    "visiblePrice": {
      "_type": "Big",
      "value": "6.49"
    },
    "visiblePriceUnit": "kpl",
    "isDiscounted": false
  },
  {
    "ean": "7613035505049",
    "urlSlug": "beyond-koiran-kuivaru-2kg-lohi-bataatti-7613035505049",
    "name": "Purina Beyond 2kg Runsaasti Lohta, sisältää kauraa ja lisättyä bataattia",
    "pictureUrls": [
      {
        "original": "https://public.keskofiles.com/f/k-ruoka/product/7613035505049"
      }
    ],
    "section": "3712",
    "departmentId": "110",
    "contentUnit": "KG",
    "contentSize": 2,
    "netWeight": 2,
    "available": true,
    "isUtility": false,
    "preprocessedPricing": {
      "products": {},
      "simplePromotions": {},
      "basketPromotions": {}
    },
    "tosPricing": {
      "basketPromotions": []
    },
    "simplePricePlussa": false,
    "pricingUnit": "kpl",
    "referencePrice": {
      "_type": "Big",
      "value": "5.6"
    },
    "visiblePrice": {
      "_type": "Big",
      "value": "11.2"
    },
    "visiblePriceUnit": "kpl",
    "isDiscounted": false
  },
  {
    "ean": "7613034977014",
    "urlSlug": "gourmet-6x50g-mon-petit-kalalajitelma-7613034977014",
    "name": "Gourmet 6x50g Mon Petit Kalalajitelma",
    "pictureUrls": [
      {
        "original": "https://public.keskofiles.com/f/k-ruoka/product/7613034977014"
      }
    ],
    "section": "3707",
    "departmentId": "110",
    "contentUnit": "KG",
    "contentSize": 0.3,
    "netWeight": 0.3,
    "available": true,
    "isUtility": false,
    "preprocessedPricing": {
      "products": {},
      "simplePromotions": {},
      "basketPromotions": {}
    },
    "tosPricing": {
      "basketPromotions": []
    },
    "simplePricePlussa": false,
    "pricingUnit": "kpl",
    "referencePrice": {
      "_type": "Big",
      "value": "8.96666666666666666667"
    },
    "visiblePrice": {
      "_type": "Big",
      "value": "2.69"
    },
    "visiblePriceUnit": "kpl",
    "isDiscounted": false
  },
  {
    "ean": "8410136004773",
    "urlSlug": "whiskas-7-12x100g-lihalajitelma-kastik-8410136004773",
    "name": "WHISKAS 7+ 12x100g Lihalajitelma kastikkeessa, kana, häränliha, lammas, siipikarja, täysrehua yli 7-",
    "pictureUrls": [
      {
        "original": "https://public.keskofiles.com/f/k-ruoka/product/8410136004773"
      }
    ],
    "section": "3707",
    "departmentId": "110",
    "contentUnit": "KG",
    "contentSize": 1.2,
    "netWeight": 1.2,
    "available": true,
    "isUtility": false,
    "preprocessedPricing": {
      "products": {},
      "simplePromotions": {},
      "basketPromotions": {}
    },
    "tosPricing": {
      "basketPromotions": []
    },
    "simplePricePlussa": false,
    "pricingUnit": "kpl",
    "referencePrice": {
      "_type": "Big",
      "value": "3.45833333333333333333"
    },
    "visiblePrice": {
      "_type": "Big",
      "value": "4.15"
    },
    "visiblePriceUnit": "kpl",
    "isDiscounted": false
  },
  {
    "ean": "7613032959500",
    "urlSlug": "gourmet-gold-kastikelajitelma-4x85g-7613032959500",
    "name": "Gourmet Gold kastikelajitelma 4x85g kissanruoka",
    "pictureUrls": [
      {
        "original": "https://public.keskofiles.com/f/k-ruoka/product/7613032959500"
      }
    ],
    "section": "3700",
    "departmentId": "110",
    "contentUnit": "KG",
    "contentSize": 0.34,
    "netWeight": 0.34,
    "available": true,
    "isUtility": false,
    "preprocessedPricing": {
      "products": {},
      "simplePromotions": {},
      "basketPromotions": {}
    },
    "tosPricing": {
      "basketPromotions": []
    },
    "simplePricePlussa": false,
    "pricingUnit": "kpl",
    "referencePrice": {
      "_type": "Big",
      "value": "7.61764705882352941176"
    },
    "visiblePrice": {
      "_type": "Big",
      "value": "2.59"
    },
    "visiblePriceUnit": "kpl",
    "isDiscounted": false
  },
  {
    "ean": "5998749120613",
    "urlSlug": "frolic-koiranherkku-140g-turning-twists-5998749120613",
    "name": "Frolic Turning Twists 140g",
    "pictureUrls": [
      {
        "original": "https://public.keskofiles.com/f/k-ruoka/product/5998749120613"
      }
    ],
    "section": "3714",
    "departmentId": "110",
    "contentUnit": "KG",
    "contentSize": 0.14,
    "netWeight": 0.14,
    "available": true,
    "isUtility": false,
    "preprocessedPricing": {
      "products": {},
      "simplePromotions": {},
      "basketPromotions": {}
    },
    "tosPricing": {
      "basketPromotions": []
    },
    "simplePricePlussa": false,
    "pricingUnit": "kpl",
    "referencePrice": {
      "_type": "Big",
      "value": "12.85714285714285714286"
    },
    "visiblePrice": {
      "_type": "Big",
      "value": "1.8"
    },
    "visiblePriceUnit": "kpl",
    "isDiscounted": false
  },
  {
    "ean": "5700551127861",
    "urlSlug": "bf-bones-pururulla-kanafileella-20cm-2kp-5700551127861",
    "name": "Best Friend bones pururulla kanafileellä 20cm 2kpl 120g",
    "pictureUrls": [
      {
        "original": "https://public.keskofiles.com/f/k-ruoka/product/5700551127861"
      }
    ],
    "section": "3715",
    "departmentId": "110",
    "contentUnit": "KG",
    "contentSize": 0.12,
    "netWeight": 0.12,
    "available": true,
    "isUtility": false,
    "preprocessedPricing": {
      "products": {},
      "simplePromotions": {},
      "basketPromotions": {}
    },
    "tosPricing": {
      "basketPromotions": []
    },
    "simplePricePlussa": false,
    "pricingUnit": "kpl",
    "referencePrice": {
      "_type": "Big",
      "value": "24.08333333333333333333"
    },
    "visiblePrice": {
      "_type": "Big",
      "value": "2.89"
    },
    "visiblePriceUnit": "kpl",
    "isDiscounted": false
  },
  {
    "ean": "7613034976987",
    "urlSlug": "gourmet-6x50g-mon-petit-lihalajitelma-7613034976987",
    "name": "Gourmet 6x50g Mon Petit Lihalajitelma",
    "pictureUrls": [
      {
        "original": "https://public.keskofiles.com/f/k-ruoka/product/7613034976987"
      }
    ],
    "section": "3707",
    "departmentId": "110",
    "contentUnit": "KG",
    "contentSize": 0.3,
    "netWeight": 0.3,
    "available": true,
    "isUtility": false,
    "preprocessedPricing": {
      "products": {},
      "simplePromotions": {},
      "basketPromotions": {}
    },
    "tosPricing": {
      "basketPromotions": []
    },
    "simplePricePlussa": false,
    "pricingUnit": "kpl",
    "referencePrice": {
      "_type": "Big",
      "value": "8.96666666666666666667"
    },
    "visiblePrice": {
      "_type": "Big",
      "value": "2.69"
    },
    "visiblePriceUnit": "kpl",
    "isDiscounted": false
  },
  {
    "ean": "6420140901618",
    "urlSlug": "hau-hau-koiran-kevytsolmuluu-38cm-1kpl-6420140901618",
    "name": "Hau-Hau Champion Kevytsolmuluu 38 cm, 1 kpl",
    "pictureUrls": [
      {
        "original": "https://public.keskofiles.com/f/k-ruoka/product/6420140901618"
      }
    ],
    "section": "3718",
    "departmentId": "110",
    "contentUnit": "KG",
    "contentSize": 0.3,
    "netWeight": 0.32,
    "available": true,
    "isUtility": false,
    "preprocessedPricing": {
      "products": {},
      "simplePromotions": {},
      "basketPromotions": {}
    },
    "tosPricing": {
      "basketPromotions": []
    },
    "simplePricePlussa": false,
    "pricingUnit": "kpl",
    "referencePrice": {
      "_type": "Big",
      "value": "26.5"
    },
    "visiblePrice": {
      "_type": "Big",
      "value": "7.95"
    },
    "visiblePriceUnit": "kpl",
    "isDiscounted": false
  },
  {
    "ean": "5060122492874",
    "urlSlug": "encore-koiran-annosrasia-156g-kana-riisi-5060122492874",
    "name": "Encore koiran annosrasia 156g kana-riisi",
    "pictureUrls": [],
    "section": "3716",
    "departmentId": "110",
    "contentUnit": "KG",
    "contentSize": 0.156,
    "netWeight": 0.156,
    "available": true,
    "isUtility": false,
    "preprocessedPricing": {
      "products": {},
      "simplePromotions": {},
      "basketPromotions": {}
    },
    "tosPricing": {
      "basketPromotions": []
    },
    "simplePricePlussa": false,
    "pricingUnit": "kpl",
    "referencePrice": {
      "_type": "Big",
      "value": "13.3974358974358974359"
    },
    "visiblePrice": {
      "_type": "Big",
      "value": "2.09"
    },
    "visiblePriceUnit": "kpl",
    "isDiscounted": false
  },
  {
    "ean": "6430043027506",
    "urlSlug": "hhc-puruluurulla-kevyt-13cm-35kpl-700g-6430043027506",
    "name": "Hau-Hau Champion kevytrulla 13cm 35kpl 700g",
    "pictureUrls": [
      {
        "original": "https://public.keskofiles.com/f/k-ruoka/product/6430043027506"
      }
    ],
    "section": "3718",
    "departmentId": "110",
    "contentUnit": "KG",
    "contentSize": 0.7,
    "netWeight": 0.7,
    "available": true,
    "isUtility": false,
    "preprocessedPricing": {
      "products": {},
      "simplePromotions": {},
      "basketPromotions": {}
    },
    "tosPricing": {
      "basketPromotions": []
    },
    "simplePricePlussa": false,
    "pricingUnit": "kpl",
    "referencePrice": {
      "_type": "Big",
      "value": "16.57142857142857142857"
    },
    "visiblePrice": {
      "_type": "Big",
      "value": "11.6"
    },
    "visiblePriceUnit": "kpl",
    "isDiscounted": false
  },
  {
    "ean": "7613030963776",
    "urlSlug": "gourmet-perle-sea-delicacies-8x85g-7613030963776",
    "name": "Gourmet Perle Sea Delicacies lajitelma 8x85g kissanruoka",
    "pictureUrls": [
      {
        "original": "https://public.keskofiles.com/f/k-ruoka/product/7613030963776"
      }
    ],
    "section": "3707",
    "departmentId": "110",
    "contentUnit": "KG",
    "contentSize": 0.68,
    "netWeight": 0.68,
    "available": true,
    "isUtility": false,
    "preprocessedPricing": {
      "products": {},
      "simplePromotions": {},
      "basketPromotions": {}
    },
    "tosPricing": {
      "basketPromotions": []
    },
    "simplePricePlussa": false,
    "pricingUnit": "kpl",
    "referencePrice": {
      "_type": "Big",
      "value": "8.66176470588235294118"
    },
    "visiblePrice": {
      "_type": "Big",
      "value": "5.89"
    },
    "visiblePriceUnit": "kpl",
    "isDiscounted": false
  },
  {
    "ean": "3065890126510",
    "urlSlug": "whiskas-1kissan-annospss-kast-100g-lohi-3065890126510",
    "name": "WHISKAS 1+ 100g Lohta kastikkeessa, täysrehua aikuisille kissoille",
    "pictureUrls": [
      {
        "original": "https://public.keskofiles.com/f/k-ruoka/product/3065890126510"
      }
    ],
    "section": "3707",
    "departmentId": "110",
    "contentUnit": "KG",
    "contentSize": 0.1,
    "netWeight": 0.1,
    "available": true,
    "isUtility": false,
    "preprocessedPricing": {
      "products": {},
      "simplePromotions": {},
      "basketPromotions": {}
    },
    "tosPricing": {
      "basketPromotions": []
    },
    "simplePricePlussa": false,
    "pricingUnit": "kpl",
    "referencePrice": {
      "_type": "Big",
      "value": "5.7"
    },
    "visiblePrice": {
      "_type": "Big",
      "value": "0.57"
    },
    "visiblePriceUnit": "kpl",
    "isDiscounted": false
  },
  {
    "ean": "5700551127847",
    "urlSlug": "bf-bones-purutikku-kanafil-12cm-6kpl-5700551127847",
    "name": "Best Friend bones purutikku kanafileellä 12cm 6kpl 75g",
    "pictureUrls": [
      {
        "original": "https://public.keskofiles.com/f/k-ruoka/product/5700551127847"
      }
    ],
    "section": "3715",
    "departmentId": "110",
    "contentUnit": "KG",
    "contentSize": 0.075,
    "netWeight": 0.075,
    "available": true,
    "isUtility": false,
    "preprocessedPricing": {
      "products": {},
      "simplePromotions": {},
      "basketPromotions": {}
    },
    "tosPricing": {
      "basketPromotions": []
    },
    "simplePricePlussa": false,
    "pricingUnit": "kpl",
    "referencePrice": {
      "_type": "Big",
      "value": "25.2"
    },
    "visiblePrice": {
      "_type": "Big",
      "value": "1.89"
    },
    "visiblePriceUnit": "kpl",
    "isDiscounted": false
  },
  {
    "ean": "6430066380114",
    "urlSlug": "dagsmark-lappi-koiran-kuivaruoka-2kg-6430066380114",
    "name": "Dagsmark Lappi koiran kuivaruoka 2kg kotimainen",
    "pictureUrls": [],
    "section": "3712",
    "departmentId": "110",
    "contentUnit": "KG",
    "contentSize": 2,
    "netWeight": 2,
    "available": true,
    "isUtility": false,
    "preprocessedPricing": {
      "products": {},
      "simplePromotions": {},
      "basketPromotions": {}
    },
    "tosPricing": {
      "basketPromotions": []
    },
    "simplePricePlussa": false,
    "pricingUnit": "kpl",
    "referencePrice": {
      "_type": "Big",
      "value": "5.2"
    },
    "visiblePrice": {
      "_type": "Big",
      "value": "10.4"
    },
    "visiblePriceUnit": "kpl",
    "isDiscounted": false
  },
  {
    "ean": "7613032753849",
    "urlSlug": "friskies-kissan-kuivaruoka-15kg-sterile-7613032753849",
    "name": "Friskies Sterile Cats Lohta ja lisättyjä Kasviksia 1,5kg kissanruoka",
    "pictureUrls": [
      {
        "original": "https://public.keskofiles.com/f/k-ruoka/product/7613032753849"
      }
    ],
    "section": "3701",
    "departmentId": "110",
    "contentUnit": "KG",
    "contentSize": 1.5,
    "netWeight": 1.5,
    "available": true,
    "isUtility": false,
    "preprocessedPricing": {
      "products": {},
      "simplePromotions": {},
      "basketPromotions": {}
    },
    "tosPricing": {
      "basketPromotions": []
    },
    "simplePricePlussa": false,
    "pricingUnit": "kpl",
    "referencePrice": {
      "_type": "Big",
      "value": "4.1"
    },
    "visiblePrice": {
      "_type": "Big",
      "value": "6.15"
    },
    "visiblePriceUnit": "kpl",
    "isDiscounted": false
  },
  {
    "ean": "6410180045724",
    "urlSlug": "oscar-possuherkku-90g-6410180045724",
    "name": "Oscar possuherkku koirille ja kissoille 90g",
    "pictureUrls": [
      {
        "original": "https://public.keskofiles.com/f/k-ruoka/product/6410180045724"
      }
    ],
    "section": "3714",
    "departmentId": "110",
    "contentUnit": "KG",
    "contentSize": 0.09,
    "netWeight": 0.09,
    "available": true,
    "isUtility": false,
    "preprocessedPricing": {
      "products": {},
      "simplePromotions": {},
      "basketPromotions": {}
    },
    "tosPricing": {
      "basketPromotions": []
    },
    "simplePricePlussa": false,
    "pricingUnit": "kpl",
    "referencePrice": {
      "_type": "Big",
      "value": "32.11111111111111111111"
    },
    "visiblePrice": {
      "_type": "Big",
      "value": "2.89"
    },
    "visiblePriceUnit": "kpl",
    "isDiscounted": false
  },
  {
    "ean": "6410405195845",
    "urlSlug": "pirkka-siemensekoitus-linnuille-15kg-6410405195845",
    "name": "Pirkka siemensekoitus luonnonlinnuille 1,5kg",
    "pictureUrls": [
      {
        "original": "https://public.keskofiles.com/f/k-ruoka/product/6410405195845"
      }
    ],
    "section": "3739",
    "departmentId": "110",
    "contentUnit": "KG",
    "contentSize": 1.5,
    "netWeight": 1.5,
    "available": true,
    "isUtility": false,
    "preprocessedPricing": {
      "products": {},
      "simplePromotions": {},
      "basketPromotions": {}
    },
    "tosPricing": {
      "basketPromotions": []
    },
    "simplePricePlussa": false,
    "pricingUnit": "kpl",
    "referencePrice": {
      "_type": "Big",
      "value": "1.7"
    },
    "visiblePrice": {
      "_type": "Big",
      "value": "2.55"
    },
    "visiblePriceUnit": "kpl",
    "isDiscounted": false
  },
  {
    "ean": "7613034916693",
    "urlSlug": "adventuros-120g-sticks-buffalo-7613034916693",
    "name": "AdVENTuROS 120g Sticks Buffalon makuinen koiranherkku",
    "pictureUrls": [
      {
        "original": "https://public.keskofiles.com/f/k-ruoka/product/7613034916693"
      }
    ],
    "section": "3714",
    "departmentId": "110",
    "contentUnit": "KG",
    "contentSize": 0.12,
    "netWeight": 0.13,
    "available": true,
    "isUtility": false,
    "preprocessedPricing": {
      "products": {},
      "simplePromotions": {},
      "basketPromotions": {}
    },
    "tosPricing": {
      "basketPromotions": []
    },
    "simplePricePlussa": false,
    "pricingUnit": "kpl",
    "referencePrice": {
      "_type": "Big",
      "value": "13.75"
    },
    "visiblePrice": {
      "_type": "Big",
      "value": "1.65"
    },
    "visiblePriceUnit": "kpl",
    "isDiscounted": false,
    "discountType": "PLUSSA",
    "batchSize": 2,
    "batchPrice": {
      "_type": "Big",
      "value": "3"
    }
  },
  {
    "ean": "8714265973536",
    "urlSlug": "yarrah-koiran-annosrasia-150g-kana-luomu-8714265973536",
    "name": "Yarrah koiran annosrasia kana 150g bio",
    "pictureUrls": [
      {
        "original": "https://public.keskofiles.com/f/k-ruoka/product/8714265973536"
      }
    ],
    "section": "3716",
    "departmentId": "110",
    "contentUnit": "KG",
    "contentSize": 0.15,
    "netWeight": 0.15,
    "available": true,
    "isUtility": false,
    "preprocessedPricing": {
      "products": {},
      "simplePromotions": {},
      "basketPromotions": {}
    },
    "tosPricing": {
      "basketPromotions": []
    },
    "simplePricePlussa": false,
    "pricingUnit": "kpl",
    "referencePrice": {
      "_type": "Big",
      "value": "9"
    },
    "visiblePrice": {
      "_type": "Big",
      "value": "1.35"
    },
    "visiblePriceUnit": "kpl",
    "isDiscounted": false
  },
  {
    "ean": "4008429073717",
    "urlSlug": "whiskas-1-12x100g-siipikarja-kastik-4008429073717",
    "name": "WHISKAS 1+ 12x100g Siipikarjalajitelma kastikkeessa, kanaa, ankkaa, siipikarjaa, kalkkunaa, täysrehu",
    "pictureUrls": [
      {
        "original": "https://public.keskofiles.com/f/k-ruoka/product/4008429073717"
      }
    ],
    "section": "3707",
    "departmentId": "110",
    "contentUnit": "KG",
    "contentSize": 1.2,
    "netWeight": 1.2,
    "available": true,
    "isUtility": false,
    "preprocessedPricing": {
      "products": {},
      "simplePromotions": {},
      "basketPromotions": {}
    },
    "tosPricing": {
      "basketPromotions": []
    },
    "simplePricePlussa": false,
    "pricingUnit": "kpl",
    "referencePrice": {
      "_type": "Big",
      "value": "3.45833333333333333333"
    },
    "visiblePrice": {
      "_type": "Big",
      "value": "4.15"
    },
    "visiblePriceUnit": "kpl",
    "isDiscounted": false
  },
  {
    "ean": "4008429088032",
    "urlSlug": "perfectfit-kissan-kuiva-750g-steril-lohi-4008429088032",
    "name": "Perfect Fit 750g Adulty Sterile lohi",
    "pictureUrls": [
      {
        "original": "https://public.keskofiles.com/f/k-ruoka/product/4008429088032"
      }
    ],
    "section": "3701",
    "departmentId": "110",
    "contentUnit": "KG",
    "contentSize": 0.75,
    "netWeight": 0.75,
    "available": true,
    "isUtility": false,
    "preprocessedPricing": {
      "products": {},
      "simplePromotions": {},
      "basketPromotions": {}
    },
    "tosPricing": {
      "basketPromotions": []
    },
    "simplePricePlussa": false,
    "pricingUnit": "kpl",
    "referencePrice": {
      "_type": "Big",
      "value": "8.65333333333333333333"
    },
    "visiblePrice": {
      "_type": "Big",
      "value": "6.49"
    },
    "visiblePriceUnit": "kpl",
    "isDiscounted": false
  },
  {
    "ean": "6410180045748",
    "urlSlug": "oscar-mahaherkku-90g-6410180045748",
    "name": "Oscar mahaherkku 90g",
    "pictureUrls": [
      {
        "original": "https://public.keskofiles.com/f/k-ruoka/product/6410180045748"
      }
    ],
    "section": "3714",
    "departmentId": "110",
    "contentUnit": "KG",
    "contentSize": 0.09,
    "netWeight": 0.09,
    "available": true,
    "isUtility": false,
    "preprocessedPricing": {
      "products": {},
      "simplePromotions": {},
      "basketPromotions": {}
    },
    "tosPricing": {
      "basketPromotions": []
    },
    "simplePricePlussa": false,
    "pricingUnit": "kpl",
    "referencePrice": {
      "_type": "Big",
      "value": "32.11111111111111111111"
    },
    "visiblePrice": {
      "_type": "Big",
      "value": "2.89"
    },
    "visiblePriceUnit": "kpl",
    "isDiscounted": false
  },
  {
    "ean": "7613031608256",
    "urlSlug": "latz-agail-junior-12x100g-suosikklaj-hyy-7613031608256",
    "name": "Latz agail junior 12X100g suosikkilajitelma hyytelössä",
    "pictureUrls": [
      {
        "original": "https://public.keskofiles.com/f/k-ruoka/product/7613031608256"
      }
    ],
    "section": "3707",
    "departmentId": "110",
    "contentUnit": "KG",
    "contentSize": 1.2,
    "netWeight": 1.2,
    "available": true,
    "isUtility": false,
    "preprocessedPricing": {
      "products": {},
      "simplePromotions": {},
      "basketPromotions": {}
    },
    "tosPricing": {
      "basketPromotions": []
    },
    "simplePricePlussa": false,
    "pricingUnit": "kpl",
    "referencePrice": {
      "_type": "Big",
      "value": "3.24166666666666666667"
    },
    "visiblePrice": {
      "_type": "Big",
      "value": "3.89"
    },
    "visiblePriceUnit": "kpl",
    "isDiscounted": false,
    "discountType": "PLUSSA",
    "batchSize": 2,
    "batchPrice": {
      "_type": "Big",
      "value": "7.5"
    }
  },
  {
    "ean": "6430056886657",
    "urlSlug": "hau-hau-champ-ankkapururulla-15kpl-550g-6430056886657",
    "name": "Hau-Hau Champion herkkuluut ankkapururulla 15kpl 550g",
    "pictureUrls": [
      {
        "original": "https://public.keskofiles.com/f/k-ruoka/product/6430056886657"
      }
    ],
    "section": "3715",
    "departmentId": "110",
    "contentUnit": "KG",
    "contentSize": 0.55,
    "netWeight": 0.57,
    "available": true,
    "isUtility": false,
    "preprocessedPricing": {
      "products": {},
      "simplePromotions": {},
      "basketPromotions": {}
    },
    "tosPricing": {
      "basketPromotions": []
    },
    "simplePricePlussa": false,
    "pricingUnit": "kpl",
    "referencePrice": {
      "_type": "Big",
      "value": "20.81818181818181818182"
    },
    "visiblePrice": {
      "_type": "Big",
      "value": "11.45"
    },
    "visiblePriceUnit": "kpl",
    "isDiscounted": false
  },
  {
    "ean": "6438019005077",
    "urlSlug": "best-in-possunkorvasuikale-75g-6438019005077",
    "name": "Best-In possunkorvasuikale 75g luonnollinen makupala",
    "pictureUrls": [
      {
        "original": "https://public.keskofiles.com/f/k-ruoka/product/6438019005077"
      }
    ],
    "section": "3714",
    "departmentId": "110",
    "contentUnit": "KG",
    "contentSize": 0.075,
    "netWeight": 0.075,
    "available": true,
    "isUtility": false,
    "preprocessedPricing": {
      "products": {},
      "simplePromotions": {},
      "basketPromotions": {}
    },
    "tosPricing": {
      "basketPromotions": []
    },
    "simplePricePlussa": false,
    "pricingUnit": "kpl",
    "referencePrice": {
      "_type": "Big",
      "value": "59.86666666666666666667"
    },
    "visiblePrice": {
      "_type": "Big",
      "value": "4.49"
    },
    "visiblePriceUnit": "kpl",
    "isDiscounted": false
  },
  {
    "ean": "4008429089695",
    "urlSlug": "perfectfit-kissan-kuiva-14kg-indoor-4008429089695",
    "name": "Perfect Fit 1,4kg Indoor Sterile kanaa",
    "pictureUrls": [
      {
        "original": "https://public.keskofiles.com/f/k-ruoka/product/4008429089695"
      }
    ],
    "section": "3701",
    "departmentId": "110",
    "contentUnit": "KG",
    "contentSize": 1.4,
    "netWeight": 1.4,
    "available": true,
    "isUtility": false,
    "preprocessedPricing": {
      "products": {},
      "simplePromotions": {},
      "basketPromotions": {}
    },
    "tosPricing": {
      "basketPromotions": []
    },
    "simplePricePlussa": false,
    "pricingUnit": "kpl",
    "referencePrice": {
      "_type": "Big",
      "value": "7.53571428571428571429"
    },
    "visiblePrice": {
      "_type": "Big",
      "value": "10.55"
    },
    "visiblePriceUnit": "kpl",
    "isDiscounted": false
  },
  {
    "ean": "5700551128417",
    "urlSlug": "bf-bones-pururulla-kanafileella-37cm200g-5700551128417",
    "name": "BF Bones 37cm 1kpl 200g pururulla kanafileellä",
    "pictureUrls": [
      {
        "original": "https://public.keskofiles.com/f/k-ruoka/product/5700551128417"
      }
    ],
    "section": "3715",
    "departmentId": "110",
    "contentUnit": "KG",
    "contentSize": 0.2,
    "netWeight": 0.2,
    "available": true,
    "isUtility": false,
    "preprocessedPricing": {
      "products": {},
      "simplePromotions": {},
      "basketPromotions": {}
    },
    "tosPricing": {
      "basketPromotions": []
    },
    "simplePricePlussa": false,
    "pricingUnit": "kpl",
    "referencePrice": {
      "_type": "Big",
      "value": "31.75"
    },
    "visiblePrice": {
      "_type": "Big",
      "value": "6.35"
    },
    "visiblePriceUnit": "kpl",
    "isDiscounted": false
  },
  {
    "ean": "5700551210761",
    "urlSlug": "bf-bilanx-kissanruoka-750g-senior-5700551210761",
    "name": "Best Friend Bilanx senior 8+ kissan täysravinto 750g kana",
    "pictureUrls": [
      {
        "original": "https://public.keskofiles.com/f/k-ruoka/product/5700551210761"
      }
    ],
    "section": "3701",
    "departmentId": "110",
    "contentUnit": "KG",
    "contentSize": 0.75,
    "netWeight": 0.75,
    "available": true,
    "isUtility": false,
    "preprocessedPricing": {
      "products": {},
      "simplePromotions": {},
      "basketPromotions": {}
    },
    "tosPricing": {
      "basketPromotions": []
    },
    "simplePricePlussa": false,
    "pricingUnit": "kpl",
    "referencePrice": {
      "_type": "Big",
      "value": "4.92"
    },
    "visiblePrice": {
      "_type": "Big",
      "value": "3.69"
    },
    "visiblePriceUnit": "kpl",
    "isDiscounted": false
  }
]