[
  {
    "ean": "8005709299245",
    "urlSlug": "armando-punainen-linssipenne-250g-8005709299245",
    "name": "Armando La Penna punainen linssipenne 250g",
    "pictureUrls": [],
    "section": "3078",
    "departmentId": "115",
    "contentUnit": "KG",
    "contentSize": 0.25,
    "netWeight": 0.25,
    "available": true,
    "isUtility": false,
    "preprocessedPricing": {
      "products": {},
      "simplePromotions": {},
      "basketPromotions": {}
    },
    "tosPricing": {
      "basketPromotions": []
    },
    "simplePricePlussa": false,
    "pricingUnit": "kpl",
    "referencePrice": {
      "_type": "Big",
      "value": "15.96"
    },
    "visiblePrice": {
      "_type": "Big",
      "value": "3.99"
    },
    "visiblePriceUnit": "kpl",
    "isDiscounted": false
  },
  {
    "ean": "6428300002199",
    "urlSlug": "hankintat-calcia-800-vitamiini-140kpl-6428300002199",
    "name": "Hankintat Calcia 800 vitamiini 140kpl",
    "pictureUrls": [
      {
        "original": "https://public.keskofiles.com/f/k-ruoka/product/6428300002199"
      }
    ],
    "section": "4561",
    "departmentId": "115",
    "contentUnit": "KG",
    "contentSize": 0.234,
    "netWeight": 0.234,
    "available": true,
    "isUtility": false,
    "preprocessedPricing": {
      "products": {},
      "simplePromotions": {},
      "basketPromotions": {}
    },
    "tosPricing": {
      "basketPromotions": []
    },
    "simplePricePlussa": false,
    "pricingUnit": "kpl",
    "referencePrice": {
      "_type": "Big",
      "value": "44.87179487179487179487"
    },
    "visiblePrice": {
      "_type": "Big",
      "value": "10.5"
    },
    "visiblePriceUnit": "kpl",
    "isDiscounted": false
  },
  {
    "ean": "5412514222284",
    "urlSlug": "poco-loco-maissilastu-125g-juusto-5412514222284",
    "name": "Poco Loco Nacho Cheese 125g maissilastu",
    "pictureUrls": [
      {
        "original": "https://public.keskofiles.com/f/k-ruoka/product/5412514222284"
      }
    ],
    "section": "4710",
    "departmentId": "115",
    "contentUnit": "KG",
    "contentSize": 0.125,
    "netWeight": 0.125,
    "available": true,
    "isUtility": false,
    "preprocessedPricing": {
      "products": {},
      "simplePromotions": {},
      "basketPromotions": {}
    },
    "tosPricing": {
      "basketPromotions": []
    },
    "simplePricePlussa": false,
    "pricingUnit": "kpl",
    "referencePrice": {
      "_type": "Big",
      "value": "11.12"
    },
    "visiblePrice": {
      "_type": "Big",
      "value": "1.39"
    },
    "visiblePriceUnit": "kpl",
    "isDiscounted": false
  },
  {
    "ean": "6430011813346",
    "urlSlug": "spice-up-hoi-sin-kastike-260g-6430011813346",
    "name": "Spice Up Hoi sin kastike 260g",
    "pictureUrls": [
      {
        "original": "https://public.keskofiles.com/f/k-ruoka/product/6430011813346"
      }
    ],
    "section": "4602",
    "departmentId": "106",
    "contentUnit": "KG",
    "contentSize": 0.26,
    "netWeight": 0.26,
    "available": true,
    "isUtility": false,
    "preprocessedPricing": {
      "products": {},
      "simplePromotions": {},
      "basketPromotions": {}
    },
    "tosPricing": {
      "basketPromotions": []
    },
    "simplePricePlussa": false,
    "pricingUnit": "kpl",
    "referencePrice": {
      "_type": "Big",
      "value": "9.19230769230769230769"
    },
    "visiblePrice": {
      "_type": "Big",
      "value": "2.39"
    },
    "visiblePriceUnit": "kpl",
    "isDiscounted": false
  },
  {
    "ean": "6410405173331",
    "urlSlug": "pirkka-munanuudeli-250g-6410405173331",
    "name": "Pirkka munanuudeli 250g",
    "pictureUrls": [
      {
        "original": "https://public.keskofiles.com/f/k-ruoka/product/6410405173331"
      }
    ],
    "section": "3012",
    "departmentId": "115",
    "contentUnit": "KG",
    "contentSize": 0.25,
    "netWeight": 0.25,
    "available": true,
    "isUtility": false,
    "preprocessedPricing": {
      "products": {},
      "simplePromotions": {},
      "basketPromotions": {}
    },
    "tosPricing": {
      "basketPromotions": []
    },
    "simplePricePlussa": false,
    "pricingUnit": "kpl",
    "referencePrice": {
      "_type": "Big",
      "value": "5.96"
    },
    "visiblePrice": {
      "_type": "Big",
      "value": "1.49"
    },
    "visiblePriceUnit": "kpl",
    "isDiscounted": false,
    "discountType": "PLUSSA",
    "batchSize": 2,
    "batchPrice": {
      "_type": "Big",
      "value": "2.5"
    }
  },
  {
    "ean": "6430039220577",
    "urlSlug": "puhdistamo-luomu-viherjauhe-50g-6430039220577",
    "name": "Puhdistamo luomu viherjauhe 50g",
    "pictureUrls": [
      {
        "original": "https://public.keskofiles.com/f/k-ruoka/product/6430039220577"
      }
    ],
    "section": "4593",
    "departmentId": "115",
    "contentUnit": "KG",
    "contentSize": 0.05,
    "netWeight": 0.19,
    "available": true,
    "isUtility": false,
    "preprocessedPricing": {
      "products": {},
      "simplePromotions": {},
      "basketPromotions": {}
    },
    "tosPricing": {
      "basketPromotions": []
    },
    "simplePricePlussa": false,
    "pricingUnit": "kpl",
    "referencePrice": {
      "_type": "Big",
      "value": "319"
    },
    "visiblePrice": {
      "_type": "Big",
      "value": "15.95"
    },
    "visiblePriceUnit": "kpl",
    "isDiscounted": false
  },
  {
    "ean": "8857122559556",
    "urlSlug": "desiam-maapahkina-kookos-kastike-250ml-8857122559556",
    "name": "DeSiam Maapähkinä-kookos kastike 250ml",
    "pictureUrls": [
      {
        "original": "https://public.keskofiles.com/f/k-ruoka/product/8857122559556"
      }
    ],
    "section": "4612",
    "departmentId": "106",
    "contentUnit": "L",
    "contentSize": 0.25,
    "netWeight": 0.25,
    "available": true,
    "isUtility": false,
    "preprocessedPricing": {
      "products": {},
      "simplePromotions": {},
      "basketPromotions": {}
    },
    "tosPricing": {
      "basketPromotions": []
    },
    "simplePricePlussa": false,
    "pricingUnit": "kpl",
    "referencePrice": {
      "_type": "Big",
      "value": "11.96"
    },
    "visiblePrice": {
      "_type": "Big",
      "value": "2.99"
    },
    "visiblePriceUnit": "kpl",
    "isDiscounted": false
  },
  {
    "ean": "7610313411832",
    "urlSlug": "molkosan-maitoheravalmiste-500ml-7610313411832",
    "name": "Molkosan maitohappokäynyt heratiiviste 500ml laktoositon kaloriton",
    "pictureUrls": [
      {
        "original": "https://public.keskofiles.com/f/k-ruoka/product/7610313411832"
      }
    ],
    "section": "4539",
    "departmentId": "115",
    "contentUnit": "L",
    "contentSize": 0.5,
    "netWeight": 0.528,
    "available": true,
    "isUtility": false,
    "preprocessedPricing": {
      "products": {},
      "simplePromotions": {},
      "basketPromotions": {}
    },
    "tosPricing": {
      "basketPromotions": []
    },
    "simplePricePlussa": false,
    "pricingUnit": "kpl",
    "referencePrice": {
      "_type": "Big",
      "value": "27.5"
    },
    "visiblePrice": {
      "_type": "Big",
      "value": "13.75"
    },
    "visiblePriceUnit": "kpl",
    "isDiscounted": false
  },
  {
    "ean": "6437300000142",
    "urlSlug": "bassan-kartano-mustaherukkahyytelo-210g-6437300000142",
    "name": "Båssan Kartanon Mustaherukkahyytelö 210g",
    "pictureUrls": [
      {
        "original": "https://public.keskofiles.com/f/k-ruoka/product/6437300000142"
      }
    ],
    "section": "3207",
    "departmentId": "106",
    "contentUnit": "KG",
    "contentSize": 0.21,
    "netWeight": 0.21,
    "available": true,
    "isUtility": false,
    "preprocessedPricing": {
      "products": {},
      "simplePromotions": {},
      "basketPromotions": {}
    },
    "tosPricing": {
      "basketPromotions": []
    },
    "simplePricePlussa": false,
    "pricingUnit": "kpl",
    "referencePrice": {
      "_type": "Big",
      "value": "23.76190476190476190476"
    },
    "visiblePrice": {
      "_type": "Big",
      "value": "4.99"
    },
    "visiblePriceUnit": "kpl",
    "isDiscounted": false
  },
  {
    "ean": "6410530032237",
    "urlSlug": "vitabalans-karovit-beetakaroteeni-140kpl-6410530032237",
    "name": "Karovit Beetakaroteeni 6 mg 140 tabl 49,0 g",
    "pictureUrls": [
      {
        "original": "https://public.keskofiles.com/f/k-ruoka/product/6410530032237"
      }
    ],
    "section": "4539",
    "departmentId": "115",
    "contentUnit": "KPL",
    "contentSize": 140,
    "netWeight": 0.049,
    "available": true,
    "isUtility": false,
    "preprocessedPricing": {
      "products": {},
      "simplePromotions": {},
      "basketPromotions": {}
    },
    "tosPricing": {
      "basketPromotions": []
    },
    "simplePricePlussa": false,
    "pricingUnit": "kpl",
    "referencePrice": {
      "_type": "Big",
      "value": "0.05707142857142857143"
    },
    "visiblePrice": {
      "_type": "Big",
      "value": "7.99"
    },
    "visiblePriceUnit": "kpl",
    "isDiscounted": false
  },
  {
    "ean": "6430016134828",
    "urlSlug": "easy-diet-juustokeitto-49g-6430016134828",
    "name": "Leader ACKD Easy Diet 49 g juustokeittojauhe",
    "pictureUrls": [
      {
        "original": "https://public.keskofiles.com/f/k-ruoka/product/6430016134828"
      }
    ],
    "section": "4571",
    "departmentId": "115",
    "contentUnit": "KG",
    "contentSize": 0.049,
    "netWeight": 0.049,
    "available": true,
    "isUtility": false,
    "preprocessedPricing": {
      "products": {},
      "simplePromotions": {},
      "basketPromotions": {}
    },
    "tosPricing": {
      "basketPromotions": []
    },
    "simplePricePlussa": false,
    "pricingUnit": "kpl",
    "referencePrice": {
      "_type": "Big",
      "value": "46.73469387755102040816"
    },
    "visiblePrice": {
      "_type": "Big",
      "value": "2.29"
    },
    "visiblePriceUnit": "kpl",
    "isDiscounted": false
  },
  {
    "ean": "6430039221512",
    "urlSlug": "puhdistamo-hera-maustamaton-500g-luomu-6430039221512",
    "name": "Puhdistamo Hera Maustamaton 500g Luomu",
    "pictureUrls": [
      {
        "original": "https://public.keskofiles.com/f/k-ruoka/product/6430039221512"
      }
    ],
    "section": "4551",
    "departmentId": "115",
    "contentUnit": "KG",
    "contentSize": 0.5,
    "netWeight": 0.52,
    "available": true,
    "isUtility": false,
    "preprocessedPricing": {
      "products": {},
      "simplePromotions": {},
      "basketPromotions": {}
    },
    "tosPricing": {
      "basketPromotions": []
    },
    "simplePricePlussa": false,
    "pricingUnit": "kpl",
    "referencePrice": {
      "_type": "Big",
      "value": "39.8"
    },
    "visiblePrice": {
      "_type": "Big",
      "value": "19.9"
    },
    "visiblePriceUnit": "kpl",
    "isDiscounted": false
  },
  {
    "ean": "7070866017712",
    "urlSlug": "sana-sol-vitanallet-60kpl120g-7070866017712",
    "name": "Sana-sol Vitanallet monivitamiinivalmiste 60 kpl",
    "pictureUrls": [
      {
        "original": "https://public.keskofiles.com/f/k-ruoka/product/7070866017712"
      }
    ],
    "section": "4513",
    "departmentId": "115",
    "contentUnit": "KG",
    "contentSize": 0.12,
    "netWeight": 0.12,
    "available": true,
    "isUtility": false,
    "preprocessedPricing": {
      "products": {},
      "simplePromotions": {},
      "basketPromotions": {}
    },
    "tosPricing": {
      "basketPromotions": []
    },
    "simplePricePlussa": false,
    "pricingUnit": "kpl",
    "referencePrice": {
      "_type": "Big",
      "value": "74.16666666666666666667"
    },
    "visiblePrice": {
      "_type": "Big",
      "value": "8.9"
    },
    "visiblePriceUnit": "kpl",
    "isDiscounted": true
  },
  {
    "ean": "4010160000068",
    "urlSlug": "silicea-beauty-shots-30x15ml-4010160000068",
    "name": "Silicea beauty shots 30x15ml",
    "pictureUrls": [
      {
        "original": "https://public.keskofiles.com/f/k-ruoka/product/4010160000068"
      }
    ],
    "section": "4533",
    "departmentId": "115",
    "contentUnit": "L",
    "contentSize": 0.45,
    "netWeight": 0.45,
    "available": true,
    "isUtility": false,
    "preprocessedPricing": {
      "products": {},
      "simplePromotions": {},
      "basketPromotions": {}
    },
    "tosPricing": {
      "basketPromotions": []
    },
    "simplePricePlussa": false,
    "pricingUnit": "kpl",
    "referencePrice": {
      "_type": "Big",
      "value": "35.33333333333333333333"
    },
    "visiblePrice": {
      "_type": "Big",
      "value": "15.9"
    },
    "visiblePriceUnit": "kpl",
    "isDiscounted": true
  },
  {
    "ean": "6430043701932",
    "urlSlug": "cocovi-mct-oljy-500ml-6430043701932",
    "name": "Cocovi MCT-öljy 500ml",
    "pictureUrls": [
      {
        "original": "https://public.keskofiles.com/f/k-ruoka/product/6430043701932"
      }
    ],
    "section": "4593",
    "departmentId": "115",
    "contentUnit": "L",
    "contentSize": 0.5,
    "netWeight": 0.5,
    "available": true,
    "isUtility": false,
    "preprocessedPricing": {
      "products": {},
      "simplePromotions": {},
      "basketPromotions": {}
    },
    "tosPricing": {
      "basketPromotions": []
    },
    "simplePricePlussa": false,
    "pricingUnit": "kpl",
    "referencePrice": {
      "_type": "Big",
      "value": "28.8"
    },
    "visiblePrice": {
      "_type": "Big",
      "value": "14.4"
    },
    "visiblePriceUnit": "kpl",
    "isDiscounted": false
  },
  {
    "ean": "7312631410572",
    "urlSlug": "risenta-granola-375g-taateli-viikuna-luo-7312631410572",
    "name": "Risenta granola 375g taateli-viikuna luomu",
    "pictureUrls": [
      {
        "original": "https://public.keskofiles.com/f/k-ruoka/product/7312631410572"
      }
    ],
    "section": "3089",
    "departmentId": "115",
    "contentUnit": "KG",
    "contentSize": 0.375,
    "netWeight": 0.375,
    "available": true,
    "isUtility": false,
    "preprocessedPricing": {
      "products": {},
      "simplePromotions": {},
      "basketPromotions": {}
    },
    "tosPricing": {
      "basketPromotions": []
    },
    "simplePricePlussa": false,
    "pricingUnit": "kpl",
    "referencePrice": {
      "_type": "Big",
      "value": "13.57333333333333333333"
    },
    "visiblePrice": {
      "_type": "Big",
      "value": "5.09"
    },
    "visiblePriceUnit": "kpl",
    "isDiscounted": false
  },
  {
    "ean": "8410184033060",
    "urlSlug": "risella-taysjyvariisi-500g-luomu-8410184033060",
    "name": "Risella Luomu Täysjyväriisi 500g",
    "pictureUrls": [
      {
        "original": "https://public.keskofiles.com/f/k-ruoka/product/8410184033060"
      }
    ],
    "section": "3064",
    "departmentId": "115",
    "contentUnit": "KG",
    "contentSize": 0.5,
    "netWeight": 0.5,
    "available": true,
    "isUtility": false,
    "preprocessedPricing": {
      "products": {},
      "simplePromotions": {},
      "basketPromotions": {}
    },
    "tosPricing": {
      "basketPromotions": []
    },
    "simplePricePlussa": false,
    "pricingUnit": "kpl",
    "referencePrice": {
      "_type": "Big",
      "value": "5.58"
    },
    "visiblePrice": {
      "_type": "Big",
      "value": "2.79"
    },
    "visiblePriceUnit": "kpl",
    "isDiscounted": false
  },
  {
    "ean": "6430039221345",
    "urlSlug": "sprirulinajauhe-luomu-100g-6430039221345",
    "name": "Sprirulinajauhe, luomu 100g",
    "pictureUrls": [
      {
        "original": "https://public.keskofiles.com/f/k-ruoka/product/6430039221345"
      }
    ],
    "section": "4593",
    "departmentId": "115",
    "contentUnit": "KG",
    "contentSize": 0.1,
    "netWeight": 0,
    "available": true,
    "isUtility": false,
    "preprocessedPricing": {
      "products": {},
      "simplePromotions": {},
      "basketPromotions": {}
    },
    "tosPricing": {
      "basketPromotions": []
    },
    "simplePricePlussa": false,
    "pricingUnit": "kpl",
    "referencePrice": {
      "_type": "Big",
      "value": "129"
    },
    "visiblePrice": {
      "_type": "Big",
      "value": "12.9"
    },
    "visiblePriceUnit": "kpl",
    "isDiscounted": false
  },
  {
    "ean": "6419811101600",
    "urlSlug": "fazer-alku-kauramuro-400g-mansikka-6419811101600",
    "name": "Fazer Alku kauramuro 400g mansikka",
    "pictureUrls": [
      {
        "original": "https://public.keskofiles.com/f/k-ruoka/product/6419811101600"
      }
    ],
    "section": "3086",
    "departmentId": "115",
    "contentUnit": "KG",
    "contentSize": 0.4,
    "netWeight": 0.4,
    "available": true,
    "isUtility": false,
    "preprocessedPricing": {
      "products": {},
      "simplePromotions": {},
      "basketPromotions": {}
    },
    "tosPricing": {
      "basketPromotions": []
    },
    "simplePricePlussa": false,
    "pricingUnit": "kpl",
    "referencePrice": {
      "_type": "Big",
      "value": "12.475"
    },
    "visiblePrice": {
      "_type": "Big",
      "value": "4.99"
    },
    "visiblePriceUnit": "kpl",
    "isDiscounted": false
  },
  {
    "ean": "6430011813780",
    "urlSlug": "spice-up-satay-kastike-230g-6430011813780",
    "name": "Spice Up! Satay kastike 230g",
    "pictureUrls": [],
    "section": "4613",
    "departmentId": "115",
    "contentUnit": "KG",
    "contentSize": 0.23,
    "netWeight": 0.23,
    "available": true,
    "isUtility": false,
    "preprocessedPricing": {
      "products": {},
      "simplePromotions": {},
      "basketPromotions": {}
    },
    "tosPricing": {
      "basketPromotions": []
    },
    "simplePricePlussa": false,
    "pricingUnit": "kpl",
    "referencePrice": {
      "_type": "Big",
      "value": "12.13043478260869565217"
    },
    "visiblePrice": {
      "_type": "Big",
      "value": "2.79"
    },
    "visiblePriceUnit": "kpl",
    "isDiscounted": false
  },
  {
    "ean": "5201119006388",
    "urlSlug": "palirria--viinilehtia-440250g-5201119006388",
    "name": "Palirria viininlehtiä suolavedessä (n.50kpl) 440/250 g",
    "pictureUrls": [
      {
        "original": "https://public.keskofiles.com/f/k-ruoka/product/5201119006388"
      }
    ],
    "section": "3229",
    "departmentId": "115",
    "contentUnit": "KG",
    "contentSize": 0.25,
    "netWeight": 0.44,
    "available": true,
    "isUtility": false,
    "preprocessedPricing": {
      "products": {},
      "simplePromotions": {},
      "basketPromotions": {}
    },
    "tosPricing": {
      "basketPromotions": []
    },
    "simplePricePlussa": false,
    "pricingUnit": "kpl",
    "referencePrice": {
      "_type": "Big",
      "value": "15.4"
    },
    "visiblePrice": {
      "_type": "Big",
      "value": "3.85"
    },
    "visiblePriceUnit": "kpl",
    "isDiscounted": false
  },
  {
    "ean": "7311310035365",
    "urlSlug": "santa-maria-kastike-200ml-sriracha-sauce-7311310035365",
    "name": "Santa Maria Thai Chili & Garlic Sauce Sriracha 200 ml",
    "pictureUrls": [
      {
        "original": "https://public.keskofiles.com/f/k-ruoka/product/7311310035365"
      }
    ],
    "section": "4612",
    "departmentId": "106",
    "contentUnit": "L",
    "contentSize": 0.2,
    "netWeight": 0.248,
    "available": true,
    "isUtility": false,
    "preprocessedPricing": {
      "products": {},
      "simplePromotions": {},
      "basketPromotions": {}
    },
    "tosPricing": {
      "basketPromotions": []
    },
    "simplePricePlussa": false,
    "pricingUnit": "kpl",
    "referencePrice": {
      "_type": "Big",
      "value": "11.95"
    },
    "visiblePrice": {
      "_type": "Big",
      "value": "2.39"
    },
    "visiblePriceUnit": "kpl",
    "isDiscounted": false
  },
  {
    "ean": "7310130009372",
    "urlSlug": "gogreen-chia-siemen-270g-luomu-7310130009372",
    "name": "GoGreen Luomu chia siemenet 270g",
    "pictureUrls": [
      {
        "original": "https://public.keskofiles.com/f/k-ruoka/product/7310130009372"
      }
    ],
    "section": "3093",
    "departmentId": "115",
    "contentUnit": "KG",
    "contentSize": 0.27,
    "netWeight": 0.27,
    "available": true,
    "isUtility": false,
    "preprocessedPricing": {
      "products": {},
      "simplePromotions": {},
      "basketPromotions": {}
    },
    "tosPricing": {
      "basketPromotions": []
    },
    "simplePricePlussa": false,
    "pricingUnit": "kpl",
    "referencePrice": {
      "_type": "Big",
      "value": "12.55555555555555555556"
    },
    "visiblePrice": {
      "_type": "Big",
      "value": "3.39"
    },
    "visiblePriceUnit": "kpl",
    "isDiscounted": false
  },
  {
    "ean": "6428300003325",
    "urlSlug": "hankintat-zinkosan-sinkkic-vitam-120kpl-6428300003325",
    "name": "Hankintat Zinkosan sinkki+C-vitam 120kpl",
    "pictureUrls": [
      {
        "original": "https://public.keskofiles.com/f/k-ruoka/product/6428300003325"
      }
    ],
    "section": "4535",
    "departmentId": "115",
    "contentUnit": "KG",
    "contentSize": 0.06,
    "netWeight": 0.06,
    "available": true,
    "isUtility": false,
    "preprocessedPricing": {
      "products": {},
      "simplePromotions": {},
      "basketPromotions": {}
    },
    "tosPricing": {
      "basketPromotions": []
    },
    "simplePricePlussa": false,
    "pricingUnit": "kpl",
    "referencePrice": {
      "_type": "Big",
      "value": "99.16666666666666666667"
    },
    "visiblePrice": {
      "_type": "Big",
      "value": "5.95"
    },
    "visiblePriceUnit": "kpl",
    "isDiscounted": true
  },
  {
    "ean": "6409531655903",
    "urlSlug": "jalostaja-broileria-200142g-oljyssa-6409531655903",
    "name": "Jalostaja broileria öljyssä 200g/142g",
    "pictureUrls": [
      {
        "original": "https://public.keskofiles.com/f/k-ruoka/product/6409531655903"
      }
    ],
    "section": "3270",
    "departmentId": "115",
    "contentUnit": "KG",
    "contentSize": 0.142,
    "netWeight": 0.2,
    "available": true,
    "isUtility": false,
    "preprocessedPricing": {
      "products": {},
      "simplePromotions": {},
      "basketPromotions": {}
    },
    "tosPricing": {
      "basketPromotions": []
    },
    "simplePricePlussa": false,
    "pricingUnit": "kpl",
    "referencePrice": {
      "_type": "Big",
      "value": "22.18309859154929577465"
    },
    "visiblePrice": {
      "_type": "Big",
      "value": "3.15"
    },
    "visiblePriceUnit": "kpl",
    "isDiscounted": false
  },
  {
    "ean": "5702070005187",
    "urlSlug": "unitabs-melatoniini-1mg-30tabl11g-5702070005187",
    "name": "Unitabs melatoniini 1mg 30tabl",
    "pictureUrls": [
      {
        "original": "https://public.keskofiles.com/f/k-ruoka/product/5702070005187"
      }
    ],
    "section": "4539",
    "departmentId": "115",
    "contentUnit": "KPL",
    "contentSize": 30,
    "netWeight": 0.011,
    "available": true,
    "isUtility": false,
    "preprocessedPricing": {
      "products": {},
      "simplePromotions": {},
      "basketPromotions": {}
    },
    "tosPricing": {
      "basketPromotions": []
    },
    "simplePricePlussa": false,
    "pricingUnit": "kpl",
    "referencePrice": {
      "_type": "Big",
      "value": "0.14633333333333333333"
    },
    "visiblePrice": {
      "_type": "Big",
      "value": "4.39"
    },
    "visiblePriceUnit": "kpl",
    "isDiscounted": false
  },
  {
    "ean": "6417801801233",
    "urlSlug": "pauluns-450g-kanel-mante-omena-muromysli-6417801801233",
    "name": "Paulúns 450g kaneli, manteli ja omena granola muromysli",
    "pictureUrls": [
      {
        "original": "https://public.keskofiles.com/f/k-ruoka/product/6417801801233"
      }
    ],
    "section": "3089",
    "departmentId": "115",
    "contentUnit": "KG",
    "contentSize": 0.45,
    "netWeight": 0.45,
    "available": true,
    "isUtility": false,
    "preprocessedPricing": {
      "products": {},
      "simplePromotions": {},
      "basketPromotions": {}
    },
    "tosPricing": {
      "basketPromotions": []
    },
    "simplePricePlussa": false,
    "pricingUnit": "kpl",
    "referencePrice": {
      "_type": "Big",
      "value": "10.64444444444444444444"
    },
    "visiblePrice": {
      "_type": "Big",
      "value": "4.79"
    },
    "visiblePriceUnit": "kpl",
    "isDiscounted": false
  },
  {
    "ean": "6409520037017",
    "urlSlug": "kotitilan-savumuikkuja-210150g-oljy-6409520037017",
    "name": "Kotitilan savumuikkuja öljyssä 210g",
    "pictureUrls": [
      {
        "original": "https://public.keskofiles.com/f/k-ruoka/product/6409520037017"
      }
    ],
    "section": "3259",
    "departmentId": "115",
    "contentUnit": "KG",
    "contentSize": 0.15,
    "netWeight": 0.15,
    "available": true,
    "isUtility": false,
    "preprocessedPricing": {
      "products": {},
      "simplePromotions": {},
      "basketPromotions": {}
    },
    "tosPricing": {
      "basketPromotions": []
    },
    "simplePricePlussa": false,
    "pricingUnit": "kpl",
    "referencePrice": {
      "_type": "Big",
      "value": "39.93333333333333333333"
    },
    "visiblePrice": {
      "_type": "Big",
      "value": "5.99"
    },
    "visiblePriceUnit": "kpl",
    "isDiscounted": false
  },
  {
    "ean": "7311312000965",
    "urlSlug": "sm-tex-mex-tropical-salsa-medium-230g-7311312000965",
    "name": "SM Tex Mex Tropical Salsa medium 230g",
    "pictureUrls": [
      {
        "original": "https://public.keskofiles.com/f/k-ruoka/product/7311312000965"
      }
    ],
    "section": "4731",
    "departmentId": "115",
    "contentUnit": "KG",
    "contentSize": 0.23,
    "netWeight": 0.23,
    "available": true,
    "isUtility": false,
    "preprocessedPricing": {
      "products": {},
      "simplePromotions": {},
      "basketPromotions": {}
    },
    "tosPricing": {
      "basketPromotions": []
    },
    "simplePricePlussa": false,
    "pricingUnit": "kpl",
    "referencePrice": {
      "_type": "Big",
      "value": "13"
    },
    "visiblePrice": {
      "_type": "Big",
      "value": "2.99"
    },
    "visiblePriceUnit": "kpl",
    "isDiscounted": false
  },
  {
    "ean": "6413466121501",
    "urlSlug": "fazer-alku-karpalo-omena-kaurapuuro-400g-6413466121501",
    "name": "Fazer Alku Karpalo & Omena kaurapuuro 400g",
    "pictureUrls": [
      {
        "original": "https://public.keskofiles.com/f/k-ruoka/product/6413466121501"
      }
    ],
    "section": "3041",
    "departmentId": "115",
    "contentUnit": "KG",
    "contentSize": 0.4,
    "netWeight": 0.4,
    "available": true,
    "isUtility": false,
    "preprocessedPricing": {
      "products": {},
      "simplePromotions": {},
      "basketPromotions": {}
    },
    "tosPricing": {
      "basketPromotions": []
    },
    "simplePricePlussa": false,
    "pricingUnit": "kpl",
    "referencePrice": {
      "_type": "Big",
      "value": "9.225"
    },
    "visiblePrice": {
      "_type": "Big",
      "value": "3.69"
    },
    "visiblePriceUnit": "kpl",
    "isDiscounted": false
  }
]