[
  {
    "ean": "6410405203328",
    "urlSlug": "pirkka-guacamole-mausteseos-20g-6410405203328",
    "name": "Pirkka guacamolemausteseos 20g",
    "pictureUrls": [
      {
        "original": "https://public.keskofiles.com/f/k-ruoka/product/6410405203328"
      }
    ],
    "section": "4740",
    "departmentId": "115",
    "contentUnit": "KG",
    "contentSize": 0.02,
    "netWeight": 0.02,
    "available": true,
    "isUtility": false,
    "preprocessedPricing": {
      "products": {},
      "simplePromotions": {},
      "basketPromotions": {}
    },
    "tosPricing": {
      "basketPromotions": []
    },
    "simplePricePlussa": false,
    "pricingUnit": "kpl",
    "referencePrice": {
      "_type": "Big",
      "value": "44.5"
    },
    "visiblePrice": {
      "_type": "Big",
      "value": "0.89"
    },
    "visiblePriceUnit": "kpl",
    "isDiscounted": false
  },
  {
    "ean": "5201194037550",
    "urlSlug": "royal--aurkuiv-tom-215120gsuolali-5201194037550",
    "name": "Royal aurinkokuivattu tomaatti suolaliemessä 215/120g",
    "pictureUrls": [
      {
        "original": "https://public.keskofiles.com/f/k-ruoka/product/5201194037550"
      }
    ],
    "section": "3221",
    "departmentId": "115",
    "contentUnit": "KG",
    "contentSize": 0.12,
    "netWeight": 0.215,
    "available": true,
    "isUtility": false,
    "preprocessedPricing": {
      "products": {},
      "simplePromotions": {},
      "basketPromotions": {}
    },
    "tosPricing": {
      "basketPromotions": []
    },
    "simplePricePlussa": false,
    "pricingUnit": "kpl",
    "referencePrice": {
      "_type": "Big",
      "value": "19.08333333333333333333"
    },
    "visiblePrice": {
      "_type": "Big",
      "value": "2.29"
    },
    "visiblePriceUnit": "kpl",
    "isDiscounted": false
  },
  {
    "ean": "6410405046802",
    "urlSlug": "pirkka-pasta-penne-rigate-500g-6410405046802",
    "name": "Pirkka kuviopasta penne rigate 500 g",
    "pictureUrls": [
      {
        "original": "https://public.keskofiles.com/f/k-ruoka/product/6410405046802"
      }
    ],
    "section": "3074",
    "departmentId": "115",
    "contentUnit": "KG",
    "contentSize": 0.5,
    "netWeight": 0.5,
    "available": true,
    "isUtility": false,
    "preprocessedPricing": {
      "products": {},
      "simplePromotions": {},
      "basketPromotions": {}
    },
    "tosPricing": {
      "basketPromotions": []
    },
    "simplePricePlussa": false,
    "pricingUnit": "kpl",
    "referencePrice": {
      "_type": "Big",
      "value": "2.18"
    },
    "visiblePrice": {
      "_type": "Big",
      "value": "1.09"
    },
    "visiblePriceUnit": "kpl",
    "isDiscounted": false
  },
  {
    "ean": "5765228108048",
    "urlSlug": "urtekram-bulgur-500g-luomu-5765228108048",
    "name": "Urtekram bulgur 500g luomu",
    "pictureUrls": [
      {
        "original": "https://public.keskofiles.com/f/k-ruoka/product/5765228108048"
      }
    ],
    "section": "3059",
    "departmentId": "115",
    "contentUnit": "KG",
    "contentSize": 0.5,
    "netWeight": 0.5,
    "available": true,
    "isUtility": false,
    "preprocessedPricing": {
      "products": {},
      "simplePromotions": {},
      "basketPromotions": {}
    },
    "tosPricing": {
      "basketPromotions": []
    },
    "simplePricePlussa": false,
    "pricingUnit": "kpl",
    "referencePrice": {
      "_type": "Big",
      "value": "5.7"
    },
    "visiblePrice": {
      "_type": "Big",
      "value": "2.85"
    },
    "visiblePriceUnit": "kpl",
    "isDiscounted": false
  },
  {
    "ean": "6410405073891",
    "urlSlug": "pirkka-maissinjyvat-340g285g-6410405073891",
    "name": "Pirkka maissinjyvät suolaliemessä 340g/285g",
    "pictureUrls": [
      {
        "original": "https://public.keskofiles.com/f/k-ruoka/product/6410405073891"
      }
    ],
    "section": "3228",
    "departmentId": "115",
    "contentUnit": "KG",
    "contentSize": 0.285,
    "netWeight": 0.34,
    "available": true,
    "isUtility": false,
    "preprocessedPricing": {
      "products": {},
      "simplePromotions": {},
      "basketPromotions": {}
    },
    "tosPricing": {
      "basketPromotions": []
    },
    "simplePricePlussa": false,
    "pricingUnit": "kpl",
    "referencePrice": {
      "_type": "Big",
      "value": "3.12280701754385964912"
    },
    "visiblePrice": {
      "_type": "Big",
      "value": "0.89"
    },
    "visiblePriceUnit": "kpl",
    "isDiscounted": false
  },
  {
    "ean": "7322550037613",
    "urlSlug": "bla-band-lammin-kuppi-3x26g-mustikka-vad-7322550037613",
    "name": "Blå Band Lämmin Kuppi Frukt Mustikka-vadelmakeitto 3x26g",
    "pictureUrls": [
      {
        "original": "https://public.keskofiles.com/f/k-ruoka/product/7322550037613"
      }
    ],
    "section": "4016",
    "departmentId": "115",
    "contentUnit": "KG",
    "contentSize": 0.078,
    "netWeight": 0.078,
    "available": true,
    "isUtility": false,
    "preprocessedPricing": {
      "products": {},
      "simplePromotions": {},
      "basketPromotions": {}
    },
    "tosPricing": {
      "basketPromotions": []
    },
    "simplePricePlussa": false,
    "pricingUnit": "kpl",
    "referencePrice": {
      "_type": "Big",
      "value": "22.43589743589743589744"
    },
    "visiblePrice": {
      "_type": "Big",
      "value": "1.75"
    },
    "visiblePriceUnit": "kpl",
    "isDiscounted": false
  },
  {
    "ean": "6405632022620",
    "urlSlug": "familia-verde-valim-kasvrisotto-250g-luo-6405632022620",
    "name": "Familia Verde Luomu Välimeren kasvisrisotto 250g",
    "pictureUrls": [
      {
        "original": "https://public.keskofiles.com/f/k-ruoka/product/6405632022620"
      }
    ],
    "section": "4013",
    "departmentId": "115",
    "contentUnit": "KG",
    "contentSize": 0.25,
    "netWeight": 0.25,
    "available": true,
    "isUtility": false,
    "preprocessedPricing": {
      "products": {},
      "simplePromotions": {},
      "basketPromotions": {}
    },
    "tosPricing": {
      "basketPromotions": []
    },
    "simplePricePlussa": false,
    "pricingUnit": "kpl",
    "referencePrice": {
      "_type": "Big",
      "value": "11.96"
    },
    "visiblePrice": {
      "_type": "Big",
      "value": "2.99"
    },
    "visiblePriceUnit": "kpl",
    "isDiscounted": false
  },
  {
    "ean": "7310130003998",
    "urlSlug": "gogreen-kikherneet-290175g-luomu-7310130003998",
    "name": "GoGreen Kikherneet 290/175g Luomu",
    "pictureUrls": [
      {
        "original": "https://public.keskofiles.com/f/k-ruoka/product/7310130003998"
      }
    ],
    "section": "3222",
    "departmentId": "115",
    "contentUnit": "KG",
    "contentSize": 0.175,
    "netWeight": 0.29,
    "available": true,
    "isUtility": false,
    "preprocessedPricing": {
      "products": {},
      "simplePromotions": {},
      "basketPromotions": {}
    },
    "tosPricing": {
      "basketPromotions": []
    },
    "simplePricePlussa": false,
    "pricingUnit": "kpl",
    "referencePrice": {
      "_type": "Big",
      "value": "7.37142857142857142857"
    },
    "visiblePrice": {
      "_type": "Big",
      "value": "1.29"
    },
    "visiblePriceUnit": "kpl",
    "isDiscounted": false
  },
  {
    "ean": "8008343700481",
    "urlSlug": "rummo-fusilli-no-48-500g-taysjyva-luomu-8008343700481",
    "name": "Rummo fusilli No 48 täysjyväpasta 500g luomu",
    "pictureUrls": [
      {
        "original": "https://public.keskofiles.com/f/k-ruoka/product/8008343700481"
      }
    ],
    "section": "3074",
    "departmentId": "115",
    "contentUnit": "KG",
    "contentSize": 0.5,
    "netWeight": 0.5,
    "available": true,
    "isUtility": false,
    "preprocessedPricing": {
      "products": {},
      "simplePromotions": {},
      "basketPromotions": {}
    },
    "tosPricing": {
      "basketPromotions": []
    },
    "simplePricePlussa": false,
    "pricingUnit": "kpl",
    "referencePrice": {
      "_type": "Big",
      "value": "4.58"
    },
    "visiblePrice": {
      "_type": "Big",
      "value": "2.29"
    },
    "visiblePriceUnit": "kpl",
    "isDiscounted": false
  },
  {
    "ean": "6430051519215",
    "urlSlug": "leader-melatoniini-19mg-80tab25g-6430051519215",
    "name": "Leader vahva melatoniini 1,9mg 80tabl./25g",
    "pictureUrls": [
      {
        "original": "https://public.keskofiles.com/f/k-ruoka/product/6430051519215"
      }
    ],
    "section": "4539",
    "departmentId": "115",
    "contentUnit": "KPL",
    "contentSize": 80,
    "netWeight": 0.025,
    "available": true,
    "isUtility": false,
    "preprocessedPricing": {
      "products": {},
      "simplePromotions": {},
      "basketPromotions": {}
    },
    "tosPricing": {
      "basketPromotions": []
    },
    "simplePricePlussa": false,
    "pricingUnit": "kpl",
    "referencePrice": {
      "_type": "Big",
      "value": "0.119375"
    },
    "visiblePrice": {
      "_type": "Big",
      "value": "9.55"
    },
    "visiblePriceUnit": "kpl",
    "isDiscounted": false
  },
  {
    "ean": "6410402011841",
    "urlSlug": "pirkka-tomaatti-500g-paseerattu-6410402011841",
    "name": "Pirkka paseerattu tomaatti 500 g",
    "pictureUrls": [
      {
        "original": "https://public.keskofiles.com/f/k-ruoka/product/6410402011841"
      }
    ],
    "section": "3220",
    "departmentId": "115",
    "contentUnit": "KG",
    "contentSize": 0.5,
    "netWeight": 0.5,
    "available": true,
    "isUtility": false,
    "preprocessedPricing": {
      "products": {},
      "simplePromotions": {},
      "basketPromotions": {}
    },
    "tosPricing": {
      "basketPromotions": []
    },
    "simplePricePlussa": false,
    "pricingUnit": "kpl",
    "referencePrice": {
      "_type": "Big",
      "value": "1.58"
    },
    "visiblePrice": {
      "_type": "Big",
      "value": "0.79"
    },
    "visiblePriceUnit": "kpl",
    "isDiscounted": false
  },
  {
    "ean": "7322550038306",
    "urlSlug": "bla-band-pata-aines-150g-italian-pata-7322550038306",
    "name": "Blå Band Italian Pata 150g",
    "pictureUrls": [
      {
        "original": "https://public.keskofiles.com/f/k-ruoka/product/7322550038306"
      }
    ],
    "section": "4011",
    "departmentId": "115",
    "contentUnit": "KG",
    "contentSize": 0.15,
    "netWeight": 0.15,
    "available": true,
    "isUtility": false,
    "preprocessedPricing": {
      "products": {},
      "simplePromotions": {},
      "basketPromotions": {}
    },
    "tosPricing": {
      "basketPromotions": []
    },
    "simplePricePlussa": false,
    "pricingUnit": "kpl",
    "referencePrice": {
      "_type": "Big",
      "value": "14.6"
    },
    "visiblePrice": {
      "_type": "Big",
      "value": "2.19"
    },
    "visiblePriceUnit": "kpl",
    "isDiscounted": false
  },
  {
    "ean": "6424908114692",
    "urlSlug": "felix-maustekurkkukuutio-410250g-6424908114692",
    "name": "Felix maustekurkkukuutio 410/250 g",
    "pictureUrls": [
      {
        "original": "https://public.keskofiles.com/f/k-ruoka/product/6424908114692"
      }
    ],
    "section": "3225",
    "departmentId": "115",
    "contentUnit": "KG",
    "contentSize": 0.25,
    "netWeight": 0.41,
    "available": true,
    "isUtility": false,
    "preprocessedPricing": {
      "products": {},
      "simplePromotions": {},
      "basketPromotions": {}
    },
    "tosPricing": {
      "basketPromotions": []
    },
    "simplePricePlussa": false,
    "pricingUnit": "kpl",
    "referencePrice": {
      "_type": "Big",
      "value": "6.6"
    },
    "visiblePrice": {
      "_type": "Big",
      "value": "1.65"
    },
    "visiblePriceUnit": "kpl",
    "isDiscounted": false
  },
  {
    "ean": "8850987142604",
    "urlSlug": "mama-taysjyvanuudeli-60g-kananmakuinen-8850987142604",
    "name": "Mama Kananmakuinen täysijyvänuudeli 60g",
    "pictureUrls": [
      {
        "original": "https://public.keskofiles.com/f/k-ruoka/product/8850987142604"
      }
    ],
    "section": "4015",
    "departmentId": "115",
    "contentUnit": "KG",
    "contentSize": 0.06,
    "netWeight": 0.06,
    "available": true,
    "isUtility": false,
    "preprocessedPricing": {
      "products": {},
      "simplePromotions": {},
      "basketPromotions": {}
    },
    "tosPricing": {
      "basketPromotions": []
    },
    "simplePricePlussa": false,
    "pricingUnit": "kpl",
    "referencePrice": {
      "_type": "Big",
      "value": "10.33333333333333333333"
    },
    "visiblePrice": {
      "_type": "Big",
      "value": "0.62"
    },
    "visiblePriceUnit": "kpl",
    "isDiscounted": false
  },
  {
    "ean": "6410405139351",
    "urlSlug": "k-menu-pitkajyvainen-riisi-1kg-6410405139351",
    "name": "K-Menu pitkäjyväinen riisi 1kg",
    "pictureUrls": [
      {
        "original": "https://public.keskofiles.com/f/k-ruoka/product/6410405139351"
      }
    ],
    "section": "3061",
    "departmentId": "115",
    "contentUnit": "KG",
    "contentSize": 1,
    "netWeight": 1,
    "available": true,
    "isUtility": false,
    "preprocessedPricing": {
      "products": {},
      "simplePromotions": {},
      "basketPromotions": {}
    },
    "tosPricing": {
      "basketPromotions": []
    },
    "simplePricePlussa": false,
    "pricingUnit": "kpl",
    "referencePrice": {
      "_type": "Big",
      "value": "0.76"
    },
    "visiblePrice": {
      "_type": "Big",
      "value": "0.76"
    },
    "visiblePriceUnit": "kpl",
    "isDiscounted": false
  },
  {
    "ean": "6410405138491",
    "urlSlug": "k-menu-herkkusieni-190115g-kokonainen-6410405138491",
    "name": "K-Menu herkkusienet suolaliemessä 190/115g",
    "pictureUrls": [
      {
        "original": "https://public.keskofiles.com/f/k-ruoka/product/6410405138491"
      }
    ],
    "section": "3240",
    "departmentId": "115",
    "contentUnit": "KG",
    "contentSize": 0.115,
    "netWeight": 0.19,
    "available": true,
    "isUtility": false,
    "preprocessedPricing": {
      "products": {},
      "simplePromotions": {},
      "basketPromotions": {}
    },
    "tosPricing": {
      "basketPromotions": []
    },
    "simplePricePlussa": false,
    "pricingUnit": "kpl",
    "referencePrice": {
      "_type": "Big",
      "value": "5.65217391304347826087"
    },
    "visiblePrice": {
      "_type": "Big",
      "value": "0.65"
    },
    "visiblePriceUnit": "kpl",
    "isDiscounted": false
  },
  {
    "ean": "6411200109723",
    "urlSlug": "torino-taysjyvamakaroni-400g-6411200109723",
    "name": "Torino täysjyvä makaroni 400g",
    "pictureUrls": [
      {
        "original": "https://public.keskofiles.com/f/k-ruoka/product/6411200109723"
      }
    ],
    "section": "3070",
    "departmentId": "115",
    "contentUnit": "KG",
    "contentSize": 0.4,
    "netWeight": 0.4,
    "available": true,
    "isUtility": false,
    "preprocessedPricing": {
      "products": {},
      "simplePromotions": {},
      "basketPromotions": {}
    },
    "tosPricing": {
      "basketPromotions": []
    },
    "simplePricePlussa": false,
    "pricingUnit": "kpl",
    "referencePrice": {
      "_type": "Big",
      "value": "2.475"
    },
    "visiblePrice": {
      "_type": "Big",
      "value": "0.99"
    },
    "visiblePriceUnit": "kpl",
    "isDiscounted": false
  },
  {
    "ean": "6419800121220",
    "urlSlug": "teho-sport-pal-juo-kh-033l-valkosuklaa-6419800121220",
    "name": "TEHO Sport pal.juo KH 0,33L valkosuklaa",
    "pictureUrls": [
      {
        "original": "https://public.keskofiles.com/f/k-ruoka/product/6419800121220"
      }
    ],
    "section": "4554",
    "departmentId": "115",
    "contentUnit": "L",
    "contentSize": 0.33,
    "netWeight": 0.35,
    "available": true,
    "isUtility": false,
    "preprocessedPricing": {
      "products": {},
      "simplePromotions": {},
      "basketPromotions": {}
    },
    "tosPricing": {
      "basketPromotions": []
    },
    "simplePricePlussa": false,
    "pricingUnit": "kpl",
    "referencePrice": {
      "_type": "Big",
      "value": "5"
    },
    "visiblePrice": {
      "_type": "Big",
      "value": "1.65"
    },
    "visiblePriceUnit": "kpl",
    "isDiscounted": false
  },
  {
    "ean": "5010338303006",
    "urlSlug": "blue-dragon-sushi-nori-11g-paahd-merile-5010338303006",
    "name": "Blue Dragon Sushi Nori 5kpl paahdettu merilevä 11g",
    "pictureUrls": [
      {
        "original": "https://public.keskofiles.com/f/k-ruoka/product/5010338303006"
      }
    ],
    "section": "4629",
    "departmentId": "115",
    "contentUnit": "KG",
    "contentSize": 0.011,
    "netWeight": 0.011,
    "available": true,
    "isUtility": false,
    "preprocessedPricing": {
      "products": {},
      "simplePromotions": {},
      "basketPromotions": {}
    },
    "tosPricing": {
      "basketPromotions": []
    },
    "simplePricePlussa": false,
    "pricingUnit": "kpl",
    "referencePrice": {
      "_type": "Big",
      "value": "204.54545454545454545455"
    },
    "visiblePrice": {
      "_type": "Big",
      "value": "2.25"
    },
    "visiblePriceUnit": "kpl",
    "isDiscounted": false
  },
  {
    "ean": "6426000004741",
    "urlSlug": "hungry-chef-sunsweet-luumumarmeladi-190g-6426000004741",
    "name": "Hungry Chef Sunsweet Luumumarmeladi 190g",
    "pictureUrls": [
      {
        "original": "https://public.keskofiles.com/f/k-ruoka/product/6426000004741"
      }
    ],
    "section": "3204",
    "departmentId": "106",
    "contentUnit": "KG",
    "contentSize": 0.19,
    "netWeight": 0.19,
    "available": true,
    "isUtility": false,
    "preprocessedPricing": {
      "products": {},
      "simplePromotions": {},
      "basketPromotions": {}
    },
    "tosPricing": {
      "basketPromotions": []
    },
    "simplePricePlussa": false,
    "pricingUnit": "kpl",
    "referencePrice": {
      "_type": "Big",
      "value": "7.84210526315789473684"
    },
    "visiblePrice": {
      "_type": "Big",
      "value": "1.49"
    },
    "visiblePriceUnit": "kpl",
    "isDiscounted": true
  },
  {
    "ean": "6430046691452",
    "urlSlug": "berrypicker-250g-mustikkamuro-luomu-6430046691452",
    "name": "Berrypicker 250g mustikkamuro LUOMU",
    "pictureUrls": [],
    "section": "3085",
    "departmentId": "115",
    "contentUnit": "KG",
    "contentSize": 0.25,
    "netWeight": 0.25,
    "available": true,
    "isUtility": false,
    "preprocessedPricing": {
      "products": {},
      "simplePromotions": {},
      "basketPromotions": {}
    },
    "tosPricing": {
      "basketPromotions": []
    },
    "simplePricePlussa": false,
    "pricingUnit": "kpl",
    "referencePrice": {
      "_type": "Big",
      "value": "17.16"
    },
    "visiblePrice": {
      "_type": "Big",
      "value": "4.29"
    },
    "visiblePriceUnit": "kpl",
    "isDiscounted": false
  },
  {
    "ean": "7311310035891",
    "urlSlug": "santa-maria-thai-coconut-milk-400ml-org--7311310035891",
    "name": "Santa Maria Thai Organic Coconut Milk kookosmaito luomu 400ml",
    "pictureUrls": [
      {
        "original": "https://public.keskofiles.com/f/k-ruoka/product/7311310035891"
      }
    ],
    "section": "4614",
    "departmentId": "115",
    "contentUnit": "L",
    "contentSize": 0.4,
    "netWeight": 0.4,
    "available": true,
    "isUtility": false,
    "preprocessedPricing": {
      "products": {},
      "simplePromotions": {},
      "basketPromotions": {}
    },
    "tosPricing": {
      "basketPromotions": []
    },
    "simplePricePlussa": false,
    "pricingUnit": "kpl",
    "referencePrice": {
      "_type": "Big",
      "value": "4.725"
    },
    "visiblePrice": {
      "_type": "Big",
      "value": "1.89"
    },
    "visiblePriceUnit": "kpl",
    "isDiscounted": false
  },
  {
    "ean": "5053827190466",
    "urlSlug": "kelloggs-crunchy-musli-peanut-450g-5053827190466",
    "name": "Kellogg's Crunchy Müsli Peanut Butter 450g",
    "pictureUrls": [
      {
        "original": "https://public.keskofiles.com/f/k-ruoka/product/5053827190466"
      }
    ],
    "section": "3089",
    "departmentId": "115",
    "contentUnit": "KG",
    "contentSize": 0.45,
    "netWeight": 0.45,
    "available": true,
    "isUtility": false,
    "preprocessedPricing": {
      "products": {},
      "simplePromotions": {},
      "basketPromotions": {}
    },
    "tosPricing": {
      "basketPromotions": []
    },
    "simplePricePlussa": false,
    "pricingUnit": "kpl",
    "referencePrice": {
      "_type": "Big",
      "value": "9.08888888888888888889"
    },
    "visiblePrice": {
      "_type": "Big",
      "value": "4.09"
    },
    "visiblePriceUnit": "kpl",
    "isDiscounted": false
  },
  {
    "ean": "6428300003363",
    "urlSlug": "hankintat-magnesan-100kpl-60g-6428300003363",
    "name": "Hankintat Magnesan 100kpl 60g",
    "pictureUrls": [
      {
        "original": "https://public.keskofiles.com/f/k-ruoka/product/6428300003363"
      }
    ],
    "section": "4560",
    "departmentId": "115",
    "contentUnit": "KG",
    "contentSize": 0.06,
    "netWeight": 0.06,
    "available": true,
    "isUtility": false,
    "preprocessedPricing": {
      "products": {},
      "simplePromotions": {},
      "basketPromotions": {}
    },
    "tosPricing": {
      "basketPromotions": []
    },
    "simplePricePlussa": false,
    "pricingUnit": "kpl",
    "referencePrice": {
      "_type": "Big",
      "value": "84.83333333333333333333"
    },
    "visiblePrice": {
      "_type": "Big",
      "value": "5.09"
    },
    "visiblePriceUnit": "kpl",
    "isDiscounted": false
  },
  {
    "ean": "7316150374377",
    "urlSlug": "fontana-paprika-500360g-kokon-grillattu-7316150374377",
    "name": "Fontana paprika kokonaisia ja grillattuja 500 g/360 g",
    "pictureUrls": [
      {
        "original": "https://public.keskofiles.com/f/k-ruoka/product/7316150374377"
      }
    ],
    "section": "3229",
    "departmentId": "115",
    "contentUnit": "KG",
    "contentSize": 0.36,
    "netWeight": 0.5,
    "available": true,
    "isUtility": false,
    "preprocessedPricing": {
      "products": {},
      "simplePromotions": {},
      "basketPromotions": {}
    },
    "tosPricing": {
      "basketPromotions": []
    },
    "simplePricePlussa": false,
    "pricingUnit": "kpl",
    "referencePrice": {
      "_type": "Big",
      "value": "14.97222222222222222222"
    },
    "visiblePrice": {
      "_type": "Big",
      "value": "5.39"
    },
    "visiblePriceUnit": "kpl",
    "isDiscounted": false
  },
  {
    "ean": "8076809570657",
    "urlSlug": "barilla-pasta-500g-spaghetti-luomu-8076809570657",
    "name": "Barilla Luomu Spaghetti Pasta 500g",
    "pictureUrls": [
      {
        "original": "https://public.keskofiles.com/f/k-ruoka/product/8076809570657"
      }
    ],
    "section": "3071",
    "departmentId": "115",
    "contentUnit": "KG",
    "contentSize": 0.5,
    "netWeight": 0.5,
    "available": true,
    "isUtility": false,
    "preprocessedPricing": {
      "products": {},
      "simplePromotions": {},
      "basketPromotions": {}
    },
    "tosPricing": {
      "basketPromotions": []
    },
    "simplePricePlussa": false,
    "pricingUnit": "kpl",
    "referencePrice": {
      "_type": "Big",
      "value": "4.3"
    },
    "visiblePrice": {
      "_type": "Big",
      "value": "2.15"
    },
    "visiblePriceUnit": "kpl",
    "isDiscounted": false
  },
  {
    "ean": "6412000015658",
    "urlSlug": "saarioinen-balsamiviinietikka-kast-345ml-6412000015658",
    "name": "Saarioinen balsamiviinietikka kastike 345ml/350g",
    "pictureUrls": [
      {
        "original": "https://public.keskofiles.com/f/k-ruoka/product/6412000015658"
      }
    ],
    "section": "4172",
    "departmentId": "115",
    "contentUnit": "L",
    "contentSize": 0.345,
    "netWeight": 0.35,
    "available": true,
    "isUtility": false,
    "preprocessedPricing": {
      "products": {},
      "simplePromotions": {},
      "basketPromotions": {}
    },
    "tosPricing": {
      "basketPromotions": []
    },
    "simplePricePlussa": false,
    "pricingUnit": "kpl",
    "referencePrice": {
      "_type": "Big",
      "value": "6.63768115942028985507"
    },
    "visiblePrice": {
      "_type": "Big",
      "value": "2.29"
    },
    "visiblePriceUnit": "kpl",
    "isDiscounted": false
  },
  {
    "ean": "6409520010157",
    "urlSlug": "kotitilan-puolukkahilloke-275g-sokton-6409520010157",
    "name": "Kotitilan puolukkahilloke 275g",
    "pictureUrls": [
      {
        "original": "https://public.keskofiles.com/f/k-ruoka/product/6409520010157"
      }
    ],
    "section": "3209",
    "departmentId": "106",
    "contentUnit": "KG",
    "contentSize": 0.275,
    "netWeight": 0.275,
    "available": true,
    "isUtility": false,
    "preprocessedPricing": {
      "products": {},
      "simplePromotions": {},
      "basketPromotions": {}
    },
    "tosPricing": {
      "basketPromotions": []
    },
    "simplePricePlussa": false,
    "pricingUnit": "kpl",
    "referencePrice": {
      "_type": "Big",
      "value": "16.90909090909090909091"
    },
    "visiblePrice": {
      "_type": "Big",
      "value": "4.65"
    },
    "visiblePriceUnit": "kpl",
    "isDiscounted": false
  },
  {
    "ean": "8717496900135",
    "urlSlug": "labioidea-kidneypapu-400g-luomu-8717496900135",
    "name": "La Bio Idea kidneypapu 400g luomu",
    "pictureUrls": [
      {
        "original": "https://public.keskofiles.com/f/k-ruoka/product/8717496900135"
      }
    ],
    "section": "3222",
    "departmentId": "115",
    "contentUnit": "KG",
    "contentSize": 0.4,
    "netWeight": 0.4,
    "available": true,
    "isUtility": false,
    "preprocessedPricing": {
      "products": {},
      "simplePromotions": {},
      "basketPromotions": {}
    },
    "tosPricing": {
      "basketPromotions": []
    },
    "simplePricePlussa": false,
    "pricingUnit": "kpl",
    "referencePrice": {
      "_type": "Big",
      "value": "4.875"
    },
    "visiblePrice": {
      "_type": "Big",
      "value": "1.95"
    },
    "visiblePriceUnit": "kpl",
    "isDiscounted": false
  },
  {
    "ean": "6410405189578",
    "urlSlug": "pirkka-fusilli-500g-gluteeniton-6410405189578",
    "name": "Pirkka gluteeniton fusilli 500g",
    "pictureUrls": [
      {
        "original": "https://public.keskofiles.com/f/k-ruoka/product/6410405189578"
      }
    ],
    "section": "3078",
    "departmentId": "115",
    "contentUnit": "KG",
    "contentSize": 0.5,
    "netWeight": 0.5,
    "available": true,
    "isUtility": false,
    "preprocessedPricing": {
      "products": {},
      "simplePromotions": {},
      "basketPromotions": {}
    },
    "tosPricing": {
      "basketPromotions": []
    },
    "simplePricePlussa": false,
    "pricingUnit": "kpl",
    "referencePrice": {
      "_type": "Big",
      "value": "4.58"
    },
    "visiblePrice": {
      "_type": "Big",
      "value": "2.29"
    },
    "visiblePriceUnit": "kpl",
    "isDiscounted": false
  }
]