[
  {
    "ean": "6411200102625",
    "urlSlug": "torino-ruispasta-500g-6411200102625",
    "name": "Torino ruispasta 500 g",
    "pictureUrls": [
      {
        "original": "https://public.keskofiles.com/f/k-ruoka/product/6411200102625"
      }
    ],
    "section": "3074",
    "departmentId": "115",
    "contentUnit": "KG",
    "contentSize": 0.5,
    "netWeight": 0.5,
    "available": true,
    "isUtility": false,
    "preprocessedPricing": {
      "products": {},
      "simplePromotions": {},
      "basketPromotions": {}
    },
    "tosPricing": {
      "basketPromotions": []
    },
    "simplePricePlussa": false,
    "pricingUnit": "kpl",
    "referencePrice": {
      "_type": "Big",
      "value": "3.78"
    },
    "visiblePrice": {
      "_type": "Big",
      "value": "1.89"
    },
    "visiblePriceUnit": "kpl",
    "isDiscounted": false
  },
  {
    "ean": "6410405154620",
    "urlSlug": "pirkka-maustekurkku-780430g-kuutio-6410405154620",
    "name": "Pirkka maustekurkkukuutiot 780g/430g",
    "pictureUrls": [
      {
        "original": "https://public.keskofiles.com/f/k-ruoka/product/6410405154620"
      }
    ],
    "section": "3225",
    "departmentId": "115",
    "contentUnit": "KG",
    "contentSize": 0.43,
    "netWeight": 0.78,
    "available": true,
    "isUtility": false,
    "preprocessedPricing": {
      "products": {},
      "simplePromotions": {},
      "basketPromotions": {}
    },
    "tosPricing": {
      "basketPromotions": []
    },
    "simplePricePlussa": false,
    "pricingUnit": "kpl",
    "referencePrice": {
      "_type": "Big",
      "value": "3.69767441860465116279"
    },
    "visiblePrice": {
      "_type": "Big",
      "value": "1.59"
    },
    "visiblePriceUnit": "kpl",
    "isDiscounted": false,
    "discountType": "PLUSSA",
    "batchSize": 2,
    "batchPrice": {
      "_type": "Big",
      "value": "2"
    }
  },
  {
    "ean": "7330968050056",
    "urlSlug": "pasta-doro-makaroni-500g-gluteeniton-7330968050056",
    "name": "Pasta D'oro makaroni 500g gluteeniton",
    "pictureUrls": [
      {
        "original": "https://public.keskofiles.com/f/k-ruoka/product/7330968050056"
      }
    ],
    "section": "3078",
    "departmentId": "115",
    "contentUnit": "KG",
    "contentSize": 0.5,
    "netWeight": 0.5,
    "available": true,
    "isUtility": false,
    "preprocessedPricing": {
      "products": {},
      "simplePromotions": {},
      "basketPromotions": {}
    },
    "tosPricing": {
      "basketPromotions": []
    },
    "simplePricePlussa": false,
    "pricingUnit": "kpl",
    "referencePrice": {
      "_type": "Big",
      "value": "4.9"
    },
    "visiblePrice": {
      "_type": "Big",
      "value": "2.45"
    },
    "visiblePriceUnit": "kpl",
    "isDiscounted": false
  },
  {
    "ean": "6410405203557",
    "urlSlug": "pirkka-parh-oliivi-350180g-kalamat-kton-6410405203557",
    "name": "Pirkka Parhaat kreikkalaiset kalamataoliivit 350g/180g",
    "pictureUrls": [
      {
        "original": "https://public.keskofiles.com/f/k-ruoka/product/6410405203557"
      }
    ],
    "section": "3223",
    "departmentId": "115",
    "contentUnit": "KG",
    "contentSize": 0.18,
    "netWeight": 0.35,
    "available": true,
    "isUtility": false,
    "preprocessedPricing": {
      "products": {},
      "simplePromotions": {},
      "basketPromotions": {}
    },
    "tosPricing": {
      "basketPromotions": []
    },
    "simplePricePlussa": false,
    "pricingUnit": "kpl",
    "referencePrice": {
      "_type": "Big",
      "value": "13.88888888888888888889"
    },
    "visiblePrice": {
      "_type": "Big",
      "value": "2.5"
    },
    "visiblePriceUnit": "kpl",
    "isDiscounted": false
  },
  {
    "ean": "6415002506735",
    "urlSlug": "myllarin-500g-pikakaurahiutale-luomu-6415002506735",
    "name": "Myllärin 500g Luomu Pikakaurahiutale",
    "pictureUrls": [
      {
        "original": "https://public.keskofiles.com/f/k-ruoka/product/6415002506735"
      }
    ],
    "section": "3041",
    "departmentId": "115",
    "contentUnit": "KG",
    "contentSize": 0.5,
    "netWeight": 0.5,
    "available": true,
    "isUtility": false,
    "preprocessedPricing": {
      "products": {},
      "simplePromotions": {},
      "basketPromotions": {}
    },
    "tosPricing": {
      "basketPromotions": []
    },
    "simplePricePlussa": false,
    "pricingUnit": "kpl",
    "referencePrice": {
      "_type": "Big",
      "value": "3.38"
    },
    "visiblePrice": {
      "_type": "Big",
      "value": "1.69"
    },
    "visiblePriceUnit": "kpl",
    "isDiscounted": false
  },
  {
    "ean": "6417700050466",
    "urlSlug": "myllyn-paras-korppujauho-300g-6417700050466",
    "name": "Myllyn Paras Korppujauho 300g",
    "pictureUrls": [
      {
        "original": "https://public.keskofiles.com/f/k-ruoka/product/6417700050466"
      }
    ],
    "section": "3097",
    "departmentId": "115",
    "contentUnit": "KG",
    "contentSize": 0.3,
    "netWeight": 0.3,
    "available": true,
    "isUtility": false,
    "preprocessedPricing": {
      "products": {},
      "simplePromotions": {},
      "basketPromotions": {}
    },
    "tosPricing": {
      "basketPromotions": []
    },
    "simplePricePlussa": false,
    "pricingUnit": "kpl",
    "referencePrice": {
      "_type": "Big",
      "value": "3.16666666666666666667"
    },
    "visiblePrice": {
      "_type": "Big",
      "value": "0.95"
    },
    "visiblePriceUnit": "kpl",
    "isDiscounted": false
  },
  {
    "ean": "6411200103257",
    "urlSlug": "elovena-plus-kaurahiutaleita-700g-6411200103257",
    "name": "Elovena Plus kaurahiutaleita ja kauraleseitä 700 g",
    "pictureUrls": [
      {
        "original": "https://public.keskofiles.com/f/k-ruoka/product/6411200103257"
      }
    ],
    "section": "3040",
    "departmentId": "115",
    "contentUnit": "KG",
    "contentSize": 0.7,
    "netWeight": 0.7,
    "available": true,
    "isUtility": false,
    "preprocessedPricing": {
      "products": {},
      "simplePromotions": {},
      "basketPromotions": {}
    },
    "tosPricing": {
      "basketPromotions": []
    },
    "simplePricePlussa": false,
    "pricingUnit": "kpl",
    "referencePrice": {
      "_type": "Big",
      "value": "3.78571428571428571429"
    },
    "visiblePrice": {
      "_type": "Big",
      "value": "2.65"
    },
    "visiblePriceUnit": "kpl",
    "isDiscounted": false
  },
  {
    "ean": "6417700050787",
    "urlSlug": "myllyn-paras-makaroni-1kg-tumma-6417700050787",
    "name": "Myllyn Paras Tumma Makaroni 1 kg",
    "pictureUrls": [
      {
        "original": "https://public.keskofiles.com/f/k-ruoka/product/6417700050787"
      }
    ],
    "section": "3070",
    "departmentId": "115",
    "contentUnit": "KG",
    "contentSize": 1,
    "netWeight": 1,
    "available": true,
    "isUtility": false,
    "preprocessedPricing": {
      "products": {},
      "simplePromotions": {},
      "basketPromotions": {}
    },
    "tosPricing": {
      "basketPromotions": []
    },
    "simplePricePlussa": false,
    "pricingUnit": "kpl",
    "referencePrice": {
      "_type": "Big",
      "value": "1.09"
    },
    "visiblePrice": {
      "_type": "Big",
      "value": "1.09"
    },
    "visiblePriceUnit": "kpl",
    "isDiscounted": false
  },
  {
    "ean": "7310240038002",
    "urlSlug": "felix-300g-tomaattipyree-7310240038002",
    "name": "Felix tomaattipyree 300g",
    "pictureUrls": [
      {
        "original": "https://public.keskofiles.com/f/k-ruoka/product/7310240038002"
      }
    ],
    "section": "3220",
    "departmentId": "115",
    "contentUnit": "KG",
    "contentSize": 0.3,
    "netWeight": 0.3,
    "available": true,
    "isUtility": false,
    "preprocessedPricing": {
      "products": {},
      "simplePromotions": {},
      "basketPromotions": {}
    },
    "tosPricing": {
      "basketPromotions": []
    },
    "simplePricePlussa": false,
    "pricingUnit": "kpl",
    "referencePrice": {
      "_type": "Big",
      "value": "7.96666666666666666667"
    },
    "visiblePrice": {
      "_type": "Big",
      "value": "2.39"
    },
    "visiblePriceUnit": "kpl",
    "isDiscounted": false
  },
  {
    "ean": "7311310031398",
    "urlSlug": "sm-tex-mex-burrito-spice-mix-28g-7311310031398",
    "name": "SM tex mex burrito spice mix 28g",
    "pictureUrls": [
      {
        "original": "https://public.keskofiles.com/f/k-ruoka/product/7311310031398"
      }
    ],
    "section": "4740",
    "departmentId": "115",
    "contentUnit": "KG",
    "contentSize": 0.028,
    "netWeight": 0.028,
    "available": true,
    "isUtility": false,
    "preprocessedPricing": {
      "products": {},
      "simplePromotions": {},
      "basketPromotions": {}
    },
    "tosPricing": {
      "basketPromotions": []
    },
    "simplePricePlussa": false,
    "pricingUnit": "kpl",
    "referencePrice": {
      "_type": "Big",
      "value": "35.35714285714285714286"
    },
    "visiblePrice": {
      "_type": "Big",
      "value": "0.99"
    },
    "visiblePriceUnit": "kpl",
    "isDiscounted": false
  },
  {
    "ean": "4002359002823",
    "urlSlug": "uncle-bens-kastike-320g-sweetsour-orig-4002359002823",
    "name": "Uncle Ben's sweet & sour -kastike 320g original",
    "pictureUrls": [
      {
        "original": "https://public.keskofiles.com/f/k-ruoka/product/4002359002823"
      }
    ],
    "section": "4174",
    "departmentId": "115",
    "contentUnit": "KG",
    "contentSize": 0.32,
    "netWeight": 0.32,
    "available": true,
    "isUtility": false,
    "preprocessedPricing": {
      "products": {},
      "simplePromotions": {},
      "basketPromotions": {}
    },
    "tosPricing": {
      "basketPromotions": []
    },
    "simplePricePlussa": false,
    "pricingUnit": "kpl",
    "referencePrice": {
      "_type": "Big",
      "value": "5.78125"
    },
    "visiblePrice": {
      "_type": "Big",
      "value": "1.85"
    },
    "visiblePriceUnit": "kpl",
    "isDiscounted": false
  },
  {
    "ean": "6410402015856",
    "urlSlug": "pirkka-oliivi-240140g-vih-sitruunataytt-6410402015856",
    "name": "Pirkka vihreät oliivit sitruunatäytteellä 240/140 g",
    "pictureUrls": [
      {
        "original": "https://public.keskofiles.com/f/k-ruoka/product/6410402015856"
      }
    ],
    "section": "3223",
    "departmentId": "115",
    "contentUnit": "KG",
    "contentSize": 0.14,
    "netWeight": 0.24,
    "available": true,
    "isUtility": false,
    "preprocessedPricing": {
      "products": {},
      "simplePromotions": {},
      "basketPromotions": {}
    },
    "tosPricing": {
      "basketPromotions": []
    },
    "simplePricePlussa": false,
    "pricingUnit": "kpl",
    "referencePrice": {
      "_type": "Big",
      "value": "7.78571428571428571429"
    },
    "visiblePrice": {
      "_type": "Big",
      "value": "1.09"
    },
    "visiblePriceUnit": "kpl",
    "isDiscounted": false
  },
  {
    "ean": "6411200106098",
    "urlSlug": "elovena-iso-kaurahiutale-900g-6411200106098",
    "name": "Elovena iso kaurahiutale 900 g",
    "pictureUrls": [
      {
        "original": "https://public.keskofiles.com/f/k-ruoka/product/6411200106098"
      }
    ],
    "section": "3040",
    "departmentId": "115",
    "contentUnit": "KG",
    "contentSize": 0.9,
    "netWeight": 0.9,
    "available": true,
    "isUtility": false,
    "preprocessedPricing": {
      "products": {},
      "simplePromotions": {},
      "basketPromotions": {}
    },
    "tosPricing": {
      "basketPromotions": []
    },
    "simplePricePlussa": false,
    "pricingUnit": "kpl",
    "referencePrice": {
      "_type": "Big",
      "value": "2.61111111111111111111"
    },
    "visiblePrice": {
      "_type": "Big",
      "value": "2.35"
    },
    "visiblePriceUnit": "kpl",
    "isDiscounted": false
  },
  {
    "ean": "6410405073082",
    "urlSlug": "pirkka-pastakastike-390g-tom-chili-6410405073082",
    "name": "Pirkka pastakastike tomaatti-chili 390g",
    "pictureUrls": [
      {
        "original": "https://public.keskofiles.com/f/k-ruoka/product/6410405073082"
      }
    ],
    "section": "4178",
    "departmentId": "115",
    "contentUnit": "KG",
    "contentSize": 0.39,
    "netWeight": 0.39,
    "available": true,
    "isUtility": false,
    "preprocessedPricing": {
      "products": {},
      "simplePromotions": {},
      "basketPromotions": {}
    },
    "tosPricing": {
      "basketPromotions": []
    },
    "simplePricePlussa": false,
    "pricingUnit": "kpl",
    "referencePrice": {
      "_type": "Big",
      "value": "3.97435897435897435897"
    },
    "visiblePrice": {
      "_type": "Big",
      "value": "1.55"
    },
    "visiblePriceUnit": "kpl",
    "isDiscounted": false,
    "discountType": "PLUSSA",
    "batchSize": 3,
    "batchPrice": {
      "_type": "Big",
      "value": "4"
    }
  },
  {
    "ean": "7311311002878",
    "urlSlug": "sm-tex-mex-american-ranch-dip-mix-14g-7311311002878",
    "name": "SM Tex Mex American Ranch Dip Mix 14g",
    "pictureUrls": [
      {
        "original": "https://public.keskofiles.com/f/k-ruoka/product/7311311002878"
      }
    ],
    "section": "4731",
    "departmentId": "115",
    "contentUnit": "KG",
    "contentSize": 0.014,
    "netWeight": 0.014,
    "available": true,
    "isUtility": false,
    "preprocessedPricing": {
      "products": {},
      "simplePromotions": {},
      "basketPromotions": {}
    },
    "tosPricing": {
      "basketPromotions": []
    },
    "simplePricePlussa": false,
    "pricingUnit": "kpl",
    "referencePrice": {
      "_type": "Big",
      "value": "82.14285714285714285714"
    },
    "visiblePrice": {
      "_type": "Big",
      "value": "1.15"
    },
    "visiblePriceUnit": "kpl",
    "isDiscounted": false
  },
  {
    "ean": "7311310035440",
    "urlSlug": "santa-maria-currytahna-110g-punainen-7311310035440",
    "name": "Santa Maria Thai Red Curry Paste 110g",
    "pictureUrls": [
      {
        "original": "https://public.keskofiles.com/f/k-ruoka/product/7311310035440"
      }
    ],
    "section": "4613",
    "departmentId": "115",
    "contentUnit": "KG",
    "contentSize": 0.11,
    "netWeight": 0.11,
    "available": true,
    "isUtility": false,
    "preprocessedPricing": {
      "products": {},
      "simplePromotions": {},
      "basketPromotions": {}
    },
    "tosPricing": {
      "basketPromotions": []
    },
    "simplePricePlussa": false,
    "pricingUnit": "kpl",
    "referencePrice": {
      "_type": "Big",
      "value": "18.09090909090909090909"
    },
    "visiblePrice": {
      "_type": "Big",
      "value": "1.99"
    },
    "visiblePriceUnit": "kpl",
    "isDiscounted": false
  },
  {
    "ean": "7312631410985",
    "urlSlug": "risenta-mysli-400g-kvinoa-mustikka-omena-7312631410985",
    "name": "Risenta mysli 400g kvinoa mustikka omena",
    "pictureUrls": [],
    "section": "3088",
    "departmentId": "115",
    "contentUnit": "KG",
    "contentSize": 0.4,
    "netWeight": 0.4,
    "available": true,
    "isUtility": false,
    "preprocessedPricing": {
      "products": {},
      "simplePromotions": {},
      "basketPromotions": {}
    },
    "tosPricing": {
      "basketPromotions": []
    },
    "simplePricePlussa": false,
    "pricingUnit": "kpl",
    "referencePrice": {
      "_type": "Big",
      "value": "8.975"
    },
    "visiblePrice": {
      "_type": "Big",
      "value": "3.59"
    },
    "visiblePriceUnit": "kpl",
    "isDiscounted": false
  },
  {
    "ean": "7613034616814",
    "urlSlug": "nestle-fitness-jugurttihiutaleita-350g-7613034616814",
    "name": "Nestle Fitness Jugurttihiutaleita 350g",
    "pictureUrls": [
      {
        "original": "https://public.keskofiles.com/f/k-ruoka/product/7613034616814"
      }
    ],
    "section": "3087",
    "departmentId": "115",
    "contentUnit": "KG",
    "contentSize": 0.35,
    "netWeight": 0.35,
    "available": true,
    "isUtility": false,
    "preprocessedPricing": {
      "products": {},
      "simplePromotions": {},
      "basketPromotions": {}
    },
    "tosPricing": {
      "basketPromotions": []
    },
    "simplePricePlussa": false,
    "pricingUnit": "kpl",
    "referencePrice": {
      "_type": "Big",
      "value": "8.82857142857142857143"
    },
    "visiblePrice": {
      "_type": "Big",
      "value": "3.09"
    },
    "visiblePriceUnit": "kpl",
    "isDiscounted": false
  },
  {
    "ean": "7311310031367",
    "urlSlug": "sm-tex-mex-fajita-spice-mix-original-28g-7311310031367",
    "name": "SM tex mex fajita spice mix original 28g",
    "pictureUrls": [
      {
        "original": "https://public.keskofiles.com/f/k-ruoka/product/7311310031367"
      }
    ],
    "section": "4740",
    "departmentId": "115",
    "contentUnit": "KG",
    "contentSize": 0.028,
    "netWeight": 0.028,
    "available": true,
    "isUtility": false,
    "preprocessedPricing": {
      "products": {},
      "simplePromotions": {},
      "basketPromotions": {}
    },
    "tosPricing": {
      "basketPromotions": []
    },
    "simplePricePlussa": false,
    "pricingUnit": "kpl",
    "referencePrice": {
      "_type": "Big",
      "value": "35.35714285714285714286"
    },
    "visiblePrice": {
      "_type": "Big",
      "value": "0.99"
    },
    "visiblePriceUnit": "kpl",
    "isDiscounted": false
  },
  {
    "ean": "6417700055935",
    "urlSlug": "myllyn-paras-jasmiiniriisi-1kg-6417700055935",
    "name": "Myllyn Paras Jasmiini Riisi 1 kg",
    "pictureUrls": [
      {
        "original": "https://public.keskofiles.com/f/k-ruoka/product/6417700055935"
      }
    ],
    "section": "3062",
    "departmentId": "115",
    "contentUnit": "KG",
    "contentSize": 1,
    "netWeight": 1,
    "available": true,
    "isUtility": false,
    "preprocessedPricing": {
      "products": {},
      "simplePromotions": {},
      "basketPromotions": {}
    },
    "tosPricing": {
      "basketPromotions": []
    },
    "simplePricePlussa": false,
    "pricingUnit": "kpl",
    "referencePrice": {
      "_type": "Big",
      "value": "2.75"
    },
    "visiblePrice": {
      "_type": "Big",
      "value": "2.75"
    },
    "visiblePriceUnit": "kpl",
    "isDiscounted": false
  },
  {
    "ean": "6430067840471",
    "urlSlug": "chefs-ateria-aines-155g-pinaattipasta-6430067840471",
    "name": "Chef's Pinaattipasta ateria-aines 155g",
    "pictureUrls": [
      {
        "original": "https://public.keskofiles.com/f/k-ruoka/product/6430067840471"
      }
    ],
    "section": "4014",
    "departmentId": "115",
    "contentUnit": "KG",
    "contentSize": 0.155,
    "netWeight": 0.155,
    "available": true,
    "isUtility": false,
    "preprocessedPricing": {
      "products": {},
      "simplePromotions": {},
      "basketPromotions": {}
    },
    "tosPricing": {
      "basketPromotions": []
    },
    "simplePricePlussa": false,
    "pricingUnit": "kpl",
    "referencePrice": {
      "_type": "Big",
      "value": "13.48387096774193548387"
    },
    "visiblePrice": {
      "_type": "Big",
      "value": "2.09"
    },
    "visiblePriceUnit": "kpl",
    "isDiscounted": false
  },
  {
    "ean": "5012427334304",
    "urlSlug": "baxters-minttuhyytelo-210g-5012427334304",
    "name": "Baxters minttuhyytelö 210g",
    "pictureUrls": [
      {
        "original": "https://public.keskofiles.com/f/k-ruoka/product/5012427334304"
      }
    ],
    "section": "3207",
    "departmentId": "106",
    "contentUnit": "KG",
    "contentSize": 0.21,
    "netWeight": 0.21,
    "available": true,
    "isUtility": false,
    "preprocessedPricing": {
      "products": {},
      "simplePromotions": {},
      "basketPromotions": {}
    },
    "tosPricing": {
      "basketPromotions": []
    },
    "simplePricePlussa": false,
    "pricingUnit": "kpl",
    "referencePrice": {
      "_type": "Big",
      "value": "14.23809523809523809524"
    },
    "visiblePrice": {
      "_type": "Big",
      "value": "2.99"
    },
    "visiblePriceUnit": "kpl",
    "isDiscounted": false
  },
  {
    "ean": "8712100382901",
    "urlSlug": "knorr-italialainen-minestrone-570ml-8712100382901",
    "name": "Knorr italialainen minestrone 570ml",
    "pictureUrls": [
      {
        "original": "https://public.keskofiles.com/f/k-ruoka/product/8712100382901"
      }
    ],
    "section": "4017",
    "departmentId": "115",
    "contentUnit": "L",
    "contentSize": 0.57,
    "netWeight": 0.586,
    "available": true,
    "isUtility": false,
    "preprocessedPricing": {
      "products": {},
      "simplePromotions": {},
      "basketPromotions": {}
    },
    "tosPricing": {
      "basketPromotions": []
    },
    "simplePricePlussa": false,
    "pricingUnit": "kpl",
    "referencePrice": {
      "_type": "Big",
      "value": "4.89473684210526315789"
    },
    "visiblePrice": {
      "_type": "Big",
      "value": "2.79"
    },
    "visiblePriceUnit": "kpl",
    "isDiscounted": false
  },
  {
    "ean": "6406300009011",
    "urlSlug": "kivikylan-palvarin-hernekeitto-435g-6406300009011",
    "name": "Kivikylän Palvarin hernekeitto 435 g",
    "pictureUrls": [
      {
        "original": "https://public.keskofiles.com/f/k-ruoka/product/6406300009011"
      }
    ],
    "section": "3273",
    "departmentId": "115",
    "contentUnit": "KG",
    "contentSize": 0.435,
    "netWeight": 0.435,
    "available": true,
    "isUtility": false,
    "preprocessedPricing": {
      "products": {},
      "simplePromotions": {},
      "basketPromotions": {}
    },
    "tosPricing": {
      "basketPromotions": []
    },
    "simplePricePlussa": false,
    "pricingUnit": "kpl",
    "referencePrice": {
      "_type": "Big",
      "value": "3.79310344827586206897"
    },
    "visiblePrice": {
      "_type": "Big",
      "value": "1.65"
    },
    "visiblePriceUnit": "kpl",
    "isDiscounted": false,
    "discountType": "PLUSSA",
    "batchSize": 2,
    "batchPrice": {
      "_type": "Big",
      "value": "3"
    }
  },
  {
    "ean": "5765228100233",
    "urlSlug": "urtekram-puuroriisi-500g-luomu-5765228100233",
    "name": "Urtekram puuroriisi 500g luomu",
    "pictureUrls": [
      {
        "original": "https://public.keskofiles.com/f/k-ruoka/product/5765228100233"
      }
    ],
    "section": "3060",
    "departmentId": "115",
    "contentUnit": "KG",
    "contentSize": 0.5,
    "netWeight": 0.5,
    "available": true,
    "isUtility": false,
    "preprocessedPricing": {
      "products": {},
      "simplePromotions": {},
      "basketPromotions": {}
    },
    "tosPricing": {
      "basketPromotions": []
    },
    "simplePricePlussa": false,
    "pricingUnit": "kpl",
    "referencePrice": {
      "_type": "Big",
      "value": "5.58"
    },
    "visiblePrice": {
      "_type": "Big",
      "value": "2.79"
    },
    "visiblePriceUnit": "kpl",
    "isDiscounted": false
  },
  {
    "ean": "6426000002785",
    "urlSlug": "lagom-kanafile-2x9058g-tomkastikkeess-6426000002785",
    "name": "Lagom kanafile tomaattikastikkeessa 2x90g/2x56g",
    "pictureUrls": [
      {
        "original": "https://public.keskofiles.com/f/k-ruoka/product/6426000002785"
      }
    ],
    "section": "3270",
    "departmentId": "115",
    "contentUnit": "KG",
    "contentSize": 0.112,
    "netWeight": 0.18,
    "available": true,
    "isUtility": false,
    "preprocessedPricing": {
      "products": {},
      "simplePromotions": {},
      "basketPromotions": {}
    },
    "tosPricing": {
      "basketPromotions": []
    },
    "simplePricePlussa": false,
    "pricingUnit": "kpl",
    "referencePrice": {
      "_type": "Big",
      "value": "24.91071428571428571429"
    },
    "visiblePrice": {
      "_type": "Big",
      "value": "2.79"
    },
    "visiblePriceUnit": "kpl",
    "isDiscounted": false
  },
  {
    "ean": "7310100561923",
    "urlSlug": "semper-muromysli-375g-kick-gluteeniton-7310100561923",
    "name": "Semper Kick! Kauramuromysli Natural 375g gluteeniton",
    "pictureUrls": [
      {
        "original": "https://public.keskofiles.com/f/k-ruoka/product/7310100561923"
      }
    ],
    "section": "3084",
    "departmentId": "115",
    "contentUnit": "KG",
    "contentSize": 0.375,
    "netWeight": 0.375,
    "available": true,
    "isUtility": false,
    "preprocessedPricing": {
      "products": {},
      "simplePromotions": {},
      "basketPromotions": {}
    },
    "tosPricing": {
      "basketPromotions": []
    },
    "simplePricePlussa": false,
    "pricingUnit": "kpl",
    "referencePrice": {
      "_type": "Big",
      "value": "15.97333333333333333333"
    },
    "visiblePrice": {
      "_type": "Big",
      "value": "5.99"
    },
    "visiblePriceUnit": "kpl",
    "isDiscounted": false
  },
  {
    "ean": "8711100203063",
    "urlSlug": "knorr-tomaatti-pastakeittoainekset-87g-8711100203063",
    "name": "Knorr tomaatti-pastakeittoainekset 87g",
    "pictureUrls": [
      {
        "original": "https://public.keskofiles.com/f/k-ruoka/product/8711100203063"
      }
    ],
    "section": "4016",
    "departmentId": "115",
    "contentUnit": "KG",
    "contentSize": 0.087,
    "netWeight": 0.087,
    "available": true,
    "isUtility": false,
    "preprocessedPricing": {
      "products": {},
      "simplePromotions": {},
      "basketPromotions": {}
    },
    "tosPricing": {
      "basketPromotions": []
    },
    "simplePricePlussa": false,
    "pricingUnit": "kpl",
    "referencePrice": {
      "_type": "Big",
      "value": "13.67816091954022988506"
    },
    "visiblePrice": {
      "_type": "Big",
      "value": "1.19"
    },
    "visiblePriceUnit": "kpl",
    "isDiscounted": false
  },
  {
    "ean": "6420614280362",
    "urlSlug": "birkkalan-spelttihelmi-800g-luomu-6420614280362",
    "name": "Birkkalan Spelttihelmi 800g luomu",
    "pictureUrls": [
      {
        "original": "https://public.keskofiles.com/f/k-ruoka/product/6420614280362"
      }
    ],
    "section": "3092",
    "departmentId": "115",
    "contentUnit": "KG",
    "contentSize": 0.8,
    "netWeight": 0.8,
    "available": true,
    "isUtility": false,
    "preprocessedPricing": {
      "products": {},
      "simplePromotions": {},
      "basketPromotions": {}
    },
    "tosPricing": {
      "basketPromotions": []
    },
    "simplePricePlussa": false,
    "pricingUnit": "kpl",
    "referencePrice": {
      "_type": "Big",
      "value": "3.8625"
    },
    "visiblePrice": {
      "_type": "Big",
      "value": "3.09"
    },
    "visiblePriceUnit": "kpl",
    "isDiscounted": false
  },
  {
    "ean": "6420610112858",
    "urlSlug": "bonne-luumusose-05l-premium-100-6420610112858",
    "name": "Bonne premium luumusose 100% 0,5l",
    "pictureUrls": [
      {
        "original": "https://public.keskofiles.com/f/k-ruoka/product/6420610112858"
      }
    ],
    "section": "3207",
    "departmentId": "106",
    "contentUnit": "L",
    "contentSize": 0.5,
    "netWeight": 0.521,
    "available": true,
    "isUtility": false,
    "preprocessedPricing": {
      "products": {},
      "simplePromotions": {},
      "basketPromotions": {}
    },
    "tosPricing": {
      "basketPromotions": []
    },
    "simplePricePlussa": false,
    "pricingUnit": "kpl",
    "referencePrice": {
      "_type": "Big",
      "value": "6.18"
    },
    "visiblePrice": {
      "_type": "Big",
      "value": "3.09"
    },
    "visiblePriceUnit": "kpl",
    "isDiscounted": false
  }
]