[
  {
    "ean": "6410405076434",
    "urlSlug": "pirkka-lager-olut-05l-47-tumma-tlk-6410405076434",
    "name": "Pirkka tumma lager-olut 4,7% 0,5l",
    "pictureUrls": [
      {
        "original": "https://public.keskofiles.com/f/k-ruoka/product/6410405076434"
      }
    ],
    "section": "5232",
    "departmentId": "108",
    "contentUnit": "L",
    "contentSize": 0.5,
    "netWeight": 0.5,
    "restriction": "alcoholNoWebStore",
    "available": true,
    "isUtility": false,
    "preprocessedPricing": {
      "products": {},
      "simplePromotions": {},
      "basketPromotions": {}
    },
    "tosPricing": {
      "basketPromotions": []
    },
    "simplePricePlussa": false,
    "pricingUnit": "kpl",
    "referencePrice": {
      "_type": "Big",
      "value": "3.68"
    },
    "visiblePrice": {
      "_type": "Big",
      "value": "1.99"
    },
    "visiblePriceUnit": "kpl",
    "isDiscounted": false
  },
  {
    "ean": "6410405091284",
    "urlSlug": "pirkka-iii-olut-033l-45-tlk-24-p-6410405091284",
    "name": "Pirkka III-olut 4,5% 24x0,33l",
    "pictureUrls": [
      {
        "original": "https://public.keskofiles.com/f/k-ruoka/product/6410405091284"
      }
    ],
    "section": "5215",
    "departmentId": "108",
    "contentUnit": "L",
    "contentSize": 7.92,
    "netWeight": 8.5,
    "restriction": "alcoholNoWebStore",
    "available": true,
    "isUtility": false,
    "preprocessedPricing": {
      "products": {},
      "simplePromotions": {},
      "basketPromotions": {}
    },
    "tosPricing": {
      "basketPromotions": []
    },
    "simplePricePlussa": false,
    "pricingUnit": "kpl",
    "referencePrice": {
      "_type": "Big",
      "value": "2.75757575757575757576"
    },
    "visiblePrice": {
      "_type": "Big",
      "value": "25.44"
    },
    "visiblePriceUnit": "kpl",
    "isDiscounted": false
  },
  {
    "ean": "7393714160980",
    "urlSlug": "kopparberg-apple-cider-55-044l-tlk-7393714160980",
    "name": "Kopparberg omenasiideri 5,5% 0,44l",
    "pictureUrls": [
      {
        "original": "https://public.keskofiles.com/f/k-ruoka/product/7393714160980"
      }
    ],
    "section": "5113",
    "departmentId": "108",
    "contentUnit": "L",
    "contentSize": 0.44,
    "netWeight": 0.449,
    "restriction": "alcoholNoWebStore",
    "available": true,
    "isUtility": false,
    "preprocessedPricing": {
      "products": {},
      "simplePromotions": {},
      "basketPromotions": {}
    },
    "tosPricing": {
      "basketPromotions": []
    },
    "simplePricePlussa": false,
    "pricingUnit": "kpl",
    "referencePrice": {
      "_type": "Big",
      "value": "7.13636363636363636364"
    },
    "visiblePrice": {
      "_type": "Big",
      "value": "3.29"
    },
    "visiblePriceUnit": "kpl",
    "isDiscounted": false
  },
  {
    "ean": "7804345002407",
    "urlSlug": "fresita-55-02l-klp-7804345002407",
    "name": "Fresita kuohuviini 5,5% 0,2l",
    "pictureUrls": [],
    "section": "5174",
    "departmentId": "108",
    "contentUnit": "L",
    "contentSize": 0.2,
    "netWeight": 0.2,
    "restriction": "alcoholNoWebStore",
    "available": true,
    "isUtility": false,
    "preprocessedPricing": {
      "products": {},
      "simplePromotions": {},
      "basketPromotions": {}
    },
    "tosPricing": {
      "basketPromotions": []
    },
    "simplePricePlussa": false,
    "pricingUnit": "kpl",
    "referencePrice": {
      "_type": "Big",
      "value": "15.45"
    },
    "visiblePrice": {
      "_type": "Big",
      "value": "3.19"
    },
    "visiblePriceUnit": "kpl",
    "isDiscounted": false
  },
  {
    "ean": "0797776058990",
    "urlSlug": "paxton-ipa-55-033l-tlk-0797776058990",
    "name": "Paxton IPA 5,5% 0,33l",
    "pictureUrls": [
      {
        "original": "https://public.keskofiles.com/f/k-ruoka/product/0797776058990"
      }
    ],
    "section": "5242",
    "departmentId": "108",
    "contentUnit": "L",
    "contentSize": 0.33,
    "netWeight": 0.33,
    "restriction": "alcoholNoWebStore",
    "available": true,
    "isUtility": false,
    "preprocessedPricing": {
      "products": {},
      "simplePromotions": {},
      "basketPromotions": {}
    },
    "tosPricing": {
      "basketPromotions": []
    },
    "simplePricePlussa": false,
    "pricingUnit": "kpl",
    "referencePrice": {
      "_type": "Big",
      "value": "10.57575757575757575758"
    },
    "visiblePrice": {
      "_type": "Big",
      "value": "3.49"
    },
    "visiblePriceUnit": "kpl",
    "isDiscounted": false
  },
  {
    "ean": "8008440249425",
    "urlSlug": "asahi-super-dry-lager-52-033l-klp-8008440249425",
    "name": "Asahi Super Dry lager 5,2% 0,33l",
    "pictureUrls": [
      {
        "original": "https://public.keskofiles.com/f/k-ruoka/product/8008440249425"
      }
    ],
    "section": "5230",
    "departmentId": "108",
    "contentUnit": "L",
    "contentSize": 0.33,
    "netWeight": 0.33,
    "restriction": "alcoholNoWebStore",
    "available": true,
    "isUtility": false,
    "preprocessedPricing": {
      "products": {},
      "simplePromotions": {},
      "basketPromotions": {}
    },
    "tosPricing": {
      "basketPromotions": []
    },
    "simplePricePlussa": false,
    "pricingUnit": "kpl",
    "referencePrice": {
      "_type": "Big",
      "value": "8.75757575757575757576"
    },
    "visiblePrice": {
      "_type": "Big",
      "value": "2.99"
    },
    "visiblePriceUnit": "kpl",
    "isDiscounted": false
  },
  {
    "ean": "8410655000416",
    "urlSlug": "san-miguel-especial-lager-54-033l-klp-8410655000416",
    "name": "San Miguel Especial 0,33l 5,4%",
    "pictureUrls": [
      {
        "original": "https://public.keskofiles.com/f/k-ruoka/product/8410655000416"
      }
    ],
    "section": "5230",
    "departmentId": "108",
    "contentUnit": "L",
    "contentSize": 0.33,
    "netWeight": 0.33,
    "restriction": "alcoholNoWebStore",
    "available": true,
    "isUtility": false,
    "preprocessedPricing": {
      "products": {},
      "simplePromotions": {},
      "basketPromotions": {}
    },
    "tosPricing": {
      "basketPromotions": []
    },
    "simplePricePlussa": false,
    "pricingUnit": "kpl",
    "referencePrice": {
      "_type": "Big",
      "value": "7.42424242424242424242"
    },
    "visiblePrice": {
      "_type": "Big",
      "value": "2.55"
    },
    "visiblePriceUnit": "kpl",
    "isDiscounted": false
  },
  {
    "ean": "8593875530199",
    "urlSlug": "litovel-premium-lager-50-05l-tlk-8593875530199",
    "name": "Litovel Premium lager 5,0% 0,5l",
    "pictureUrls": [],
    "section": "5232",
    "departmentId": "108",
    "contentUnit": "L",
    "contentSize": 0.5,
    "netWeight": 0.5,
    "restriction": "alcoholNoWebStore",
    "available": true,
    "isUtility": false,
    "preprocessedPricing": {
      "products": {},
      "simplePromotions": {},
      "basketPromotions": {}
    },
    "tosPricing": {
      "basketPromotions": []
    },
    "simplePricePlussa": false,
    "pricingUnit": "kpl",
    "referencePrice": {
      "_type": "Big",
      "value": "5.48"
    },
    "visiblePrice": {
      "_type": "Big",
      "value": "2.89"
    },
    "visiblePriceUnit": "kpl",
    "isDiscounted": false
  },
  {
    "ean": "8594045200119",
    "urlSlug": "bohemia-regent-black-44-05l-klp-8594045200119",
    "name": "Bohemia Regent Black 4,4% 0,5l",
    "pictureUrls": [
      {
        "original": "https://public.keskofiles.com/f/k-ruoka/product/8594045200119"
      }
    ],
    "section": "5230",
    "departmentId": "108",
    "contentUnit": "L",
    "contentSize": 0.5,
    "netWeight": 0.5,
    "restriction": "alcoholNoWebStore",
    "available": true,
    "isUtility": false,
    "preprocessedPricing": {
      "products": {},
      "simplePromotions": {},
      "basketPromotions": {}
    },
    "tosPricing": {
      "basketPromotions": []
    },
    "simplePricePlussa": false,
    "pricingUnit": "kpl",
    "referencePrice": {
      "_type": "Big",
      "value": "6.58"
    },
    "visiblePrice": {
      "_type": "Big",
      "value": "3.29"
    },
    "visiblePriceUnit": "kpl",
    "isDiscounted": false
  },
  {
    "ean": "8594404001418",
    "urlSlug": "velkopopovicky-kozel-dark-38-05l-klp-8594404001418",
    "name": "Velkopopovicky Kozel Dark 3,8% 0,5l klp",
    "pictureUrls": [
      {
        "original": "https://public.keskofiles.com/f/k-ruoka/product/8594404001418"
      }
    ],
    "section": "5230",
    "departmentId": "108",
    "contentUnit": "L",
    "contentSize": 0.5,
    "netWeight": 0.5,
    "restriction": "alcoholNoWebStore",
    "available": true,
    "isUtility": false,
    "preprocessedPricing": {
      "products": {},
      "simplePromotions": {},
      "basketPromotions": {}
    },
    "tosPricing": {
      "basketPromotions": []
    },
    "simplePricePlussa": false,
    "pricingUnit": "kpl",
    "referencePrice": {
      "_type": "Big",
      "value": "7.18"
    },
    "visiblePrice": {
      "_type": "Big",
      "value": "3.69"
    },
    "visiblePriceUnit": "kpl",
    "isDiscounted": false
  },
  {
    "ean": "6413600006268",
    "urlSlug": "aura-olut-45-035l-klp-6413600006268",
    "name": "Aura olut 4,5% 0,35l",
    "pictureUrls": [
      {
        "original": "https://public.keskofiles.com/f/k-ruoka/product/6413600006268"
      }
    ],
    "section": "5210",
    "departmentId": "108",
    "contentUnit": "L",
    "contentSize": 0.35,
    "netWeight": 0.352,
    "restriction": "alcoholNoWebStore",
    "available": true,
    "isUtility": false,
    "preprocessedPricing": {
      "products": {},
      "simplePromotions": {},
      "basketPromotions": {}
    },
    "tosPricing": {
      "basketPromotions": []
    },
    "simplePricePlussa": false,
    "pricingUnit": "kpl",
    "referencePrice": {
      "_type": "Big",
      "value": "5.97142857142857142857"
    },
    "visiblePrice": {
      "_type": "Big",
      "value": "2.19"
    },
    "visiblePriceUnit": "kpl",
    "isDiscounted": false
  },
  {
    "ean": "6413600055365",
    "urlSlug": "original-gin-long-drink-55-05l-tlk-6413600055365",
    "name": "Hartwall original long drink 5,5% 0,5l tlk",
    "pictureUrls": [
      {
        "original": "https://public.keskofiles.com/f/k-ruoka/product/6413600055365"
      }
    ],
    "section": "5120",
    "departmentId": "108",
    "contentUnit": "L",
    "contentSize": 0.5,
    "netWeight": 0.508,
    "restriction": "alcoholNoWebStore",
    "available": true,
    "isUtility": false,
    "preprocessedPricing": {
      "products": {},
      "simplePromotions": {},
      "basketPromotions": {}
    },
    "tosPricing": {
      "basketPromotions": []
    },
    "simplePricePlussa": false,
    "pricingUnit": "kpl",
    "referencePrice": {
      "_type": "Big",
      "value": "7.6"
    },
    "visiblePrice": {
      "_type": "Big",
      "value": "3.95"
    },
    "visiblePriceUnit": "kpl",
    "isDiscounted": false
  },
  {
    "ean": "6413600090113",
    "urlSlug": "lapin-kulta-52-05l-tlk-6413600090113",
    "name": "Lapin Kulta 5,2% 0,5l",
    "pictureUrls": [
      {
        "original": "https://public.keskofiles.com/f/k-ruoka/product/6413600090113"
      }
    ],
    "section": "5212",
    "departmentId": "108",
    "contentUnit": "L",
    "contentSize": 0.5,
    "netWeight": 0.504,
    "restriction": "alcoholNoWebStore",
    "available": true,
    "isUtility": false,
    "preprocessedPricing": {
      "products": {},
      "simplePromotions": {},
      "basketPromotions": {}
    },
    "tosPricing": {
      "basketPromotions": []
    },
    "simplePricePlussa": false,
    "pricingUnit": "kpl",
    "referencePrice": {
      "_type": "Big",
      "value": "5.88"
    },
    "visiblePrice": {
      "_type": "Big",
      "value": "3.09"
    },
    "visiblePriceUnit": "kpl",
    "isDiscounted": false
  },
  {
    "ean": "6413600090656",
    "urlSlug": "upcider-dry-apple-47-043l-kmp-6413600090656",
    "name": "Upcider Dry Apple 4,7% 0,43l",
    "pictureUrls": [
      {
        "original": "https://public.keskofiles.com/f/k-ruoka/product/6413600090656"
      }
    ],
    "section": "5112",
    "departmentId": "108",
    "contentUnit": "L",
    "contentSize": 0.43,
    "netWeight": 0.43,
    "restriction": "alcoholNoWebStore",
    "available": true,
    "isUtility": false,
    "preprocessedPricing": {
      "products": {},
      "simplePromotions": {},
      "basketPromotions": {}
    },
    "tosPricing": {
      "basketPromotions": []
    },
    "simplePricePlussa": false,
    "pricingUnit": "kpl",
    "referencePrice": {
      "_type": "Big",
      "value": "6.72093023255813953488"
    },
    "visiblePrice": {
      "_type": "Big",
      "value": "3.09"
    },
    "visiblePriceUnit": "kpl",
    "isDiscounted": false
  },
  {
    "ean": "6413600091004",
    "urlSlug": "sininen-olut-35-05l-tlk-6413600091004",
    "name": "Sininen olut 3,5% 0,5l tlk",
    "pictureUrls": [
      {
        "original": "https://public.keskofiles.com/f/k-ruoka/product/6413600091004"
      }
    ],
    "section": "5212",
    "departmentId": "108",
    "contentUnit": "L",
    "contentSize": 0.5,
    "netWeight": 0.504,
    "restriction": "alcoholNoWebStore",
    "available": true,
    "isUtility": false,
    "preprocessedPricing": {
      "products": {},
      "simplePromotions": {},
      "basketPromotions": {}
    },
    "tosPricing": {
      "basketPromotions": []
    },
    "simplePricePlussa": false,
    "pricingUnit": "kpl",
    "referencePrice": {
      "_type": "Big",
      "value": "4.68"
    },
    "visiblePrice": {
      "_type": "Big",
      "value": "2.49"
    },
    "visiblePriceUnit": "kpl",
    "isDiscounted": false
  },
  {
    "ean": "6413600094135",
    "urlSlug": "karjala-olut-45-033l-tlk-si-6413600094135",
    "name": "Karjala olut 4,5% 0,33l tlk",
    "pictureUrls": [
      {
        "original": "https://public.keskofiles.com/f/k-ruoka/product/6413600094135"
      }
    ],
    "section": "5219",
    "departmentId": "108",
    "contentUnit": "L",
    "contentSize": 0.33,
    "netWeight": 0.332,
    "restriction": "alcoholNoWebStore",
    "available": true,
    "isUtility": false,
    "preprocessedPricing": {
      "products": {},
      "simplePromotions": {},
      "basketPromotions": {}
    },
    "tosPricing": {
      "basketPromotions": []
    },
    "simplePricePlussa": false,
    "pricingUnit": "kpl",
    "referencePrice": {
      "_type": "Big",
      "value": "3.18181818181818181818"
    },
    "visiblePrice": {
      "_type": "Big",
      "value": "1.2"
    },
    "visiblePriceUnit": "kpl",
    "isDiscounted": false
  },
  {
    "ean": "6413600140078",
    "urlSlug": "lahden-erikois-pils-45-05l-tlk-6413600140078",
    "name": "Lahden Erikois Pils 4,5% 0,5l",
    "pictureUrls": [
      {
        "original": "https://public.keskofiles.com/f/k-ruoka/product/6413600140078"
      }
    ],
    "section": "5222",
    "departmentId": "108",
    "contentUnit": "L",
    "contentSize": 0.5,
    "netWeight": 0.504,
    "restriction": "alcoholNoWebStore",
    "available": true,
    "isUtility": false,
    "preprocessedPricing": {
      "products": {},
      "simplePromotions": {},
      "basketPromotions": {}
    },
    "tosPricing": {
      "basketPromotions": []
    },
    "simplePricePlussa": false,
    "pricingUnit": "kpl",
    "referencePrice": {
      "_type": "Big",
      "value": "5.68"
    },
    "visiblePrice": {
      "_type": "Big",
      "value": "2.99"
    },
    "visiblePriceUnit": "kpl",
    "isDiscounted": false
  },
  {
    "ean": "6413600147084",
    "urlSlug": "lahden-erikois-jouluolut-47-05l-tlk-6413600147084",
    "name": "Lahden Erikois Jouluolut 4,7% 0,5l",
    "pictureUrls": [
      {
        "original": "https://public.keskofiles.com/f/k-ruoka/product/6413600147084"
      }
    ],
    "section": "5212",
    "departmentId": "108",
    "contentUnit": "L",
    "contentSize": 0.5,
    "netWeight": 0.504,
    "restriction": "alcoholNoWebStore",
    "available": true,
    "isUtility": false,
    "preprocessedPricing": {
      "products": {},
      "simplePromotions": {},
      "basketPromotions": {}
    },
    "tosPricing": {
      "basketPromotions": []
    },
    "simplePricePlussa": false,
    "pricingUnit": "kpl",
    "referencePrice": {
      "_type": "Big",
      "value": "5.68"
    },
    "visiblePrice": {
      "_type": "Big",
      "value": "2.99"
    },
    "visiblePriceUnit": "kpl",
    "isDiscounted": false
  },
  {
    "ean": "6413600154563",
    "urlSlug": "original-lemon-long-drink-55-05l-tlk-6413600154563",
    "name": "Original Lemon Long Drink 5,5% 0,5l",
    "pictureUrls": [
      {
        "original": "https://public.keskofiles.com/f/k-ruoka/product/6413600154563"
      }
    ],
    "section": "5124",
    "departmentId": "108",
    "contentUnit": "L",
    "contentSize": 0.5,
    "netWeight": 0.335,
    "restriction": "alcoholNoWebStore",
    "available": true,
    "isUtility": false,
    "preprocessedPricing": {
      "products": {},
      "simplePromotions": {},
      "basketPromotions": {}
    },
    "tosPricing": {
      "basketPromotions": []
    },
    "simplePricePlussa": false,
    "pricingUnit": "kpl",
    "referencePrice": {
      "_type": "Big",
      "value": "7.6"
    },
    "visiblePrice": {
      "_type": "Big",
      "value": "3.95"
    },
    "visiblePriceUnit": "kpl",
    "isDiscounted": false
  },
  {
    "ean": "6413600159728",
    "urlSlug": "lahden-erikois-pale-ale-54-05l-tlk-6413600159728",
    "name": "Lahden Erikois Pale Ale 5,4% 0,5l tlk",
    "pictureUrls": [
      {
        "original": "https://public.keskofiles.com/f/k-ruoka/product/6413600159728"
      }
    ],
    "section": "5222",
    "departmentId": "108",
    "contentUnit": "L",
    "contentSize": 0.5,
    "netWeight": 0.504,
    "restriction": "alcoholNoWebStore",
    "available": true,
    "isUtility": false,
    "preprocessedPricing": {
      "products": {},
      "simplePromotions": {},
      "basketPromotions": {}
    },
    "tosPricing": {
      "basketPromotions": []
    },
    "simplePricePlussa": false,
    "pricingUnit": "kpl",
    "referencePrice": {
      "_type": "Big",
      "value": "6.6"
    },
    "visiblePrice": {
      "_type": "Big",
      "value": "3.45"
    },
    "visiblePriceUnit": "kpl",
    "isDiscounted": false
  },
  {
    "ean": "6413600161233",
    "urlSlug": "lahden-erikois-oktoberfest-51-035-klp-6413600161233",
    "name": "Lahden Erikois Oktoberfest 5,1% 0,35 klp",
    "pictureUrls": [
      {
        "original": "https://public.keskofiles.com/f/k-ruoka/product/6413600161233"
      }
    ],
    "section": "5220",
    "departmentId": "108",
    "contentUnit": "L",
    "contentSize": 0.35,
    "netWeight": 0.352,
    "restriction": "alcoholNoWebStore",
    "available": true,
    "isUtility": false,
    "preprocessedPricing": {
      "products": {},
      "simplePromotions": {},
      "basketPromotions": {}
    },
    "tosPricing": {
      "basketPromotions": []
    },
    "simplePricePlussa": false,
    "pricingUnit": "kpl",
    "referencePrice": {
      "_type": "Big",
      "value": "7"
    },
    "visiblePrice": {
      "_type": "Big",
      "value": "2.55"
    },
    "visiblePriceUnit": "kpl",
    "isDiscounted": false
  },
  {
    "ean": "6413605094161",
    "urlSlug": "karjala-olut-45-033l-tlk-6-pack-6413605094161",
    "name": "Karjala olut 4,5% 0,33l 6-pack",
    "pictureUrls": [
      {
        "original": "https://public.keskofiles.com/f/k-ruoka/product/6413605094161"
      }
    ],
    "section": "5213",
    "departmentId": "108",
    "contentUnit": "L",
    "contentSize": 1.98,
    "netWeight": 0.002,
    "restriction": "alcoholNoWebStore",
    "available": true,
    "isUtility": false,
    "preprocessedPricing": {
      "products": {},
      "simplePromotions": {},
      "basketPromotions": {}
    },
    "tosPricing": {
      "basketPromotions": []
    },
    "simplePricePlussa": false,
    "pricingUnit": "kpl",
    "referencePrice": {
      "_type": "Big",
      "value": "4.96969696969696969697"
    },
    "visiblePrice": {
      "_type": "Big",
      "value": "10.74"
    },
    "visiblePriceUnit": "kpl",
    "isDiscounted": false
  },
  {
    "ean": "6413605154070",
    "urlSlug": "heineken-50-033l-tlk-6-pack-6413605154070",
    "name": "Heineken 5,0% 0,33l tlk 6-pack",
    "pictureUrls": [
      {
        "original": "https://public.keskofiles.com/f/k-ruoka/product/6413605154070"
      }
    ],
    "section": "5233",
    "departmentId": "108",
    "contentUnit": "L",
    "contentSize": 1.98,
    "netWeight": 1.992,
    "restriction": "alcoholNoWebStore",
    "available": true,
    "isUtility": false,
    "preprocessedPricing": {
      "products": {},
      "simplePromotions": {},
      "basketPromotions": {}
    },
    "tosPricing": {
      "basketPromotions": []
    },
    "simplePricePlussa": false,
    "pricingUnit": "kpl",
    "referencePrice": {
      "_type": "Big",
      "value": "5.75757575757575757576"
    },
    "visiblePrice": {
      "_type": "Big",
      "value": "12.3"
    },
    "visiblePriceUnit": "kpl",
    "isDiscounted": false
  },
  {
    "ean": "6413605154391",
    "urlSlug": "original-light-ld-55-033l-tlk-6-pack-6413605154391",
    "name": "Original Light LD 5,5% 0,33l 6-pack",
    "pictureUrls": [
      {
        "original": "https://public.keskofiles.com/f/k-ruoka/product/6413605154391"
      }
    ],
    "section": "5121",
    "departmentId": "108",
    "contentUnit": "L",
    "contentSize": 1.98,
    "netWeight": 1.98,
    "restriction": "alcoholNoWebStore",
    "available": true,
    "isUtility": false,
    "preprocessedPricing": {
      "products": {},
      "simplePromotions": {},
      "basketPromotions": {}
    },
    "tosPricing": {
      "basketPromotions": []
    },
    "simplePricePlussa": false,
    "pricingUnit": "kpl",
    "referencePrice": {
      "_type": "Big",
      "value": "7.09090909090909090909"
    },
    "visiblePrice": {
      "_type": "Big",
      "value": "14.94"
    },
    "visiblePriceUnit": "kpl",
    "isDiscounted": false
  },
  {
    "ean": "6413605154445",
    "urlSlug": "lapin-kulta-52-033l-tlk-6-pack-6413605154445",
    "name": "Lapin Kulta 5,2% 0,33l",
    "pictureUrls": [
      {
        "original": "https://public.keskofiles.com/f/k-ruoka/product/6413605154445"
      }
    ],
    "section": "5213",
    "departmentId": "108",
    "contentUnit": "L",
    "contentSize": 1.98,
    "netWeight": 0.332,
    "restriction": "alcoholNoWebStore",
    "available": true,
    "isUtility": false,
    "preprocessedPricing": {
      "products": {},
      "simplePromotions": {},
      "basketPromotions": {}
    },
    "tosPricing": {
      "basketPromotions": []
    },
    "simplePricePlussa": false,
    "pricingUnit": "kpl",
    "referencePrice": {
      "_type": "Big",
      "value": "5.09090909090909090909"
    },
    "visiblePrice": {
      "_type": "Big",
      "value": "10.98"
    },
    "visiblePriceUnit": "kpl",
    "isDiscounted": false
  },
  {
    "ean": "6413605154483",
    "urlSlug": "aura-52-033l-tlk-6-pack-6413605154483",
    "name": "Aura 5,2% 0,33l 6-pack",
    "pictureUrls": [
      {
        "original": "https://public.keskofiles.com/f/k-ruoka/product/6413605154483"
      }
    ],
    "section": "5213",
    "departmentId": "108",
    "contentUnit": "L",
    "contentSize": 1.98,
    "netWeight": 0.332,
    "restriction": "alcoholNoWebStore",
    "available": true,
    "isUtility": false,
    "preprocessedPricing": {
      "products": {},
      "simplePromotions": {},
      "basketPromotions": {}
    },
    "tosPricing": {
      "basketPromotions": []
    },
    "simplePricePlussa": false,
    "pricingUnit": "kpl",
    "referencePrice": {
      "_type": "Big",
      "value": "5.75757575757575757576"
    },
    "visiblePrice": {
      "_type": "Big",
      "value": "12.3"
    },
    "visiblePriceUnit": "kpl",
    "isDiscounted": false
  },
  {
    "ean": "6418654001603",
    "urlSlug": "kukko-lager-olut-47-033l-tlk-si-6418654001603",
    "name": "Kukko lager olut 4,7% 0,33l tlk",
    "pictureUrls": [
      {
        "original": "https://public.keskofiles.com/f/k-ruoka/product/6418654001603"
      }
    ],
    "section": "5229",
    "departmentId": "108",
    "contentUnit": "L",
    "contentSize": 0.33,
    "netWeight": 0.348,
    "restriction": "alcoholNoWebStore",
    "available": true,
    "isUtility": false,
    "preprocessedPricing": {
      "products": {},
      "simplePromotions": {},
      "basketPromotions": {}
    },
    "tosPricing": {
      "basketPromotions": []
    },
    "simplePricePlussa": false,
    "pricingUnit": "kpl",
    "referencePrice": {
      "_type": "Big",
      "value": "3.81818181818181818182"
    },
    "visiblePrice": {
      "_type": "Big",
      "value": "1.41"
    },
    "visiblePriceUnit": "kpl",
    "isDiscounted": false
  },
  {
    "ean": "6418654002716",
    "urlSlug": "kukko-lager-olut-47-033l-klp-6418654002716",
    "name": "Kukko Lager olut 4,7% 0,33l klp",
    "pictureUrls": [
      {
        "original": "https://public.keskofiles.com/f/k-ruoka/product/6418654002716"
      }
    ],
    "section": "5220",
    "departmentId": "108",
    "contentUnit": "L",
    "contentSize": 0.33,
    "netWeight": 0.6,
    "restriction": "alcoholNoWebStore",
    "available": true,
    "isUtility": false,
    "preprocessedPricing": {
      "products": {},
      "simplePromotions": {},
      "basketPromotions": {}
    },
    "tosPricing": {
      "basketPromotions": []
    },
    "simplePricePlussa": false,
    "pricingUnit": "kpl",
    "referencePrice": {
      "_type": "Big",
      "value": "7.42424242424242424242"
    },
    "visiblePrice": {
      "_type": "Big",
      "value": "2.55"
    },
    "visiblePriceUnit": "kpl",
    "isDiscounted": false
  },
  {
    "ean": "6418654003379",
    "urlSlug": "laitilan-brandy-ld-55-033l-tlk-6418654003379",
    "name": "Laitilan Brändy long drink 5,5% 0,33l",
    "pictureUrls": [],
    "section": "5124",
    "departmentId": "108",
    "contentUnit": "L",
    "contentSize": 0.33,
    "netWeight": 0.338,
    "restriction": "alcoholNoWebStore",
    "available": true,
    "isUtility": false,
    "preprocessedPricing": {
      "products": {},
      "simplePromotions": {},
      "basketPromotions": {}
    },
    "tosPricing": {
      "basketPromotions": []
    },
    "simplePricePlussa": false,
    "pricingUnit": "kpl",
    "referencePrice": {
      "_type": "Big",
      "value": "7.57575757575757575758"
    },
    "visiblePrice": {
      "_type": "Big",
      "value": "2.65"
    },
    "visiblePriceUnit": "kpl",
    "isDiscounted": false
  },
  {
    "ean": "6418654003676",
    "urlSlug": "kukko-schwarz-45-05l-tlk-6418654003676",
    "name": "Laitilan Kukko Schwarz olut 4,5% 0,5l",
    "pictureUrls": [
      {
        "original": "https://public.keskofiles.com/f/k-ruoka/product/6418654003676"
      }
    ],
    "section": "5222",
    "departmentId": "108",
    "contentUnit": "L",
    "contentSize": 0.5,
    "netWeight": 0.51,
    "restriction": "alcoholNoWebStore",
    "available": true,
    "isUtility": false,
    "preprocessedPricing": {
      "products": {},
      "simplePromotions": {},
      "basketPromotions": {}
    },
    "tosPricing": {
      "basketPromotions": []
    },
    "simplePricePlussa": false,
    "pricingUnit": "kpl",
    "referencePrice": {
      "_type": "Big",
      "value": "5.68"
    },
    "visiblePrice": {
      "_type": "Big",
      "value": "2.99"
    },
    "visiblePriceUnit": "kpl",
    "isDiscounted": false
  }
]