[
  {
    "ean": "5700551141379",
    "urlSlug": "bf-gear-ergonomic-y-valjas-s-5700551141379",
    "name": "BF Gear Ergonomic Y-valjas S",
    "pictureUrls": [
      {
        "original": "https://public.keskofiles.com/f/k-ruoka/product/5700551141379"
      }
    ],
    "section": "3831",
    "departmentId": "110",
    "contentUnit": "KPL",
    "contentSize": 1,
    "netWeight": 0.088,
    "available": true,
    "isUtility": false,
    "preprocessedPricing": {
      "products": {},
      "simplePromotions": {},
      "basketPromotions": {}
    },
    "tosPricing": {
      "basketPromotions": []
    },
    "simplePricePlussa": false,
    "pricingUnit": "kpl",
    "referencePrice": {
      "_type": "Big",
      "value": "19.75"
    },
    "visiblePrice": {
      "_type": "Big",
      "value": "19.75"
    },
    "visiblePriceUnit": "kpl",
    "isDiscounted": false
  },
  {
    "ean": "4008429094521",
    "urlSlug": "cesar-country-kitchen-150g-vasikka-kalkk-4008429094521",
    "name": "Cesar Country kitchen 150g vasikkaa ja kalkkunaa kastikkeessa",
    "pictureUrls": [
      {
        "original": "https://public.keskofiles.com/f/k-ruoka/product/4008429094521"
      }
    ],
    "section": "3716",
    "departmentId": "110",
    "contentUnit": "KG",
    "contentSize": 0.15,
    "netWeight": 0.15,
    "available": true,
    "isUtility": false,
    "preprocessedPricing": {
      "products": {},
      "simplePromotions": {},
      "basketPromotions": {}
    },
    "tosPricing": {
      "basketPromotions": []
    },
    "simplePricePlussa": false,
    "pricingUnit": "kpl",
    "referencePrice": {
      "_type": "Big",
      "value": "7"
    },
    "visiblePrice": {
      "_type": "Big",
      "value": "1.05"
    },
    "visiblePriceUnit": "kpl",
    "isDiscounted": false
  },
  {
    "ean": "5700551152856",
    "urlSlug": "bf-clever-xs-aktivointipallo-tayskumia-5700551152856",
    "name": "Best Friend Clever XS aktivointipallo täyskumia",
    "pictureUrls": [
      {
        "original": "https://public.keskofiles.com/f/k-ruoka/product/5700551152856"
      }
    ],
    "section": "3830",
    "departmentId": "110",
    "contentUnit": "KPL",
    "contentSize": 1,
    "netWeight": 0.045,
    "available": true,
    "isUtility": false,
    "preprocessedPricing": {
      "products": {},
      "simplePromotions": {},
      "basketPromotions": {}
    },
    "tosPricing": {
      "basketPromotions": []
    },
    "simplePricePlussa": false,
    "pricingUnit": "kpl",
    "referencePrice": {
      "_type": "Big",
      "value": "5.99"
    },
    "visiblePrice": {
      "_type": "Big",
      "value": "5.99"
    },
    "visiblePriceUnit": "kpl",
    "isDiscounted": false
  },
  {
    "ean": "7312133336639",
    "urlSlug": "dogma-just-for-fun-plyyssi-koiranlelu-7312133336639",
    "name": "Dogma Just for fun plyyssinen koiranlelu",
    "pictureUrls": [
      {
        "original": "https://public.keskofiles.com/f/k-ruoka/product/7312133336639"
      }
    ],
    "section": "3830",
    "departmentId": "110",
    "contentUnit": "KPL",
    "contentSize": 1,
    "netWeight": 0.063,
    "available": true,
    "isUtility": false,
    "preprocessedPricing": {
      "products": {},
      "simplePromotions": {},
      "basketPromotions": {}
    },
    "tosPricing": {
      "basketPromotions": []
    },
    "simplePricePlussa": false,
    "pricingUnit": "kpl",
    "referencePrice": {
      "_type": "Big",
      "value": "6.49"
    },
    "visiblePrice": {
      "_type": "Big",
      "value": "6.49"
    },
    "visiblePriceUnit": "kpl",
    "isDiscounted": false
  },
  {
    "ean": "4008429103438",
    "urlSlug": "dreamies-180g-kana-4008429103438",
    "name": "Dreamies 180g kana",
    "pictureUrls": [
      {
        "original": "https://public.keskofiles.com/f/k-ruoka/product/4008429103438"
      }
    ],
    "section": "3702",
    "departmentId": "110",
    "contentUnit": "KG",
    "contentSize": 0.18,
    "netWeight": 0.18,
    "available": true,
    "isUtility": false,
    "preprocessedPricing": {
      "products": {},
      "simplePromotions": {},
      "basketPromotions": {}
    },
    "tosPricing": {
      "basketPromotions": []
    },
    "simplePricePlussa": false,
    "pricingUnit": "kpl",
    "referencePrice": {
      "_type": "Big",
      "value": "19.94444444444444444444"
    },
    "visiblePrice": {
      "_type": "Big",
      "value": "3.59"
    },
    "visiblePriceUnit": "kpl",
    "isDiscounted": false
  },
  {
    "ean": "4008429713316",
    "urlSlug": "pedigree-liha-ateria-400g-harka-4008429713316",
    "name": "Pedigree tölkki 400g häränliha",
    "pictureUrls": [
      {
        "original": "https://public.keskofiles.com/f/k-ruoka/product/4008429713316"
      }
    ],
    "section": "3710",
    "departmentId": "110",
    "contentUnit": "KG",
    "contentSize": 0.4,
    "netWeight": 0.4,
    "available": true,
    "isUtility": false,
    "preprocessedPricing": {
      "products": {},
      "simplePromotions": {},
      "basketPromotions": {}
    },
    "tosPricing": {
      "basketPromotions": []
    },
    "simplePricePlussa": false,
    "pricingUnit": "kpl",
    "referencePrice": {
      "_type": "Big",
      "value": "3.725"
    },
    "visiblePrice": {
      "_type": "Big",
      "value": "1.49"
    },
    "visiblePriceUnit": "kpl",
    "isDiscounted": false
  },
  {
    "ean": "4008429071881",
    "urlSlug": "sheba-kissan-sesonkiherkku-85g-4008429071881",
    "name": "Sheba 85g Sesonkiherkku, täysrehua aikuisille kissoille",
    "pictureUrls": [
      {
        "original": "https://public.keskofiles.com/f/k-ruoka/product/4008429071881"
      }
    ],
    "section": "3700",
    "departmentId": "110",
    "contentUnit": "KG",
    "contentSize": 0.085,
    "netWeight": 0.085,
    "available": true,
    "isUtility": false,
    "preprocessedPricing": {
      "products": {},
      "simplePromotions": {},
      "basketPromotions": {}
    },
    "tosPricing": {
      "basketPromotions": []
    },
    "simplePricePlussa": false,
    "pricingUnit": "kpl",
    "referencePrice": {
      "_type": "Big",
      "value": "9.29411764705882352941"
    },
    "visiblePrice": {
      "_type": "Big",
      "value": "0.79"
    },
    "visiblePriceUnit": "kpl",
    "isDiscounted": false
  },
  {
    "ean": "5998749109113",
    "urlSlug": "pedigree-dentastix-puruluu-270g-large-5998749109113",
    "name": "Pedigree DentaStix puruluu 270g large",
    "pictureUrls": [
      {
        "original": "https://public.keskofiles.com/f/k-ruoka/product/5998749109113"
      }
    ],
    "section": "3715",
    "departmentId": "110",
    "contentUnit": "KG",
    "contentSize": 0.27,
    "netWeight": 0.27,
    "available": true,
    "isUtility": false,
    "preprocessedPricing": {
      "products": {},
      "simplePromotions": {},
      "basketPromotions": {}
    },
    "tosPricing": {
      "basketPromotions": []
    },
    "simplePricePlussa": false,
    "pricingUnit": "kpl",
    "referencePrice": {
      "_type": "Big",
      "value": "10.55555555555555555556"
    },
    "visiblePrice": {
      "_type": "Big",
      "value": "2.85"
    },
    "visiblePriceUnit": "kpl",
    "isDiscounted": false
  },
  {
    "ean": "5700551154171",
    "urlSlug": "best-friend-soother-koiran-pehmolelu-era-5700551154171",
    "name": "Best Friend Soother koiran pehmolelu",
    "pictureUrls": [
      {
        "original": "https://public.keskofiles.com/f/k-ruoka/product/5700551154171"
      }
    ],
    "section": "3830",
    "departmentId": "110",
    "contentUnit": "KPL",
    "contentSize": 1,
    "netWeight": 0.063,
    "available": true,
    "isUtility": false,
    "preprocessedPricing": {
      "products": {},
      "simplePromotions": {},
      "basketPromotions": {}
    },
    "tosPricing": {
      "basketPromotions": []
    },
    "simplePricePlussa": false,
    "pricingUnit": "kpl",
    "referencePrice": {
      "_type": "Big",
      "value": "7.95"
    },
    "visiblePrice": {
      "_type": "Big",
      "value": "7.95"
    },
    "visiblePriceUnit": "kpl",
    "isDiscounted": false
  },
  {
    "ean": "6414400411504",
    "urlSlug": "jalo-karvoihin-katsomatta-shampoo-300ml-6414400411504",
    "name": "Jalo karvoihin katsomatta shampoo 300ml",
    "pictureUrls": [
      {
        "original": "https://public.keskofiles.com/f/k-ruoka/product/6414400411504"
      }
    ],
    "section": "3833",
    "departmentId": "110",
    "contentUnit": "L",
    "contentSize": 0.3,
    "netWeight": 0.314,
    "available": true,
    "isUtility": false,
    "preprocessedPricing": {
      "products": {},
      "simplePromotions": {},
      "basketPromotions": {}
    },
    "tosPricing": {
      "basketPromotions": []
    },
    "simplePricePlussa": false,
    "pricingUnit": "kpl",
    "referencePrice": {
      "_type": "Big",
      "value": "33.16666666666666666667"
    },
    "visiblePrice": {
      "_type": "Big",
      "value": "9.95"
    },
    "visiblePriceUnit": "kpl",
    "isDiscounted": false
  },
  {
    "ean": "6430056888699",
    "urlSlug": "dpc-kissan-herkku-30g-dental-care-6430056888699",
    "name": "Deluxe PrimaCat meaty treats 30g dental care",
    "pictureUrls": [
      {
        "original": "https://public.keskofiles.com/f/k-ruoka/product/6430056888699"
      }
    ],
    "section": "3702",
    "departmentId": "110",
    "contentUnit": "KG",
    "contentSize": 0.03,
    "netWeight": 0.037,
    "available": true,
    "isUtility": false,
    "preprocessedPricing": {
      "products": {},
      "simplePromotions": {},
      "basketPromotions": {}
    },
    "tosPricing": {
      "basketPromotions": []
    },
    "simplePricePlussa": false,
    "pricingUnit": "kpl",
    "referencePrice": {
      "_type": "Big",
      "value": "48.33333333333333333333"
    },
    "visiblePrice": {
      "_type": "Big",
      "value": "1.45"
    },
    "visiblePriceUnit": "kpl",
    "isDiscounted": false
  },
  {
    "ean": "4000498033692",
    "urlSlug": "flexi-nauha-25kg-5m-limited-edt-era-dis-4000498033692",
    "name": "Flexi nauhalajitelma 25kg 5m limited edition",
    "pictureUrls": [],
    "section": "3831",
    "departmentId": "110",
    "contentUnit": "KPL",
    "contentSize": 1,
    "netWeight": 0.234,
    "available": true,
    "isUtility": false,
    "preprocessedPricing": {
      "products": {},
      "simplePromotions": {},
      "basketPromotions": {}
    },
    "tosPricing": {
      "basketPromotions": []
    },
    "simplePricePlussa": false,
    "pricingUnit": "kpl",
    "referencePrice": {
      "_type": "Big",
      "value": "19.95"
    },
    "visiblePrice": {
      "_type": "Big",
      "value": "19.95"
    },
    "visiblePriceUnit": "kpl",
    "isDiscounted": false
  },
  {
    "ean": "5000239148356",
    "urlSlug": "goodboy-vinkulelu-monsteri-era-5000239148356",
    "name": "GoodBoy vinkulelu monsteri",
    "pictureUrls": [],
    "section": "3830",
    "departmentId": "110",
    "contentUnit": "KPL",
    "contentSize": 1,
    "netWeight": 0.097,
    "available": true,
    "isUtility": false,
    "preprocessedPricing": {
      "products": {},
      "simplePromotions": {},
      "basketPromotions": {}
    },
    "tosPricing": {
      "basketPromotions": []
    },
    "simplePricePlussa": false,
    "pricingUnit": "kpl",
    "referencePrice": {
      "_type": "Big",
      "value": "5.5"
    },
    "visiblePrice": {
      "_type": "Big",
      "value": "5.5"
    },
    "visiblePriceUnit": "kpl",
    "isDiscounted": false
  },
  {
    "ean": "3065890122468",
    "urlSlug": "sheba-selection-annosater-85g-lammas-kan-3065890122468",
    "name": "Sheba Selection kissan annosateria lammas-kana kastike 85g",
    "pictureUrls": [
      {
        "original": "https://public.keskofiles.com/f/k-ruoka/product/3065890122468"
      }
    ],
    "section": "3700",
    "departmentId": "110",
    "contentUnit": "KG",
    "contentSize": 0.085,
    "netWeight": 0.085,
    "available": true,
    "isUtility": false,
    "preprocessedPricing": {
      "products": {},
      "simplePromotions": {},
      "basketPromotions": {}
    },
    "tosPricing": {
      "basketPromotions": []
    },
    "simplePricePlussa": false,
    "pricingUnit": "kpl",
    "referencePrice": {
      "_type": "Big",
      "value": "9.29411764705882352941"
    },
    "visiblePrice": {
      "_type": "Big",
      "value": "0.79"
    },
    "visiblePriceUnit": "kpl",
    "isDiscounted": false
  },
  {
    "ean": "5700551211256",
    "urlSlug": "bf-bilanx-kissanr-750g-viljaton-steriloi-5700551211256",
    "name": "Best Friend Bilanx kissanruoka 750g viljaton steriloitu",
    "pictureUrls": [
      {
        "original": "https://public.keskofiles.com/f/k-ruoka/product/5700551211256"
      }
    ],
    "section": "3701",
    "departmentId": "110",
    "contentUnit": "KG",
    "contentSize": 0.75,
    "netWeight": 0.75,
    "available": true,
    "isUtility": false,
    "preprocessedPricing": {
      "products": {},
      "simplePromotions": {},
      "basketPromotions": {}
    },
    "tosPricing": {
      "basketPromotions": []
    },
    "simplePricePlussa": false,
    "pricingUnit": "kpl",
    "referencePrice": {
      "_type": "Big",
      "value": "4.92"
    },
    "visiblePrice": {
      "_type": "Big",
      "value": "3.69"
    },
    "visiblePriceUnit": "kpl",
    "isDiscounted": false
  },
  {
    "ean": "5000239105151",
    "urlSlug": "goodboy-moppipallot-joulupehmo-180mm-5000239105151",
    "name": "GoodBoy moppipallo joulupehmo koirille",
    "pictureUrls": [],
    "section": "3830",
    "departmentId": "110",
    "contentUnit": "KPL",
    "contentSize": 1,
    "netWeight": 0.063,
    "available": true,
    "isUtility": false,
    "preprocessedPricing": {
      "products": {},
      "simplePromotions": {},
      "basketPromotions": {}
    },
    "tosPricing": {
      "basketPromotions": []
    },
    "simplePricePlussa": false,
    "pricingUnit": "kpl",
    "referencePrice": {
      "_type": "Big",
      "value": "3"
    },
    "visiblePrice": {
      "_type": "Big",
      "value": "3"
    },
    "visiblePriceUnit": "kpl",
    "isDiscounted": false
  },
  {
    "ean": "5700551160073",
    "urlSlug": "bf-gear-koirankakkapussi-40kpl-large-5700551160073",
    "name": "Best Friend gear biohajoava koirankakkapussi kantokahvoilla 40kpl suuri",
    "pictureUrls": [
      {
        "original": "https://public.keskofiles.com/f/k-ruoka/product/5700551160073"
      }
    ],
    "section": "3833",
    "departmentId": "110",
    "contentUnit": "KPL",
    "contentSize": 1,
    "netWeight": 0.116,
    "available": true,
    "isUtility": false,
    "preprocessedPricing": {
      "products": {},
      "simplePromotions": {},
      "basketPromotions": {}
    },
    "tosPricing": {
      "basketPromotions": []
    },
    "simplePricePlussa": false,
    "pricingUnit": "kpl",
    "referencePrice": {
      "_type": "Big",
      "value": "1.39"
    },
    "visiblePrice": {
      "_type": "Big",
      "value": "1.39"
    },
    "visiblePriceUnit": "kpl",
    "isDiscounted": false
  },
  {
    "ean": "8001154001006",
    "urlSlug": "almo-nat-hfc-natural-70g-lohi-8001154001006",
    "name": "Almo Nature HFC natural kissan märkäruoka 70g lohi",
    "pictureUrls": [
      {
        "original": "https://public.keskofiles.com/f/k-ruoka/product/8001154001006"
      }
    ],
    "section": "3700",
    "departmentId": "110",
    "contentUnit": "KG",
    "contentSize": 0.07,
    "netWeight": 0.07,
    "available": true,
    "isUtility": false,
    "preprocessedPricing": {
      "products": {},
      "simplePromotions": {},
      "basketPromotions": {}
    },
    "tosPricing": {
      "basketPromotions": []
    },
    "simplePricePlussa": false,
    "pricingUnit": "kpl",
    "referencePrice": {
      "_type": "Big",
      "value": "20.71428571428571428571"
    },
    "visiblePrice": {
      "_type": "Big",
      "value": "1.45"
    },
    "visiblePriceUnit": "kpl",
    "isDiscounted": false
  },
  {
    "ean": "7613035853577",
    "urlSlug": "gourmet-soup-kissan-annosp-40g-kana-7613035853577",
    "name": "Gourmet 40g Crystal Soup kana",
    "pictureUrls": [
      {
        "original": "https://public.keskofiles.com/f/k-ruoka/product/7613035853577"
      }
    ],
    "section": "3707",
    "departmentId": "110",
    "contentUnit": "KG",
    "contentSize": 0.04,
    "netWeight": 0.04,
    "available": true,
    "isUtility": false,
    "preprocessedPricing": {
      "products": {},
      "simplePromotions": {},
      "basketPromotions": {}
    },
    "tosPricing": {
      "basketPromotions": []
    },
    "simplePricePlussa": false,
    "pricingUnit": "kpl",
    "referencePrice": {
      "_type": "Big",
      "value": "23.75"
    },
    "visiblePrice": {
      "_type": "Big",
      "value": "0.95"
    },
    "visiblePriceUnit": "kpl",
    "isDiscounted": true,
    "discountType": "PLUSSA",
    "plussaDiscountPercentage": {
      "_type": "Big",
      "value": "-29.824561403508771929"
    },
    "batchSize": 6,
    "batchPrice": {
      "_type": "Big",
      "value": "4"
    }
  },
  {
    "ean": "5700551250910",
    "urlSlug": "bf-gear-kitty-kissan-tarvikesetti-5700551250910",
    "name": "BF Gear KITTY kissan tarvikesetti",
    "pictureUrls": [],
    "section": "3825",
    "departmentId": "110",
    "contentUnit": "KPL",
    "contentSize": 1,
    "netWeight": 0.225,
    "available": true,
    "isUtility": false,
    "preprocessedPricing": {
      "products": {},
      "simplePromotions": {},
      "basketPromotions": {}
    },
    "tosPricing": {
      "basketPromotions": []
    },
    "simplePricePlussa": false,
    "pricingUnit": "kpl",
    "referencePrice": {
      "_type": "Big",
      "value": "5"
    },
    "visiblePrice": {
      "_type": "Big",
      "value": "5"
    },
    "visiblePriceUnit": "kpl",
    "isDiscounted": false
  },
  {
    "ean": "6430049621340",
    "urlSlug": "hhc-koiran-sp-pate-100g-lammas-vihannes-6430049621340",
    "name": "Hau-Hau Champion lammas- ja vihannespate riisillä 100g",
    "pictureUrls": [
      {
        "original": "https://public.keskofiles.com/f/k-ruoka/product/6430049621340"
      }
    ],
    "section": "3716",
    "departmentId": "110",
    "contentUnit": "KG",
    "contentSize": 0.1,
    "netWeight": 0.1,
    "available": true,
    "isUtility": false,
    "preprocessedPricing": {
      "products": {},
      "simplePromotions": {},
      "basketPromotions": {}
    },
    "tosPricing": {
      "basketPromotions": []
    },
    "simplePricePlussa": false,
    "pricingUnit": "kpl",
    "referencePrice": {
      "_type": "Big",
      "value": "11.5"
    },
    "visiblePrice": {
      "_type": "Big",
      "value": "1.15"
    },
    "visiblePriceUnit": "kpl",
    "isDiscounted": false
  },
  {
    "ean": "5700551141386",
    "urlSlug": "bf-gear-ergonomic-y-valjas-m-5700551141386",
    "name": "BF Gear Ergonomic Y-valjas M",
    "pictureUrls": [
      {
        "original": "https://public.keskofiles.com/f/k-ruoka/product/5700551141386"
      }
    ],
    "section": "3831",
    "departmentId": "110",
    "contentUnit": "KPL",
    "contentSize": 1,
    "netWeight": 0.188,
    "available": true,
    "isUtility": false,
    "preprocessedPricing": {
      "products": {},
      "simplePromotions": {},
      "basketPromotions": {}
    },
    "tosPricing": {
      "basketPromotions": []
    },
    "simplePricePlussa": false,
    "pricingUnit": "kpl",
    "referencePrice": {
      "_type": "Big",
      "value": "23.15"
    },
    "visiblePrice": {
      "_type": "Big",
      "value": "23.15"
    },
    "visiblePriceUnit": "kpl",
    "isDiscounted": false
  },
  {
    "ean": "5700551151231",
    "urlSlug": "bf-softy-koiran-pehmolelu-5700551151231",
    "name": "BF Softy koiran pehmolelu",
    "pictureUrls": [],
    "section": "3830",
    "departmentId": "110",
    "contentUnit": "KPL",
    "contentSize": 1,
    "netWeight": 0.106,
    "available": true,
    "isUtility": false,
    "preprocessedPricing": {
      "products": {},
      "simplePromotions": {},
      "basketPromotions": {}
    },
    "tosPricing": {
      "basketPromotions": []
    },
    "simplePricePlussa": false,
    "pricingUnit": "kpl",
    "referencePrice": {
      "_type": "Big",
      "value": "6.59"
    },
    "visiblePrice": {
      "_type": "Big",
      "value": "6.59"
    },
    "visiblePriceUnit": "kpl",
    "isDiscounted": false
  },
  {
    "ean": "5000239100927",
    "urlSlug": "goodboy-latex-joululelulajitelma-era-5000239100927",
    "name": "GoodBoy latex joululelulajitelma",
    "pictureUrls": [],
    "section": "3830",
    "departmentId": "110",
    "contentUnit": "KPL",
    "contentSize": 1,
    "netWeight": 0.029,
    "available": true,
    "isUtility": false,
    "preprocessedPricing": {
      "products": {},
      "simplePromotions": {},
      "basketPromotions": {}
    },
    "tosPricing": {
      "basketPromotions": []
    },
    "simplePricePlussa": false,
    "pricingUnit": "kpl",
    "referencePrice": {
      "_type": "Big",
      "value": "2.79"
    },
    "visiblePrice": {
      "_type": "Big",
      "value": "2.79"
    },
    "visiblePriceUnit": "kpl",
    "isDiscounted": false
  },
  {
    "ean": "5700551211348",
    "urlSlug": "bf-bilanx-kissan-patee-100g-nauta-luomu-5700551211348",
    "name": "BF Bilanx kissan patee 100g nauta viljaton luomu",
    "pictureUrls": [
      {
        "original": "https://public.keskofiles.com/f/k-ruoka/product/5700551211348"
      }
    ],
    "section": "3700",
    "departmentId": "110",
    "contentUnit": "KG",
    "contentSize": 0.1,
    "netWeight": 0.1,
    "available": true,
    "isUtility": false,
    "preprocessedPricing": {
      "products": {},
      "simplePromotions": {},
      "basketPromotions": {}
    },
    "tosPricing": {
      "basketPromotions": []
    },
    "simplePricePlussa": false,
    "pricingUnit": "kpl",
    "referencePrice": {
      "_type": "Big",
      "value": "8.5"
    },
    "visiblePrice": {
      "_type": "Big",
      "value": "0.85"
    },
    "visiblePriceUnit": "kpl",
    "isDiscounted": false
  },
  {
    "ean": "3065890122536",
    "urlSlug": "sheba-speciale-annosate-85g-kalkkunapata-3065890122536",
    "name": "Sheba Speciale kalkkunapata 85g",
    "pictureUrls": [
      {
        "original": "https://public.keskofiles.com/f/k-ruoka/product/3065890122536"
      }
    ],
    "section": "3700",
    "departmentId": "110",
    "contentUnit": "KG",
    "contentSize": 0.085,
    "netWeight": 0.085,
    "available": true,
    "isUtility": false,
    "preprocessedPricing": {
      "products": {},
      "simplePromotions": {},
      "basketPromotions": {}
    },
    "tosPricing": {
      "basketPromotions": []
    },
    "simplePricePlussa": false,
    "pricingUnit": "kpl",
    "referencePrice": {
      "_type": "Big",
      "value": "9.29411764705882352941"
    },
    "visiblePrice": {
      "_type": "Big",
      "value": "0.79"
    },
    "visiblePriceUnit": "kpl",
    "isDiscounted": false
  },
  {
    "ean": "5700551160264",
    "urlSlug": "best-friend-pentualusta-60x60cm-5700551160264",
    "name": "Best Friend pentualusta 60x60cm",
    "pictureUrls": [
      {
        "original": "https://public.keskofiles.com/f/k-ruoka/product/5700551160264"
      }
    ],
    "section": "3833",
    "departmentId": "110",
    "contentUnit": "KPL",
    "contentSize": 1,
    "netWeight": 0.6,
    "available": true,
    "isUtility": false,
    "preprocessedPricing": {
      "products": {},
      "simplePromotions": {},
      "basketPromotions": {}
    },
    "tosPricing": {
      "basketPromotions": []
    },
    "simplePricePlussa": false,
    "pricingUnit": "kpl",
    "referencePrice": {
      "_type": "Big",
      "value": "6.99"
    },
    "visiblePrice": {
      "_type": "Big",
      "value": "6.99"
    },
    "visiblePriceUnit": "kpl",
    "isDiscounted": false
  },
  {
    "ean": "6419822190006",
    "urlSlug": "capell-jyrsijan-pesapuru-1kg-6419822190006",
    "name": "Pesäpuru jyrsijänpuru 1 kg",
    "pictureUrls": [
      {
        "original": "https://public.keskofiles.com/f/k-ruoka/product/6419822190006"
      }
    ],
    "section": "3842",
    "departmentId": "110",
    "contentUnit": "KG",
    "contentSize": 1,
    "netWeight": 1,
    "available": true,
    "isUtility": false,
    "preprocessedPricing": {
      "products": {},
      "simplePromotions": {},
      "basketPromotions": {}
    },
    "tosPricing": {
      "basketPromotions": []
    },
    "simplePricePlussa": false,
    "pricingUnit": "kpl",
    "referencePrice": {
      "_type": "Big",
      "value": "1.15"
    },
    "visiblePrice": {
      "_type": "Big",
      "value": "1.15"
    },
    "visiblePriceUnit": "kpl",
    "isDiscounted": false
  },
  {
    "ean": "5900951020889",
    "urlSlug": "whiskas-kissan-kastike-400g-kana-5900951020889",
    "name": "Whiskas kastike kana 400g tölkki",
    "pictureUrls": [
      {
        "original": "https://public.keskofiles.com/f/k-ruoka/product/5900951020889"
      }
    ],
    "section": "3704",
    "departmentId": "110",
    "contentUnit": "KG",
    "contentSize": 0.4,
    "netWeight": 0.4,
    "available": true,
    "isUtility": false,
    "preprocessedPricing": {
      "products": {},
      "simplePromotions": {},
      "basketPromotions": {}
    },
    "tosPricing": {
      "basketPromotions": []
    },
    "simplePricePlussa": false,
    "pricingUnit": "kpl",
    "referencePrice": {
      "_type": "Big",
      "value": "3.125"
    },
    "visiblePrice": {
      "_type": "Big",
      "value": "1.25"
    },
    "visiblePriceUnit": "kpl",
    "isDiscounted": false
  },
  {
    "ean": "6410320890733",
    "urlSlug": "red-alert-bone-koiranlelu-era-6410320890733",
    "name": "Red alert bone koiranlelu",
    "pictureUrls": [
      {
        "original": "https://public.keskofiles.com/f/k-ruoka/product/6410320890733"
      }
    ],
    "section": "3830",
    "departmentId": "110",
    "contentUnit": "KPL",
    "contentSize": 1,
    "netWeight": 0.097,
    "available": true,
    "isUtility": false,
    "preprocessedPricing": {
      "products": {},
      "simplePromotions": {},
      "basketPromotions": {}
    },
    "tosPricing": {
      "basketPromotions": []
    },
    "simplePricePlussa": false,
    "pricingUnit": "kpl",
    "referencePrice": {
      "_type": "Big",
      "value": "5.95"
    },
    "visiblePrice": {
      "_type": "Big",
      "value": "5.95"
    },
    "visiblePriceUnit": "kpl",
    "isDiscounted": false
  }
]