[
  {
    "ean": "6415131404612",
    "urlSlug": "marli-mehu-05l-mustaherukka-6415131404612",
    "name": "Marli 0,5l Mustaherukkamehu 1+4",
    "pictureUrls": [
      {
        "original": "https://public.keskofiles.com/f/k-ruoka/product/6415131404612"
      }
    ],
    "section": "3359",
    "departmentId": "108",
    "contentUnit": "L",
    "contentSize": 0.5,
    "netWeight": 0.601,
    "available": true,
    "isUtility": false,
    "preprocessedPricing": {
      "products": {},
      "simplePromotions": {},
      "basketPromotions": {}
    },
    "tosPricing": {
      "basketPromotions": []
    },
    "simplePricePlussa": false,
    "pricingUnit": "kpl",
    "referencePrice": {
      "_type": "Big",
      "value": "7.78"
    },
    "visiblePrice": {
      "_type": "Big",
      "value": "3.89"
    },
    "visiblePriceUnit": "kpl",
    "isDiscounted": false
  },
  {
    "ean": "6410405203007",
    "urlSlug": "k-menu-appelsiinimehu-1l-6410405203007",
    "name": "K-Menu appelsiinimehu 1l",
    "pictureUrls": [
      {
        "original": "https://public.keskofiles.com/f/k-ruoka/product/6410405203007"
      }
    ],
    "section": "3349",
    "departmentId": "108",
    "contentUnit": "L",
    "contentSize": 1,
    "netWeight": 1.035,
    "available": true,
    "isUtility": false,
    "preprocessedPricing": {
      "products": {},
      "simplePromotions": {},
      "basketPromotions": {}
    },
    "tosPricing": {
      "basketPromotions": []
    },
    "simplePricePlussa": false,
    "pricingUnit": "kpl",
    "referencePrice": {
      "_type": "Big",
      "value": "0.75"
    },
    "visiblePrice": {
      "_type": "Big",
      "value": "0.75"
    },
    "visiblePriceUnit": "kpl",
    "isDiscounted": false
  },
  {
    "ean": "6419800120483",
    "urlSlug": "teho-lite-red-energiajuoma-05l-tlk-6419800120483",
    "name": "Teho Lite Red energiajuoma 0,5l",
    "pictureUrls": [
      {
        "original": "https://public.keskofiles.com/f/k-ruoka/product/6419800120483"
      }
    ],
    "section": "5042",
    "departmentId": "108",
    "contentUnit": "L",
    "contentSize": 0.5,
    "netWeight": 0.502,
    "available": true,
    "isUtility": false,
    "preprocessedPricing": {
      "products": {},
      "simplePromotions": {},
      "basketPromotions": {}
    },
    "tosPricing": {
      "basketPromotions": []
    },
    "simplePricePlussa": false,
    "pricingUnit": "kpl",
    "referencePrice": {
      "_type": "Big",
      "value": "3.2"
    },
    "visiblePrice": {
      "_type": "Big",
      "value": "1.75"
    },
    "visiblePriceUnit": "kpl",
    "isDiscounted": false
  },
  {
    "ean": "6415600541022",
    "urlSlug": "sprite-025l-tlk-6415600541022",
    "name": "Sprite 0,25l",
    "pictureUrls": [
      {
        "original": "https://public.keskofiles.com/f/k-ruoka/product/6415600541022"
      }
    ],
    "section": "5002",
    "departmentId": "108",
    "contentUnit": "L",
    "contentSize": 0.25,
    "netWeight": 0.263,
    "available": true,
    "isUtility": false,
    "preprocessedPricing": {
      "products": {},
      "simplePromotions": {},
      "basketPromotions": {}
    },
    "tosPricing": {
      "basketPromotions": []
    },
    "simplePricePlussa": false,
    "pricingUnit": "kpl",
    "referencePrice": {
      "_type": "Big",
      "value": "3.36"
    },
    "visiblePrice": {
      "_type": "Big",
      "value": "0.99"
    },
    "visiblePriceUnit": "kpl",
    "isDiscounted": false
  },
  {
    "ean": "7310470348230",
    "urlSlug": "ekstroms-sekamehu-05l-mansikka-7310470348230",
    "name": "Ekströms mansikkainen sekamehutiiviste 0,5l",
    "pictureUrls": [
      {
        "original": "https://public.keskofiles.com/f/k-ruoka/product/7310470348230"
      }
    ],
    "section": "3359",
    "departmentId": "108",
    "contentUnit": "L",
    "contentSize": 0.5,
    "netWeight": 0.629,
    "available": true,
    "isUtility": false,
    "preprocessedPricing": {
      "products": {},
      "simplePromotions": {},
      "basketPromotions": {}
    },
    "tosPricing": {
      "basketPromotions": []
    },
    "simplePricePlussa": false,
    "pricingUnit": "kpl",
    "referencePrice": {
      "_type": "Big",
      "value": "7.98"
    },
    "visiblePrice": {
      "_type": "Big",
      "value": "3.99"
    },
    "visiblePriceUnit": "kpl",
    "isDiscounted": false
  },
  {
    "ean": "6411020007391",
    "urlSlug": "forsman-60g-iloinen-jouluporo-6411020007391",
    "name": "Forsman 60g Iloinen jouluporo",
    "pictureUrls": [],
    "section": "3460",
    "departmentId": "108",
    "contentUnit": "KG",
    "contentSize": 0.06,
    "netWeight": 0.06,
    "available": true,
    "isUtility": false,
    "preprocessedPricing": {
      "products": {},
      "simplePromotions": {},
      "basketPromotions": {}
    },
    "tosPricing": {
      "basketPromotions": []
    },
    "simplePricePlussa": false,
    "pricingUnit": "kpl",
    "referencePrice": {
      "_type": "Big",
      "value": "34.83333333333333333333"
    },
    "visiblePrice": {
      "_type": "Big",
      "value": "2.09"
    },
    "visiblePriceUnit": "kpl",
    "isDiscounted": false
  },
  {
    "ean": "6415600546478",
    "urlSlug": "bonaqua-sitruuna-lime-033l-kmp-si-6415600546478",
    "name": "Bonaqua sitruuna-lime 0,33l",
    "pictureUrls": [
      {
        "original": "https://public.keskofiles.com/f/k-ruoka/product/6415600546478"
      }
    ],
    "section": "5024",
    "departmentId": "108",
    "contentUnit": "L",
    "contentSize": 0.33,
    "netWeight": 0.341,
    "available": true,
    "isUtility": false,
    "preprocessedPricing": {
      "products": {},
      "simplePromotions": {},
      "basketPromotions": {}
    },
    "tosPricing": {
      "basketPromotions": []
    },
    "simplePricePlussa": false,
    "pricingUnit": "kpl",
    "referencePrice": {
      "_type": "Big",
      "value": "2.6969696969696969697"
    },
    "visiblePrice": {
      "_type": "Big",
      "value": "0.99"
    },
    "visiblePriceUnit": "kpl",
    "isDiscounted": false
  },
  {
    "ean": "6411020007711",
    "urlSlug": "forsman-45g-luomu-inkivaari-nokkonen-6411020007711",
    "name": "Forsman 45g Luomu Inkivääri Nokkonen",
    "pictureUrls": [],
    "section": "3453",
    "departmentId": "108",
    "contentUnit": "KG",
    "contentSize": 0.045,
    "netWeight": 0.045,
    "available": true,
    "isUtility": false,
    "preprocessedPricing": {
      "products": {},
      "simplePromotions": {},
      "basketPromotions": {}
    },
    "tosPricing": {
      "basketPromotions": []
    },
    "simplePricePlussa": false,
    "pricingUnit": "kpl",
    "referencePrice": {
      "_type": "Big",
      "value": "74.44444444444444444444"
    },
    "visiblePrice": {
      "_type": "Big",
      "value": "3.35"
    },
    "visiblePriceUnit": "kpl",
    "isDiscounted": false
  },
  {
    "ean": "6415600506519",
    "urlSlug": "fanta-mandariini-15l--kmp-6415600506519",
    "name": "Fanta Mandariini virvoitusjuoma 1,5l",
    "pictureUrls": [
      {
        "original": "https://public.keskofiles.com/f/k-ruoka/product/6415600506519"
      }
    ],
    "section": "5013",
    "departmentId": "108",
    "contentUnit": "L",
    "contentSize": 1.5,
    "netWeight": 1.606,
    "available": true,
    "isUtility": false,
    "preprocessedPricing": {
      "products": {},
      "simplePromotions": {},
      "basketPromotions": {}
    },
    "tosPricing": {
      "basketPromotions": []
    },
    "simplePricePlussa": false,
    "pricingUnit": "kpl",
    "referencePrice": {
      "_type": "Big",
      "value": "1.39333333333333333333"
    },
    "visiblePrice": {
      "_type": "Big",
      "value": "2.49"
    },
    "visiblePriceUnit": "kpl",
    "isDiscounted": false,
    "discountType": "PLUSSA",
    "batchSize": 3,
    "batchPrice": {
      "_type": "Big",
      "value": "6"
    }
  },
  {
    "ean": "6413446010320",
    "urlSlug": "nordqvist-muumi-tee-4x5ps-paivan-paras-h-6413446010320",
    "name": "Muumi Päivän paras hetki 4x5pss/35g musta maustettu pussitee",
    "pictureUrls": [
      {
        "original": "https://public.keskofiles.com/f/k-ruoka/product/6413446010320"
      }
    ],
    "section": "3445",
    "departmentId": "108",
    "contentUnit": "KG",
    "contentSize": 0.035,
    "netWeight": 0.035,
    "available": true,
    "isUtility": false,
    "preprocessedPricing": {
      "products": {},
      "simplePromotions": {},
      "basketPromotions": {}
    },
    "tosPricing": {
      "basketPromotions": []
    },
    "simplePricePlussa": false,
    "pricingUnit": "kpl",
    "referencePrice": {
      "_type": "Big",
      "value": "72.85714285714285714286"
    },
    "visiblePrice": {
      "_type": "Big",
      "value": "2.55"
    },
    "visiblePriceUnit": "kpl",
    "isDiscounted": true,
    "discountType": "PLUSSA",
    "batchSize": 2,
    "batchPrice": {
      "_type": "Big",
      "value": "4.5"
    }
  },
  {
    "ean": "8002530220714",
    "urlSlug": "caffe-mauro-special-espresso-500g-papu-8002530220714",
    "name": "Caffe Mauro Espresso papu 500g",
    "pictureUrls": [
      {
        "original": "https://public.keskofiles.com/f/k-ruoka/product/8002530220714"
      }
    ],
    "section": "3405",
    "departmentId": "108",
    "contentUnit": "KG",
    "contentSize": 0.5,
    "netWeight": 0.5,
    "available": true,
    "isUtility": false,
    "preprocessedPricing": {
      "products": {},
      "simplePromotions": {},
      "basketPromotions": {}
    },
    "tosPricing": {
      "basketPromotions": []
    },
    "simplePricePlussa": false,
    "pricingUnit": "kpl",
    "referencePrice": {
      "_type": "Big",
      "value": "22.7"
    },
    "visiblePrice": {
      "_type": "Big",
      "value": "11.35"
    },
    "visiblePriceUnit": "kpl",
    "isDiscounted": false
  },
  {
    "ean": "6410405102744",
    "urlSlug": "pirkka-appelsiini-mangomehu-1-l-ace-vit-6410405102744",
    "name": "Pirkka appelsiini-mangomehu 1l",
    "pictureUrls": [
      {
        "original": "https://public.keskofiles.com/f/k-ruoka/product/6410405102744"
      }
    ],
    "section": "1913",
    "departmentId": "108",
    "contentUnit": "L",
    "contentSize": 1,
    "netWeight": 1.042,
    "available": true,
    "isUtility": false,
    "preprocessedPricing": {
      "products": {},
      "simplePromotions": {},
      "basketPromotions": {}
    },
    "tosPricing": {
      "basketPromotions": []
    },
    "simplePricePlussa": false,
    "pricingUnit": "kpl",
    "referencePrice": {
      "_type": "Big",
      "value": "1.49"
    },
    "visiblePrice": {
      "_type": "Big",
      "value": "1.49"
    },
    "visiblePriceUnit": "kpl",
    "isDiscounted": false
  },
  {
    "ean": "6415130036722",
    "urlSlug": "natur-nelja-hedelmaa-taysmehu-25dl-6415130036722",
    "name": "Natur neljä hedelmää täysmehu 2,5dl",
    "pictureUrls": [
      {
        "original": "https://public.keskofiles.com/f/k-ruoka/product/6415130036722"
      }
    ],
    "section": "3300",
    "departmentId": "108",
    "contentUnit": "L",
    "contentSize": 0.25,
    "netWeight": 0.261,
    "available": true,
    "isUtility": false,
    "preprocessedPricing": {
      "products": {},
      "simplePromotions": {},
      "basketPromotions": {}
    },
    "tosPricing": {
      "basketPromotions": []
    },
    "simplePricePlussa": false,
    "pricingUnit": "kpl",
    "referencePrice": {
      "_type": "Big",
      "value": "3.8"
    },
    "visiblePrice": {
      "_type": "Big",
      "value": "0.95"
    },
    "visiblePriceUnit": "kpl",
    "isDiscounted": false
  },
  {
    "ean": "6411020004031",
    "urlSlug": "forsman-tee-60g-rooibos-vanilja-reilu-6411020004031",
    "name": "Forsman 60 g Rooibos Vanilja Reilun kaupan yrttitee",
    "pictureUrls": [
      {
        "original": "https://public.keskofiles.com/f/k-ruoka/product/6411020004031"
      }
    ],
    "section": "3460",
    "departmentId": "108",
    "contentUnit": "KG",
    "contentSize": 0.06,
    "netWeight": 0.06,
    "available": true,
    "isUtility": false,
    "preprocessedPricing": {
      "products": {},
      "simplePromotions": {},
      "basketPromotions": {}
    },
    "tosPricing": {
      "basketPromotions": []
    },
    "simplePricePlussa": false,
    "pricingUnit": "kpl",
    "referencePrice": {
      "_type": "Big",
      "value": "35.83333333333333333333"
    },
    "visiblePrice": {
      "_type": "Big",
      "value": "2.15"
    },
    "visiblePriceUnit": "kpl",
    "isDiscounted": false
  },
  {
    "ean": "6413600014836",
    "urlSlug": "ed-lemon-light-05l-kmp-6413600014836",
    "name": "Ed Lemon Light 0,5l kmp",
    "pictureUrls": [
      {
        "original": "https://public.keskofiles.com/f/k-ruoka/product/6413600014836"
      }
    ],
    "section": "5042",
    "departmentId": "108",
    "contentUnit": "L",
    "contentSize": 0.5,
    "netWeight": 0.505,
    "available": true,
    "isUtility": false,
    "preprocessedPricing": {
      "products": {},
      "simplePromotions": {},
      "basketPromotions": {}
    },
    "tosPricing": {
      "basketPromotions": []
    },
    "simplePricePlussa": false,
    "pricingUnit": "kpl",
    "referencePrice": {
      "_type": "Big",
      "value": "3.58"
    },
    "visiblePrice": {
      "_type": "Big",
      "value": "1.99"
    },
    "visiblePriceUnit": "kpl",
    "isDiscounted": true
  },
  {
    "ean": "6418785100022",
    "urlSlug": "vip-omenataysmehu-1l-6418785100022",
    "name": "Vip omenatäysmehu 1l",
    "pictureUrls": [
      {
        "original": "https://public.keskofiles.com/f/k-ruoka/product/6418785100022"
      }
    ],
    "section": "3331",
    "departmentId": "108",
    "contentUnit": "L",
    "contentSize": 1,
    "netWeight": 1.045,
    "available": true,
    "isUtility": false,
    "preprocessedPricing": {
      "products": {},
      "simplePromotions": {},
      "basketPromotions": {}
    },
    "tosPricing": {
      "basketPromotions": []
    },
    "simplePricePlussa": false,
    "pricingUnit": "kpl",
    "referencePrice": {
      "_type": "Big",
      "value": "1.35"
    },
    "visiblePrice": {
      "_type": "Big",
      "value": "1.35"
    },
    "visiblePriceUnit": "kpl",
    "isDiscounted": false
  },
  {
    "ean": "8712500013238",
    "urlSlug": "caffe-venezia-espresso-coffee-papu-1kg-8712500013238",
    "name": "Caffè Venezia Espresso Coffee beans 1kg",
    "pictureUrls": [],
    "section": "3405",
    "departmentId": "108",
    "contentUnit": "KG",
    "contentSize": 1,
    "netWeight": 1,
    "available": true,
    "isUtility": false,
    "preprocessedPricing": {
      "products": {},
      "simplePromotions": {},
      "basketPromotions": {}
    },
    "tosPricing": {
      "basketPromotions": []
    },
    "simplePricePlussa": false,
    "pricingUnit": "kpl",
    "referencePrice": {
      "_type": "Big",
      "value": "9.79"
    },
    "visiblePrice": {
      "_type": "Big",
      "value": "9.79"
    },
    "visiblePriceUnit": "kpl",
    "isDiscounted": false
  },
  {
    "ean": "6427401316006",
    "urlSlug": "kaskein-luomutyrniglogi-0-7l-klp-6427401316006",
    "name": "Kaskein luomutyrniglögi 0.7l klp",
    "pictureUrls": [
      {
        "original": "https://public.keskofiles.com/f/k-ruoka/product/6427401316006"
      }
    ],
    "section": "5090",
    "departmentId": "108",
    "contentUnit": "L",
    "contentSize": 0.7,
    "netWeight": 0.721,
    "available": true,
    "isUtility": false,
    "preprocessedPricing": {
      "products": {},
      "simplePromotions": {},
      "basketPromotions": {}
    },
    "tosPricing": {
      "basketPromotions": []
    },
    "simplePricePlussa": false,
    "pricingUnit": "kpl",
    "referencePrice": {
      "_type": "Big",
      "value": "9.84285714285714285714"
    },
    "visiblePrice": {
      "_type": "Big",
      "value": "6.99"
    },
    "visiblePriceUnit": "kpl",
    "isDiscounted": false
  },
  {
    "ean": "5011835101690",
    "urlSlug": "reilu-kauppa-kaakaojauhe-125g-luomu-5011835101690",
    "name": "Green & Black´s luomu 100% kaakaojauhe 125g reilu kauppa",
    "pictureUrls": [
      {
        "original": "https://public.keskofiles.com/f/k-ruoka/product/5011835101690"
      }
    ],
    "section": "3484",
    "departmentId": "108",
    "contentUnit": "KG",
    "contentSize": 0.125,
    "netWeight": 0.125,
    "available": true,
    "isUtility": false,
    "preprocessedPricing": {
      "products": {},
      "simplePromotions": {},
      "basketPromotions": {}
    },
    "tosPricing": {
      "basketPromotions": []
    },
    "simplePricePlussa": false,
    "pricingUnit": "kpl",
    "referencePrice": {
      "_type": "Big",
      "value": "26.8"
    },
    "visiblePrice": {
      "_type": "Big",
      "value": "3.35"
    },
    "visiblePriceUnit": "kpl",
    "isDiscounted": false
  },
  {
    "ean": "7391603506994",
    "urlSlug": "brunneby-mustahe-mehutiiv-05l-sokton-7391603506994",
    "name": "Brunneby mustaherukkamehu 0,5l sokeroimaton",
    "pictureUrls": [
      {
        "original": "https://public.keskofiles.com/f/k-ruoka/product/7391603506994"
      }
    ],
    "section": "3360",
    "departmentId": "108",
    "contentUnit": "L",
    "contentSize": 0.5,
    "netWeight": 0.53,
    "available": true,
    "isUtility": false,
    "preprocessedPricing": {
      "products": {},
      "simplePromotions": {},
      "basketPromotions": {}
    },
    "tosPricing": {
      "basketPromotions": []
    },
    "simplePricePlussa": false,
    "pricingUnit": "kpl",
    "referencePrice": {
      "_type": "Big",
      "value": "11.58"
    },
    "visiblePrice": {
      "_type": "Big",
      "value": "5.79"
    },
    "visiblePriceUnit": "kpl",
    "isDiscounted": false
  },
  {
    "ean": "6411300167777",
    "urlSlug": "presidentti-papukahvi-400g-gold-label-6411300167777",
    "name": "Presidentti papukahvi 400g gold label",
    "pictureUrls": [
      {
        "original": "https://public.keskofiles.com/f/k-ruoka/product/6411300167777"
      }
    ],
    "section": "3403",
    "departmentId": "108",
    "contentUnit": "KG",
    "contentSize": 0.4,
    "netWeight": 0.4,
    "available": true,
    "isUtility": false,
    "preprocessedPricing": {
      "products": {},
      "simplePromotions": {},
      "basketPromotions": {}
    },
    "tosPricing": {
      "basketPromotions": []
    },
    "simplePricePlussa": false,
    "pricingUnit": "kpl",
    "referencePrice": {
      "_type": "Big",
      "value": "14.375"
    },
    "visiblePrice": {
      "_type": "Big",
      "value": "5.75"
    },
    "visiblePriceUnit": "kpl",
    "isDiscounted": false
  },
  {
    "ean": "6418785004559",
    "urlSlug": "mysoda-cola-05l-plo-6418785004559",
    "name": "MySoda Cola 0,5l",
    "pictureUrls": [],
    "section": "5090",
    "departmentId": "108",
    "contentUnit": "L",
    "contentSize": 0.5,
    "netWeight": 0.634,
    "available": true,
    "isUtility": false,
    "preprocessedPricing": {
      "products": {},
      "simplePromotions": {},
      "basketPromotions": {}
    },
    "tosPricing": {
      "basketPromotions": []
    },
    "simplePricePlussa": false,
    "pricingUnit": "kpl",
    "referencePrice": {
      "_type": "Big",
      "value": "7.9"
    },
    "visiblePrice": {
      "_type": "Big",
      "value": "3.95"
    },
    "visiblePriceUnit": "kpl",
    "isDiscounted": false
  },
  {
    "ean": "5060108451147",
    "urlSlug": "fever-tree-aromatic-tonic-05l-klp-5060108451147",
    "name": "Fever-Tree Aromatic Tonic water 0,5l",
    "pictureUrls": [
      {
        "original": "https://public.keskofiles.com/f/k-ruoka/product/5060108451147"
      }
    ],
    "section": "5045",
    "departmentId": "108",
    "contentUnit": "L",
    "contentSize": 0.5,
    "netWeight": 0.53,
    "available": true,
    "isUtility": false,
    "preprocessedPricing": {
      "products": {},
      "simplePromotions": {},
      "basketPromotions": {}
    },
    "tosPricing": {
      "basketPromotions": []
    },
    "simplePricePlussa": false,
    "pricingUnit": "kpl",
    "referencePrice": {
      "_type": "Big",
      "value": "7.38"
    },
    "visiblePrice": {
      "_type": "Big",
      "value": "3.79"
    },
    "visiblePriceUnit": "kpl",
    "isDiscounted": false
  },
  {
    "ean": "6410405072412",
    "urlSlug": "pirkka-juoma-05l-mansikka-kmp-6410405072412",
    "name": "Pirkka mansikanmakuinen juoma 0,5l",
    "pictureUrls": [
      {
        "original": "https://public.keskofiles.com/f/k-ruoka/product/6410405072412"
      }
    ],
    "section": "3349",
    "departmentId": "108",
    "contentUnit": "L",
    "contentSize": 0.5,
    "netWeight": 0.519,
    "available": true,
    "isUtility": false,
    "preprocessedPricing": {
      "products": {},
      "simplePromotions": {},
      "basketPromotions": {}
    },
    "tosPricing": {
      "basketPromotions": []
    },
    "simplePricePlussa": false,
    "pricingUnit": "kpl",
    "referencePrice": {
      "_type": "Big",
      "value": "1.9"
    },
    "visiblePrice": {
      "_type": "Big",
      "value": "1.15"
    },
    "visiblePriceUnit": "kpl",
    "isDiscounted": false
  },
  {
    "ean": "5021991200137",
    "urlSlug": "clipper-yrttijuoma-20ps-lakritsi-luomu-5021991200137",
    "name": "Clipper lakritsa yrttijuoma 20ps/40g luomu",
    "pictureUrls": [
      {
        "original": "https://public.keskofiles.com/f/k-ruoka/product/5021991200137"
      }
    ],
    "section": "3463",
    "departmentId": "108",
    "contentUnit": "KG",
    "contentSize": 0.04,
    "netWeight": 0.04,
    "available": true,
    "isUtility": false,
    "preprocessedPricing": {
      "products": {},
      "simplePromotions": {},
      "basketPromotions": {}
    },
    "tosPricing": {
      "basketPromotions": []
    },
    "simplePricePlussa": false,
    "pricingUnit": "kpl",
    "referencePrice": {
      "_type": "Big",
      "value": "77.25"
    },
    "visiblePrice": {
      "_type": "Big",
      "value": "3.09"
    },
    "visiblePriceUnit": "kpl",
    "isDiscounted": false
  },
  {
    "ean": "5708190030030",
    "urlSlug": "little-miracles-valk--teega-033l-kmp-5708190030030",
    "name": "Little Miracles Valkoinen tee, ginseng & acai",
    "pictureUrls": [
      {
        "original": "https://public.keskofiles.com/f/k-ruoka/product/5708190030030"
      }
    ],
    "section": "5042",
    "departmentId": "108",
    "contentUnit": "L",
    "contentSize": 0.33,
    "netWeight": 0.338,
    "available": true,
    "isUtility": false,
    "preprocessedPricing": {
      "products": {},
      "simplePromotions": {},
      "basketPromotions": {}
    },
    "tosPricing": {
      "basketPromotions": []
    },
    "simplePricePlussa": false,
    "pricingUnit": "kpl",
    "referencePrice": {
      "_type": "Big",
      "value": "5.72727272727272727273"
    },
    "visiblePrice": {
      "_type": "Big",
      "value": "1.99"
    },
    "visiblePriceUnit": "kpl",
    "isDiscounted": false
  },
  {
    "ean": "6430038530042",
    "urlSlug": "drivers-energy-drink-sugarfree-025l-tlk-6430038530042",
    "name": "Drivers Energy Drink Sugarfree 0,25l",
    "pictureUrls": [
      {
        "original": "https://public.keskofiles.com/f/k-ruoka/product/6430038530042"
      }
    ],
    "section": "5042",
    "departmentId": "108",
    "contentUnit": "L",
    "contentSize": 0.25,
    "netWeight": 0.25,
    "available": true,
    "isUtility": false,
    "preprocessedPricing": {
      "products": {},
      "simplePromotions": {},
      "basketPromotions": {}
    },
    "tosPricing": {
      "basketPromotions": []
    },
    "simplePricePlussa": false,
    "pricingUnit": "kpl",
    "referencePrice": {
      "_type": "Big",
      "value": "4.56"
    },
    "visiblePrice": {
      "_type": "Big",
      "value": "1.29"
    },
    "visiblePriceUnit": "kpl",
    "isDiscounted": false
  },
  {
    "ean": "6419800052654",
    "urlSlug": "kevytolo-sitruuna-kivennaisves-165l-kmp-6419800052654",
    "name": "KevytOlo Sitruuna 1,65l kivennäisvesi",
    "pictureUrls": [
      {
        "original": "https://public.keskofiles.com/f/k-ruoka/product/6419800052654"
      }
    ],
    "section": "5026",
    "departmentId": "108",
    "contentUnit": "L",
    "contentSize": 1.65,
    "netWeight": 1.652,
    "available": true,
    "isUtility": false,
    "preprocessedPricing": {
      "products": {},
      "simplePromotions": {},
      "basketPromotions": {}
    },
    "tosPricing": {
      "basketPromotions": []
    },
    "simplePricePlussa": false,
    "pricingUnit": "kpl",
    "referencePrice": {
      "_type": "Big",
      "value": "0.78181818181818181818"
    },
    "visiblePrice": {
      "_type": "Big",
      "value": "1.69"
    },
    "visiblePriceUnit": "kpl",
    "isDiscounted": false
  },
  {
    "ean": "6411300167357",
    "urlSlug": "paulig-papukahvi-400g-parisien-6411300167357",
    "name": "Paulig papukahvi 400g Parisien",
    "pictureUrls": [
      {
        "original": "https://public.keskofiles.com/f/k-ruoka/product/6411300167357"
      }
    ],
    "section": "3404",
    "departmentId": "108",
    "contentUnit": "KG",
    "contentSize": 0.4,
    "netWeight": 0.4,
    "available": true,
    "isUtility": false,
    "preprocessedPricing": {
      "products": {},
      "simplePromotions": {},
      "basketPromotions": {}
    },
    "tosPricing": {
      "basketPromotions": []
    },
    "simplePricePlussa": false,
    "pricingUnit": "kpl",
    "referencePrice": {
      "_type": "Big",
      "value": "18.125"
    },
    "visiblePrice": {
      "_type": "Big",
      "value": "7.25"
    },
    "visiblePriceUnit": "kpl",
    "isDiscounted": false
  },
  {
    "ean": "7393714288981",
    "urlSlug": "kopparberg-omena-00-05l-tlk-luomu-7393714288981",
    "name": "Kopparberg Luomu omenasiideri 0,5l alkoholiton",
    "pictureUrls": [
      {
        "original": "https://public.keskofiles.com/f/k-ruoka/product/7393714288981"
      }
    ],
    "section": "5162",
    "departmentId": "108",
    "contentUnit": "L",
    "contentSize": 0.5,
    "netWeight": 0.517,
    "available": true,
    "isUtility": false,
    "preprocessedPricing": {
      "products": {},
      "simplePromotions": {},
      "basketPromotions": {}
    },
    "tosPricing": {
      "basketPromotions": []
    },
    "simplePricePlussa": false,
    "pricingUnit": "kpl",
    "referencePrice": {
      "_type": "Big",
      "value": "3.6"
    },
    "visiblePrice": {
      "_type": "Big",
      "value": "1.95"
    },
    "visiblePriceUnit": "kpl",
    "isDiscounted": false
  }
]