[
  {
    "ean": "6416710150029",
    "urlSlug": "filos-kreikkalainen-aprikosmarmelad-370g-6416710150029",
    "name": "Filos kreikkalainen aprikosmarmelad 370g",
    "pictureUrls": [
      {
        "original": "https://public.keskofiles.com/f/k-ruoka/product/6416710150029"
      }
    ],
    "section": "3204",
    "departmentId": "106",
    "contentUnit": "KG",
    "contentSize": 0.37,
    "netWeight": 0.37,
    "available": true,
    "isUtility": false,
    "preprocessedPricing": {
      "products": {},
      "simplePromotions": {},
      "basketPromotions": {}
    },
    "tosPricing": {
      "basketPromotions": []
    },
    "simplePricePlussa": false,
    "pricingUnit": "kpl",
    "referencePrice": {
      "_type": "Big",
      "value": "7.27027027027027027027"
    },
    "visiblePrice": {
      "_type": "Big",
      "value": "2.69"
    },
    "visiblePriceUnit": "kpl",
    "isDiscounted": false
  },
  {
    "ean": "5711953018701",
    "urlSlug": "castello-white-tryffeli-150g-5711953018701",
    "name": "Castello white valkohomejuusto 150g tryffeli",
    "pictureUrls": [
      {
        "original": "https://public.keskofiles.com/f/k-ruoka/product/5711953018701"
      }
    ],
    "section": "2431",
    "departmentId": "104",
    "contentUnit": "KG",
    "contentSize": 0.15,
    "netWeight": 0.15,
    "available": true,
    "isUtility": false,
    "preprocessedPricing": {
      "products": {},
      "simplePromotions": {},
      "basketPromotions": {}
    },
    "tosPricing": {
      "basketPromotions": []
    },
    "simplePricePlussa": false,
    "pricingUnit": "kpl",
    "referencePrice": {
      "_type": "Big",
      "value": "24.33333333333333333333"
    },
    "visiblePrice": {
      "_type": "Big",
      "value": "3.65"
    },
    "visiblePriceUnit": "kpl",
    "isDiscounted": false
  },
  {
    "ean": "7050370110628",
    "urlSlug": "dln-notti-frutti-190g-7050370110628",
    "name": "Den lille nøttefabrikken nøtti frutti 190g pähkinä-hedelmäsekoitus",
    "pictureUrls": [
      {
        "original": "https://public.keskofiles.com/f/k-ruoka/product/7050370110628"
      }
    ],
    "section": "4418",
    "departmentId": "106",
    "contentUnit": "KG",
    "contentSize": 0.19,
    "netWeight": 0.19,
    "available": true,
    "isUtility": false,
    "preprocessedPricing": {
      "products": {},
      "simplePromotions": {},
      "basketPromotions": {}
    },
    "tosPricing": {
      "basketPromotions": []
    },
    "simplePricePlussa": false,
    "pricingUnit": "kpl",
    "referencePrice": {
      "_type": "Big",
      "value": "17.63157894736842105263"
    },
    "visiblePrice": {
      "_type": "Big",
      "value": "3.35"
    },
    "visiblePriceUnit": "kpl",
    "isDiscounted": false
  },
  {
    "ean": "5411281724267",
    "urlSlug": "duc-do-200g-mans-vsuklaatryffelit-5411281724267",
    "name": "Duc d'O 200g mans.vsuklaatryffelit",
    "pictureUrls": [
      {
        "original": "https://public.keskofiles.com/f/k-ruoka/product/5411281724267"
      }
    ],
    "section": "4261",
    "departmentId": "109",
    "contentUnit": "KG",
    "contentSize": 0.2,
    "netWeight": 0.2,
    "available": true,
    "isUtility": false,
    "preprocessedPricing": {
      "products": {},
      "simplePromotions": {},
      "basketPromotions": {}
    },
    "tosPricing": {
      "basketPromotions": []
    },
    "simplePricePlussa": false,
    "pricingUnit": "kpl",
    "referencePrice": {
      "_type": "Big",
      "value": "49.75"
    },
    "visiblePrice": {
      "_type": "Big",
      "value": "9.95"
    },
    "visiblePriceUnit": "kpl",
    "isDiscounted": false
  },
  {
    "ean": "7041111125988",
    "urlSlug": "dln-yoghurtnotter-pahkinasekoit-80g-7041111125988",
    "name": "DLN Yoghurtnötter pähkinäsekoitus 80g",
    "pictureUrls": [
      {
        "original": "https://public.keskofiles.com/f/k-ruoka/product/7041111125988"
      }
    ],
    "section": "4418",
    "departmentId": "106",
    "contentUnit": "KG",
    "contentSize": 0.08,
    "netWeight": 0.08,
    "available": true,
    "isUtility": false,
    "preprocessedPricing": {
      "products": {},
      "simplePromotions": {},
      "basketPromotions": {}
    },
    "tosPricing": {
      "basketPromotions": []
    },
    "simplePricePlussa": false,
    "pricingUnit": "kpl",
    "referencePrice": {
      "_type": "Big",
      "value": "38.625"
    },
    "visiblePrice": {
      "_type": "Big",
      "value": "3.09"
    },
    "visiblePriceUnit": "kpl",
    "isDiscounted": false
  },
  {
    "ean": "5414730417826",
    "urlSlug": "belfine-lumiukkotikkari-35g-valkosuklaa-5414730417826",
    "name": "Belfine lumiukkotikkari 35g valkosuklaa",
    "pictureUrls": [
      {
        "original": "https://public.keskofiles.com/f/k-ruoka/product/5414730417826"
      }
    ],
    "section": "4261",
    "departmentId": "109",
    "contentUnit": "KG",
    "contentSize": 0.035,
    "netWeight": 0.035,
    "available": true,
    "isUtility": false,
    "preprocessedPricing": {
      "products": {},
      "simplePromotions": {},
      "basketPromotions": {}
    },
    "tosPricing": {
      "basketPromotions": []
    },
    "simplePricePlussa": false,
    "pricingUnit": "kpl",
    "referencePrice": {
      "_type": "Big",
      "value": "54"
    },
    "visiblePrice": {
      "_type": "Big",
      "value": "1.89"
    },
    "visiblePriceUnit": "kpl",
    "isDiscounted": false
  },
  {
    "ean": "6415130049586",
    "urlSlug": "marli-premium-glogijuoma-1l-perinteinen-6415130049586",
    "name": "Marli premium glögijuoma 1l perinteinen",
    "pictureUrls": [
      {
        "original": "https://public.keskofiles.com/f/k-ruoka/product/6415130049586"
      }
    ],
    "section": "5090",
    "departmentId": "108",
    "contentUnit": "L",
    "contentSize": 1,
    "netWeight": 1.045,
    "available": true,
    "isUtility": false,
    "preprocessedPricing": {
      "products": {},
      "simplePromotions": {},
      "basketPromotions": {}
    },
    "tosPricing": {
      "basketPromotions": []
    },
    "simplePricePlussa": false,
    "pricingUnit": "kpl",
    "referencePrice": {
      "_type": "Big",
      "value": "1.89"
    },
    "visiblePrice": {
      "_type": "Big",
      "value": "1.89"
    },
    "visiblePriceUnit": "kpl",
    "isDiscounted": false,
    "discountType": "PLUSSA",
    "batchSize": 2,
    "batchPrice": {
      "_type": "Big",
      "value": "3.5"
    }
  },
  {
    "ean": "7310510002504",
    "urlSlug": "aladdin-rasia-500g-7310510002504",
    "name": "Marabou Aladdin 500g",
    "pictureUrls": [
      {
        "original": "https://public.keskofiles.com/f/k-ruoka/product/7310510002504"
      }
    ],
    "section": "4260",
    "departmentId": "109",
    "contentUnit": "KG",
    "contentSize": 0.5,
    "netWeight": 0.5,
    "available": true,
    "isUtility": false,
    "preprocessedPricing": {
      "products": {},
      "simplePromotions": {},
      "basketPromotions": {}
    },
    "tosPricing": {
      "basketPromotions": []
    },
    "simplePricePlussa": false,
    "pricingUnit": "kpl",
    "referencePrice": {
      "_type": "Big",
      "value": "12.98"
    },
    "visiblePrice": {
      "_type": "Big",
      "value": "6.49"
    },
    "visiblePriceUnit": "kpl",
    "isDiscounted": false
  },
  {
    "ean": "7312631704084",
    "urlSlug": "risenta-kookos-seesaminsiemenkeksi-30g-7312631704084",
    "name": "Risenta kookos-seesaminsiemenkeksi 30g",
    "pictureUrls": [
      {
        "original": "https://public.keskofiles.com/f/k-ruoka/product/7312631704084"
      }
    ],
    "section": "4416",
    "departmentId": "106",
    "contentUnit": "KG",
    "contentSize": 0.03,
    "netWeight": 0.03,
    "available": true,
    "isUtility": false,
    "preprocessedPricing": {
      "products": {},
      "simplePromotions": {},
      "basketPromotions": {}
    },
    "tosPricing": {
      "basketPromotions": []
    },
    "simplePricePlussa": false,
    "pricingUnit": "kpl",
    "referencePrice": {
      "_type": "Big",
      "value": "21"
    },
    "visiblePrice": {
      "_type": "Big",
      "value": "0.63"
    },
    "visiblePriceUnit": "kpl",
    "isDiscounted": false
  },
  {
    "ean": "6436501000401",
    "urlSlug": "sallinen-mantelijauhe-800g-6436501000401",
    "name": "Sallinen mantelijauhe 800g",
    "pictureUrls": [
      {
        "original": "https://public.keskofiles.com/f/k-ruoka/product/6436501000401"
      }
    ],
    "section": "4410",
    "departmentId": "106",
    "contentUnit": "KG",
    "contentSize": 0.8,
    "netWeight": 0.8,
    "available": true,
    "isUtility": false,
    "preprocessedPricing": {
      "products": {},
      "simplePromotions": {},
      "basketPromotions": {}
    },
    "tosPricing": {
      "basketPromotions": []
    },
    "simplePricePlussa": false,
    "pricingUnit": "kpl",
    "referencePrice": {
      "_type": "Big",
      "value": "19.875"
    },
    "visiblePrice": {
      "_type": "Big",
      "value": "15.9"
    },
    "visiblePriceUnit": "kpl",
    "isDiscounted": false
  },
  {
    "ean": "8711711815341",
    "urlSlug": "bolsius-antiikkikynttila-2kpl-hopea-8711711815341",
    "name": "Bolsius antiikkikynttilä 2kpl hopea 24,5cm",
    "pictureUrls": [
      {
        "original": "https://public.keskofiles.com/f/k-ruoka/product/8711711815341"
      }
    ],
    "section": "6221",
    "departmentId": "111",
    "contentUnit": "KPL",
    "contentSize": 2,
    "netWeight": 0.12,
    "available": true,
    "isUtility": false,
    "preprocessedPricing": {
      "products": {},
      "simplePromotions": {},
      "basketPromotions": {}
    },
    "tosPricing": {
      "basketPromotions": []
    },
    "simplePricePlussa": false,
    "pricingUnit": "kpl",
    "referencePrice": {
      "_type": "Big",
      "value": "1.595"
    },
    "visiblePrice": {
      "_type": "Big",
      "value": "3.19"
    },
    "visiblePriceUnit": "kpl",
    "isDiscounted": false
  },
  {
    "ean": "6411630133695",
    "urlSlug": "finl-liina-33cm-20kpl-ritarikukka-punaku-6411630133695",
    "name": "Finlayson lautasliina 33cm 20kpl Ritarikukka punakulta",
    "pictureUrls": [
      {
        "original": "https://public.keskofiles.com/f/k-ruoka/product/6411630133695"
      }
    ],
    "section": "6201",
    "departmentId": "111",
    "contentUnit": "KPL",
    "contentSize": 20,
    "netWeight": 0.115,
    "available": true,
    "isUtility": false,
    "preprocessedPricing": {
      "products": {},
      "simplePromotions": {},
      "basketPromotions": {}
    },
    "tosPricing": {
      "basketPromotions": []
    },
    "simplePricePlussa": false,
    "pricingUnit": "kpl",
    "referencePrice": {
      "_type": "Big",
      "value": "0.0995"
    },
    "visiblePrice": {
      "_type": "Big",
      "value": "1.99"
    },
    "visiblePriceUnit": "kpl",
    "isDiscounted": false
  },
  {
    "ean": "6430039221482",
    "urlSlug": "puhdistamo-tumma-chia-luomu-800-g-6430039221482",
    "name": "Puhdistamo tumma chia luomu 800 g",
    "pictureUrls": [
      {
        "original": "https://public.keskofiles.com/f/k-ruoka/product/6430039221482"
      }
    ],
    "section": "4416",
    "departmentId": "106",
    "contentUnit": "KPL",
    "contentSize": 1,
    "netWeight": 0,
    "available": true,
    "isUtility": false,
    "preprocessedPricing": {
      "products": {},
      "simplePromotions": {},
      "basketPromotions": {}
    },
    "tosPricing": {
      "basketPromotions": []
    },
    "simplePricePlussa": false,
    "pricingUnit": "kpl",
    "referencePrice": {
      "_type": "Big",
      "value": "14.95"
    },
    "visiblePrice": {
      "_type": "Big",
      "value": "14.95"
    },
    "visiblePriceUnit": "kpl",
    "isDiscounted": false
  },
  {
    "ean": "6416710150050",
    "urlSlug": "filos-kreikkalain-persikkamarmeladi-370g-6416710150050",
    "name": "Filos kreikkalainen persikkamarmeladi 370g",
    "pictureUrls": [
      {
        "original": "https://public.keskofiles.com/f/k-ruoka/product/6416710150050"
      }
    ],
    "section": "3204",
    "departmentId": "106",
    "contentUnit": "KG",
    "contentSize": 0.37,
    "netWeight": 0.37,
    "available": true,
    "isUtility": false,
    "preprocessedPricing": {
      "products": {},
      "simplePromotions": {},
      "basketPromotions": {}
    },
    "tosPricing": {
      "basketPromotions": []
    },
    "simplePricePlussa": false,
    "pricingUnit": "kpl",
    "referencePrice": {
      "_type": "Big",
      "value": "7.27027027027027027027"
    },
    "visiblePrice": {
      "_type": "Big",
      "value": "2.69"
    },
    "visiblePriceUnit": "kpl",
    "isDiscounted": false
  },
  {
    "ean": "6430056280400",
    "urlSlug": "cocovi-superchoco-60g-cashew-luomu-6430056280400",
    "name": "Cocovi superchoco 60g cashew luomu",
    "pictureUrls": [
      {
        "original": "https://public.keskofiles.com/f/k-ruoka/product/6430056280400"
      }
    ],
    "section": "4419",
    "departmentId": "106",
    "contentUnit": "KG",
    "contentSize": 0.06,
    "netWeight": 0.06,
    "available": true,
    "isUtility": false,
    "preprocessedPricing": {
      "products": {},
      "simplePromotions": {},
      "basketPromotions": {}
    },
    "tosPricing": {
      "basketPromotions": []
    },
    "simplePricePlussa": false,
    "pricingUnit": "kpl",
    "referencePrice": {
      "_type": "Big",
      "value": "56.5"
    },
    "visiblePrice": {
      "_type": "Big",
      "value": "3.39"
    },
    "visiblePriceUnit": "kpl",
    "isDiscounted": false
  },
  {
    "ean": "0000064001548",
    "urlSlug": "vesta-tomaattisilli-160100g-msc-0000064001548",
    "name": "Vesta tomaattisilli 160/100g MSC",
    "pictureUrls": [
      {
        "original": "https://public.keskofiles.com/f/k-ruoka/product/0000064001548"
      }
    ],
    "section": "1182",
    "departmentId": "102",
    "contentUnit": "KG",
    "contentSize": 0.1,
    "netWeight": 0.1,
    "available": true,
    "isUtility": false,
    "preprocessedPricing": {
      "products": {},
      "simplePromotions": {},
      "basketPromotions": {}
    },
    "tosPricing": {
      "basketPromotions": []
    },
    "simplePricePlussa": false,
    "pricingUnit": "kpl",
    "referencePrice": {
      "_type": "Big",
      "value": "35.9"
    },
    "visiblePrice": {
      "_type": "Big",
      "value": "3.59"
    },
    "visiblePriceUnit": "kpl",
    "isDiscounted": false
  },
  {
    "ean": "0000064001562",
    "urlSlug": "vesta-matjeskastikesilli-160100g-msc-0000064001562",
    "name": "Vesta matjes silliä 160/100g",
    "pictureUrls": [
      {
        "original": "https://public.keskofiles.com/f/k-ruoka/product/0000064001562"
      }
    ],
    "section": "1182",
    "departmentId": "102",
    "contentUnit": "KG",
    "contentSize": 0.1,
    "netWeight": 0.16,
    "available": true,
    "isUtility": false,
    "preprocessedPricing": {
      "products": {},
      "simplePromotions": {},
      "basketPromotions": {}
    },
    "tosPricing": {
      "basketPromotions": []
    },
    "simplePricePlussa": false,
    "pricingUnit": "kpl",
    "referencePrice": {
      "_type": "Big",
      "value": "35.9"
    },
    "visiblePrice": {
      "_type": "Big",
      "value": "3.59"
    },
    "visiblePriceUnit": "kpl",
    "isDiscounted": false
  },
  {
    "ean": "0686423596230",
    "urlSlug": "mm-lautasl-25cm-mini-ruutu-unikko-grey-0686423596230",
    "name": "Marimekko lautasliina 25cm mini-ruutu-unikko grey",
    "pictureUrls": [
      {
        "original": "https://public.keskofiles.com/f/k-ruoka/product/0686423596230"
      }
    ],
    "section": "6200",
    "departmentId": "111",
    "contentUnit": "KPL",
    "contentSize": 20,
    "netWeight": 0.005,
    "available": true,
    "isUtility": false,
    "preprocessedPricing": {
      "products": {},
      "simplePromotions": {},
      "basketPromotions": {}
    },
    "tosPricing": {
      "basketPromotions": []
    },
    "simplePricePlussa": false,
    "pricingUnit": "kpl",
    "referencePrice": {
      "_type": "Big",
      "value": "0.0995"
    },
    "visiblePrice": {
      "_type": "Big",
      "value": "1.99"
    },
    "visiblePriceUnit": "kpl",
    "isDiscounted": false
  },
  {
    "ean": "0686423602528",
    "urlSlug": "marimekko-liina-25cm-20kpl-kivet-mustava-0686423602528",
    "name": "Marimekko liina 25cm 20kpl Kivet mustavalk",
    "pictureUrls": [
      {
        "original": "https://public.keskofiles.com/f/k-ruoka/product/0686423602528"
      }
    ],
    "section": "6200",
    "departmentId": "111",
    "contentUnit": "KPL",
    "contentSize": 20,
    "netWeight": 0.005,
    "available": true,
    "isUtility": false,
    "preprocessedPricing": {
      "products": {},
      "simplePromotions": {},
      "basketPromotions": {}
    },
    "tosPricing": {
      "basketPromotions": []
    },
    "simplePricePlussa": false,
    "pricingUnit": "kpl",
    "referencePrice": {
      "_type": "Big",
      "value": "0.0995"
    },
    "visiblePrice": {
      "_type": "Big",
      "value": "1.99"
    },
    "visiblePriceUnit": "kpl",
    "isDiscounted": false
  },
  {
    "ean": "0686423634048",
    "urlSlug": "marimekko-liina-25cm-20kpl-nasia-valko-m-0686423634048",
    "name": "Marimekko lautasliina 25cm 20kpl Näsiä valko-musta",
    "pictureUrls": [
      {
        "original": "https://public.keskofiles.com/f/k-ruoka/product/0686423634048"
      }
    ],
    "section": "6200",
    "departmentId": "111",
    "contentUnit": "KPL",
    "contentSize": 20,
    "netWeight": 0.005,
    "available": true,
    "isUtility": false,
    "preprocessedPricing": {
      "products": {},
      "simplePromotions": {},
      "basketPromotions": {}
    },
    "tosPricing": {
      "basketPromotions": []
    },
    "simplePricePlussa": false,
    "pricingUnit": "kpl",
    "referencePrice": {
      "_type": "Big",
      "value": "0.0995"
    },
    "visiblePrice": {
      "_type": "Big",
      "value": "1.99"
    },
    "visiblePriceUnit": "kpl",
    "isDiscounted": false
  },
  {
    "ean": "0686423644252",
    "urlSlug": "marimekko-liina-20kpl-unikko-pellava-sin-0686423644252",
    "name": "Marimekko lautasliina Unikko 25cm 20kpl pellava sininen",
    "pictureUrls": [
      {
        "original": "https://public.keskofiles.com/f/k-ruoka/product/0686423644252"
      }
    ],
    "section": "6200",
    "departmentId": "111",
    "contentUnit": "KPL",
    "contentSize": 20,
    "netWeight": 0.005,
    "available": true,
    "isUtility": false,
    "preprocessedPricing": {
      "products": {},
      "simplePromotions": {},
      "basketPromotions": {}
    },
    "tosPricing": {
      "basketPromotions": []
    },
    "simplePricePlussa": false,
    "pricingUnit": "kpl",
    "referencePrice": {
      "_type": "Big",
      "value": "0.0995"
    },
    "visiblePrice": {
      "_type": "Big",
      "value": "1.99"
    },
    "visiblePriceUnit": "kpl",
    "isDiscounted": false
  },
  {
    "ean": "0686423649202",
    "urlSlug": "marimekko-liina-33cm-20kpl-unikko-punsin-0686423649202",
    "name": "Marimekko lautasliina 33cm 20kpl Unikko punasininen",
    "pictureUrls": [
      {
        "original": "https://public.keskofiles.com/f/k-ruoka/product/0686423649202"
      }
    ],
    "section": "6201",
    "departmentId": "111",
    "contentUnit": "KPL",
    "contentSize": 20,
    "netWeight": 0.01,
    "available": true,
    "isUtility": false,
    "preprocessedPricing": {
      "products": {},
      "simplePromotions": {},
      "basketPromotions": {}
    },
    "tosPricing": {
      "basketPromotions": []
    },
    "simplePricePlussa": false,
    "pricingUnit": "kpl",
    "referencePrice": {
      "_type": "Big",
      "value": "0.1495"
    },
    "visiblePrice": {
      "_type": "Big",
      "value": "2.99"
    },
    "visiblePriceUnit": "kpl",
    "isDiscounted": false
  },
  {
    "ean": "6411633335409",
    "urlSlug": "havi-liina-20kpl-33cm-garland-punakulta-6411633335409",
    "name": "Havi liina 20kpl 33cm Garland punakulta",
    "pictureUrls": [],
    "section": "6201",
    "departmentId": "111",
    "contentUnit": "KPL",
    "contentSize": 20,
    "netWeight": 0.108,
    "available": true,
    "isUtility": false,
    "preprocessedPricing": {
      "products": {},
      "simplePromotions": {},
      "basketPromotions": {}
    },
    "tosPricing": {
      "basketPromotions": []
    },
    "simplePricePlussa": false,
    "pricingUnit": "kpl",
    "referencePrice": {
      "_type": "Big",
      "value": "0.0995"
    },
    "visiblePrice": {
      "_type": "Big",
      "value": "1.99"
    },
    "visiblePriceUnit": "kpl",
    "isDiscounted": false
  },
  {
    "ean": "6410405133328",
    "urlSlug": "pirkka-60kpl24cm-lautasliina-valkoinen-6410405133328",
    "name": "Pirkka valkoinen lautasliina 60kpl",
    "pictureUrls": [
      {
        "original": "https://public.keskofiles.com/f/k-ruoka/product/6410405133328"
      }
    ],
    "section": "6200",
    "departmentId": "111",
    "contentUnit": "KPL",
    "contentSize": 60,
    "netWeight": 0.108,
    "available": true,
    "isUtility": false,
    "preprocessedPricing": {
      "products": {},
      "simplePromotions": {},
      "basketPromotions": {}
    },
    "tosPricing": {
      "basketPromotions": []
    },
    "simplePricePlussa": false,
    "pricingUnit": "kpl",
    "referencePrice": {
      "_type": "Big",
      "value": "0.0475"
    },
    "visiblePrice": {
      "_type": "Big",
      "value": "2.85"
    },
    "visiblePriceUnit": "kpl",
    "isDiscounted": false
  },
  {
    "ean": "6412000017201",
    "urlSlug": "dronningholm-tahtitorttu-omena-kane-300g-6412000017201",
    "name": "Dronningholm Tähtitorttu Omena-kanelimarmeladi 300g",
    "pictureUrls": [
      {
        "original": "https://public.keskofiles.com/f/k-ruoka/product/6412000017201"
      }
    ],
    "section": "3204",
    "departmentId": "106",
    "contentUnit": "KG",
    "contentSize": 0.3,
    "netWeight": 0.3,
    "available": true,
    "isUtility": false,
    "preprocessedPricing": {
      "products": {},
      "simplePromotions": {},
      "basketPromotions": {}
    },
    "tosPricing": {
      "basketPromotions": []
    },
    "simplePricePlussa": false,
    "pricingUnit": "kpl",
    "referencePrice": {
      "_type": "Big",
      "value": "4.16666666666666666667"
    },
    "visiblePrice": {
      "_type": "Big",
      "value": "1.25"
    },
    "visiblePriceUnit": "kpl",
    "isDiscounted": false,
    "discountType": "PLUSSA",
    "plussaDiscountPercentage": {
      "_type": "Big",
      "value": "-20"
    },
    "batchSize": 2,
    "batchPrice": {
      "_type": "Big",
      "value": "2"
    }
  },
  {
    "ean": "5740200001012",
    "urlSlug": "castello-blue-sinihomejuusto-150-g-5740200001012",
    "name": "Castello blue sinihomejuusto 150g",
    "pictureUrls": [
      {
        "original": "https://public.keskofiles.com/f/k-ruoka/product/5740200001012"
      }
    ],
    "section": "2430",
    "departmentId": "104",
    "contentUnit": "KG",
    "contentSize": 0.15,
    "netWeight": 0.15,
    "available": true,
    "isUtility": false,
    "preprocessedPricing": {
      "products": {},
      "simplePromotions": {},
      "basketPromotions": {}
    },
    "tosPricing": {
      "basketPromotions": []
    },
    "simplePricePlussa": false,
    "pricingUnit": "kpl",
    "referencePrice": {
      "_type": "Big",
      "value": "15.66666666666666666667"
    },
    "visiblePrice": {
      "_type": "Big",
      "value": "2.35"
    },
    "visiblePriceUnit": "kpl",
    "isDiscounted": false
  },
  {
    "ean": "6411635004877",
    "urlSlug": "havis-70x150-kuviopoytakynttila-valk-6411635004877",
    "name": "Havi´s 70x150 kuviopöytäkynttilä valk 67h",
    "pictureUrls": [
      {
        "original": "https://public.keskofiles.com/f/k-ruoka/product/6411635004877"
      }
    ],
    "section": "6222",
    "departmentId": "111",
    "contentUnit": "KPL",
    "contentSize": 1,
    "netWeight": 0.405,
    "available": true,
    "isUtility": false,
    "preprocessedPricing": {
      "products": {},
      "simplePromotions": {},
      "basketPromotions": {}
    },
    "tosPricing": {
      "basketPromotions": []
    },
    "simplePricePlussa": false,
    "pricingUnit": "kpl",
    "referencePrice": {
      "_type": "Big",
      "value": "7.9"
    },
    "visiblePrice": {
      "_type": "Big",
      "value": "7.9"
    },
    "visiblePriceUnit": "kpl",
    "isDiscounted": false
  },
  {
    "ean": "7622400624445",
    "urlSlug": "marabou-premium-100g-dark-orange-rfa-7622400624445",
    "name": "Marabou Premium Dark Orange 70% 100g",
    "pictureUrls": [
      {
        "original": "https://public.keskofiles.com/f/k-ruoka/product/7622400624445"
      }
    ],
    "section": "4213",
    "departmentId": "109",
    "contentUnit": "KG",
    "contentSize": 0.1,
    "netWeight": 0.1,
    "available": true,
    "isUtility": false,
    "preprocessedPricing": {
      "products": {},
      "simplePromotions": {},
      "basketPromotions": {}
    },
    "tosPricing": {
      "basketPromotions": []
    },
    "simplePricePlussa": false,
    "pricingUnit": "kpl",
    "referencePrice": {
      "_type": "Big",
      "value": "18.5"
    },
    "visiblePrice": {
      "_type": "Big",
      "value": "1.85"
    },
    "visiblePriceUnit": "kpl",
    "isDiscounted": false
  },
  {
    "ean": "7622300313715",
    "urlSlug": "marabou-premium-100g-dark-mint--rfa-7622300313715",
    "name": "Marabou Premium Dark Mint 70% 100g",
    "pictureUrls": [
      {
        "original": "https://public.keskofiles.com/f/k-ruoka/product/7622300313715"
      }
    ],
    "section": "4213",
    "departmentId": "109",
    "contentUnit": "KG",
    "contentSize": 0.1,
    "netWeight": 0.1,
    "available": true,
    "isUtility": false,
    "preprocessedPricing": {
      "products": {},
      "simplePromotions": {},
      "basketPromotions": {}
    },
    "tosPricing": {
      "basketPromotions": []
    },
    "simplePricePlussa": false,
    "pricingUnit": "kpl",
    "referencePrice": {
      "_type": "Big",
      "value": "18.5"
    },
    "visiblePrice": {
      "_type": "Big",
      "value": "1.85"
    },
    "visiblePriceUnit": "kpl",
    "isDiscounted": false
  },
  {
    "ean": "6410400049525",
    "urlSlug": "pirkka-paistopussi-30x55cm-7ps-6410400049525",
    "name": "Pirkka paistopussi 30 x 55 cm 7 kpl",
    "pictureUrls": [
      {
        "original": "https://public.keskofiles.com/f/k-ruoka/product/6410400049525"
      }
    ],
    "section": "6105",
    "departmentId": "111",
    "contentUnit": "KPL",
    "contentSize": 7,
    "netWeight": 0.042,
    "available": true,
    "isUtility": false,
    "preprocessedPricing": {
      "products": {},
      "simplePromotions": {},
      "basketPromotions": {}
    },
    "tosPricing": {
      "basketPromotions": []
    },
    "simplePricePlussa": false,
    "pricingUnit": "kpl",
    "referencePrice": {
      "_type": "Big",
      "value": "0.26428571428571428571"
    },
    "visiblePrice": {
      "_type": "Big",
      "value": "1.85"
    },
    "visiblePriceUnit": "kpl",
    "isDiscounted": false
  }
]