[
  {
    "ean": "6408430310296",
    "urlSlug": "kevyt-levi-400g-vahasuolainen-6408430310296",
    "name": "Valio KevytLevi® 400 g vähemmän suolaa HYLA®",
    "pictureUrls": [
      {
        "original": "https://public.keskofiles.com/f/k-ruoka/product/6408430310296"
      }
    ],
    "section": "2311",
    "departmentId": "104",
    "contentUnit": "KG",
    "contentSize": 0.4,
    "netWeight": 0.4,
    "available": true,
    "isUtility": false,
    "preprocessedPricing": {
      "products": {},
      "simplePromotions": {},
      "basketPromotions": {}
    },
    "tosPricing": {
      "basketPromotions": []
    },
    "simplePricePlussa": false,
    "pricingUnit": "kpl",
    "referencePrice": {
      "_type": "Big",
      "value": "6.375"
    },
    "visiblePrice": {
      "_type": "Big",
      "value": "2.55"
    },
    "visiblePriceUnit": "kpl",
    "isDiscounted": false
  },
  {
    "ean": "7310865686084",
    "urlSlug": "arla-keso-raejuusto-4-200g-taytelainen-7310865686084",
    "name": "Arla Keso täyteläinen raejuusto 4% 200g",
    "pictureUrls": [
      {
        "original": "https://public.keskofiles.com/f/k-ruoka/product/7310865686084"
      }
    ],
    "section": "2131",
    "departmentId": "104",
    "contentUnit": "KG",
    "contentSize": 0.2,
    "netWeight": 0.2,
    "available": true,
    "isUtility": false,
    "preprocessedPricing": {
      "products": {},
      "simplePromotions": {},
      "basketPromotions": {}
    },
    "tosPricing": {
      "basketPromotions": []
    },
    "simplePricePlussa": false,
    "pricingUnit": "kpl",
    "referencePrice": {
      "_type": "Big",
      "value": "7.25"
    },
    "visiblePrice": {
      "_type": "Big",
      "value": "1.45"
    },
    "visiblePriceUnit": "kpl",
    "isDiscounted": false
  },
  {
    "ean": "5711953015809",
    "urlSlug": "arla-hilliton-goudajuusto-1-kg-5711953015809",
    "name": "Arla hillitön gouda 1kg",
    "pictureUrls": [
      {
        "original": "https://public.keskofiles.com/f/k-ruoka/product/5711953015809"
      }
    ],
    "section": "2406",
    "departmentId": "104",
    "contentUnit": "KG",
    "contentSize": 1,
    "netWeight": 1,
    "available": true,
    "isUtility": false,
    "preprocessedPricing": {
      "products": {},
      "simplePromotions": {},
      "basketPromotions": {}
    },
    "tosPricing": {
      "basketPromotions": []
    },
    "simplePricePlussa": false,
    "pricingUnit": "kpl",
    "referencePrice": {
      "_type": "Big",
      "value": "6.39"
    },
    "visiblePrice": {
      "_type": "Big",
      "value": "6.39"
    },
    "visiblePriceUnit": "kpl",
    "isDiscounted": false
  },
  {
    "ean": "6415130038863",
    "urlSlug": "marli-metsamarjakeittodc-200g-sinkki-6415130038863",
    "name": "Marli metsämarjakeitto+D&C 200g",
    "pictureUrls": [
      {
        "original": "https://public.keskofiles.com/f/k-ruoka/product/6415130038863"
      }
    ],
    "section": "1902",
    "departmentId": "104",
    "contentUnit": "KG",
    "contentSize": 0.2,
    "netWeight": 0.2,
    "available": true,
    "isUtility": false,
    "preprocessedPricing": {
      "products": {},
      "simplePromotions": {},
      "basketPromotions": {}
    },
    "tosPricing": {
      "basketPromotions": []
    },
    "simplePricePlussa": false,
    "pricingUnit": "kpl",
    "referencePrice": {
      "_type": "Big",
      "value": "3.45"
    },
    "visiblePrice": {
      "_type": "Big",
      "value": "0.69"
    },
    "visiblePriceUnit": "kpl",
    "isDiscounted": false
  },
  {
    "ean": "9000133240961",
    "urlSlug": "rupp-cheddarviipale-140g-9000133240961",
    "name": "Rupp cheddarviipale 140g",
    "pictureUrls": [
      {
        "original": "https://public.keskofiles.com/f/k-ruoka/product/9000133240961"
      }
    ],
    "section": "2408",
    "departmentId": "104",
    "contentUnit": "KG",
    "contentSize": 0.14,
    "netWeight": 0.14,
    "available": true,
    "isUtility": false,
    "preprocessedPricing": {
      "products": {},
      "simplePromotions": {},
      "basketPromotions": {}
    },
    "tosPricing": {
      "basketPromotions": []
    },
    "simplePricePlussa": false,
    "pricingUnit": "kpl",
    "referencePrice": {
      "_type": "Big",
      "value": "13.92857142857142857143"
    },
    "visiblePrice": {
      "_type": "Big",
      "value": "1.95"
    },
    "visiblePriceUnit": "kpl",
    "isDiscounted": false
  },
  {
    "ean": "6413300019490",
    "urlSlug": "arla-luonto-viili-150g-mansikka-lton-6413300019490",
    "name": "Arla luonto+ mansikkaviili 150g laktoositon",
    "pictureUrls": [
      {
        "original": "https://public.keskofiles.com/f/k-ruoka/product/6413300019490"
      }
    ],
    "section": "2214",
    "departmentId": "104",
    "contentUnit": "KG",
    "contentSize": 0.15,
    "netWeight": 0.15,
    "available": true,
    "isUtility": false,
    "preprocessedPricing": {
      "products": {},
      "simplePromotions": {},
      "basketPromotions": {}
    },
    "tosPricing": {
      "basketPromotions": []
    },
    "simplePricePlussa": false,
    "pricingUnit": "kpl",
    "referencePrice": {
      "_type": "Big",
      "value": "4.33333333333333333333"
    },
    "visiblePrice": {
      "_type": "Big",
      "value": "0.65"
    },
    "visiblePriceUnit": "kpl",
    "isDiscounted": false
  },
  {
    "ean": "6408430340439",
    "urlSlug": "valio-maasdam-500g-luomu-6408430340439",
    "name": "Valio Luomu maasdam 500g",
    "pictureUrls": [
      {
        "original": "https://public.keskofiles.com/f/k-ruoka/product/6408430340439"
      }
    ],
    "section": "2401",
    "departmentId": "104",
    "contentUnit": "KG",
    "contentSize": 0.5,
    "netWeight": 0.5,
    "available": true,
    "isUtility": false,
    "preprocessedPricing": {
      "products": {},
      "simplePromotions": {},
      "basketPromotions": {}
    },
    "tosPricing": {
      "basketPromotions": []
    },
    "simplePricePlussa": false,
    "pricingUnit": "kpl",
    "referencePrice": {
      "_type": "Big",
      "value": "14.7"
    },
    "visiblePrice": {
      "_type": "Big",
      "value": "7.35"
    },
    "visiblePriceUnit": "kpl",
    "isDiscounted": false
  },
  {
    "ean": "6408654241260",
    "urlSlug": "juustoportti-laktoositon-voi-200-g-6408654241260",
    "name": "Juustoportti laktoositon voi 200g",
    "pictureUrls": [
      {
        "original": "https://public.keskofiles.com/f/k-ruoka/product/6408654241260"
      }
    ],
    "section": "2300",
    "departmentId": "104",
    "contentUnit": "KG",
    "contentSize": 0.2,
    "netWeight": 0.2,
    "available": true,
    "isUtility": false,
    "preprocessedPricing": {
      "products": {},
      "simplePromotions": {},
      "basketPromotions": {}
    },
    "tosPricing": {
      "basketPromotions": []
    },
    "simplePricePlussa": false,
    "pricingUnit": "kpl",
    "referencePrice": {
      "_type": "Big",
      "value": "10.75"
    },
    "visiblePrice": {
      "_type": "Big",
      "value": "2.15"
    },
    "visiblePriceUnit": "kpl",
    "isDiscounted": false
  },
  {
    "ean": "8718885890891",
    "urlSlug": "sofine-savunmak-luomutofupalat-180-g-8718885890891",
    "name": "SoFine Savunmak Luomutofupalat 180 g",
    "pictureUrls": [
      {
        "original": "https://public.keskofiles.com/f/k-ruoka/product/8718885890891"
      }
    ],
    "section": "2449",
    "departmentId": "104",
    "contentUnit": "KG",
    "contentSize": 0.18,
    "netWeight": 0.18,
    "available": true,
    "isUtility": false,
    "preprocessedPricing": {
      "products": {},
      "simplePromotions": {},
      "basketPromotions": {}
    },
    "tosPricing": {
      "basketPromotions": []
    },
    "simplePricePlussa": false,
    "pricingUnit": "kpl",
    "referencePrice": {
      "_type": "Big",
      "value": "12.16666666666666666667"
    },
    "visiblePrice": {
      "_type": "Big",
      "value": "2.19"
    },
    "visiblePriceUnit": "kpl",
    "isDiscounted": false
  },
  {
    "ean": "8714100740835",
    "urlSlug": "cb-cuisine-fraiche-240g-tattiherksi-13-8714100740835",
    "name": "Creme Bonjour Cuisine Fraiche tatti-herkkusieni 240g",
    "pictureUrls": [
      {
        "original": "https://public.keskofiles.com/f/k-ruoka/product/8714100740835"
      }
    ],
    "section": "2142",
    "departmentId": "104",
    "contentUnit": "KG",
    "contentSize": 0.24,
    "netWeight": 0.24,
    "available": true,
    "isUtility": false,
    "preprocessedPricing": {
      "products": {},
      "simplePromotions": {},
      "basketPromotions": {}
    },
    "tosPricing": {
      "basketPromotions": []
    },
    "simplePricePlussa": false,
    "pricingUnit": "kpl",
    "referencePrice": {
      "_type": "Big",
      "value": "10.79166666666666666667"
    },
    "visiblePrice": {
      "_type": "Big",
      "value": "2.59"
    },
    "visiblePriceUnit": "kpl",
    "isDiscounted": false
  },
  {
    "ean": "6438207014072",
    "urlSlug": "keiju-rypsi-kasvirasvalevite-600g-75-6438207014072",
    "name": "Keiju rypsi rypsiöljy-kasvirasvalevite 75% 600g",
    "pictureUrls": [
      {
        "original": "https://public.keskofiles.com/f/k-ruoka/product/6438207014072"
      }
    ],
    "section": "2310",
    "departmentId": "104",
    "contentUnit": "KG",
    "contentSize": 0.6,
    "netWeight": 0.6,
    "available": true,
    "isUtility": false,
    "preprocessedPricing": {
      "products": {},
      "simplePromotions": {},
      "basketPromotions": {}
    },
    "tosPricing": {
      "basketPromotions": []
    },
    "simplePricePlussa": false,
    "pricingUnit": "kpl",
    "referencePrice": {
      "_type": "Big",
      "value": "3.48333333333333333333"
    },
    "visiblePrice": {
      "_type": "Big",
      "value": "2.09"
    },
    "visiblePriceUnit": "kpl",
    "isDiscounted": false
  },
  {
    "ean": "6430016341073",
    "urlSlug": "jokilaakson-juusto-emmental-400g-raaste-6430016341073",
    "name": "Jokilaakson Juusto Emmental 400g raaste",
    "pictureUrls": [
      {
        "original": "https://public.keskofiles.com/f/k-ruoka/product/6430016341073"
      }
    ],
    "section": "2440",
    "departmentId": "104",
    "contentUnit": "KG",
    "contentSize": 0.4,
    "netWeight": 0.4,
    "available": true,
    "isUtility": false,
    "preprocessedPricing": {
      "products": {},
      "simplePromotions": {},
      "basketPromotions": {}
    },
    "tosPricing": {
      "basketPromotions": []
    },
    "simplePricePlussa": false,
    "pricingUnit": "kpl",
    "referencePrice": {
      "_type": "Big",
      "value": "8.975"
    },
    "visiblePrice": {
      "_type": "Big",
      "value": "3.59"
    },
    "visiblePriceUnit": "kpl",
    "isDiscounted": false
  },
  {
    "ean": "7394376616020",
    "urlSlug": "oatly-imat-ruokaan-fraiche-2-dl-7394376616020",
    "name": "Oatly 2dl iMat Ruokaan Fraiche",
    "pictureUrls": [
      {
        "original": "https://public.keskofiles.com/f/k-ruoka/product/7394376616020"
      }
    ],
    "section": "2125",
    "departmentId": "104",
    "contentUnit": "L",
    "contentSize": 0.2,
    "netWeight": 0.207,
    "available": true,
    "isUtility": false,
    "preprocessedPricing": {
      "products": {},
      "simplePromotions": {},
      "basketPromotions": {}
    },
    "tosPricing": {
      "basketPromotions": []
    },
    "simplePricePlussa": false,
    "pricingUnit": "kpl",
    "referencePrice": {
      "_type": "Big",
      "value": "11.75"
    },
    "visiblePrice": {
      "_type": "Big",
      "value": "2.35"
    },
    "visiblePriceUnit": "kpl",
    "isDiscounted": false
  },
  {
    "ean": "5740200017013",
    "urlSlug": "castello-white-valkohomejuusto-150g-5740200017013",
    "name": "Castello white valkohomejuusto 150g",
    "pictureUrls": [
      {
        "original": "https://public.keskofiles.com/f/k-ruoka/product/5740200017013"
      }
    ],
    "section": "2431",
    "departmentId": "104",
    "contentUnit": "KG",
    "contentSize": 0.15,
    "netWeight": 0.15,
    "available": true,
    "isUtility": false,
    "preprocessedPricing": {
      "products": {},
      "simplePromotions": {},
      "basketPromotions": {}
    },
    "tosPricing": {
      "basketPromotions": []
    },
    "simplePricePlussa": false,
    "pricingUnit": "kpl",
    "referencePrice": {
      "_type": "Big",
      "value": "15.66666666666666666667"
    },
    "visiblePrice": {
      "_type": "Big",
      "value": "2.35"
    },
    "visiblePriceUnit": "kpl",
    "isDiscounted": false
  },
  {
    "ean": "0041570112489",
    "urlSlug": "blue-diamond-mantelijuoma-1l-makeuttamat-0041570112489",
    "name": "Blue Diamond mantelijuoma 1l makeuttamaton",
    "pictureUrls": [
      {
        "original": "https://public.keskofiles.com/f/k-ruoka/product/0041570112489"
      }
    ],
    "section": "2108",
    "departmentId": "104",
    "contentUnit": "L",
    "contentSize": 1,
    "netWeight": 1.05,
    "available": true,
    "isUtility": false,
    "preprocessedPricing": {
      "products": {},
      "simplePromotions": {},
      "basketPromotions": {}
    },
    "tosPricing": {
      "basketPromotions": []
    },
    "simplePricePlussa": false,
    "pricingUnit": "kpl",
    "referencePrice": {
      "_type": "Big",
      "value": "2.25"
    },
    "visiblePrice": {
      "_type": "Big",
      "value": "2.25"
    },
    "visiblePriceUnit": "kpl",
    "isDiscounted": false
  },
  {
    "ean": "0000064002446",
    "urlSlug": "arla-kevytviili-200g-0000064002446",
    "name": "Arla Kevytviili 200 g",
    "pictureUrls": [
      {
        "original": "https://public.keskofiles.com/f/k-ruoka/product/0000064002446"
      }
    ],
    "section": "2211",
    "departmentId": "104",
    "contentUnit": "KG",
    "contentSize": 0.2,
    "netWeight": 0.2,
    "available": true,
    "isUtility": false,
    "preprocessedPricing": {
      "products": {},
      "simplePromotions": {},
      "basketPromotions": {}
    },
    "tosPricing": {
      "basketPromotions": []
    },
    "simplePricePlussa": false,
    "pricingUnit": "kpl",
    "referencePrice": {
      "_type": "Big",
      "value": "2.15"
    },
    "visiblePrice": {
      "_type": "Big",
      "value": "0.43"
    },
    "visiblePriceUnit": "kpl",
    "isDiscounted": false
  },
  {
    "ean": "0000064016979",
    "urlSlug": "valio-eila-rahkavaahto-100g-mansikka-lak-0000064016979",
    "name": "Valio Eila rahkavaahto 100g mansikka laktoositon",
    "pictureUrls": [
      {
        "original": "https://public.keskofiles.com/f/k-ruoka/product/0000064016979"
      }
    ],
    "section": "2233",
    "departmentId": "103",
    "contentUnit": "KG",
    "contentSize": 0.1,
    "netWeight": 0.1,
    "available": true,
    "isUtility": false,
    "preprocessedPricing": {
      "products": {},
      "simplePromotions": {},
      "basketPromotions": {}
    },
    "tosPricing": {
      "basketPromotions": []
    },
    "simplePricePlussa": false,
    "pricingUnit": "kpl",
    "referencePrice": {
      "_type": "Big",
      "value": "9.9"
    },
    "visiblePrice": {
      "_type": "Big",
      "value": "0.99"
    },
    "visiblePriceUnit": "kpl",
    "isDiscounted": false
  },
  {
    "ean": "0000064027135",
    "urlSlug": "jacky-makupala-vanukas-120g-kaakao-0000064027135",
    "name": "Jacky Makupala kaakaovanukas 120g",
    "pictureUrls": [
      {
        "original": "https://public.keskofiles.com/f/k-ruoka/product/0000064027135"
      }
    ],
    "section": "2220",
    "departmentId": "104",
    "contentUnit": "KG",
    "contentSize": 0.12,
    "netWeight": 0.12,
    "available": true,
    "isUtility": false,
    "preprocessedPricing": {
      "products": {},
      "simplePromotions": {},
      "basketPromotions": {}
    },
    "tosPricing": {
      "basketPromotions": []
    },
    "simplePricePlussa": false,
    "pricingUnit": "kpl",
    "referencePrice": {
      "_type": "Big",
      "value": "4.08333333333333333333"
    },
    "visiblePrice": {
      "_type": "Big",
      "value": "0.49"
    },
    "visiblePriceUnit": "kpl",
    "isDiscounted": false
  },
  {
    "ean": "0000064027142",
    "urlSlug": "jacky-makupala-vanukas-120g-kinuski-0000064027142",
    "name": "Jacky Makupala kinuskivanukas 120g",
    "pictureUrls": [
      {
        "original": "https://public.keskofiles.com/f/k-ruoka/product/0000064027142"
      }
    ],
    "section": "2220",
    "departmentId": "104",
    "contentUnit": "KG",
    "contentSize": 0.12,
    "netWeight": 0.12,
    "available": true,
    "isUtility": false,
    "preprocessedPricing": {
      "products": {},
      "simplePromotions": {},
      "basketPromotions": {}
    },
    "tosPricing": {
      "basketPromotions": []
    },
    "simplePricePlussa": false,
    "pricingUnit": "kpl",
    "referencePrice": {
      "_type": "Big",
      "value": "4.08333333333333333333"
    },
    "visiblePrice": {
      "_type": "Big",
      "value": "0.49"
    },
    "visiblePriceUnit": "kpl",
    "isDiscounted": false
  },
  {
    "ean": "2000312000000",
    "urlSlug": "peltola-blue-sinihomejuusto-kg-2000312000000-n106",
    "name": "Peltola Blue sinihomejuusto kg",
    "storeId": "N106",
    "pictureUrls": [
      {
        "original": "https://public.keskofiles.com/f/k-ruoka/N106/product/2000312000000"
      }
    ],
    "section": "2431",
    "departmentId": "104",
    "contentUnit": "kg",
    "available": true,
    "isUtility": false,
    "preprocessedPricing": {
      "products": {},
      "simplePromotions": {},
      "basketPromotions": {}
    },
    "tosPricing": {
      "basketPromotions": []
    },
    "simplePricePlussa": false,
    "pricingUnit": "kg",
    "visiblePrice": {
      "_type": "Big",
      "value": "34.9"
    },
    "visiblePriceUnit": "kg",
    "isDiscounted": false
  },
  {
    "ean": "2000674700006",
    "urlSlug": "gruyere-kaltbach-2000674700006-n106",
    "name": "Gruyere Kaltbach",
    "storeId": "N106",
    "pictureUrls": [
      {
        "original": "https://public.keskofiles.com/f/k-ruoka/N106/product/2000674700006"
      }
    ],
    "section": "2436",
    "departmentId": "104",
    "contentUnit": "kg",
    "available": true,
    "isUtility": false,
    "preprocessedPricing": {
      "products": {},
      "simplePromotions": {},
      "basketPromotions": {}
    },
    "tosPricing": {
      "basketPromotions": []
    },
    "simplePricePlussa": false,
    "pricingUnit": "kg",
    "visiblePrice": {
      "_type": "Big",
      "value": "47.9"
    },
    "visiblePriceUnit": "kg",
    "isDiscounted": false
  },
  {
    "ean": "2000306100006",
    "urlSlug": "raclette-2000306100006-n106",
    "name": "Raclette",
    "storeId": "N106",
    "pictureUrls": [
      {
        "original": "https://public.keskofiles.com/f/k-ruoka/N106/product/2000306100006"
      }
    ],
    "section": "2436",
    "departmentId": "104",
    "contentUnit": "kg",
    "available": true,
    "isUtility": false,
    "preprocessedPricing": {
      "products": {},
      "simplePromotions": {},
      "basketPromotions": {}
    },
    "tosPricing": {
      "basketPromotions": []
    },
    "simplePricePlussa": false,
    "pricingUnit": "kg",
    "visiblePrice": {
      "_type": "Big",
      "value": "22.9"
    },
    "visiblePriceUnit": "kg",
    "isDiscounted": false
  },
  {
    "ean": "2000308900000",
    "urlSlug": "cheddar-12kk-2000308900000-n106",
    "name": "Cheddar 12kk",
    "storeId": "N106",
    "pictureUrls": [
      {
        "original": "https://public.keskofiles.com/f/k-ruoka/N106/product/2000308900000"
      }
    ],
    "section": "2435",
    "departmentId": "104",
    "contentUnit": "kg",
    "available": true,
    "isUtility": false,
    "preprocessedPricing": {
      "products": {},
      "simplePromotions": {},
      "basketPromotions": {}
    },
    "tosPricing": {
      "basketPromotions": []
    },
    "simplePricePlussa": false,
    "pricingUnit": "kg",
    "visiblePrice": {
      "_type": "Big",
      "value": "19.9"
    },
    "visiblePriceUnit": "kg",
    "isDiscounted": false
  },
  {
    "ean": "2000336100007",
    "urlSlug": "oud-brugge-2000336100007-n106",
    "name": "Oud Brugge",
    "storeId": "N106",
    "pictureUrls": [
      {
        "original": "https://public.keskofiles.com/f/k-ruoka/N106/product/2000336100007"
      }
    ],
    "section": "2406",
    "departmentId": "104",
    "contentUnit": "kg",
    "available": true,
    "isUtility": false,
    "preprocessedPricing": {
      "products": {},
      "simplePromotions": {},
      "basketPromotions": {}
    },
    "tosPricing": {
      "basketPromotions": []
    },
    "simplePricePlussa": false,
    "pricingUnit": "kg",
    "visiblePrice": {
      "_type": "Big",
      "value": "26.9"
    },
    "visiblePriceUnit": "kg",
    "isDiscounted": false
  },
  {
    "ean": "2000313200003",
    "urlSlug": "valimeren-gouda-2000313200003-n106",
    "name": "Välimeren Gouda",
    "storeId": "N106",
    "pictureUrls": [
      {
        "original": "https://public.keskofiles.com/f/k-ruoka/N106/product/2000313200003"
      }
    ],
    "section": "2406",
    "departmentId": "104",
    "contentUnit": "kg",
    "available": true,
    "isUtility": false,
    "preprocessedPricing": {
      "products": {},
      "simplePromotions": {},
      "basketPromotions": {}
    },
    "tosPricing": {
      "basketPromotions": []
    },
    "simplePricePlussa": false,
    "pricingUnit": "kg",
    "visiblePrice": {
      "_type": "Big",
      "value": "20.9"
    },
    "visiblePriceUnit": "kg",
    "isDiscounted": false
  },
  {
    "ean": "2000312800006",
    "urlSlug": "chiligouda-2000312800006-n106",
    "name": "Chiligouda",
    "storeId": "N106",
    "pictureUrls": [
      {
        "original": "https://public.keskofiles.com/f/k-ruoka/N106/product/2000312800006"
      }
    ],
    "section": "2406",
    "departmentId": "104",
    "contentUnit": "kg",
    "available": true,
    "isUtility": false,
    "preprocessedPricing": {
      "products": {},
      "simplePromotions": {},
      "basketPromotions": {}
    },
    "tosPricing": {
      "basketPromotions": []
    },
    "simplePricePlussa": false,
    "pricingUnit": "kg",
    "visiblePrice": {
      "_type": "Big",
      "value": "23.9"
    },
    "visiblePriceUnit": "kg",
    "isDiscounted": false
  },
  {
    "ean": "2000315600009",
    "urlSlug": "madrigal-emmental-2000315600009-n106",
    "name": "Madrigal Emmental",
    "storeId": "N106",
    "pictureUrls": [
      {
        "original": "https://public.keskofiles.com/f/k-ruoka/N106/product/2000315600009"
      }
    ],
    "section": "2401",
    "departmentId": "104",
    "contentUnit": "kg",
    "available": true,
    "isUtility": false,
    "preprocessedPricing": {
      "products": {},
      "simplePromotions": {},
      "basketPromotions": {}
    },
    "tosPricing": {
      "basketPromotions": []
    },
    "simplePricePlussa": false,
    "pricingUnit": "kg",
    "visiblePrice": {
      "_type": "Big",
      "value": "21.9"
    },
    "visiblePriceUnit": "kg",
    "isDiscounted": false
  },
  {
    "ean": "2000339800003",
    "urlSlug": "manchego-gold-2000339800003-n106",
    "name": "Manchego Gold",
    "storeId": "N106",
    "pictureUrls": [
      {
        "original": "https://public.keskofiles.com/f/k-ruoka/N106/product/2000339800003"
      }
    ],
    "section": "2433",
    "departmentId": "104",
    "contentUnit": "kg",
    "available": true,
    "isUtility": false,
    "preprocessedPricing": {
      "products": {},
      "simplePromotions": {},
      "basketPromotions": {}
    },
    "tosPricing": {
      "basketPromotions": []
    },
    "simplePricePlussa": false,
    "pricingUnit": "kg",
    "visiblePrice": {
      "_type": "Big",
      "value": "32.9"
    },
    "visiblePriceUnit": "kg",
    "isDiscounted": false
  },
  {
    "ean": "2000339700006",
    "urlSlug": "manchego-silver-2000339700006-n106",
    "name": "Manchego Silver",
    "storeId": "N106",
    "pictureUrls": [
      {
        "original": "https://public.keskofiles.com/f/k-ruoka/N106/product/2000339700006"
      }
    ],
    "section": "2433",
    "departmentId": "104",
    "contentUnit": "kg",
    "available": true,
    "isUtility": false,
    "preprocessedPricing": {
      "products": {},
      "simplePromotions": {},
      "basketPromotions": {}
    },
    "tosPricing": {
      "basketPromotions": []
    },
    "simplePricePlussa": false,
    "pricingUnit": "kg",
    "visiblePrice": {
      "_type": "Big",
      "value": "27.9"
    },
    "visiblePriceUnit": "kg",
    "isDiscounted": false
  },
  {
    "ean": "2000338300009",
    "urlSlug": "hunaja-chevre-2000338300009-n106",
    "name": "Hunaja Chevre",
    "storeId": "N106",
    "pictureUrls": [
      {
        "original": "https://public.keskofiles.com/f/k-ruoka/N106/product/2000338300009"
      }
    ],
    "section": "2433",
    "departmentId": "104",
    "contentUnit": "kg",
    "available": true,
    "isUtility": false,
    "preprocessedPricing": {
      "products": {},
      "simplePromotions": {},
      "basketPromotions": {}
    },
    "tosPricing": {
      "basketPromotions": []
    },
    "simplePricePlussa": false,
    "pricingUnit": "kg",
    "visiblePrice": {
      "_type": "Big",
      "value": "29"
    },
    "visiblePriceUnit": "kg",
    "isDiscounted": false
  }
]