[
  {
    "ean": "8714100263662",
    "urlSlug": "knorr-cup-a-soup-3x14g-gulassikeitto-8714100263662",
    "name": "Knorr Cup a Soup Gulassikeitto 3x14g",
    "pictureUrls": [
      {
        "original": "https://public.keskofiles.com/f/k-ruoka/product/8714100263662"
      }
    ],
    "section": "4016",
    "departmentId": "115",
    "contentUnit": "KG",
    "contentSize": 0.042,
    "netWeight": 0.042,
    "available": true,
    "isUtility": false,
    "preprocessedPricing": {
      "products": {},
      "simplePromotions": {},
      "basketPromotions": {}
    },
    "tosPricing": {
      "basketPromotions": []
    },
    "simplePricePlussa": false,
    "pricingUnit": "kpl",
    "referencePrice": {
      "_type": "Big",
      "value": "39.28571428571428571429"
    },
    "visiblePrice": {
      "_type": "Big",
      "value": "1.65"
    },
    "visiblePriceUnit": "kpl",
    "isDiscounted": false
  },
  {
    "ean": "6410402011865",
    "urlSlug": "pirkka-tomaattimurska-500gtetra-6410402011865",
    "name": "Pirkka tomaattimurska 500 g",
    "pictureUrls": [
      {
        "original": "https://public.keskofiles.com/f/k-ruoka/product/6410402011865"
      }
    ],
    "section": "3220",
    "departmentId": "115",
    "contentUnit": "KG",
    "contentSize": 0.5,
    "netWeight": 0.5,
    "available": true,
    "isUtility": false,
    "preprocessedPricing": {
      "products": {},
      "simplePromotions": {},
      "basketPromotions": {}
    },
    "tosPricing": {
      "basketPromotions": []
    },
    "simplePricePlussa": false,
    "pricingUnit": "kpl",
    "referencePrice": {
      "_type": "Big",
      "value": "1.98"
    },
    "visiblePrice": {
      "_type": "Big",
      "value": "0.99"
    },
    "visiblePriceUnit": "kpl",
    "isDiscounted": false
  },
  {
    "ean": "6430051515637",
    "urlSlug": "leader-vahva-karpalo-60kaps42g-6430051515637",
    "name": "Leader Vahva Karpalo 60kaps/42g",
    "pictureUrls": [
      {
        "original": "https://public.keskofiles.com/f/k-ruoka/product/6430051515637"
      }
    ],
    "section": "4539",
    "departmentId": "115",
    "contentUnit": "KPL",
    "contentSize": 60,
    "netWeight": 0.042,
    "available": true,
    "isUtility": false,
    "preprocessedPricing": {
      "products": {},
      "simplePromotions": {},
      "basketPromotions": {}
    },
    "tosPricing": {
      "basketPromotions": []
    },
    "simplePricePlussa": false,
    "pricingUnit": "kpl",
    "referencePrice": {
      "_type": "Big",
      "value": "0.13483333333333333333"
    },
    "visiblePrice": {
      "_type": "Big",
      "value": "8.09"
    },
    "visiblePriceUnit": "kpl",
    "isDiscounted": false
  },
  {
    "ean": "8076809501415",
    "urlSlug": "barilla-pasta-penne-mezze-500g-tricolore-8076809501415",
    "name": "Barilla Mezze Penne tricolore pasta 500g",
    "pictureUrls": [
      {
        "original": "https://public.keskofiles.com/f/k-ruoka/product/8076809501415"
      }
    ],
    "section": "3074",
    "departmentId": "115",
    "contentUnit": "KG",
    "contentSize": 0.5,
    "netWeight": 0.5,
    "available": true,
    "isUtility": false,
    "preprocessedPricing": {
      "products": {},
      "simplePromotions": {},
      "basketPromotions": {}
    },
    "tosPricing": {
      "basketPromotions": []
    },
    "simplePricePlussa": false,
    "pricingUnit": "kpl",
    "referencePrice": {
      "_type": "Big",
      "value": "3.1"
    },
    "visiblePrice": {
      "_type": "Big",
      "value": "1.55"
    },
    "visiblePriceUnit": "kpl",
    "isDiscounted": false
  },
  {
    "ean": "6430056282749",
    "urlSlug": "fast-hera80-500g-mustikka-vanilja-6430056282749",
    "name": "Fast hera80 500g mustikka-vanilja",
    "pictureUrls": [
      {
        "original": "https://public.keskofiles.com/f/k-ruoka/product/6430056282749"
      }
    ],
    "section": "4551",
    "departmentId": "115",
    "contentUnit": "KG",
    "contentSize": 0.5,
    "netWeight": 0.5,
    "available": true,
    "isUtility": false,
    "preprocessedPricing": {
      "products": {},
      "simplePromotions": {},
      "basketPromotions": {}
    },
    "tosPricing": {
      "basketPromotions": []
    },
    "simplePricePlussa": false,
    "pricingUnit": "kpl",
    "referencePrice": {
      "_type": "Big",
      "value": "28.3"
    },
    "visiblePrice": {
      "_type": "Big",
      "value": "14.15"
    },
    "visiblePriceUnit": "kpl",
    "isDiscounted": false
  },
  {
    "ean": "5010338014339",
    "urlSlug": "blue-dragon-kookosmaito-400ml-5010338014339",
    "name": "Blue Dragon kookosmaito 400ml",
    "pictureUrls": [
      {
        "original": "https://public.keskofiles.com/f/k-ruoka/product/5010338014339"
      }
    ],
    "section": "4614",
    "departmentId": "115",
    "contentUnit": "L",
    "contentSize": 0.4,
    "netWeight": 0.404,
    "available": true,
    "isUtility": false,
    "preprocessedPricing": {
      "products": {},
      "simplePromotions": {},
      "basketPromotions": {}
    },
    "tosPricing": {
      "basketPromotions": []
    },
    "simplePricePlussa": false,
    "pricingUnit": "kpl",
    "referencePrice": {
      "_type": "Big",
      "value": "4.975"
    },
    "visiblePrice": {
      "_type": "Big",
      "value": "1.99"
    },
    "visiblePriceUnit": "kpl",
    "isDiscounted": false
  },
  {
    "ean": "7310130006593",
    "urlSlug": "gogreen-kidneypavut-285170g-luomu-7310130006593",
    "name": "GoGreen kidneypavut 285g/170g Luomu",
    "pictureUrls": [
      {
        "original": "https://public.keskofiles.com/f/k-ruoka/product/7310130006593"
      }
    ],
    "section": "3222",
    "departmentId": "115",
    "contentUnit": "KG",
    "contentSize": 0.17,
    "netWeight": 0.285,
    "available": true,
    "isUtility": false,
    "preprocessedPricing": {
      "products": {},
      "simplePromotions": {},
      "basketPromotions": {}
    },
    "tosPricing": {
      "basketPromotions": []
    },
    "simplePricePlussa": false,
    "pricingUnit": "kpl",
    "referencePrice": {
      "_type": "Big",
      "value": "7.58823529411764705882"
    },
    "visiblePrice": {
      "_type": "Big",
      "value": "1.29"
    },
    "visiblePriceUnit": "kpl",
    "isDiscounted": false
  },
  {
    "ean": "5701038033224",
    "urlSlug": "green-choice-creamy-maapahkvoi-350g-luo-5701038033224",
    "name": "Green Choice Creamy maapähkinävoi 350g luomu",
    "pictureUrls": [
      {
        "original": "https://public.keskofiles.com/f/k-ruoka/product/5701038033224"
      }
    ],
    "section": "3205",
    "departmentId": "106",
    "contentUnit": "KG",
    "contentSize": 0.35,
    "netWeight": 0.35,
    "available": true,
    "isUtility": false,
    "preprocessedPricing": {
      "products": {},
      "simplePromotions": {},
      "basketPromotions": {}
    },
    "tosPricing": {
      "basketPromotions": []
    },
    "simplePricePlussa": false,
    "pricingUnit": "kpl",
    "referencePrice": {
      "_type": "Big",
      "value": "13.57142857142857142857"
    },
    "visiblePrice": {
      "_type": "Big",
      "value": "4.75"
    },
    "visiblePriceUnit": "kpl",
    "isDiscounted": false
  },
  {
    "ean": "5032722302921",
    "urlSlug": "biona-papusekoitus-400g-luomu-vedessa-5032722302921",
    "name": "Biona papusekoitus vedessä 400g/240g luomu",
    "pictureUrls": [
      {
        "original": "https://public.keskofiles.com/f/k-ruoka/product/5032722302921"
      }
    ],
    "section": "3222",
    "departmentId": "115",
    "contentUnit": "KG",
    "contentSize": 0.24,
    "netWeight": 0.4,
    "available": true,
    "isUtility": false,
    "preprocessedPricing": {
      "products": {},
      "simplePromotions": {},
      "basketPromotions": {}
    },
    "tosPricing": {
      "basketPromotions": []
    },
    "simplePricePlussa": false,
    "pricingUnit": "kpl",
    "referencePrice": {
      "_type": "Big",
      "value": "6.875"
    },
    "visiblePrice": {
      "_type": "Big",
      "value": "1.65"
    },
    "visiblePriceUnit": "kpl",
    "isDiscounted": false
  },
  {
    "ean": "6428300006500",
    "urlSlug": "vivania-beauty-collagen-natural-6428300006500",
    "name": "Vivania beauty collagen natural",
    "pictureUrls": [
      {
        "original": "https://public.keskofiles.com/f/k-ruoka/product/6428300006500"
      }
    ],
    "section": "4533",
    "departmentId": "115",
    "contentUnit": "KG",
    "contentSize": 0.14,
    "netWeight": 0.14,
    "available": true,
    "isUtility": false,
    "preprocessedPricing": {
      "products": {},
      "simplePromotions": {},
      "basketPromotions": {}
    },
    "tosPricing": {
      "basketPromotions": []
    },
    "simplePricePlussa": false,
    "pricingUnit": "kpl",
    "referencePrice": {
      "_type": "Big",
      "value": "117.85714285714285714286"
    },
    "visiblePrice": {
      "_type": "Big",
      "value": "16.5"
    },
    "visiblePriceUnit": "kpl",
    "isDiscounted": false
  },
  {
    "ean": "6430067840396",
    "urlSlug": "chefs-ateria-aines-170g-havaijin-pata-6430067840396",
    "name": "Chef's Havaijin pata ateria-aines 170g",
    "pictureUrls": [
      {
        "original": "https://public.keskofiles.com/f/k-ruoka/product/6430067840396"
      }
    ],
    "section": "4011",
    "departmentId": "115",
    "contentUnit": "KG",
    "contentSize": 0.17,
    "netWeight": 0.17,
    "available": true,
    "isUtility": false,
    "preprocessedPricing": {
      "products": {},
      "simplePromotions": {},
      "basketPromotions": {}
    },
    "tosPricing": {
      "basketPromotions": []
    },
    "simplePricePlussa": false,
    "pricingUnit": "kpl",
    "referencePrice": {
      "_type": "Big",
      "value": "12.29411764705882352941"
    },
    "visiblePrice": {
      "_type": "Big",
      "value": "2.09"
    },
    "visiblePriceUnit": "kpl",
    "isDiscounted": false
  },
  {
    "ean": "7311143200558",
    "urlSlug": "finax-mysli-450g-omena-paaryn-inkiv-gton-7311143200558",
    "name": "Finax Gluteeniton Mysli 450g Omena, Päärynä ja Inkivääri",
    "pictureUrls": [
      {
        "original": "https://public.keskofiles.com/f/k-ruoka/product/7311143200558"
      }
    ],
    "section": "3084",
    "departmentId": "115",
    "contentUnit": "KG",
    "contentSize": 0.45,
    "netWeight": 0.45,
    "available": true,
    "isUtility": false,
    "preprocessedPricing": {
      "products": {},
      "simplePromotions": {},
      "basketPromotions": {}
    },
    "tosPricing": {
      "basketPromotions": []
    },
    "simplePricePlussa": false,
    "pricingUnit": "kpl",
    "referencePrice": {
      "_type": "Big",
      "value": "11"
    },
    "visiblePrice": {
      "_type": "Big",
      "value": "4.95"
    },
    "visiblePriceUnit": "kpl",
    "isDiscounted": false
  },
  {
    "ean": "7311312000569",
    "urlSlug": "santa-maria-wheat-noodles-250g-vehnanuud-7311312000569",
    "name": "Santa Maria Wheat Noodles 250G vehnänuudeli",
    "pictureUrls": [
      {
        "original": "https://public.keskofiles.com/f/k-ruoka/product/7311312000569"
      }
    ],
    "section": "3010",
    "departmentId": "115",
    "contentUnit": "KG",
    "contentSize": 0.25,
    "netWeight": 0.25,
    "available": true,
    "isUtility": false,
    "preprocessedPricing": {
      "products": {},
      "simplePromotions": {},
      "basketPromotions": {}
    },
    "tosPricing": {
      "basketPromotions": []
    },
    "simplePricePlussa": false,
    "pricingUnit": "kpl",
    "referencePrice": {
      "_type": "Big",
      "value": "7.96"
    },
    "visiblePrice": {
      "_type": "Big",
      "value": "1.99"
    },
    "visiblePriceUnit": "kpl",
    "isDiscounted": false
  },
  {
    "ean": "7312631217201",
    "urlSlug": "risenta-kurpitsansiemen-300g-7312631217201",
    "name": "Risenta Kurpitsansiemen 300g",
    "pictureUrls": [
      {
        "original": "https://public.keskofiles.com/f/k-ruoka/product/7312631217201"
      }
    ],
    "section": "3093",
    "departmentId": "115",
    "contentUnit": "KG",
    "contentSize": 0.3,
    "netWeight": 0.3,
    "available": true,
    "isUtility": false,
    "preprocessedPricing": {
      "products": {},
      "simplePromotions": {},
      "basketPromotions": {}
    },
    "tosPricing": {
      "basketPromotions": []
    },
    "simplePricePlussa": false,
    "pricingUnit": "kpl",
    "referencePrice": {
      "_type": "Big",
      "value": "11.16666666666666666667"
    },
    "visiblePrice": {
      "_type": "Big",
      "value": "3.35"
    },
    "visiblePriceUnit": "kpl",
    "isDiscounted": false
  },
  {
    "ean": "3083681003963",
    "urlSlug": "bonduelle-gourmet-linssit-310g265g-3083681003963",
    "name": "Bonduelle Gourmet linssit 310g/265g",
    "pictureUrls": [
      {
        "original": "https://public.keskofiles.com/f/k-ruoka/product/3083681003963"
      }
    ],
    "section": "3222",
    "departmentId": "115",
    "contentUnit": "KG",
    "contentSize": 0.265,
    "netWeight": 0.31,
    "available": true,
    "isUtility": false,
    "preprocessedPricing": {
      "products": {},
      "simplePromotions": {},
      "basketPromotions": {}
    },
    "tosPricing": {
      "basketPromotions": []
    },
    "simplePricePlussa": false,
    "pricingUnit": "kpl",
    "referencePrice": {
      "_type": "Big",
      "value": "6"
    },
    "visiblePrice": {
      "_type": "Big",
      "value": "1.59"
    },
    "visiblePriceUnit": "kpl",
    "isDiscounted": false
  },
  {
    "ean": "6410405102614",
    "urlSlug": "pirkka-pavut-380230g-valkoiset-6410405102614",
    "name": "Pirkka isot valkoiset pavut suolaliemessä 380g/230g",
    "pictureUrls": [
      {
        "original": "https://public.keskofiles.com/f/k-ruoka/product/6410405102614"
      }
    ],
    "section": "3222",
    "departmentId": "115",
    "contentUnit": "KG",
    "contentSize": 0.23,
    "netWeight": 0.38,
    "available": true,
    "isUtility": false,
    "preprocessedPricing": {
      "products": {},
      "simplePromotions": {},
      "basketPromotions": {}
    },
    "tosPricing": {
      "basketPromotions": []
    },
    "simplePricePlussa": false,
    "pricingUnit": "kpl",
    "referencePrice": {
      "_type": "Big",
      "value": "3.86956521739130434783"
    },
    "visiblePrice": {
      "_type": "Big",
      "value": "0.89"
    },
    "visiblePriceUnit": "kpl",
    "isDiscounted": false
  },
  {
    "ean": "4032549010963",
    "urlSlug": "munakoisopyree-350g380ml-4032549010963",
    "name": "Munakoisopyree 350g/380ml",
    "pictureUrls": [
      {
        "original": "https://public.keskofiles.com/f/k-ruoka/product/4032549010963"
      }
    ],
    "section": "4640",
    "departmentId": "115",
    "contentUnit": "KG",
    "contentSize": 0.35,
    "netWeight": 0.35,
    "available": true,
    "isUtility": false,
    "preprocessedPricing": {
      "products": {},
      "simplePromotions": {},
      "basketPromotions": {}
    },
    "tosPricing": {
      "basketPromotions": []
    },
    "simplePricePlussa": false,
    "pricingUnit": "kpl",
    "referencePrice": {
      "_type": "Big",
      "value": "7.4"
    },
    "visiblePrice": {
      "_type": "Big",
      "value": "2.59"
    },
    "visiblePriceUnit": "kpl",
    "isDiscounted": false
  },
  {
    "ean": "6418130021101",
    "urlSlug": "keskisen-myllyn-tattarisuurimo-1kg-6418130021101",
    "name": "Keskisen mylly tattarisuurimo 1kg",
    "pictureUrls": [
      {
        "original": "https://public.keskofiles.com/f/k-ruoka/product/6418130021101"
      }
    ],
    "section": "3050",
    "departmentId": "115",
    "contentUnit": "KG",
    "contentSize": 1,
    "netWeight": 1,
    "available": true,
    "isUtility": false,
    "preprocessedPricing": {
      "products": {},
      "simplePromotions": {},
      "basketPromotions": {}
    },
    "tosPricing": {
      "basketPromotions": []
    },
    "simplePricePlussa": false,
    "pricingUnit": "kpl",
    "referencePrice": {
      "_type": "Big",
      "value": "4.95"
    },
    "visiblePrice": {
      "_type": "Big",
      "value": "4.95"
    },
    "visiblePriceUnit": "kpl",
    "isDiscounted": false
  },
  {
    "ean": "6430051515361",
    "urlSlug": "leader-tyrniojymustahe-500mg60-kaps43g-6430051515361",
    "name": "Leader Tyrniöjy+mustahe 500mg60 kaps/43g",
    "pictureUrls": [],
    "section": "4529",
    "departmentId": "115",
    "contentUnit": "KPL",
    "contentSize": 60,
    "netWeight": 0.043,
    "available": true,
    "isUtility": false,
    "preprocessedPricing": {
      "products": {},
      "simplePromotions": {},
      "basketPromotions": {}
    },
    "tosPricing": {
      "basketPromotions": []
    },
    "simplePricePlussa": false,
    "pricingUnit": "kpl",
    "referencePrice": {
      "_type": "Big",
      "value": "0.25666666666666666667"
    },
    "visiblePrice": {
      "_type": "Big",
      "value": "15.4"
    },
    "visiblePriceUnit": "kpl",
    "isDiscounted": false
  },
  {
    "ean": "5765228103838",
    "urlSlug": "urtekram-belugalinssi-400g-luomu-5765228103838",
    "name": "Urtekram Belugalinssi 400g luomu",
    "pictureUrls": [
      {
        "original": "https://public.keskofiles.com/f/k-ruoka/product/5765228103838"
      }
    ],
    "section": "3091",
    "departmentId": "115",
    "contentUnit": "KG",
    "contentSize": 0.4,
    "netWeight": 0.4,
    "available": true,
    "isUtility": false,
    "preprocessedPricing": {
      "products": {},
      "simplePromotions": {},
      "basketPromotions": {}
    },
    "tosPricing": {
      "basketPromotions": []
    },
    "simplePricePlussa": false,
    "pricingUnit": "kpl",
    "referencePrice": {
      "_type": "Big",
      "value": "8.125"
    },
    "visiblePrice": {
      "_type": "Big",
      "value": "3.25"
    },
    "visiblePriceUnit": "kpl",
    "isDiscounted": false
  },
  {
    "ean": "6432700300595",
    "urlSlug": "sauvon-sienikuutio-315160g-6432700300595",
    "name": "Sauvon Sienikuutioita 315/160 g",
    "pictureUrls": [
      {
        "original": "https://public.keskofiles.com/f/k-ruoka/product/6432700300595"
      }
    ],
    "section": "3249",
    "departmentId": "115",
    "contentUnit": "KG",
    "contentSize": 0.16,
    "netWeight": 0.315,
    "available": true,
    "isUtility": false,
    "preprocessedPricing": {
      "products": {},
      "simplePromotions": {},
      "basketPromotions": {}
    },
    "tosPricing": {
      "basketPromotions": []
    },
    "simplePricePlussa": false,
    "pricingUnit": "kpl",
    "referencePrice": {
      "_type": "Big",
      "value": "16.1875"
    },
    "visiblePrice": {
      "_type": "Big",
      "value": "2.59"
    },
    "visiblePriceUnit": "kpl",
    "isDiscounted": false
  },
  {
    "ean": "6410405205056",
    "urlSlug": "pirkka-tomaattisose-135g-yrtti-6410405205056",
    "name": "Pirkka yrttitomaattisose 135 g",
    "pictureUrls": [
      {
        "original": "https://public.keskofiles.com/f/k-ruoka/product/6410405205056"
      }
    ],
    "section": "3220",
    "departmentId": "115",
    "contentUnit": "KG",
    "contentSize": 0.135,
    "netWeight": 0.135,
    "available": true,
    "isUtility": false,
    "preprocessedPricing": {
      "products": {},
      "simplePromotions": {},
      "basketPromotions": {}
    },
    "tosPricing": {
      "basketPromotions": []
    },
    "simplePricePlussa": false,
    "pricingUnit": "kpl",
    "referencePrice": {
      "_type": "Big",
      "value": "3.62962962962962962963"
    },
    "visiblePrice": {
      "_type": "Big",
      "value": "0.49"
    },
    "visiblePriceUnit": "kpl",
    "isDiscounted": false
  },
  {
    "ean": "8852018101055",
    "urlSlug": "yum-yum-nuudeli-60g-katkaravunmaku-8852018101055",
    "name": "Yum Yum Katkaravunmakuinen nuudeli 60g",
    "pictureUrls": [
      {
        "original": "https://public.keskofiles.com/f/k-ruoka/product/8852018101055"
      }
    ],
    "section": "4015",
    "departmentId": "115",
    "contentUnit": "KG",
    "contentSize": 0.06,
    "netWeight": 0.06,
    "available": true,
    "isUtility": false,
    "preprocessedPricing": {
      "products": {},
      "simplePromotions": {},
      "basketPromotions": {}
    },
    "tosPricing": {
      "basketPromotions": []
    },
    "simplePricePlussa": false,
    "pricingUnit": "kpl",
    "referencePrice": {
      "_type": "Big",
      "value": "9.16666666666666666667"
    },
    "visiblePrice": {
      "_type": "Big",
      "value": "0.55"
    },
    "visiblePriceUnit": "kpl",
    "isDiscounted": false
  },
  {
    "ean": "7391961111489",
    "urlSlug": "torfolk-gard-mansikkahillo-320g-luomu-7391961111489",
    "name": "Torfolk Gård Luomu mansikkahillo 320 g",
    "pictureUrls": [],
    "section": "3200",
    "departmentId": "106",
    "contentUnit": "KG",
    "contentSize": 0.32,
    "netWeight": 0.32,
    "available": true,
    "isUtility": false,
    "preprocessedPricing": {
      "products": {},
      "simplePromotions": {},
      "basketPromotions": {}
    },
    "tosPricing": {
      "basketPromotions": []
    },
    "simplePricePlussa": false,
    "pricingUnit": "kpl",
    "referencePrice": {
      "_type": "Big",
      "value": "16.21875"
    },
    "visiblePrice": {
      "_type": "Big",
      "value": "5.19"
    },
    "visiblePriceUnit": "kpl",
    "isDiscounted": false
  },
  {
    "ean": "7340001801071",
    "urlSlug": "barebells-protpatuk-55g-whit-choc-almond-7340001801071",
    "name": "Barebells protpatuk 55g whit choc almond",
    "pictureUrls": [
      {
        "original": "https://public.keskofiles.com/f/k-ruoka/product/7340001801071"
      }
    ],
    "section": "4553",
    "departmentId": "115",
    "contentUnit": "KG",
    "contentSize": 0.055,
    "netWeight": 0.055,
    "available": true,
    "isUtility": false,
    "preprocessedPricing": {
      "products": {},
      "simplePromotions": {},
      "basketPromotions": {}
    },
    "tosPricing": {
      "basketPromotions": []
    },
    "simplePricePlussa": false,
    "pricingUnit": "kpl",
    "referencePrice": {
      "_type": "Big",
      "value": "50.72727272727272727273"
    },
    "visiblePrice": {
      "_type": "Big",
      "value": "2.79"
    },
    "visiblePriceUnit": "kpl",
    "isDiscounted": false
  },
  {
    "ean": "6410405075772",
    "urlSlug": "pirkka-pastakastike-390g-tom-basil-luomu-6410405075772",
    "name": "Pirkka Luomu pastakastike tomaatti-basilika 390g",
    "pictureUrls": [
      {
        "original": "https://public.keskofiles.com/f/k-ruoka/product/6410405075772"
      }
    ],
    "section": "4178",
    "departmentId": "115",
    "contentUnit": "KG",
    "contentSize": 0.39,
    "netWeight": 0.39,
    "available": true,
    "isUtility": false,
    "preprocessedPricing": {
      "products": {},
      "simplePromotions": {},
      "basketPromotions": {}
    },
    "tosPricing": {
      "basketPromotions": []
    },
    "simplePricePlussa": false,
    "pricingUnit": "kpl",
    "referencePrice": {
      "_type": "Big",
      "value": "4.23076923076923076923"
    },
    "visiblePrice": {
      "_type": "Big",
      "value": "1.65"
    },
    "visiblePriceUnit": "kpl",
    "isDiscounted": false
  },
  {
    "ean": "6430011813223",
    "urlSlug": "spice-up-pad-thai-kastike-200ml-6430011813223",
    "name": "Spice Up pad thai kastike 200ml",
    "pictureUrls": [
      {
        "original": "https://public.keskofiles.com/f/k-ruoka/product/6430011813223"
      }
    ],
    "section": "4612",
    "departmentId": "106",
    "contentUnit": "L",
    "contentSize": 0.2,
    "netWeight": 0.26,
    "available": true,
    "isUtility": false,
    "preprocessedPricing": {
      "products": {},
      "simplePromotions": {},
      "basketPromotions": {}
    },
    "tosPricing": {
      "basketPromotions": []
    },
    "simplePricePlussa": false,
    "pricingUnit": "kpl",
    "referencePrice": {
      "_type": "Big",
      "value": "17"
    },
    "visiblePrice": {
      "_type": "Big",
      "value": "3.4"
    },
    "visiblePriceUnit": "kpl",
    "isDiscounted": false
  },
  {
    "ean": "6409941304712",
    "urlSlug": "dexal-bcaa-drink-85g-16-tabl-paaryna-6409941304712",
    "name": "Dexal BCAA drink 85g 16 tabl päärynä",
    "pictureUrls": [
      {
        "original": "https://public.keskofiles.com/f/k-ruoka/product/6409941304712"
      }
    ],
    "section": "4559",
    "departmentId": "115",
    "contentUnit": "KG",
    "contentSize": 0.085,
    "netWeight": 0.088,
    "available": true,
    "isUtility": false,
    "preprocessedPricing": {
      "products": {},
      "simplePromotions": {},
      "basketPromotions": {}
    },
    "tosPricing": {
      "basketPromotions": []
    },
    "simplePricePlussa": false,
    "pricingUnit": "kpl",
    "referencePrice": {
      "_type": "Big",
      "value": "72.82352941176470588235"
    },
    "visiblePrice": {
      "_type": "Big",
      "value": "6.19"
    },
    "visiblePriceUnit": "kpl",
    "isDiscounted": false
  },
  {
    "ean": "7613035789227",
    "urlSlug": "nesquik-kaura-vehnamuromysli-300g-7613035789227",
    "name": "Nesquik Kaura-vehnämuromysli 300g",
    "pictureUrls": [
      {
        "original": "https://public.keskofiles.com/f/k-ruoka/product/7613035789227"
      }
    ],
    "section": "3089",
    "departmentId": "115",
    "contentUnit": "KG",
    "contentSize": 0.3,
    "netWeight": 0.3,
    "available": true,
    "isUtility": false,
    "preprocessedPricing": {
      "products": {},
      "simplePromotions": {},
      "basketPromotions": {}
    },
    "tosPricing": {
      "basketPromotions": []
    },
    "simplePricePlussa": false,
    "pricingUnit": "kpl",
    "referencePrice": {
      "_type": "Big",
      "value": "11.83333333333333333333"
    },
    "visiblePrice": {
      "_type": "Big",
      "value": "3.55"
    },
    "visiblePriceUnit": "kpl",
    "isDiscounted": false
  },
  {
    "ean": "6430011811106",
    "urlSlug": "spice-up-nuudeli-400g-6430011811106",
    "name": "Spice Up Nuudeli 400g",
    "pictureUrls": [
      {
        "original": "https://public.keskofiles.com/f/k-ruoka/product/6430011811106"
      }
    ],
    "section": "3010",
    "departmentId": "115",
    "contentUnit": "KG",
    "contentSize": 0.4,
    "netWeight": 0.4,
    "available": true,
    "isUtility": false,
    "preprocessedPricing": {
      "products": {},
      "simplePromotions": {},
      "basketPromotions": {}
    },
    "tosPricing": {
      "basketPromotions": []
    },
    "simplePricePlussa": false,
    "pricingUnit": "kpl",
    "referencePrice": {
      "_type": "Big",
      "value": "5.975"
    },
    "visiblePrice": {
      "_type": "Big",
      "value": "2.39"
    },
    "visiblePriceUnit": "kpl",
    "isDiscounted": false
  }
]