[
  {
    "ean": "0637793029484",
    "urlSlug": "mackays-joulumarmeladi-113g-app-karpalo-0637793029484",
    "name": "Mackays joulumarmeladi 113g appelsiini-karpalo",
    "pictureUrls": [
      {
        "original": "https://public.keskofiles.com/f/k-ruoka/product/0637793029484"
      }
    ],
    "section": "3209",
    "departmentId": "106",
    "contentUnit": "KG",
    "contentSize": 0.113,
    "netWeight": 0.113,
    "available": true,
    "isUtility": false,
    "preprocessedPricing": {
      "products": {},
      "simplePromotions": {},
      "basketPromotions": {}
    },
    "tosPricing": {
      "basketPromotions": []
    },
    "simplePricePlussa": false,
    "pricingUnit": "kpl",
    "referencePrice": {
      "_type": "Big",
      "value": "18.4955752212389380531"
    },
    "visiblePrice": {
      "_type": "Big",
      "value": "2.09"
    },
    "visiblePriceUnit": "kpl",
    "isDiscounted": false
  },
  {
    "ean": "0637793031227",
    "urlSlug": "mackays-viikunahillo-340g-0637793031227",
    "name": "Mackays viikunahillo 340g",
    "pictureUrls": [
      {
        "original": "https://public.keskofiles.com/f/k-ruoka/product/0637793031227"
      }
    ],
    "section": "3209",
    "departmentId": "106",
    "contentUnit": "KG",
    "contentSize": 0.34,
    "netWeight": 0.34,
    "available": true,
    "isUtility": false,
    "preprocessedPricing": {
      "products": {},
      "simplePromotions": {},
      "basketPromotions": {}
    },
    "tosPricing": {
      "basketPromotions": []
    },
    "simplePricePlussa": false,
    "pricingUnit": "kpl",
    "referencePrice": {
      "_type": "Big",
      "value": "12.32352941176470588235"
    },
    "visiblePrice": {
      "_type": "Big",
      "value": "4.19"
    },
    "visiblePriceUnit": "kpl",
    "isDiscounted": false
  },
  {
    "ean": "0000070112474",
    "urlSlug": "moller-vahva-omega-3-kalaolj-70kaps-90g-0000070112474",
    "name": "Moller vahva Omega - 3",
    "pictureUrls": [
      {
        "original": "https://public.keskofiles.com/f/k-ruoka/product/0000070112474"
      }
    ],
    "section": "4521",
    "departmentId": "115",
    "contentUnit": "KG",
    "contentSize": 0.09,
    "netWeight": 0.09,
    "available": true,
    "isUtility": false,
    "preprocessedPricing": {
      "products": {},
      "simplePromotions": {},
      "basketPromotions": {}
    },
    "tosPricing": {
      "basketPromotions": []
    },
    "simplePricePlussa": false,
    "pricingUnit": "kpl",
    "referencePrice": {
      "_type": "Big",
      "value": "164.44444444444444444444"
    },
    "visiblePrice": {
      "_type": "Big",
      "value": "14.8"
    },
    "visiblePriceUnit": "kpl",
    "isDiscounted": false
  },
  {
    "ean": "0722252130044",
    "urlSlug": "clif-bar-68g-suklaarouhe-energiapatukka-0722252130044",
    "name": "Clif Bar 68g Suklaarouhe energiapatukka",
    "pictureUrls": [
      {
        "original": "https://public.keskofiles.com/f/k-ruoka/product/0722252130044"
      }
    ],
    "section": "4553",
    "departmentId": "115",
    "contentUnit": "KG",
    "contentSize": 0.068,
    "netWeight": 0.068,
    "available": true,
    "isUtility": false,
    "preprocessedPricing": {
      "products": {},
      "simplePromotions": {},
      "basketPromotions": {}
    },
    "tosPricing": {
      "basketPromotions": []
    },
    "simplePricePlussa": false,
    "pricingUnit": "kpl",
    "referencePrice": {
      "_type": "Big",
      "value": "35.14705882352941176471"
    },
    "visiblePrice": {
      "_type": "Big",
      "value": "2.39"
    },
    "visiblePriceUnit": "kpl",
    "isDiscounted": false
  },
  {
    "ean": "0722252130075",
    "urlSlug": "clif-bar-energiapatuk-68g-mustikka-0722252130075",
    "name": "Clif Bar energiapatuk 68g mustikka",
    "pictureUrls": [
      {
        "original": "https://public.keskofiles.com/f/k-ruoka/product/0722252130075"
      }
    ],
    "section": "4553",
    "departmentId": "115",
    "contentUnit": "KG",
    "contentSize": 0.068,
    "netWeight": 0.068,
    "available": true,
    "isUtility": false,
    "preprocessedPricing": {
      "products": {},
      "simplePromotions": {},
      "basketPromotions": {}
    },
    "tosPricing": {
      "basketPromotions": []
    },
    "simplePricePlussa": false,
    "pricingUnit": "kpl",
    "referencePrice": {
      "_type": "Big",
      "value": "35.14705882352941176471"
    },
    "visiblePrice": {
      "_type": "Big",
      "value": "2.39"
    },
    "visiblePriceUnit": "kpl",
    "isDiscounted": false
  },
  {
    "ean": "0038900404321",
    "urlSlug": "dole-hedelmasekoitus-mehuss-400220g-pss-0038900404321",
    "name": "Dole Hedelmäsekoitus mehussa 400g/220g",
    "pictureUrls": [
      {
        "original": "https://public.keskofiles.com/f/k-ruoka/product/0038900404321"
      }
    ],
    "section": "3212",
    "departmentId": "115",
    "contentUnit": "KG",
    "contentSize": 0.22,
    "netWeight": 0.4,
    "available": true,
    "isUtility": false,
    "preprocessedPricing": {
      "products": {},
      "simplePromotions": {},
      "basketPromotions": {}
    },
    "tosPricing": {
      "basketPromotions": []
    },
    "simplePricePlussa": false,
    "pricingUnit": "kpl",
    "referencePrice": {
      "_type": "Big",
      "value": "12.5"
    },
    "visiblePrice": {
      "_type": "Big",
      "value": "2.75"
    },
    "visiblePriceUnit": "kpl",
    "isDiscounted": false
  },
  {
    "ean": "0000040685175",
    "urlSlug": "stollenwerk-herttakirsikat-680350g-kton-0000040685175",
    "name": "Stollenwerk kivettömät hapankirsikat 680/350g",
    "pictureUrls": [
      {
        "original": "https://public.keskofiles.com/f/k-ruoka/product/0000040685175"
      }
    ],
    "section": "3219",
    "departmentId": "115",
    "contentUnit": "KG",
    "contentSize": 0.35,
    "netWeight": 0.68,
    "available": true,
    "isUtility": false,
    "preprocessedPricing": {
      "products": {},
      "simplePromotions": {},
      "basketPromotions": {}
    },
    "tosPricing": {
      "basketPromotions": []
    },
    "simplePricePlussa": false,
    "pricingUnit": "kpl",
    "referencePrice": {
      "_type": "Big",
      "value": "13"
    },
    "visiblePrice": {
      "_type": "Big",
      "value": "4.55"
    },
    "visiblePriceUnit": "kpl",
    "isDiscounted": false
  },
  {
    "ean": "6416710010460",
    "urlSlug": "filos-linda-oliivi-410220g-kalamata-6416710010460",
    "name": "Filos Linda oliivi 410/220g kalamata",
    "pictureUrls": [
      {
        "original": "https://public.keskofiles.com/f/k-ruoka/product/6416710010460"
      }
    ],
    "section": "3223",
    "departmentId": "115",
    "contentUnit": "KG",
    "contentSize": 0.22,
    "netWeight": 0.41,
    "available": true,
    "isUtility": false,
    "preprocessedPricing": {
      "products": {},
      "simplePromotions": {},
      "basketPromotions": {}
    },
    "tosPricing": {
      "basketPromotions": []
    },
    "simplePricePlussa": false,
    "pricingUnit": "kpl",
    "referencePrice": {
      "_type": "Big",
      "value": "13.59090909090909090909"
    },
    "visiblePrice": {
      "_type": "Big",
      "value": "2.99"
    },
    "visiblePriceUnit": "kpl",
    "isDiscounted": false
  },
  {
    "ean": "5060120281937",
    "urlSlug": "rude-health-granola-500g-hunaja-pahkina-5060120281937",
    "name": "Rude Health granola 500g hunaja-pähkinä",
    "pictureUrls": [],
    "section": "3089",
    "departmentId": "115",
    "contentUnit": "KG",
    "contentSize": 0.5,
    "netWeight": 0.5,
    "available": true,
    "isUtility": false,
    "preprocessedPricing": {
      "products": {},
      "simplePromotions": {},
      "basketPromotions": {}
    },
    "tosPricing": {
      "basketPromotions": []
    },
    "simplePricePlussa": false,
    "pricingUnit": "kpl",
    "referencePrice": {
      "_type": "Big",
      "value": "14.98"
    },
    "visiblePrice": {
      "_type": "Big",
      "value": "7.49"
    },
    "visiblePriceUnit": "kpl",
    "isDiscounted": false
  },
  {
    "ean": "6430054830164",
    "urlSlug": "evoke-protein-crunch-choco-raisin-42g-6430054830164",
    "name": "Evoke Protein Crunch Choco-Raisin 42g",
    "pictureUrls": [
      {
        "original": "https://public.keskofiles.com/f/k-ruoka/product/6430054830164"
      }
    ],
    "section": "4553",
    "departmentId": "115",
    "contentUnit": "KG",
    "contentSize": 0.042,
    "netWeight": 0.042,
    "available": true,
    "isUtility": false,
    "preprocessedPricing": {
      "products": {},
      "simplePromotions": {},
      "basketPromotions": {}
    },
    "tosPricing": {
      "basketPromotions": []
    },
    "simplePricePlussa": false,
    "pricingUnit": "kpl",
    "referencePrice": {
      "_type": "Big",
      "value": "23.80952380952380952381"
    },
    "visiblePrice": {
      "_type": "Big",
      "value": "1"
    },
    "visiblePriceUnit": "kpl",
    "isDiscounted": true
  },
  {
    "ean": "6411200107163",
    "urlSlug": "provena-500g-iso-kaurahiutale-gluteenito-6411200107163",
    "name": "Provena gluteeniton iso kaurahiutale 500 g",
    "pictureUrls": [
      {
        "original": "https://public.keskofiles.com/f/k-ruoka/product/6411200107163"
      }
    ],
    "section": "3046",
    "departmentId": "115",
    "contentUnit": "KG",
    "contentSize": 0.5,
    "netWeight": 0.5,
    "available": true,
    "isUtility": false,
    "preprocessedPricing": {
      "products": {},
      "simplePromotions": {},
      "basketPromotions": {}
    },
    "tosPricing": {
      "basketPromotions": []
    },
    "simplePricePlussa": false,
    "pricingUnit": "kpl",
    "referencePrice": {
      "_type": "Big",
      "value": "3.7"
    },
    "visiblePrice": {
      "_type": "Big",
      "value": "1.85"
    },
    "visiblePriceUnit": "kpl",
    "isDiscounted": false
  },
  {
    "ean": "8005121000177",
    "urlSlug": "divella-rigatoni-500g-kuviopasta-8005121000177",
    "name": "Divella Rigatoni pasta 500g",
    "pictureUrls": [
      {
        "original": "https://public.keskofiles.com/f/k-ruoka/product/8005121000177"
      }
    ],
    "section": "3074",
    "departmentId": "115",
    "contentUnit": "KG",
    "contentSize": 0.5,
    "netWeight": 0.5,
    "available": true,
    "isUtility": false,
    "preprocessedPricing": {
      "products": {},
      "simplePromotions": {},
      "basketPromotions": {}
    },
    "tosPricing": {
      "basketPromotions": []
    },
    "simplePricePlussa": false,
    "pricingUnit": "kpl",
    "referencePrice": {
      "_type": "Big",
      "value": "3.3"
    },
    "visiblePrice": {
      "_type": "Big",
      "value": "1.65"
    },
    "visiblePriceUnit": "kpl",
    "isDiscounted": false
  },
  {
    "ean": "6409943800380",
    "urlSlug": "dexal-energiageeli-30g-kola-6409943800380",
    "name": "Dexal energiageeli 30g kola",
    "pictureUrls": [
      {
        "original": "https://public.keskofiles.com/f/k-ruoka/product/6409943800380"
      }
    ],
    "section": "4559",
    "departmentId": "115",
    "contentUnit": "KG",
    "contentSize": 0.03,
    "netWeight": 0.03,
    "available": true,
    "isUtility": false,
    "preprocessedPricing": {
      "products": {},
      "simplePromotions": {},
      "basketPromotions": {}
    },
    "tosPricing": {
      "basketPromotions": []
    },
    "simplePricePlussa": false,
    "pricingUnit": "kpl",
    "referencePrice": {
      "_type": "Big",
      "value": "33"
    },
    "visiblePrice": {
      "_type": "Big",
      "value": "0.99"
    },
    "visiblePriceUnit": "kpl",
    "isDiscounted": false
  },
  {
    "ean": "5010029223484",
    "urlSlug": "alpen-mysli-560g-man-vad-kar-makeuttama-5010029223484",
    "name": "Alpen mysli 560g mansikka-vadelma-karpalo makeuttamaton",
    "pictureUrls": [
      {
        "original": "https://public.keskofiles.com/f/k-ruoka/product/5010029223484"
      }
    ],
    "section": "3088",
    "departmentId": "115",
    "contentUnit": "KG",
    "contentSize": 0.56,
    "netWeight": 0.56,
    "available": true,
    "isUtility": false,
    "preprocessedPricing": {
      "products": {},
      "simplePromotions": {},
      "basketPromotions": {}
    },
    "tosPricing": {
      "basketPromotions": []
    },
    "simplePricePlussa": false,
    "pricingUnit": "kpl",
    "referencePrice": {
      "_type": "Big",
      "value": "7.83928571428571428571"
    },
    "visiblePrice": {
      "_type": "Big",
      "value": "4.39"
    },
    "visiblePriceUnit": "kpl",
    "isDiscounted": false
  },
  {
    "ean": "6410405046789",
    "urlSlug": "pirkka-pasta-gnocchi-500g-6410405046789",
    "name": "Pirkka gnocchi kuviopasta 500g",
    "pictureUrls": [
      {
        "original": "https://public.keskofiles.com/f/k-ruoka/product/6410405046789"
      }
    ],
    "section": "3074",
    "departmentId": "115",
    "contentUnit": "KG",
    "contentSize": 0.5,
    "netWeight": 0.5,
    "available": true,
    "isUtility": false,
    "preprocessedPricing": {
      "products": {},
      "simplePromotions": {},
      "basketPromotions": {}
    },
    "tosPricing": {
      "basketPromotions": []
    },
    "simplePricePlussa": false,
    "pricingUnit": "kpl",
    "referencePrice": {
      "_type": "Big",
      "value": "2.18"
    },
    "visiblePrice": {
      "_type": "Big",
      "value": "1.09"
    },
    "visiblePriceUnit": "kpl",
    "isDiscounted": false
  },
  {
    "ean": "6412000017607",
    "urlSlug": "dronningholm-tayttis-sitruunatayte-300g-6412000017607",
    "name": "Dronningholm Täyttis sitruunatäyte 300g",
    "pictureUrls": [
      {
        "original": "https://public.keskofiles.com/f/k-ruoka/product/6412000017607"
      }
    ],
    "section": "3209",
    "departmentId": "106",
    "contentUnit": "KG",
    "contentSize": 0.3,
    "netWeight": 0.3,
    "available": true,
    "isUtility": false,
    "preprocessedPricing": {
      "products": {},
      "simplePromotions": {},
      "basketPromotions": {}
    },
    "tosPricing": {
      "basketPromotions": []
    },
    "simplePricePlussa": false,
    "pricingUnit": "kpl",
    "referencePrice": {
      "_type": "Big",
      "value": "8.5"
    },
    "visiblePrice": {
      "_type": "Big",
      "value": "2.55"
    },
    "visiblePriceUnit": "kpl",
    "isDiscounted": false
  },
  {
    "ean": "5032722306622",
    "urlSlug": "biona-keitetty-maissi-340285g-luomu-5032722306622",
    "name": "Biona maissi 340g luomu",
    "pictureUrls": [
      {
        "original": "https://public.keskofiles.com/f/k-ruoka/product/5032722306622"
      }
    ],
    "section": "3228",
    "departmentId": "115",
    "contentUnit": "KG",
    "contentSize": 0.285,
    "netWeight": 0.34,
    "available": true,
    "isUtility": false,
    "preprocessedPricing": {
      "products": {},
      "simplePromotions": {},
      "basketPromotions": {}
    },
    "tosPricing": {
      "basketPromotions": []
    },
    "simplePricePlussa": false,
    "pricingUnit": "kpl",
    "referencePrice": {
      "_type": "Big",
      "value": "6.49122807017543859649"
    },
    "visiblePrice": {
      "_type": "Big",
      "value": "1.85"
    },
    "visiblePriceUnit": "kpl",
    "isDiscounted": false
  },
  {
    "ean": "8714100744208",
    "urlSlug": "knorr-nuudeli-70g-kananmakuinen-8714100744208",
    "name": "Knorr Kananmakuinen nuudeli 70g",
    "pictureUrls": [
      {
        "original": "https://public.keskofiles.com/f/k-ruoka/product/8714100744208"
      }
    ],
    "section": "4015",
    "departmentId": "115",
    "contentUnit": "KG",
    "contentSize": 0.07,
    "netWeight": 0.07,
    "available": true,
    "isUtility": false,
    "preprocessedPricing": {
      "products": {},
      "simplePromotions": {},
      "basketPromotions": {}
    },
    "tosPricing": {
      "basketPromotions": []
    },
    "simplePricePlussa": false,
    "pricingUnit": "kpl",
    "referencePrice": {
      "_type": "Big",
      "value": "9.85714285714285714286"
    },
    "visiblePrice": {
      "_type": "Big",
      "value": "0.69"
    },
    "visiblePriceUnit": "kpl",
    "isDiscounted": false
  },
  {
    "ean": "6410405119667",
    "urlSlug": "k-menu-oliivi-240100g-musta-kton-6410405119667",
    "name": "K-Menu kivettömät mustat oliivit 240g/100g",
    "pictureUrls": [
      {
        "original": "https://public.keskofiles.com/f/k-ruoka/product/6410405119667"
      }
    ],
    "section": "3223",
    "departmentId": "115",
    "contentUnit": "KG",
    "contentSize": 0.1,
    "netWeight": 0.24,
    "available": true,
    "isUtility": false,
    "preprocessedPricing": {
      "products": {},
      "simplePromotions": {},
      "basketPromotions": {}
    },
    "tosPricing": {
      "basketPromotions": []
    },
    "simplePricePlussa": false,
    "pricingUnit": "kpl",
    "referencePrice": {
      "_type": "Big",
      "value": "6.2"
    },
    "visiblePrice": {
      "_type": "Big",
      "value": "0.62"
    },
    "visiblePriceUnit": "kpl",
    "isDiscounted": false
  },
  {
    "ean": "6410405073068",
    "urlSlug": "pirkka-tomaattimurska-390g-yrtti-6410405073068",
    "name": "Pirkka yrtti tomaattimurska 390g",
    "pictureUrls": [
      {
        "original": "https://public.keskofiles.com/f/k-ruoka/product/6410405073068"
      }
    ],
    "section": "3220",
    "departmentId": "115",
    "contentUnit": "KG",
    "contentSize": 0.39,
    "netWeight": 0.39,
    "available": true,
    "isUtility": false,
    "preprocessedPricing": {
      "products": {},
      "simplePromotions": {},
      "basketPromotions": {}
    },
    "tosPricing": {
      "basketPromotions": []
    },
    "simplePricePlussa": false,
    "pricingUnit": "kpl",
    "referencePrice": {
      "_type": "Big",
      "value": "2.28205128205128205128"
    },
    "visiblePrice": {
      "_type": "Big",
      "value": "0.89"
    },
    "visiblePriceUnit": "kpl",
    "isDiscounted": false,
    "discountType": "PLUSSA",
    "batchSize": 3,
    "batchPrice": {
      "_type": "Big",
      "value": "2.5"
    }
  },
  {
    "ean": "9004617067020",
    "urlSlug": "verival-granola-375g-suklaa-luomu-9004617067020",
    "name": "Verival granola 375g suklaa luomu",
    "pictureUrls": [
      {
        "original": "https://public.keskofiles.com/f/k-ruoka/product/9004617067020"
      }
    ],
    "section": "3089",
    "departmentId": "115",
    "contentUnit": "KG",
    "contentSize": 0.375,
    "netWeight": 0.375,
    "available": true,
    "isUtility": false,
    "preprocessedPricing": {
      "products": {},
      "simplePromotions": {},
      "basketPromotions": {}
    },
    "tosPricing": {
      "basketPromotions": []
    },
    "simplePricePlussa": false,
    "pricingUnit": "kpl",
    "referencePrice": {
      "_type": "Big",
      "value": "13.57333333333333333333"
    },
    "visiblePrice": {
      "_type": "Big",
      "value": "5.09"
    },
    "visiblePriceUnit": "kpl",
    "isDiscounted": false
  },
  {
    "ean": "6409531651516",
    "urlSlug": "jalostaja-sika-nauta-sailyke-400g-6409531651516",
    "name": "Jalostaja sika-nauta säilyke 400g",
    "pictureUrls": [
      {
        "original": "https://public.keskofiles.com/f/k-ruoka/product/6409531651516"
      }
    ],
    "section": "3270",
    "departmentId": "115",
    "contentUnit": "KG",
    "contentSize": 0.4,
    "netWeight": 0.4,
    "available": true,
    "isUtility": false,
    "preprocessedPricing": {
      "products": {},
      "simplePromotions": {},
      "basketPromotions": {}
    },
    "tosPricing": {
      "basketPromotions": []
    },
    "simplePricePlussa": false,
    "pricingUnit": "kpl",
    "referencePrice": {
      "_type": "Big",
      "value": "6.975"
    },
    "visiblePrice": {
      "_type": "Big",
      "value": "2.79"
    },
    "visiblePriceUnit": "kpl",
    "isDiscounted": false
  },
  {
    "ean": "6417801801080",
    "urlSlug": "pauluns-uunip-mysli-450g-vadelma-raparp-6417801801080",
    "name": "Paulúns uunipaahdettu supermysli 450g vadelma-raparperi",
    "pictureUrls": [
      {
        "original": "https://public.keskofiles.com/f/k-ruoka/product/6417801801080"
      }
    ],
    "section": "3089",
    "departmentId": "115",
    "contentUnit": "KG",
    "contentSize": 0.45,
    "netWeight": 0.45,
    "available": true,
    "isUtility": false,
    "preprocessedPricing": {
      "products": {},
      "simplePromotions": {},
      "basketPromotions": {}
    },
    "tosPricing": {
      "basketPromotions": []
    },
    "simplePricePlussa": false,
    "pricingUnit": "kpl",
    "referencePrice": {
      "_type": "Big",
      "value": "10.64444444444444444444"
    },
    "visiblePrice": {
      "_type": "Big",
      "value": "4.79"
    },
    "visiblePriceUnit": "kpl",
    "isDiscounted": false
  },
  {
    "ean": "6410405038340",
    "urlSlug": "pirkka-ateriakastike-350g-tikka-masala-6410405038340",
    "name": "Pirkka ateriakastike 350g tikka masala",
    "pictureUrls": [
      {
        "original": "https://public.keskofiles.com/f/k-ruoka/product/6410405038340"
      }
    ],
    "section": "4630",
    "departmentId": "115",
    "contentUnit": "KG",
    "contentSize": 0.35,
    "netWeight": 0.35,
    "available": true,
    "isUtility": false,
    "preprocessedPricing": {
      "products": {},
      "simplePromotions": {},
      "basketPromotions": {}
    },
    "tosPricing": {
      "basketPromotions": []
    },
    "simplePricePlussa": false,
    "pricingUnit": "kpl",
    "referencePrice": {
      "_type": "Big",
      "value": "6.25714285714285714286"
    },
    "visiblePrice": {
      "_type": "Big",
      "value": "2.19"
    },
    "visiblePriceUnit": "kpl",
    "isDiscounted": false
  },
  {
    "ean": "6413620600347",
    "urlSlug": "bioteekin-teho-melat--mint-19mg-100tabl-6413620600347",
    "name": "Bioteekin teho melat. mint 1,9mg 100tabl",
    "pictureUrls": [
      {
        "original": "https://public.keskofiles.com/f/k-ruoka/product/6413620600347"
      }
    ],
    "section": "4539",
    "departmentId": "115",
    "contentUnit": "KPL",
    "contentSize": 100,
    "netWeight": 0.03,
    "available": true,
    "isUtility": false,
    "preprocessedPricing": {
      "products": {},
      "simplePromotions": {},
      "basketPromotions": {}
    },
    "tosPricing": {
      "basketPromotions": []
    },
    "simplePricePlussa": false,
    "pricingUnit": "kpl",
    "referencePrice": {
      "_type": "Big",
      "value": "0.1525"
    },
    "visiblePrice": {
      "_type": "Big",
      "value": "15.25"
    },
    "visiblePriceUnit": "kpl",
    "isDiscounted": false
  },
  {
    "ean": "6430051512032",
    "urlSlug": "leader-prot-so-lo-carb-61g-keksi-gton-6430051512032",
    "name": "Leader protein so lo-carb proteiinipatukka 61g valkosuklaakeksi",
    "pictureUrls": [
      {
        "original": "https://public.keskofiles.com/f/k-ruoka/product/6430051512032"
      }
    ],
    "section": "4553",
    "departmentId": "115",
    "contentUnit": "KG",
    "contentSize": 0.061,
    "netWeight": 0.061,
    "available": true,
    "isUtility": false,
    "preprocessedPricing": {
      "products": {},
      "simplePromotions": {},
      "basketPromotions": {}
    },
    "tosPricing": {
      "basketPromotions": []
    },
    "simplePricePlussa": false,
    "pricingUnit": "kpl",
    "referencePrice": {
      "_type": "Big",
      "value": "16.39344262295081967213"
    },
    "visiblePrice": {
      "_type": "Big",
      "value": "1"
    },
    "visiblePriceUnit": "kpl",
    "isDiscounted": true
  },
  {
    "ean": "8410076421197",
    "urlSlug": "old-el-paso-292g-smoky-chip-salsa-8410076421197",
    "name": "Old El Paso 292g Smoky Chip Salsa",
    "pictureUrls": [
      {
        "original": "https://public.keskofiles.com/f/k-ruoka/product/8410076421197"
      }
    ],
    "section": "4730",
    "departmentId": "115",
    "contentUnit": "KG",
    "contentSize": 0.292,
    "netWeight": 0.292,
    "available": true,
    "isUtility": false,
    "preprocessedPricing": {
      "products": {},
      "simplePromotions": {},
      "basketPromotions": {}
    },
    "tosPricing": {
      "basketPromotions": []
    },
    "simplePricePlussa": false,
    "pricingUnit": "kpl",
    "referencePrice": {
      "_type": "Big",
      "value": "10.23972602739726027397"
    },
    "visiblePrice": {
      "_type": "Big",
      "value": "2.99"
    },
    "visiblePriceUnit": "kpl",
    "isDiscounted": false
  },
  {
    "ean": "6411200109150",
    "urlSlug": "elovena-hetki-420g-vadelma-annospikapuur-6411200109150",
    "name": "Elovena Hetki 420g vadelma annospikapuuro -50% sokeria",
    "pictureUrls": [
      {
        "original": "https://public.keskofiles.com/f/k-ruoka/product/6411200109150"
      }
    ],
    "section": "3048",
    "departmentId": "115",
    "contentUnit": "KG",
    "contentSize": 0.42,
    "netWeight": 0.42,
    "available": true,
    "isUtility": false,
    "preprocessedPricing": {
      "products": {},
      "simplePromotions": {},
      "basketPromotions": {}
    },
    "tosPricing": {
      "basketPromotions": []
    },
    "simplePricePlussa": false,
    "pricingUnit": "kpl",
    "referencePrice": {
      "_type": "Big",
      "value": "9.88095238095238095238"
    },
    "visiblePrice": {
      "_type": "Big",
      "value": "4.15"
    },
    "visiblePriceUnit": "kpl",
    "isDiscounted": false
  },
  {
    "ean": "7312631108202",
    "urlSlug": "risenta-valkoinen-kvinoa-500g-luomu-7312631108202",
    "name": "Risenta valkoinen kvinoa 500g luomu",
    "pictureUrls": [
      {
        "original": "https://public.keskofiles.com/f/k-ruoka/product/7312631108202"
      }
    ],
    "section": "3059",
    "departmentId": "115",
    "contentUnit": "KG",
    "contentSize": 0.5,
    "netWeight": 0.5,
    "available": true,
    "isUtility": false,
    "preprocessedPricing": {
      "products": {},
      "simplePromotions": {},
      "basketPromotions": {}
    },
    "tosPricing": {
      "basketPromotions": []
    },
    "simplePricePlussa": false,
    "pricingUnit": "kpl",
    "referencePrice": {
      "_type": "Big",
      "value": "13.3"
    },
    "visiblePrice": {
      "_type": "Big",
      "value": "6.65"
    },
    "visiblePriceUnit": "kpl",
    "isDiscounted": false
  },
  {
    "ean": "5201194000905",
    "urlSlug": "royal-pepperoni-325180g-vahva-vihr-5201194000905",
    "name": "Royal vahva vihreä peloponnesos pepperoni 325/180 g",
    "pictureUrls": [
      {
        "original": "https://public.keskofiles.com/f/k-ruoka/product/5201194000905"
      }
    ],
    "section": "3228",
    "departmentId": "115",
    "contentUnit": "KG",
    "contentSize": 0.18,
    "netWeight": 0.325,
    "available": true,
    "isUtility": false,
    "preprocessedPricing": {
      "products": {},
      "simplePromotions": {},
      "basketPromotions": {}
    },
    "tosPricing": {
      "basketPromotions": []
    },
    "simplePricePlussa": false,
    "pricingUnit": "kpl",
    "referencePrice": {
      "_type": "Big",
      "value": "12.72222222222222222222"
    },
    "visiblePrice": {
      "_type": "Big",
      "value": "2.29"
    },
    "visiblePriceUnit": "kpl",
    "isDiscounted": false
  }
]