[
  {
    "ean": "6430025254975",
    "urlSlug": "paivan-pahkinat-siemenilla-110g-6430025254975",
    "name": "Päivän Pähkinät siemenillä 110g",
    "pictureUrls": [
      {
        "original": "https://public.keskofiles.com/f/k-ruoka/product/6430025254975"
      }
    ],
    "section": "4418",
    "departmentId": "106",
    "contentUnit": "KG",
    "contentSize": 0.11,
    "netWeight": 0.11,
    "available": true,
    "isUtility": false,
    "preprocessedPricing": {
      "products": {},
      "simplePromotions": {},
      "basketPromotions": {}
    },
    "tosPricing": {
      "basketPromotions": []
    },
    "simplePricePlussa": false,
    "pricingUnit": "kpl",
    "referencePrice": {
      "_type": "Big",
      "value": "29.90909090909090909091"
    },
    "visiblePrice": {
      "_type": "Big",
      "value": "3.29"
    },
    "visiblePriceUnit": "kpl",
    "isDiscounted": false
  },
  {
    "ean": "5765228396636",
    "urlSlug": "urtekram-omena-karpalosose-360g-luomu-5765228396636",
    "name": "Urtekram Omena-karpalosose 360g Luomu",
    "pictureUrls": [
      {
        "original": "https://public.keskofiles.com/f/k-ruoka/product/5765228396636"
      }
    ],
    "section": "3207",
    "departmentId": "106",
    "contentUnit": "KG",
    "contentSize": 0.36,
    "netWeight": 0.36,
    "available": true,
    "isUtility": false,
    "preprocessedPricing": {
      "products": {},
      "simplePromotions": {},
      "basketPromotions": {}
    },
    "tosPricing": {
      "basketPromotions": []
    },
    "simplePricePlussa": false,
    "pricingUnit": "kpl",
    "referencePrice": {
      "_type": "Big",
      "value": "8.30555555555555555556"
    },
    "visiblePrice": {
      "_type": "Big",
      "value": "2.99"
    },
    "visiblePriceUnit": "kpl",
    "isDiscounted": false
  },
  {
    "ean": "5706779052480",
    "urlSlug": "earth-control-salaattisek-hedelmat-200g-5706779052480",
    "name": "Earth Control salaattisek hedelmät 200g",
    "pictureUrls": [
      {
        "original": "https://public.keskofiles.com/f/k-ruoka/product/5706779052480"
      }
    ],
    "section": "4418",
    "departmentId": "106",
    "contentUnit": "KG",
    "contentSize": 0.2,
    "netWeight": 0.2,
    "available": true,
    "isUtility": false,
    "preprocessedPricing": {
      "products": {},
      "simplePromotions": {},
      "basketPromotions": {}
    },
    "tosPricing": {
      "basketPromotions": []
    },
    "simplePricePlussa": false,
    "pricingUnit": "kpl",
    "referencePrice": {
      "_type": "Big",
      "value": "14.95"
    },
    "visiblePrice": {
      "_type": "Big",
      "value": "2.99"
    },
    "visiblePriceUnit": "kpl",
    "isDiscounted": false,
    "discountType": "PLUSSA",
    "batchSize": 2,
    "batchPrice": {
      "_type": "Big",
      "value": "5"
    }
  },
  {
    "ean": "6436501016709",
    "urlSlug": "sallinen-banaanilastu-800g-6436501016709",
    "name": "Sallinen banaanilastu 800g",
    "pictureUrls": [
      {
        "original": "https://public.keskofiles.com/f/k-ruoka/product/6436501016709"
      }
    ],
    "section": "4409",
    "departmentId": "106",
    "contentUnit": "KG",
    "contentSize": 0.8,
    "netWeight": 0.8,
    "available": true,
    "isUtility": false,
    "preprocessedPricing": {
      "products": {},
      "simplePromotions": {},
      "basketPromotions": {}
    },
    "tosPricing": {
      "basketPromotions": []
    },
    "simplePricePlussa": false,
    "pricingUnit": "kpl",
    "referencePrice": {
      "_type": "Big",
      "value": "7.1125"
    },
    "visiblePrice": {
      "_type": "Big",
      "value": "5.69"
    },
    "visiblePriceUnit": "kpl",
    "isDiscounted": false
  },
  {
    "ean": "7312630805201",
    "urlSlug": "risenta-mantelijauho-300g-7312630805201",
    "name": "Risenta Mantelijauho 300g",
    "pictureUrls": [
      {
        "original": "https://public.keskofiles.com/f/k-ruoka/product/7312630805201"
      }
    ],
    "section": "3009",
    "departmentId": "106",
    "contentUnit": "KG",
    "contentSize": 0.3,
    "netWeight": 0.3,
    "available": true,
    "isUtility": false,
    "preprocessedPricing": {
      "products": {},
      "simplePromotions": {},
      "basketPromotions": {}
    },
    "tosPricing": {
      "basketPromotions": []
    },
    "simplePricePlussa": false,
    "pricingUnit": "kpl",
    "referencePrice": {
      "_type": "Big",
      "value": "25.83333333333333333333"
    },
    "visiblePrice": {
      "_type": "Big",
      "value": "7.75"
    },
    "visiblePriceUnit": "kpl",
    "isDiscounted": false
  },
  {
    "ean": "6414200125007",
    "urlSlug": "ala-meira-anis-kok-25g-pussi-6414200125007",
    "name": "Meira Anis 25g kokonainen ps mauste",
    "pictureUrls": [
      {
        "original": "https://public.keskofiles.com/f/k-ruoka/product/6414200125007"
      }
    ],
    "section": "4100",
    "departmentId": "106",
    "contentUnit": "KG",
    "contentSize": 0.025,
    "netWeight": 0.025,
    "available": true,
    "isUtility": false,
    "preprocessedPricing": {
      "products": {},
      "simplePromotions": {},
      "basketPromotions": {}
    },
    "tosPricing": {
      "basketPromotions": []
    },
    "simplePricePlussa": false,
    "pricingUnit": "kpl",
    "referencePrice": {
      "_type": "Big",
      "value": "44"
    },
    "visiblePrice": {
      "_type": "Big",
      "value": "1.1"
    },
    "visiblePriceUnit": "kpl",
    "isDiscounted": false
  },
  {
    "ean": "6410405134240",
    "urlSlug": "pirkka-majoneesi-270ml-chili-6410405134240",
    "name": "Pirkka chilimajoneesi 270ml",
    "pictureUrls": [
      {
        "original": "https://public.keskofiles.com/f/k-ruoka/product/6410405134240"
      }
    ],
    "section": "4173",
    "departmentId": "106",
    "contentUnit": "L",
    "contentSize": 0.27,
    "netWeight": 0.275,
    "available": true,
    "isUtility": false,
    "preprocessedPricing": {
      "products": {},
      "simplePromotions": {},
      "basketPromotions": {}
    },
    "tosPricing": {
      "basketPromotions": []
    },
    "simplePricePlussa": false,
    "pricingUnit": "kpl",
    "referencePrice": {
      "_type": "Big",
      "value": "7.37037037037037037037"
    },
    "visiblePrice": {
      "_type": "Big",
      "value": "1.99"
    },
    "visiblePriceUnit": "kpl",
    "isDiscounted": false
  },
  {
    "ean": "6430039220942",
    "urlSlug": "puhdistamo-snack-marjainen-40g-6430039220942",
    "name": "Puhdistamo Snack marjainen 40g",
    "pictureUrls": [
      {
        "original": "https://public.keskofiles.com/f/k-ruoka/product/6430039220942"
      }
    ],
    "section": "4419",
    "departmentId": "106",
    "contentUnit": "KG",
    "contentSize": 0.04,
    "netWeight": 0.043,
    "available": true,
    "isUtility": false,
    "preprocessedPricing": {
      "products": {},
      "simplePromotions": {},
      "basketPromotions": {}
    },
    "tosPricing": {
      "basketPromotions": []
    },
    "simplePricePlussa": false,
    "pricingUnit": "kpl",
    "referencePrice": {
      "_type": "Big",
      "value": "48.75"
    },
    "visiblePrice": {
      "_type": "Big",
      "value": "1.95"
    },
    "visiblePriceUnit": "kpl",
    "isDiscounted": false
  },
  {
    "ean": "6414000020021",
    "urlSlug": "siro-erikoishieno-sokeri-1kg-6414000020021",
    "name": "Dansukker Siro erikoishieno sokeri 1 kg",
    "pictureUrls": [
      {
        "original": "https://public.keskofiles.com/f/k-ruoka/product/6414000020021"
      }
    ],
    "section": "3601",
    "departmentId": "106",
    "contentUnit": "KG",
    "contentSize": 1,
    "netWeight": 1,
    "available": true,
    "isUtility": false,
    "preprocessedPricing": {
      "products": {},
      "simplePromotions": {},
      "basketPromotions": {}
    },
    "tosPricing": {
      "basketPromotions": []
    },
    "simplePricePlussa": false,
    "pricingUnit": "kpl",
    "referencePrice": {
      "_type": "Big",
      "value": "1.35"
    },
    "visiblePrice": {
      "_type": "Big",
      "value": "1.35"
    },
    "visiblePriceUnit": "kpl",
    "isDiscounted": false
  },
  {
    "ean": "5701073061176",
    "urlSlug": "dr-oetker-koristerakeet-40g-hearts-5701073061176",
    "name": "Dr.Oetker koristerakeet 40g hearts",
    "pictureUrls": [
      {
        "original": "https://public.keskofiles.com/f/k-ruoka/product/5701073061176"
      }
    ],
    "section": "4113",
    "departmentId": "106",
    "contentUnit": "KG",
    "contentSize": 0.04,
    "netWeight": 0.04,
    "available": true,
    "isUtility": false,
    "preprocessedPricing": {
      "products": {},
      "simplePromotions": {},
      "basketPromotions": {}
    },
    "tosPricing": {
      "basketPromotions": []
    },
    "simplePricePlussa": false,
    "pricingUnit": "kpl",
    "referencePrice": {
      "_type": "Big",
      "value": "38.75"
    },
    "visiblePrice": {
      "_type": "Big",
      "value": "1.55"
    },
    "visiblePriceUnit": "kpl",
    "isDiscounted": false
  },
  {
    "ean": "7312631101043",
    "urlSlug": "risenta-maissijauho-400g-7312631101043",
    "name": "Risenta Maissijauho 400g",
    "pictureUrls": [
      {
        "original": "https://public.keskofiles.com/f/k-ruoka/product/7312631101043"
      }
    ],
    "section": "3009",
    "departmentId": "106",
    "contentUnit": "KG",
    "contentSize": 0.4,
    "netWeight": 0.4,
    "available": true,
    "isUtility": false,
    "preprocessedPricing": {
      "products": {},
      "simplePromotions": {},
      "basketPromotions": {}
    },
    "tosPricing": {
      "basketPromotions": []
    },
    "simplePricePlussa": false,
    "pricingUnit": "kpl",
    "referencePrice": {
      "_type": "Big",
      "value": "4.125"
    },
    "visiblePrice": {
      "_type": "Big",
      "value": "1.65"
    },
    "visiblePriceUnit": "kpl",
    "isDiscounted": false
  },
  {
    "ean": "7311310015756",
    "urlSlug": "santa-maria-timjami-16g-luomu-7311310015756",
    "name": "Santa Maria Timjami 16g Luomu",
    "pictureUrls": [
      {
        "original": "https://public.keskofiles.com/f/k-ruoka/product/7311310015756"
      }
    ],
    "section": "4102",
    "departmentId": "106",
    "contentUnit": "KG",
    "contentSize": 0.016,
    "netWeight": 0.016,
    "available": true,
    "isUtility": false,
    "preprocessedPricing": {
      "products": {},
      "simplePromotions": {},
      "basketPromotions": {}
    },
    "tosPricing": {
      "basketPromotions": []
    },
    "simplePricePlussa": false,
    "pricingUnit": "kpl",
    "referencePrice": {
      "_type": "Big",
      "value": "149.375"
    },
    "visiblePrice": {
      "_type": "Big",
      "value": "2.39"
    },
    "visiblePriceUnit": "kpl",
    "isDiscounted": false
  },
  {
    "ean": "6436501005918",
    "urlSlug": "sallinen-peruna-vihannesmauste-620g-6436501005918",
    "name": "Sallinen peruna-vihannesmauste 620g",
    "pictureUrls": [
      {
        "original": "https://public.keskofiles.com/f/k-ruoka/product/6436501005918"
      }
    ],
    "section": "4103",
    "departmentId": "106",
    "contentUnit": "KG",
    "contentSize": 0.62,
    "netWeight": 0.62,
    "available": true,
    "isUtility": false,
    "preprocessedPricing": {
      "products": {},
      "simplePromotions": {},
      "basketPromotions": {}
    },
    "tosPricing": {
      "basketPromotions": []
    },
    "simplePricePlussa": false,
    "pricingUnit": "kpl",
    "referencePrice": {
      "_type": "Big",
      "value": "8.3870967741935483871"
    },
    "visiblePrice": {
      "_type": "Big",
      "value": "5.2"
    },
    "visiblePriceUnit": "kpl",
    "isDiscounted": false
  },
  {
    "ean": "7311311004445",
    "urlSlug": "santa-maria-mustapippuri-kokonainen-22g-7311311004445",
    "name": "Santa Maria mustapippuri kokonainen 22g",
    "pictureUrls": [
      {
        "original": "https://public.keskofiles.com/f/k-ruoka/product/7311311004445"
      }
    ],
    "section": "4100",
    "departmentId": "106",
    "contentUnit": "KG",
    "contentSize": 0.022,
    "netWeight": 0.022,
    "available": true,
    "isUtility": false,
    "preprocessedPricing": {
      "products": {},
      "simplePromotions": {},
      "basketPromotions": {}
    },
    "tosPricing": {
      "basketPromotions": []
    },
    "simplePricePlussa": false,
    "pricingUnit": "kpl",
    "referencePrice": {
      "_type": "Big",
      "value": "45"
    },
    "visiblePrice": {
      "_type": "Big",
      "value": "0.99"
    },
    "visiblePriceUnit": "kpl",
    "isDiscounted": false
  },
  {
    "ean": "7310240203080",
    "urlSlug": "felix-kevyt-majoneesi-175g-rasvaa-30-7310240203080",
    "name": "Felix kevyt majoneesi, rasvaa 30% 175g",
    "pictureUrls": [
      {
        "original": "https://public.keskofiles.com/f/k-ruoka/product/7310240203080"
      }
    ],
    "section": "4173",
    "departmentId": "106",
    "contentUnit": "KG",
    "contentSize": 0.175,
    "netWeight": 0.175,
    "available": true,
    "isUtility": false,
    "preprocessedPricing": {
      "products": {},
      "simplePromotions": {},
      "basketPromotions": {}
    },
    "tosPricing": {
      "basketPromotions": []
    },
    "simplePricePlussa": false,
    "pricingUnit": "kpl",
    "referencePrice": {
      "_type": "Big",
      "value": "9.65714285714285714286"
    },
    "visiblePrice": {
      "_type": "Big",
      "value": "1.69"
    },
    "visiblePriceUnit": "kpl",
    "isDiscounted": false
  },
  {
    "ean": "6408430840618",
    "urlSlug": "valio-laktoositon-kevyt-maitoj-insta400g-6408430840618",
    "name": "Valio laktoositon kevyt maitojauhe instant 400 g",
    "pictureUrls": [
      {
        "original": "https://public.keskofiles.com/f/k-ruoka/product/6408430840618"
      }
    ],
    "section": "4030",
    "departmentId": "106",
    "contentUnit": "KG",
    "contentSize": 0.4,
    "netWeight": 0.4,
    "available": true,
    "isUtility": false,
    "preprocessedPricing": {
      "products": {},
      "simplePromotions": {},
      "basketPromotions": {}
    },
    "tosPricing": {
      "basketPromotions": []
    },
    "simplePricePlussa": false,
    "pricingUnit": "kpl",
    "referencePrice": {
      "_type": "Big",
      "value": "19.625"
    },
    "visiblePrice": {
      "_type": "Big",
      "value": "7.85"
    },
    "visiblePriceUnit": "kpl",
    "isDiscounted": false
  },
  {
    "ean": "8588000086856",
    "urlSlug": "dansukker-sticks-220g-ruokosokeri-8588000086856",
    "name": "Dansukker 220g Sticks Ruokosokeri",
    "pictureUrls": [
      {
        "original": "https://public.keskofiles.com/f/k-ruoka/product/8588000086856"
      }
    ],
    "section": "3602",
    "departmentId": "106",
    "contentUnit": "KG",
    "contentSize": 0.22,
    "netWeight": 0.22,
    "available": true,
    "isUtility": false,
    "preprocessedPricing": {
      "products": {},
      "simplePromotions": {},
      "basketPromotions": {}
    },
    "tosPricing": {
      "basketPromotions": []
    },
    "simplePricePlussa": false,
    "pricingUnit": "kpl",
    "referencePrice": {
      "_type": "Big",
      "value": "9.77272727272727272727"
    },
    "visiblePrice": {
      "_type": "Big",
      "value": "2.15"
    },
    "visiblePriceUnit": "kpl",
    "isDiscounted": false
  },
  {
    "ean": "6430037690044",
    "urlSlug": "himalajan-hieno-kristallisuola-500g-6430037690044",
    "name": "Himalajan hieno kristallisuola 500g",
    "pictureUrls": [
      {
        "original": "https://public.keskofiles.com/f/k-ruoka/product/6430037690044"
      }
    ],
    "section": "4153",
    "departmentId": "106",
    "contentUnit": "KG",
    "contentSize": 0.5,
    "netWeight": 0.5,
    "available": true,
    "isUtility": false,
    "preprocessedPricing": {
      "products": {},
      "simplePromotions": {},
      "basketPromotions": {}
    },
    "tosPricing": {
      "basketPromotions": []
    },
    "simplePricePlussa": false,
    "pricingUnit": "kpl",
    "referencePrice": {
      "_type": "Big",
      "value": "8.3"
    },
    "visiblePrice": {
      "_type": "Big",
      "value": "4.15"
    },
    "visiblePriceUnit": "kpl",
    "isDiscounted": false
  },
  {
    "ean": "7311311015656",
    "urlSlug": "santa-maria-rosepippuri-21g-kokonainen-7311311015656",
    "name": "Santa Maria rosepippuri 21g kokonainen",
    "pictureUrls": [
      {
        "original": "https://public.keskofiles.com/f/k-ruoka/product/7311311015656"
      }
    ],
    "section": "4102",
    "departmentId": "106",
    "contentUnit": "KG",
    "contentSize": 0.021,
    "netWeight": 0.021,
    "available": true,
    "isUtility": false,
    "preprocessedPricing": {
      "products": {},
      "simplePromotions": {},
      "basketPromotions": {}
    },
    "tosPricing": {
      "basketPromotions": []
    },
    "simplePricePlussa": false,
    "pricingUnit": "kpl",
    "referencePrice": {
      "_type": "Big",
      "value": "78.57142857142857142857"
    },
    "visiblePrice": {
      "_type": "Big",
      "value": "1.65"
    },
    "visiblePriceUnit": "kpl",
    "isDiscounted": false
  },
  {
    "ean": "5712840020012",
    "urlSlug": "rawbite-hedelmapatukka-50g-cashew-luomu-5712840020012",
    "name": "Rawbite 50g Cashew Pähkinäpatukka",
    "pictureUrls": [
      {
        "original": "https://public.keskofiles.com/f/k-ruoka/product/5712840020012"
      }
    ],
    "section": "4419",
    "departmentId": "106",
    "contentUnit": "KG",
    "contentSize": 0.05,
    "netWeight": 0.05,
    "available": true,
    "isUtility": false,
    "preprocessedPricing": {
      "products": {},
      "simplePromotions": {},
      "basketPromotions": {}
    },
    "tosPricing": {
      "basketPromotions": []
    },
    "simplePricePlussa": false,
    "pricingUnit": "kpl",
    "referencePrice": {
      "_type": "Big",
      "value": "49.8"
    },
    "visiblePrice": {
      "_type": "Big",
      "value": "2.49"
    },
    "visiblePriceUnit": "kpl",
    "isDiscounted": false
  },
  {
    "ean": "6410405054753",
    "urlSlug": "pirkka-mansikkahillo-700g-6410405054753",
    "name": "Pirkka mansikkahillo 700 g",
    "pictureUrls": [
      {
        "original": "https://public.keskofiles.com/f/k-ruoka/product/6410405054753"
      }
    ],
    "section": "3200",
    "departmentId": "106",
    "contentUnit": "KG",
    "contentSize": 0.7,
    "netWeight": 0.7,
    "available": true,
    "isUtility": false,
    "preprocessedPricing": {
      "products": {},
      "simplePromotions": {},
      "basketPromotions": {}
    },
    "tosPricing": {
      "basketPromotions": []
    },
    "simplePricePlussa": false,
    "pricingUnit": "kpl",
    "referencePrice": {
      "_type": "Big",
      "value": "4.12857142857142857143"
    },
    "visiblePrice": {
      "_type": "Big",
      "value": "2.89"
    },
    "visiblePriceUnit": "kpl",
    "isDiscounted": false
  },
  {
    "ean": "5201671001548",
    "urlSlug": "gaea-neitsytoliivioljy-500ml-luomu-5201671001548",
    "name": "Gaea extra virgin oliiviöljy 500ml luomu",
    "pictureUrls": [
      {
        "original": "https://public.keskofiles.com/f/k-ruoka/product/5201671001548"
      }
    ],
    "section": "4120",
    "departmentId": "106",
    "contentUnit": "L",
    "contentSize": 0.5,
    "netWeight": 0.458,
    "available": true,
    "isUtility": false,
    "preprocessedPricing": {
      "products": {},
      "simplePromotions": {},
      "basketPromotions": {}
    },
    "tosPricing": {
      "basketPromotions": []
    },
    "simplePricePlussa": false,
    "pricingUnit": "kpl",
    "referencePrice": {
      "_type": "Big",
      "value": "19.98"
    },
    "visiblePrice": {
      "_type": "Big",
      "value": "9.99"
    },
    "visiblePriceUnit": "kpl",
    "isDiscounted": false
  },
  {
    "ean": "7311311004506",
    "urlSlug": "santa-maria-valkopippuri-jauhettu-22g-7311311004506",
    "name": "Santa Maria valkopippuri jauhettu 22g",
    "pictureUrls": [
      {
        "original": "https://public.keskofiles.com/f/k-ruoka/product/7311311004506"
      }
    ],
    "section": "4100",
    "departmentId": "106",
    "contentUnit": "KG",
    "contentSize": 0.022,
    "netWeight": 0.022,
    "available": true,
    "isUtility": false,
    "preprocessedPricing": {
      "products": {},
      "simplePromotions": {},
      "basketPromotions": {}
    },
    "tosPricing": {
      "basketPromotions": []
    },
    "simplePricePlussa": false,
    "pricingUnit": "kpl",
    "referencePrice": {
      "_type": "Big",
      "value": "70.45454545454545454545"
    },
    "visiblePrice": {
      "_type": "Big",
      "value": "1.55"
    },
    "visiblePriceUnit": "kpl",
    "isDiscounted": false
  },
  {
    "ean": "6414203311490",
    "urlSlug": "meira-mantelilastu-160g-6414203311490",
    "name": "Meira Mantelilastu 160g",
    "pictureUrls": [
      {
        "original": "https://public.keskofiles.com/f/k-ruoka/product/6414203311490"
      }
    ],
    "section": "4410",
    "departmentId": "106",
    "contentUnit": "KG",
    "contentSize": 0.16,
    "netWeight": 0.16,
    "available": true,
    "isUtility": false,
    "preprocessedPricing": {
      "products": {},
      "simplePromotions": {},
      "basketPromotions": {}
    },
    "tosPricing": {
      "basketPromotions": []
    },
    "simplePricePlussa": false,
    "pricingUnit": "kpl",
    "referencePrice": {
      "_type": "Big",
      "value": "28.0625"
    },
    "visiblePrice": {
      "_type": "Big",
      "value": "4.49"
    },
    "visiblePriceUnit": "kpl",
    "isDiscounted": false
  },
  {
    "ean": "6418130020104",
    "urlSlug": "keskisen-myllyn-tattarijauho-1kg-6418130020104",
    "name": "Keskisen mylly tattarijauho 1kg",
    "pictureUrls": [
      {
        "original": "https://public.keskofiles.com/f/k-ruoka/product/6418130020104"
      }
    ],
    "section": "3009",
    "departmentId": "106",
    "contentUnit": "KG",
    "contentSize": 1,
    "netWeight": 1,
    "available": true,
    "isUtility": false,
    "preprocessedPricing": {
      "products": {},
      "simplePromotions": {},
      "basketPromotions": {}
    },
    "tosPricing": {
      "basketPromotions": []
    },
    "simplePricePlussa": false,
    "pricingUnit": "kpl",
    "referencePrice": {
      "_type": "Big",
      "value": "5.69"
    },
    "visiblePrice": {
      "_type": "Big",
      "value": "5.69"
    },
    "visiblePriceUnit": "kpl",
    "isDiscounted": false
  },
  {
    "ean": "6410840073005",
    "urlSlug": "herkkumaa-gourmet-mansikkahillo-460g-6410840073005",
    "name": "Herkkumaa Gourmet mansikkahillo 460g",
    "pictureUrls": [
      {
        "original": "https://public.keskofiles.com/f/k-ruoka/product/6410840073005"
      }
    ],
    "section": "3200",
    "departmentId": "106",
    "contentUnit": "KG",
    "contentSize": 0.46,
    "netWeight": 0.46,
    "available": true,
    "isUtility": false,
    "preprocessedPricing": {
      "products": {},
      "simplePromotions": {},
      "basketPromotions": {}
    },
    "tosPricing": {
      "basketPromotions": []
    },
    "simplePricePlussa": false,
    "pricingUnit": "kpl",
    "referencePrice": {
      "_type": "Big",
      "value": "6.93478260869565217391"
    },
    "visiblePrice": {
      "_type": "Big",
      "value": "3.19"
    },
    "visiblePriceUnit": "kpl",
    "isDiscounted": false
  },
  {
    "ean": "6414201100430",
    "urlSlug": "meira-broilerimauste-44g-ston-6414201100430",
    "name": "Meira Broilerimauste 44g ston",
    "pictureUrls": [
      {
        "original": "https://public.keskofiles.com/f/k-ruoka/product/6414201100430"
      }
    ],
    "section": "4102",
    "departmentId": "106",
    "contentUnit": "KG",
    "contentSize": 0.044,
    "netWeight": 0.044,
    "available": true,
    "isUtility": false,
    "preprocessedPricing": {
      "products": {},
      "simplePromotions": {},
      "basketPromotions": {}
    },
    "tosPricing": {
      "basketPromotions": []
    },
    "simplePricePlussa": false,
    "pricingUnit": "kpl",
    "referencePrice": {
      "_type": "Big",
      "value": "52.04545454545454545455"
    },
    "visiblePrice": {
      "_type": "Big",
      "value": "2.29"
    },
    "visiblePriceUnit": "kpl",
    "isDiscounted": false
  },
  {
    "ean": "6411401012884",
    "urlSlug": "fazer-taloussuklaarouhe-120g-6411401012884",
    "name": "Fazer Taloussuklaarouhe 120g",
    "pictureUrls": [
      {
        "original": "https://public.keskofiles.com/f/k-ruoka/product/6411401012884"
      }
    ],
    "section": "4112",
    "departmentId": "106",
    "contentUnit": "KG",
    "contentSize": 0.12,
    "netWeight": 0.12,
    "available": true,
    "isUtility": false,
    "preprocessedPricing": {
      "products": {},
      "simplePromotions": {},
      "basketPromotions": {}
    },
    "tosPricing": {
      "basketPromotions": []
    },
    "simplePricePlussa": false,
    "pricingUnit": "kpl",
    "referencePrice": {
      "_type": "Big",
      "value": "25.75"
    },
    "visiblePrice": {
      "_type": "Big",
      "value": "3.09"
    },
    "visiblePriceUnit": "kpl",
    "isDiscounted": false
  },
  {
    "ean": "6414203311384",
    "urlSlug": "meira-manteli-300g-kuorittu-6414203311384",
    "name": "Meira manteli 300g kuorittu",
    "pictureUrls": [
      {
        "original": "https://public.keskofiles.com/f/k-ruoka/product/6414203311384"
      }
    ],
    "section": "4410",
    "departmentId": "106",
    "contentUnit": "KG",
    "contentSize": 0.3,
    "netWeight": 0.3,
    "available": true,
    "isUtility": false,
    "preprocessedPricing": {
      "products": {},
      "simplePromotions": {},
      "basketPromotions": {}
    },
    "tosPricing": {
      "basketPromotions": []
    },
    "simplePricePlussa": false,
    "pricingUnit": "kpl",
    "referencePrice": {
      "_type": "Big",
      "value": "24.16666666666666666667"
    },
    "visiblePrice": {
      "_type": "Big",
      "value": "7.25"
    },
    "visiblePriceUnit": "kpl",
    "isDiscounted": false
  },
  {
    "ean": "5765228880340",
    "urlSlug": "urtekram-ceylon-kaneliaito-20g--luomu-5765228880340",
    "name": "Urtekram ceylon kaneli(aito) 20g  luomu",
    "pictureUrls": [
      {
        "original": "https://public.keskofiles.com/f/k-ruoka/product/5765228880340"
      }
    ],
    "section": "4102",
    "departmentId": "106",
    "contentUnit": "KG",
    "contentSize": 0.02,
    "netWeight": 0.02,
    "available": true,
    "isUtility": false,
    "preprocessedPricing": {
      "products": {},
      "simplePromotions": {},
      "basketPromotions": {}
    },
    "tosPricing": {
      "basketPromotions": []
    },
    "simplePricePlussa": false,
    "pricingUnit": "kpl",
    "referencePrice": {
      "_type": "Big",
      "value": "99.5"
    },
    "visiblePrice": {
      "_type": "Big",
      "value": "1.99"
    },
    "visiblePriceUnit": "kpl",
    "isDiscounted": false
  }
]