[
  {
    "ean": "6407860065295",
    "urlSlug": "atria-coleslaw-salaatti-300g-6407860065295",
    "name": "Atria coleslaw salaatti 300g",
    "pictureUrls": [
      {
        "original": "https://public.keskofiles.com/f/k-ruoka/product/6407860065295"
      }
    ],
    "section": "1316",
    "departmentId": "103",
    "contentUnit": "KG",
    "contentSize": 0.3,
    "netWeight": 0.3,
    "available": true,
    "isUtility": false,
    "preprocessedPricing": {
      "products": {},
      "simplePromotions": {},
      "basketPromotions": {}
    },
    "tosPricing": {
      "basketPromotions": []
    },
    "simplePricePlussa": false,
    "pricingUnit": "kpl",
    "referencePrice": {
      "_type": "Big",
      "value": "6.16666666666666666667"
    },
    "visiblePrice": {
      "_type": "Big",
      "value": "1.85"
    },
    "visiblePriceUnit": "kpl",
    "isDiscounted": false
  },
  {
    "ean": "6411630315381",
    "urlSlug": "nanso-liina-33cm-20kpl-jalo-kultaharmaa-6411630315381",
    "name": "Nanso lautasliina 33cm 20kpl Jalo kultaharmaa",
    "pictureUrls": [
      {
        "original": "https://public.keskofiles.com/f/k-ruoka/product/6411630315381"
      }
    ],
    "section": "6201",
    "departmentId": "111",
    "contentUnit": "KPL",
    "contentSize": 20,
    "netWeight": 0.108,
    "available": true,
    "isUtility": false,
    "preprocessedPricing": {
      "products": {},
      "simplePromotions": {},
      "basketPromotions": {}
    },
    "tosPricing": {
      "basketPromotions": []
    },
    "simplePricePlussa": false,
    "pricingUnit": "kpl",
    "referencePrice": {
      "_type": "Big",
      "value": "0.0995"
    },
    "visiblePrice": {
      "_type": "Big",
      "value": "1.99"
    },
    "visiblePriceUnit": "kpl",
    "isDiscounted": false
  },
  {
    "ean": "6411630700224",
    "urlSlug": "havi-8kpl20cm-pun-kruunukyntt-7h-6411630700224",
    "name": "Havi 8kpl/20cm pun Kruunukyntt 7h",
    "pictureUrls": [
      {
        "original": "https://public.keskofiles.com/f/k-ruoka/product/6411630700224"
      }
    ],
    "section": "6220",
    "departmentId": "111",
    "contentUnit": "KPL",
    "contentSize": 8,
    "netWeight": 0.59,
    "available": true,
    "isUtility": false,
    "preprocessedPricing": {
      "products": {},
      "simplePromotions": {},
      "basketPromotions": {}
    },
    "tosPricing": {
      "basketPromotions": []
    },
    "simplePricePlussa": false,
    "pricingUnit": "kpl",
    "referencePrice": {
      "_type": "Big",
      "value": "0.59875"
    },
    "visiblePrice": {
      "_type": "Big",
      "value": "4.79"
    },
    "visiblePriceUnit": "kpl",
    "isDiscounted": false
  },
  {
    "ean": "6410405050236",
    "urlSlug": "pirkka-antiikkikynttila-10kpl-valkoinen-6410405050236",
    "name": "Pirkka antiikkikynttilä 10kpl valkoinen",
    "pictureUrls": [
      {
        "original": "https://public.keskofiles.com/f/k-ruoka/product/6410405050236"
      }
    ],
    "section": "6221",
    "departmentId": "111",
    "contentUnit": "KPL",
    "contentSize": 10,
    "netWeight": 0.51,
    "available": true,
    "isUtility": false,
    "preprocessedPricing": {
      "products": {},
      "simplePromotions": {},
      "basketPromotions": {}
    },
    "tosPricing": {
      "basketPromotions": []
    },
    "simplePricePlussa": false,
    "pricingUnit": "kpl",
    "referencePrice": {
      "_type": "Big",
      "value": "0.295"
    },
    "visiblePrice": {
      "_type": "Big",
      "value": "2.95"
    },
    "visiblePriceUnit": "kpl",
    "isDiscounted": false
  },
  {
    "ean": "6408430033140",
    "urlSlug": "aura-gold-sinihomejuusto-125g-6408430033140",
    "name": "Aura Gold sinihomejuusto 125g",
    "pictureUrls": [
      {
        "original": "https://public.keskofiles.com/f/k-ruoka/product/6408430033140"
      }
    ],
    "section": "2430",
    "departmentId": "104",
    "contentUnit": "KG",
    "contentSize": 0.125,
    "netWeight": 0.125,
    "available": true,
    "isUtility": false,
    "preprocessedPricing": {
      "products": {},
      "simplePromotions": {},
      "basketPromotions": {}
    },
    "tosPricing": {
      "basketPromotions": []
    },
    "simplePricePlussa": false,
    "pricingUnit": "kpl",
    "referencePrice": {
      "_type": "Big",
      "value": "35.12"
    },
    "visiblePrice": {
      "_type": "Big",
      "value": "4.39"
    },
    "visiblePriceUnit": "kpl",
    "isDiscounted": false
  },
  {
    "ean": "5411281719331",
    "urlSlug": "duc-do-crunchy-biscuit-100-5411281719331",
    "name": "Duc d'O Crunchy Biscuit tryffeli 100g",
    "pictureUrls": [
      {
        "original": "https://public.keskofiles.com/f/k-ruoka/product/5411281719331"
      }
    ],
    "section": "4260",
    "departmentId": "109",
    "contentUnit": "KG",
    "contentSize": 0.1,
    "netWeight": 0.1,
    "available": true,
    "isUtility": false,
    "preprocessedPricing": {
      "products": {},
      "simplePromotions": {},
      "basketPromotions": {}
    },
    "tosPricing": {
      "basketPromotions": []
    },
    "simplePricePlussa": false,
    "pricingUnit": "kpl",
    "referencePrice": {
      "_type": "Big",
      "value": "49.5"
    },
    "visiblePrice": {
      "_type": "Big",
      "value": "4.95"
    },
    "visiblePriceUnit": "kpl",
    "isDiscounted": false
  },
  {
    "ean": "6416453071148",
    "urlSlug": "karl-fazer-270g-mustikkatryffeli-6416453071148",
    "name": "Karl Fazer 270g mustikkatryffeli",
    "pictureUrls": [
      {
        "original": "https://public.keskofiles.com/f/k-ruoka/product/6416453071148"
      }
    ],
    "section": "4264",
    "departmentId": "109",
    "contentUnit": "KG",
    "contentSize": 0.27,
    "netWeight": 0.27,
    "available": true,
    "isUtility": false,
    "preprocessedPricing": {
      "products": {},
      "simplePromotions": {},
      "basketPromotions": {}
    },
    "tosPricing": {
      "basketPromotions": []
    },
    "simplePricePlussa": false,
    "pricingUnit": "kpl",
    "referencePrice": {
      "_type": "Big",
      "value": "14.77777777777777777778"
    },
    "visiblePrice": {
      "_type": "Big",
      "value": "3.99"
    },
    "visiblePriceUnit": "kpl",
    "isDiscounted": false
  },
  {
    "ean": "6430039221208",
    "urlSlug": "puhdistamo-chlorella-jauhe-100-g-6430039221208",
    "name": "Puhdistamo Chlorella-jauhe 100 g",
    "pictureUrls": [
      {
        "original": "https://public.keskofiles.com/f/k-ruoka/product/6430039221208"
      }
    ],
    "section": "4406",
    "departmentId": "106",
    "contentUnit": "KG",
    "contentSize": 0.1,
    "netWeight": 0,
    "available": true,
    "isUtility": false,
    "preprocessedPricing": {
      "products": {},
      "simplePromotions": {},
      "basketPromotions": {}
    },
    "tosPricing": {
      "basketPromotions": []
    },
    "simplePricePlussa": false,
    "pricingUnit": "kpl",
    "referencePrice": {
      "_type": "Big",
      "value": "149.9"
    },
    "visiblePrice": {
      "_type": "Big",
      "value": "14.99"
    },
    "visiblePriceUnit": "kpl",
    "isDiscounted": false
  },
  {
    "ean": "6410405115416",
    "urlSlug": "pirkka-kuorellinen-manteli-100g-luomu-6410405115416",
    "name": "Pirkka Luomu kuorellinen manteli 100g",
    "pictureUrls": [
      {
        "original": "https://public.keskofiles.com/f/k-ruoka/product/6410405115416"
      }
    ],
    "section": "4410",
    "departmentId": "106",
    "contentUnit": "KG",
    "contentSize": 0.1,
    "netWeight": 0.1,
    "available": true,
    "isUtility": false,
    "preprocessedPricing": {
      "products": {},
      "simplePromotions": {},
      "basketPromotions": {}
    },
    "tosPricing": {
      "basketPromotions": []
    },
    "simplePricePlussa": false,
    "pricingUnit": "kpl",
    "referencePrice": {
      "_type": "Big",
      "value": "36.5"
    },
    "visiblePrice": {
      "_type": "Big",
      "value": "3.65"
    },
    "visiblePriceUnit": "kpl",
    "isDiscounted": false
  },
  {
    "ean": "6430051511639",
    "urlSlug": "barebar-40g-taateli-cashewpahkina-6430051511639",
    "name": "Barebar Natural Energy Bar 40g Taateli-Cashewpähkinä",
    "pictureUrls": [
      {
        "original": "https://public.keskofiles.com/f/k-ruoka/product/6430051511639"
      }
    ],
    "section": "4419",
    "departmentId": "106",
    "contentUnit": "KG",
    "contentSize": 0.04,
    "netWeight": 0.04,
    "available": true,
    "isUtility": false,
    "preprocessedPricing": {
      "products": {},
      "simplePromotions": {},
      "basketPromotions": {}
    },
    "tosPricing": {
      "basketPromotions": []
    },
    "simplePricePlussa": false,
    "pricingUnit": "kpl",
    "referencePrice": {
      "_type": "Big",
      "value": "36.25"
    },
    "visiblePrice": {
      "_type": "Big",
      "value": "1.45"
    },
    "visiblePriceUnit": "kpl",
    "isDiscounted": false
  },
  {
    "ean": "6410405127402",
    "urlSlug": "pirkka-pahkinasekoitus-175g-6410405127402",
    "name": "Pirkka pähkinäsekoitus 175g",
    "pictureUrls": [
      {
        "original": "https://public.keskofiles.com/f/k-ruoka/product/6410405127402"
      }
    ],
    "section": "4418",
    "departmentId": "106",
    "contentUnit": "KG",
    "contentSize": 0.175,
    "netWeight": 0.175,
    "available": true,
    "isUtility": false,
    "preprocessedPricing": {
      "products": {},
      "simplePromotions": {},
      "basketPromotions": {}
    },
    "tosPricing": {
      "basketPromotions": []
    },
    "simplePricePlussa": false,
    "pricingUnit": "kpl",
    "referencePrice": {
      "_type": "Big",
      "value": "21.08571428571428571429"
    },
    "visiblePrice": {
      "_type": "Big",
      "value": "3.69"
    },
    "visiblePriceUnit": "kpl",
    "isDiscounted": false
  },
  {
    "ean": "6406170036476",
    "urlSlug": "leroy-viip-kylmasavukirjolohif-80g-6406170036476",
    "name": "Lerøy viipaloitu kylmäsavustettu kirjolohifilee 80g",
    "pictureUrls": [
      {
        "original": "https://public.keskofiles.com/f/k-ruoka/product/6406170036476"
      }
    ],
    "section": "1121",
    "departmentId": "102",
    "contentUnit": "KG",
    "contentSize": 0.08,
    "netWeight": 0.08,
    "available": true,
    "isUtility": false,
    "preprocessedPricing": {
      "products": {},
      "simplePromotions": {},
      "basketPromotions": {}
    },
    "tosPricing": {
      "basketPromotions": []
    },
    "simplePricePlussa": false,
    "pricingUnit": "kpl",
    "referencePrice": {
      "_type": "Big",
      "value": "37.375"
    },
    "visiblePrice": {
      "_type": "Big",
      "value": "2.99"
    },
    "visiblePriceUnit": "kpl",
    "isDiscounted": false
  },
  {
    "ean": "7310510002566",
    "urlSlug": "paradis-rasia-500g-7310510002566",
    "name": "Marabou Paradis 500g",
    "pictureUrls": [
      {
        "original": "https://public.keskofiles.com/f/k-ruoka/product/7310510002566"
      }
    ],
    "section": "4260",
    "departmentId": "109",
    "contentUnit": "KG",
    "contentSize": 0.5,
    "netWeight": 0.5,
    "available": true,
    "isUtility": false,
    "preprocessedPricing": {
      "products": {},
      "simplePromotions": {},
      "basketPromotions": {}
    },
    "tosPricing": {
      "basketPromotions": []
    },
    "simplePricePlussa": false,
    "pricingUnit": "kpl",
    "referencePrice": {
      "_type": "Big",
      "value": "12.98"
    },
    "visiblePrice": {
      "_type": "Big",
      "value": "6.49"
    },
    "visiblePriceUnit": "kpl",
    "isDiscounted": false
  },
  {
    "ean": "7622210990303",
    "urlSlug": "marabou-suklaasydanrasia-180g-7622210990303",
    "name": "Marabou suklaasydänrasia 180g",
    "pictureUrls": [
      {
        "original": "https://public.keskofiles.com/f/k-ruoka/product/7622210990303"
      }
    ],
    "section": "4260",
    "departmentId": "109",
    "contentUnit": "KG",
    "contentSize": 0.18,
    "netWeight": 0.18,
    "available": true,
    "isUtility": false,
    "preprocessedPricing": {
      "products": {},
      "simplePromotions": {},
      "basketPromotions": {}
    },
    "tosPricing": {
      "basketPromotions": []
    },
    "simplePricePlussa": false,
    "pricingUnit": "kpl",
    "referencePrice": {
      "_type": "Big",
      "value": "24.38888888888888888889"
    },
    "visiblePrice": {
      "_type": "Big",
      "value": "4.39"
    },
    "visiblePriceUnit": "kpl",
    "isDiscounted": false
  },
  {
    "ean": "6412500005531",
    "urlSlug": "panda-likoorikonvehti-290g-lakka-6412500005531",
    "name": "Panda Lakka 290g suklaakonvehteja",
    "pictureUrls": [
      {
        "original": "https://public.keskofiles.com/f/k-ruoka/product/6412500005531"
      }
    ],
    "section": "4264",
    "departmentId": "109",
    "contentUnit": "KG",
    "contentSize": 0.29,
    "netWeight": 0.29,
    "available": true,
    "isUtility": false,
    "preprocessedPricing": {
      "products": {},
      "simplePromotions": {},
      "basketPromotions": {}
    },
    "tosPricing": {
      "basketPromotions": []
    },
    "simplePricePlussa": false,
    "pricingUnit": "kpl",
    "referencePrice": {
      "_type": "Big",
      "value": "13.75862068965517241379"
    },
    "visiblePrice": {
      "_type": "Big",
      "value": "3.99"
    },
    "visiblePriceUnit": "kpl",
    "isDiscounted": false,
    "discountType": "PLUSSA",
    "batchSize": 3,
    "batchPrice": {
      "_type": "Big",
      "value": "10"
    }
  },
  {
    "ean": "6436000092099",
    "urlSlug": "brunberg-talvisuukko-6kpl150g-puol-karp-6436000092099",
    "name": "Brunberg talvisuukko puolukka-karpalo 6kpl/150g",
    "pictureUrls": [],
    "section": "4269",
    "departmentId": "109",
    "contentUnit": "KG",
    "contentSize": 0.15,
    "netWeight": 0.15,
    "available": true,
    "isUtility": false,
    "preprocessedPricing": {
      "products": {},
      "simplePromotions": {},
      "basketPromotions": {}
    },
    "tosPricing": {
      "basketPromotions": []
    },
    "simplePricePlussa": false,
    "pricingUnit": "kpl",
    "referencePrice": {
      "_type": "Big",
      "value": "15.26666666666666666667"
    },
    "visiblePrice": {
      "_type": "Big",
      "value": "2.29"
    },
    "visiblePriceUnit": "kpl",
    "isDiscounted": false
  },
  {
    "ean": "6409535011064",
    "urlSlug": "auran-katamarja-sipuli-silli-235106gmsc-6409535011064",
    "name": "Auran Katajanmarja-sipuli silli 235/106g MSC",
    "pictureUrls": [
      {
        "original": "https://public.keskofiles.com/f/k-ruoka/product/6409535011064"
      }
    ],
    "section": "1182",
    "departmentId": "102",
    "contentUnit": "KG",
    "contentSize": 0.106,
    "netWeight": 0.235,
    "available": true,
    "isUtility": false,
    "preprocessedPricing": {
      "products": {},
      "simplePromotions": {},
      "basketPromotions": {}
    },
    "tosPricing": {
      "basketPromotions": []
    },
    "simplePricePlussa": false,
    "pricingUnit": "kpl",
    "referencePrice": {
      "_type": "Big",
      "value": "24.43396226415094339623"
    },
    "visiblePrice": {
      "_type": "Big",
      "value": "2.59"
    },
    "visiblePriceUnit": "kpl",
    "isDiscounted": false
  },
  {
    "ean": "6409100054540",
    "urlSlug": "hk-rypsiporsas-gourmet-juhlakinkku-400g-6409100054540",
    "name": "HK Rypsiporsas ® Gourmet Juhlakinkku 400g",
    "pictureUrls": [
      {
        "original": "https://public.keskofiles.com/f/k-ruoka/product/6409100054540"
      }
    ],
    "section": "1219",
    "departmentId": "102",
    "contentUnit": "KG",
    "contentSize": 0.4,
    "netWeight": 0.4,
    "available": true,
    "isUtility": false,
    "preprocessedPricing": {
      "products": {},
      "simplePromotions": {},
      "basketPromotions": {}
    },
    "tosPricing": {
      "basketPromotions": []
    },
    "simplePricePlussa": false,
    "pricingUnit": "kpl",
    "referencePrice": {
      "_type": "Big",
      "value": "15.475"
    },
    "visiblePrice": {
      "_type": "Big",
      "value": "6.19"
    },
    "visiblePriceUnit": "kpl",
    "isDiscounted": false
  },
  {
    "ean": "0041143020173",
    "urlSlug": "sun-maid-rusina-6x425g-0041143020173",
    "name": "Sun-Maid kivettömiä rusinoita 6x42,5g",
    "pictureUrls": [
      {
        "original": "https://public.keskofiles.com/f/k-ruoka/product/0041143020173"
      }
    ],
    "section": "4403",
    "departmentId": "106",
    "contentUnit": "KG",
    "contentSize": 0.255,
    "netWeight": 0.255,
    "available": true,
    "isUtility": false,
    "preprocessedPricing": {
      "products": {},
      "simplePromotions": {},
      "basketPromotions": {}
    },
    "tosPricing": {
      "basketPromotions": []
    },
    "simplePricePlussa": false,
    "pricingUnit": "kpl",
    "referencePrice": {
      "_type": "Big",
      "value": "13.92156862745098039216"
    },
    "visiblePrice": {
      "_type": "Big",
      "value": "3.55"
    },
    "visiblePriceUnit": "kpl",
    "isDiscounted": false
  },
  {
    "ean": "0041143027974",
    "urlSlug": "sun-maid-rusina-500g-0041143027974",
    "name": "Sun-Maid Kivettömiä rusinoita 500g",
    "pictureUrls": [
      {
        "original": "https://public.keskofiles.com/f/k-ruoka/product/0041143027974"
      }
    ],
    "section": "4403",
    "departmentId": "106",
    "contentUnit": "KG",
    "contentSize": 0.5,
    "netWeight": 0.5,
    "available": true,
    "isUtility": false,
    "preprocessedPricing": {
      "products": {},
      "simplePromotions": {},
      "basketPromotions": {}
    },
    "tosPricing": {
      "basketPromotions": []
    },
    "simplePricePlussa": false,
    "pricingUnit": "kpl",
    "referencePrice": {
      "_type": "Big",
      "value": "9.7"
    },
    "visiblePrice": {
      "_type": "Big",
      "value": "4.85"
    },
    "visiblePriceUnit": "kpl",
    "isDiscounted": false
  },
  {
    "ean": "0637793000940",
    "urlSlug": "mackays-marmeladi-340g-appels-sitr-inkiv-0637793000940",
    "name": "Mackays Appelsiini-sitruuna-inkivääri marmeladi 340g",
    "pictureUrls": [
      {
        "original": "https://public.keskofiles.com/f/k-ruoka/product/0637793000940"
      }
    ],
    "section": "3204",
    "departmentId": "106",
    "contentUnit": "KG",
    "contentSize": 0.34,
    "netWeight": 0.34,
    "available": true,
    "isUtility": false,
    "preprocessedPricing": {
      "products": {},
      "simplePromotions": {},
      "basketPromotions": {}
    },
    "tosPricing": {
      "basketPromotions": []
    },
    "simplePricePlussa": false,
    "pricingUnit": "kpl",
    "referencePrice": {
      "_type": "Big",
      "value": "8.38235294117647058824"
    },
    "visiblePrice": {
      "_type": "Big",
      "value": "2.85"
    },
    "visiblePriceUnit": "kpl",
    "isDiscounted": false
  },
  {
    "ean": "0637793000957",
    "urlSlug": "mackays-marmeladi-340g-appelsiini-whisky-0637793000957",
    "name": "Mackays Appelsiini-whiskymarmeladi 340g",
    "pictureUrls": [
      {
        "original": "https://public.keskofiles.com/f/k-ruoka/product/0637793000957"
      }
    ],
    "section": "3204",
    "departmentId": "106",
    "contentUnit": "KG",
    "contentSize": 0.34,
    "netWeight": 0.34,
    "available": true,
    "isUtility": false,
    "preprocessedPricing": {
      "products": {},
      "simplePromotions": {},
      "basketPromotions": {}
    },
    "tosPricing": {
      "basketPromotions": []
    },
    "simplePricePlussa": false,
    "pricingUnit": "kpl",
    "referencePrice": {
      "_type": "Big",
      "value": "10.55882352941176470588"
    },
    "visiblePrice": {
      "_type": "Big",
      "value": "3.59"
    },
    "visiblePriceUnit": "kpl",
    "isDiscounted": false
  },
  {
    "ean": "0000064001531",
    "urlSlug": "vesta-matjesilli-310210g-msc-0000064001531",
    "name": "Vesta matjes silliä  310/210g MSC",
    "pictureUrls": [
      {
        "original": "https://public.keskofiles.com/f/k-ruoka/product/0000064001531"
      }
    ],
    "section": "1182",
    "departmentId": "102",
    "contentUnit": "KG",
    "contentSize": 0.21,
    "netWeight": 0.21,
    "available": true,
    "isUtility": false,
    "preprocessedPricing": {
      "products": {},
      "simplePromotions": {},
      "basketPromotions": {}
    },
    "tosPricing": {
      "basketPromotions": []
    },
    "simplePricePlussa": false,
    "pricingUnit": "kpl",
    "referencePrice": {
      "_type": "Big",
      "value": "28.52380952380952380952"
    },
    "visiblePrice": {
      "_type": "Big",
      "value": "5.99"
    },
    "visiblePriceUnit": "kpl",
    "isDiscounted": false
  },
  {
    "ean": "0000064001555",
    "urlSlug": "vesta-tillisilli-160100g-msc-0000064001555",
    "name": "Vesta tillisilli 160/100g MSC",
    "pictureUrls": [
      {
        "original": "https://public.keskofiles.com/f/k-ruoka/product/0000064001555"
      }
    ],
    "section": "1182",
    "departmentId": "102",
    "contentUnit": "KG",
    "contentSize": 0.1,
    "netWeight": 0.1,
    "available": true,
    "isUtility": false,
    "preprocessedPricing": {
      "products": {},
      "simplePromotions": {},
      "basketPromotions": {}
    },
    "tosPricing": {
      "basketPromotions": []
    },
    "simplePricePlussa": false,
    "pricingUnit": "kpl",
    "referencePrice": {
      "_type": "Big",
      "value": "35.5"
    },
    "visiblePrice": {
      "_type": "Big",
      "value": "3.55"
    },
    "visiblePriceUnit": "kpl",
    "isDiscounted": false
  },
  {
    "ean": "6436501042739",
    "urlSlug": "sallinen-rusina-50g-6436501042739-n106",
    "name": "Sallinen Rusina 50g",
    "storeId": "N106",
    "pictureUrls": [
      {
        "original": "https://public.keskofiles.com/f/k-ruoka/N106/product/6436501042739"
      }
    ],
    "section": "4403",
    "departmentId": "106",
    "contentUnit": "kpl",
    "contentSize": 0.05,
    "available": true,
    "isUtility": false,
    "preprocessedPricing": {
      "products": {},
      "simplePromotions": {},
      "basketPromotions": {}
    },
    "tosPricing": {
      "basketPromotions": []
    },
    "simplePricePlussa": false,
    "pricingUnit": "kpl",
    "referencePrice": {
      "_type": "Big",
      "value": "11"
    },
    "visiblePrice": {
      "_type": "Big",
      "value": "0.55"
    },
    "visiblePriceUnit": "kpl",
    "isDiscounted": false
  },
  {
    "ean": "6436501040094",
    "urlSlug": "sallinen-gojimarja-300g-6436501040094-n106",
    "name": "Sallinen Gojimarja 300g",
    "storeId": "N106",
    "pictureUrls": [
      {
        "original": "https://public.keskofiles.com/f/k-ruoka/N106/product/6436501040094"
      }
    ],
    "section": "4406",
    "departmentId": "106",
    "contentUnit": "kpl",
    "contentSize": 0.3,
    "available": true,
    "isUtility": false,
    "preprocessedPricing": {
      "products": {},
      "simplePromotions": {},
      "basketPromotions": {}
    },
    "tosPricing": {
      "basketPromotions": []
    },
    "simplePricePlussa": false,
    "pricingUnit": "kpl",
    "referencePrice": {
      "_type": "Big",
      "value": "26.63333333333333333333"
    },
    "visiblePrice": {
      "_type": "Big",
      "value": "7.99"
    },
    "visiblePriceUnit": "kpl",
    "isDiscounted": false
  },
  {
    "ean": "6436501016808",
    "urlSlug": "sallinen-banaanilastu-250g-6436501016808-n106",
    "name": "Sallinen Banaanilastu 250g",
    "storeId": "N106",
    "pictureUrls": [
      {
        "original": "https://public.keskofiles.com/f/k-ruoka/N106/product/6436501016808"
      }
    ],
    "section": "4409",
    "departmentId": "106",
    "contentUnit": "kpl",
    "contentSize": 0.25,
    "available": true,
    "isUtility": false,
    "preprocessedPricing": {
      "products": {},
      "simplePromotions": {},
      "basketPromotions": {}
    },
    "tosPricing": {
      "basketPromotions": []
    },
    "simplePricePlussa": false,
    "pricingUnit": "kpl",
    "referencePrice": {
      "_type": "Big",
      "value": "8.6"
    },
    "visiblePrice": {
      "_type": "Big",
      "value": "2.15"
    },
    "visiblePriceUnit": "kpl",
    "isDiscounted": false
  },
  {
    "ean": "6436501000357",
    "urlSlug": "sallinen-mantelilastu-70g-6436501000357-n106",
    "name": "Sallinen Mantelilastu 70g",
    "storeId": "N106",
    "pictureUrls": [
      {
        "original": "https://public.keskofiles.com/f/k-ruoka/N106/product/6436501000357"
      }
    ],
    "section": "4410",
    "departmentId": "106",
    "contentUnit": "kpl",
    "contentSize": 0.07,
    "available": true,
    "isUtility": false,
    "preprocessedPricing": {
      "products": {},
      "simplePromotions": {},
      "basketPromotions": {}
    },
    "tosPricing": {
      "basketPromotions": []
    },
    "simplePricePlussa": false,
    "pricingUnit": "kpl",
    "referencePrice": {
      "_type": "Big",
      "value": "22.71428571428571428571"
    },
    "visiblePrice": {
      "_type": "Big",
      "value": "1.59"
    },
    "visiblePriceUnit": "kpl",
    "isDiscounted": false
  },
  {
    "ean": "6436501018567",
    "urlSlug": "sallinen-manteli-rusinasekoitus-250g-6436501018567-n106",
    "name": "Sallinen Manteli-Rusinasekoitus 250g",
    "storeId": "N106",
    "pictureUrls": [
      {
        "original": "https://public.keskofiles.com/f/k-ruoka/N106/product/6436501018567"
      }
    ],
    "section": "4419",
    "departmentId": "106",
    "contentUnit": "kpl",
    "contentSize": 0.25,
    "available": true,
    "isUtility": false,
    "preprocessedPricing": {
      "products": {},
      "simplePromotions": {},
      "basketPromotions": {}
    },
    "tosPricing": {
      "basketPromotions": []
    },
    "simplePricePlussa": false,
    "pricingUnit": "kpl",
    "referencePrice": {
      "_type": "Big",
      "value": "11.96"
    },
    "visiblePrice": {
      "_type": "Big",
      "value": "2.99"
    },
    "visiblePriceUnit": "kpl",
    "isDiscounted": false,
    "discountType": "PLUSSA",
    "batchSize": 2,
    "batchPrice": {
      "_type": "Big",
      "value": "5"
    }
  },
  {
    "ean": "6436501042838",
    "urlSlug": "sallinen-macadamiapahkina-70g-6436501042838-n106",
    "name": "Sallinen Macadamiapähkinä 70g",
    "storeId": "N106",
    "pictureUrls": [
      {
        "original": "https://public.keskofiles.com/f/k-ruoka/N106/product/6436501042838"
      }
    ],
    "section": "4419",
    "departmentId": "106",
    "contentUnit": "kpl",
    "contentSize": 0.07,
    "available": true,
    "isUtility": false,
    "preprocessedPricing": {
      "products": {},
      "simplePromotions": {},
      "basketPromotions": {}
    },
    "tosPricing": {
      "basketPromotions": []
    },
    "simplePricePlussa": false,
    "pricingUnit": "kpl",
    "referencePrice": {
      "_type": "Big",
      "value": "61.28571428571428571429"
    },
    "visiblePrice": {
      "_type": "Big",
      "value": "4.29"
    },
    "visiblePriceUnit": "kpl",
    "isDiscounted": false
  }
]