[
  {
    "ean": "6419800011606",
    "urlSlug": "a-le-coq-prem-export-52-033l-tlk-6-p-6419800011606",
    "name": "A.Le Coq premium export 5,2% 0,33l 6-pack",
    "pictureUrls": [
      {
        "original": "https://public.keskofiles.com/f/k-ruoka/product/6419800011606"
      }
    ],
    "section": "5213",
    "departmentId": "108",
    "contentUnit": "L",
    "contentSize": 1.98,
    "netWeight": 1.992,
    "restriction": "alcoholNoWebStore",
    "available": true,
    "isUtility": false,
    "preprocessedPricing": {
      "products": {},
      "simplePromotions": {},
      "basketPromotions": {}
    },
    "tosPricing": {
      "basketPromotions": []
    },
    "simplePricePlussa": false,
    "pricingUnit": "kpl",
    "referencePrice": {
      "_type": "Big",
      "value": "4.93939393939393939394"
    },
    "visiblePrice": {
      "_type": "Big",
      "value": "10.68"
    },
    "visiblePriceUnit": "kpl",
    "isDiscounted": false
  },
  {
    "ean": "6419800011644",
    "urlSlug": "sandels-53-0568l-tlk-6419800011644",
    "name": "Sandels 5,3% 0,568l",
    "pictureUrls": [],
    "section": "5212",
    "departmentId": "108",
    "contentUnit": "L",
    "contentSize": 0.568,
    "netWeight": 0.571,
    "restriction": "alcoholNoWebStore",
    "available": true,
    "isUtility": false,
    "preprocessedPricing": {
      "products": {},
      "simplePromotions": {},
      "basketPromotions": {}
    },
    "tosPricing": {
      "basketPromotions": []
    },
    "simplePricePlussa": false,
    "pricingUnit": "kpl",
    "referencePrice": {
      "_type": "Big",
      "value": "6.23239436619718309859"
    },
    "visiblePrice": {
      "_type": "Big",
      "value": "3.69"
    },
    "visiblePriceUnit": "kpl",
    "isDiscounted": false
  },
  {
    "ean": "6419800011774",
    "urlSlug": "olvi-jouluolut-50-05l-tlk-6419800011774",
    "name": "Olvi Jouluolut 5,0% 0,5l tlk",
    "pictureUrls": [
      {
        "original": "https://public.keskofiles.com/f/k-ruoka/product/6419800011774"
      }
    ],
    "section": "5212",
    "departmentId": "108",
    "contentUnit": "L",
    "contentSize": 0.5,
    "netWeight": 0.504,
    "restriction": "alcoholNoWebStore",
    "available": true,
    "isUtility": false,
    "preprocessedPricing": {
      "products": {},
      "simplePromotions": {},
      "basketPromotions": {}
    },
    "tosPricing": {
      "basketPromotions": []
    },
    "simplePricePlussa": false,
    "pricingUnit": "kpl",
    "referencePrice": {
      "_type": "Big",
      "value": "6.68"
    },
    "visiblePrice": {
      "_type": "Big",
      "value": "3.49"
    },
    "visiblePriceUnit": "kpl",
    "isDiscounted": false
  },
  {
    "ean": "6419800020233",
    "urlSlug": "sandels-olut-47-033l-tlk-si-6419800020233",
    "name": "Sandels olut 4,7% 0,33l",
    "pictureUrls": [
      {
        "original": "https://public.keskofiles.com/f/k-ruoka/product/6419800020233"
      }
    ],
    "section": "5219",
    "departmentId": "108",
    "contentUnit": "L",
    "contentSize": 0.33,
    "netWeight": 0.332,
    "restriction": "alcoholNoWebStore",
    "available": true,
    "isUtility": false,
    "preprocessedPricing": {
      "products": {},
      "simplePromotions": {},
      "basketPromotions": {}
    },
    "tosPricing": {
      "basketPromotions": []
    },
    "simplePricePlussa": false,
    "pricingUnit": "kpl",
    "referencePrice": {
      "_type": "Big",
      "value": "3.27272727272727272727"
    },
    "visiblePrice": {
      "_type": "Big",
      "value": "1.23"
    },
    "visiblePriceUnit": "kpl",
    "isDiscounted": false
  },
  {
    "ean": "6419800021261",
    "urlSlug": "a-le-coq-premium-olut-45-033l-tlk-si-6419800021261",
    "name": "A.Le Coq Premium olut 4,5% 0,33l",
    "pictureUrls": [],
    "section": "5219",
    "departmentId": "108",
    "contentUnit": "L",
    "contentSize": 0.33,
    "netWeight": 0.332,
    "restriction": "alcoholNoWebStore",
    "available": true,
    "isUtility": false,
    "preprocessedPricing": {
      "products": {},
      "simplePromotions": {},
      "basketPromotions": {}
    },
    "tosPricing": {
      "basketPromotions": []
    },
    "simplePricePlussa": false,
    "pricingUnit": "kpl",
    "referencePrice": {
      "_type": "Big",
      "value": "3.15151515151515151515"
    },
    "visiblePrice": {
      "_type": "Big",
      "value": "1.19"
    },
    "visiblePriceUnit": "kpl",
    "isDiscounted": false
  },
  {
    "ean": "6419800021285",
    "urlSlug": "a-le-coq-premium-45-033l-tlk-8-pack-6419800021285",
    "name": "A.Le Coq Premium 4,5% 0,33l 8-pack",
    "pictureUrls": [
      {
        "original": "https://public.keskofiles.com/f/k-ruoka/product/6419800021285"
      }
    ],
    "section": "5213",
    "departmentId": "108",
    "contentUnit": "L",
    "contentSize": 2.64,
    "netWeight": 2.656,
    "restriction": "alcoholNoWebStore",
    "available": true,
    "isUtility": false,
    "preprocessedPricing": {
      "products": {},
      "simplePromotions": {},
      "basketPromotions": {}
    },
    "tosPricing": {
      "basketPromotions": []
    },
    "simplePricePlussa": false,
    "pricingUnit": "kpl",
    "referencePrice": {
      "_type": "Big",
      "value": "4.66666666666666666667"
    },
    "visiblePrice": {
      "_type": "Big",
      "value": "13.52"
    },
    "visiblePriceUnit": "kpl",
    "isDiscounted": false
  },
  {
    "ean": "6419800022909",
    "urlSlug": "sandels-pils-48-05l-tlk-6419800022909",
    "name": "Sandels Pils 4,8% 0,5l tlk",
    "pictureUrls": [
      {
        "original": "https://public.keskofiles.com/f/k-ruoka/product/6419800022909"
      }
    ],
    "section": "5222",
    "departmentId": "108",
    "contentUnit": "L",
    "contentSize": 0.5,
    "netWeight": 0.503,
    "restriction": "alcoholNoWebStore",
    "available": true,
    "isUtility": false,
    "preprocessedPricing": {
      "products": {},
      "simplePromotions": {},
      "basketPromotions": {}
    },
    "tosPricing": {
      "basketPromotions": []
    },
    "simplePricePlussa": false,
    "pricingUnit": "kpl",
    "referencePrice": {
      "_type": "Big",
      "value": "5.68"
    },
    "visiblePrice": {
      "_type": "Big",
      "value": "2.99"
    },
    "visiblePriceUnit": "kpl",
    "isDiscounted": false
  },
  {
    "ean": "6419800072294",
    "urlSlug": "fizz-extra-dry-cider-47-033l-tlk-si-6419800072294",
    "name": "Fizz Extra Dry Cider 4,7% 0,33l tlk SI",
    "pictureUrls": [
      {
        "original": "https://public.keskofiles.com/f/k-ruoka/product/6419800072294"
      }
    ],
    "section": "5119",
    "departmentId": "108",
    "contentUnit": "L",
    "contentSize": 0.33,
    "netWeight": 0.332,
    "restriction": "alcoholNoWebStore",
    "available": true,
    "isUtility": false,
    "preprocessedPricing": {
      "products": {},
      "simplePromotions": {},
      "basketPromotions": {}
    },
    "tosPricing": {
      "basketPromotions": []
    },
    "simplePricePlussa": false,
    "pricingUnit": "kpl",
    "referencePrice": {
      "_type": "Big",
      "value": "4.84848484848484848485"
    },
    "visiblePrice": {
      "_type": "Big",
      "value": "1.75"
    },
    "visiblePriceUnit": "kpl",
    "isDiscounted": false
  },
  {
    "ean": "6419800072300",
    "urlSlug": "fizz-extra-dry-47-033l-6-pack-tlk-6419800072300",
    "name": "Fizz Extra Dry Cider 4,7% 0,33l 6-pack",
    "pictureUrls": [
      {
        "original": "https://public.keskofiles.com/f/k-ruoka/product/6419800072300"
      }
    ],
    "section": "5118",
    "departmentId": "108",
    "contentUnit": "L",
    "contentSize": 1.98,
    "netWeight": 1.992,
    "restriction": "alcoholNoWebStore",
    "available": true,
    "isUtility": false,
    "preprocessedPricing": {
      "products": {},
      "simplePromotions": {},
      "basketPromotions": {}
    },
    "tosPricing": {
      "basketPromotions": []
    },
    "simplePricePlussa": false,
    "pricingUnit": "kpl",
    "referencePrice": {
      "_type": "Big",
      "value": "4.84848484848484848485"
    },
    "visiblePrice": {
      "_type": "Big",
      "value": "10.5"
    },
    "visiblePriceUnit": "kpl",
    "isDiscounted": false
  },
  {
    "ean": "6419800081944",
    "urlSlug": "olvi-iisalmi-puolukka-gin-50-05l-tlk-6419800081944",
    "name": "Olvi Iisalmi Puolukka GIN 5,0% 0,5l",
    "pictureUrls": [
      {
        "original": "https://public.keskofiles.com/f/k-ruoka/product/6419800081944"
      }
    ],
    "section": "5124",
    "departmentId": "108",
    "contentUnit": "L",
    "contentSize": 0.5,
    "netWeight": 0.512,
    "restriction": "alcoholNoWebStore",
    "available": true,
    "isUtility": false,
    "preprocessedPricing": {
      "products": {},
      "simplePromotions": {},
      "basketPromotions": {}
    },
    "tosPricing": {
      "basketPromotions": []
    },
    "simplePricePlussa": false,
    "pricingUnit": "kpl",
    "referencePrice": {
      "_type": "Big",
      "value": "7.68"
    },
    "visiblePrice": {
      "_type": "Big",
      "value": "3.99"
    },
    "visiblePriceUnit": "kpl",
    "isDiscounted": false
  },
  {
    "ean": "6420613935645",
    "urlSlug": "yes-yes-rose-apple-cider-47-033l-tlk-6420613935645",
    "name": "Yes Yes Rose Apple Cider 4,7% 0,33l",
    "pictureUrls": [
      {
        "original": "https://public.keskofiles.com/f/k-ruoka/product/6420613935645"
      }
    ],
    "section": "5111",
    "departmentId": "108",
    "contentUnit": "L",
    "contentSize": 0.33,
    "netWeight": 0.33,
    "restriction": "alcoholNoWebStore",
    "available": true,
    "isUtility": false,
    "preprocessedPricing": {
      "products": {},
      "simplePromotions": {},
      "basketPromotions": {}
    },
    "tosPricing": {
      "basketPromotions": []
    },
    "simplePricePlussa": false,
    "pricingUnit": "kpl",
    "referencePrice": {
      "_type": "Big",
      "value": "8"
    },
    "visiblePrice": {
      "_type": "Big",
      "value": "2.79"
    },
    "visiblePriceUnit": "kpl",
    "isDiscounted": false
  },
  {
    "ean": "6420615511342",
    "urlSlug": "teerenpeli-grepa-55-033l-klp-6420615511342",
    "name": "Teerenpeli GREPA 5,5% 0,33l",
    "pictureUrls": [
      {
        "original": "https://public.keskofiles.com/f/k-ruoka/product/6420615511342"
      }
    ],
    "section": "5220",
    "departmentId": "108",
    "contentUnit": "L",
    "contentSize": 0.333,
    "netWeight": 0.33,
    "restriction": "alcoholNoWebStore",
    "available": true,
    "isUtility": false,
    "preprocessedPricing": {
      "products": {},
      "simplePromotions": {},
      "basketPromotions": {}
    },
    "tosPricing": {
      "basketPromotions": []
    },
    "simplePricePlussa": false,
    "pricingUnit": "kpl",
    "referencePrice": {
      "_type": "Big",
      "value": "10.78078078078078078078"
    },
    "visiblePrice": {
      "_type": "Big",
      "value": "3.69"
    },
    "visiblePriceUnit": "kpl",
    "isDiscounted": false
  },
  {
    "ean": "6420617926540",
    "urlSlug": "stadin-new-england-ipa-55-033l-klp-6420617926540",
    "name": "Stadin New England IPA 5,5% 0,33l",
    "pictureUrls": [],
    "section": "5220",
    "departmentId": "108",
    "contentUnit": "L",
    "contentSize": 0.33,
    "netWeight": 0.335,
    "restriction": "alcoholNoWebStore",
    "available": true,
    "isUtility": false,
    "preprocessedPricing": {
      "products": {},
      "simplePromotions": {},
      "basketPromotions": {}
    },
    "tosPricing": {
      "basketPromotions": []
    },
    "simplePricePlussa": false,
    "pricingUnit": "kpl",
    "referencePrice": {
      "_type": "Big",
      "value": "12.39393939393939393939"
    },
    "visiblePrice": {
      "_type": "Big",
      "value": "4.19"
    },
    "visiblePriceUnit": "kpl",
    "isDiscounted": false
  },
  {
    "ean": "6430018524009",
    "urlSlug": "stallhagen-us-red-ale-55-033l-klp-6430018524009",
    "name": "Stallhagen US red ale 5,5% 0,33l",
    "pictureUrls": [
      {
        "original": "https://public.keskofiles.com/f/k-ruoka/product/6430018524009"
      }
    ],
    "section": "5220",
    "departmentId": "108",
    "contentUnit": "L",
    "contentSize": 0.33,
    "netWeight": 0.33,
    "restriction": "alcoholNoWebStore",
    "available": true,
    "isUtility": false,
    "preprocessedPricing": {
      "products": {},
      "simplePromotions": {},
      "basketPromotions": {}
    },
    "tosPricing": {
      "basketPromotions": []
    },
    "simplePricePlussa": false,
    "pricingUnit": "kpl",
    "referencePrice": {
      "_type": "Big",
      "value": "9.36363636363636363636"
    },
    "visiblePrice": {
      "_type": "Big",
      "value": "3.19"
    },
    "visiblePriceUnit": "kpl",
    "isDiscounted": false
  },
  {
    "ean": "6430024995831",
    "urlSlug": "mallaskosken-tough-luck-ipa-4705l-tlk-6430024995831",
    "name": "Mallaskosken Tough Luck IPA 4,7% 0,5l",
    "pictureUrls": [
      {
        "original": "https://public.keskofiles.com/f/k-ruoka/product/6430024995831"
      }
    ],
    "section": "5222",
    "departmentId": "108",
    "contentUnit": "L",
    "contentSize": 0.5,
    "netWeight": 0.5,
    "restriction": "alcoholNoWebStore",
    "available": true,
    "isUtility": false,
    "preprocessedPricing": {
      "products": {},
      "simplePromotions": {},
      "basketPromotions": {}
    },
    "tosPricing": {
      "basketPromotions": []
    },
    "simplePricePlussa": false,
    "pricingUnit": "kpl",
    "referencePrice": {
      "_type": "Big",
      "value": "5.68"
    },
    "visiblePrice": {
      "_type": "Big",
      "value": "2.99"
    },
    "visiblePriceUnit": "kpl",
    "isDiscounted": false
  },
  {
    "ean": "6430024996098",
    "urlSlug": "harald-savulager-47-033l-klp-6430024996098",
    "name": "Harald Savulager 4,7% 0,33l",
    "pictureUrls": [
      {
        "original": "https://public.keskofiles.com/f/k-ruoka/product/6430024996098"
      }
    ],
    "section": "5220",
    "departmentId": "108",
    "contentUnit": "L",
    "contentSize": 0.33,
    "netWeight": 0.33,
    "restriction": "alcoholNoWebStore",
    "available": true,
    "isUtility": false,
    "preprocessedPricing": {
      "products": {},
      "simplePromotions": {},
      "basketPromotions": {}
    },
    "tosPricing": {
      "basketPromotions": []
    },
    "simplePricePlussa": false,
    "pricingUnit": "kpl",
    "referencePrice": {
      "_type": "Big",
      "value": "9.66666666666666666667"
    },
    "visiblePrice": {
      "_type": "Big",
      "value": "3.29"
    },
    "visiblePriceUnit": "kpl",
    "isDiscounted": false
  },
  {
    "ean": "6430024998207",
    "urlSlug": "mallaskoski-snow-pale-ale-52-033l-klp-6430024998207",
    "name": "Mallaskoski Snow pale ale 5,2% 0,33l klp",
    "pictureUrls": [
      {
        "original": "https://public.keskofiles.com/f/k-ruoka/product/6430024998207"
      }
    ],
    "section": "5220",
    "departmentId": "108",
    "contentUnit": "L",
    "contentSize": 0.33,
    "netWeight": 0.33,
    "restriction": "alcoholNoWebStore",
    "available": true,
    "isUtility": false,
    "preprocessedPricing": {
      "products": {},
      "simplePromotions": {},
      "basketPromotions": {}
    },
    "tosPricing": {
      "basketPromotions": []
    },
    "simplePricePlussa": false,
    "pricingUnit": "kpl",
    "referencePrice": {
      "_type": "Big",
      "value": "9.96969696969696969697"
    },
    "visiblePrice": {
      "_type": "Big",
      "value": "3.39"
    },
    "visiblePriceUnit": "kpl",
    "isDiscounted": false
  },
  {
    "ean": "4002103248521",
    "urlSlug": "erdinger-weissbier-53-05l-klp-4002103248521",
    "name": "Erdinger Hefe Weissbier 0,5l 5,3%",
    "pictureUrls": [
      {
        "original": "https://public.keskofiles.com/f/k-ruoka/product/4002103248521"
      }
    ],
    "section": "5240",
    "departmentId": "108",
    "contentUnit": "L",
    "contentSize": 0.5,
    "netWeight": 0.88,
    "restriction": "alcoholNoWebStore",
    "available": true,
    "isUtility": false,
    "preprocessedPricing": {
      "products": {},
      "simplePromotions": {},
      "basketPromotions": {}
    },
    "tosPricing": {
      "basketPromotions": []
    },
    "simplePricePlussa": false,
    "pricingUnit": "kpl",
    "referencePrice": {
      "_type": "Big",
      "value": "7.78"
    },
    "visiblePrice": {
      "_type": "Big",
      "value": "3.99"
    },
    "visiblePriceUnit": "kpl",
    "isDiscounted": false
  },
  {
    "ean": "4072700003649",
    "urlSlug": "franziskaner-hefe-weissbier-5005l-klp-4072700003649",
    "name": "Franziskaner Hefe Weissbier olut 5,0% 50cl",
    "pictureUrls": [
      {
        "original": "https://public.keskofiles.com/f/k-ruoka/product/4072700003649"
      }
    ],
    "section": "5240",
    "departmentId": "108",
    "contentUnit": "L",
    "contentSize": 0.5,
    "netWeight": 0.5,
    "restriction": "alcoholNoWebStore",
    "available": true,
    "isUtility": false,
    "preprocessedPricing": {
      "products": {},
      "simplePromotions": {},
      "basketPromotions": {}
    },
    "tosPricing": {
      "basketPromotions": []
    },
    "simplePricePlussa": false,
    "pricingUnit": "kpl",
    "referencePrice": {
      "_type": "Big",
      "value": "8.18"
    },
    "visiblePrice": {
      "_type": "Big",
      "value": "4.19"
    },
    "visiblePriceUnit": "kpl",
    "isDiscounted": false
  },
  {
    "ean": "4105120673946",
    "urlSlug": "weihenstephaner-hefe-54-05l-klp-4105120673946",
    "name": "Weihenstephaner Hefe Weissbier 0,5l 5,4%",
    "pictureUrls": [
      {
        "original": "https://public.keskofiles.com/f/k-ruoka/product/4105120673946"
      }
    ],
    "section": "5240",
    "departmentId": "108",
    "contentUnit": "L",
    "contentSize": 0.5,
    "netWeight": 0.5,
    "restriction": "alcoholNoWebStore",
    "available": true,
    "isUtility": false,
    "preprocessedPricing": {
      "products": {},
      "simplePromotions": {},
      "basketPromotions": {}
    },
    "tosPricing": {
      "basketPromotions": []
    },
    "simplePricePlussa": false,
    "pricingUnit": "kpl",
    "referencePrice": {
      "_type": "Big",
      "value": "7.58"
    },
    "visiblePrice": {
      "_type": "Big",
      "value": "3.89"
    },
    "visiblePriceUnit": "kpl",
    "isDiscounted": false
  },
  {
    "ean": "4260451621117",
    "urlSlug": "stone-go-to-ipa-47-033l-tlk-4260451621117",
    "name": "Stone Go To IPA 4,7% 0,33l tlk",
    "pictureUrls": [],
    "section": "5242",
    "departmentId": "108",
    "contentUnit": "L",
    "contentSize": 0.33,
    "netWeight": 0.33,
    "restriction": "alcoholNoWebStore",
    "available": true,
    "isUtility": false,
    "preprocessedPricing": {
      "products": {},
      "simplePromotions": {},
      "basketPromotions": {}
    },
    "tosPricing": {
      "basketPromotions": []
    },
    "simplePricePlussa": false,
    "pricingUnit": "kpl",
    "referencePrice": {
      "_type": "Big",
      "value": "10.72727272727272727273"
    },
    "visiblePrice": {
      "_type": "Big",
      "value": "3.69"
    },
    "visiblePriceUnit": "kpl",
    "isDiscounted": false
  },
  {
    "ean": "4600682765332",
    "urlSlug": "k1664-blanc-45-033l-klp-4600682765332",
    "name": "K1664 Blanc 4,5% 0,33l",
    "pictureUrls": [
      {
        "original": "https://public.keskofiles.com/f/k-ruoka/product/4600682765332"
      }
    ],
    "section": "5240",
    "departmentId": "108",
    "contentUnit": "L",
    "contentSize": 0.33,
    "netWeight": 0.323,
    "restriction": "alcoholNoWebStore",
    "available": true,
    "isUtility": false,
    "preprocessedPricing": {
      "products": {},
      "simplePromotions": {},
      "basketPromotions": {}
    },
    "tosPricing": {
      "basketPromotions": []
    },
    "simplePricePlussa": false,
    "pricingUnit": "kpl",
    "referencePrice": {
      "_type": "Big",
      "value": "7.84848484848484848485"
    },
    "visiblePrice": {
      "_type": "Big",
      "value": "2.69"
    },
    "visiblePriceUnit": "kpl",
    "isDiscounted": false
  },
  {
    "ean": "4740098080312",
    "urlSlug": "a-le-coq-olut-45-0568l-tlk-4740098080312",
    "name": "A.Le Coq olut 4,5% 0,568l",
    "pictureUrls": [
      {
        "original": "https://public.keskofiles.com/f/k-ruoka/product/4740098080312"
      }
    ],
    "section": "5212",
    "departmentId": "108",
    "contentUnit": "L",
    "contentSize": 0.568,
    "netWeight": 0.572,
    "restriction": "alcoholNoWebStore",
    "available": true,
    "isUtility": false,
    "preprocessedPricing": {
      "products": {},
      "simplePromotions": {},
      "basketPromotions": {}
    },
    "tosPricing": {
      "basketPromotions": []
    },
    "simplePricePlussa": false,
    "pricingUnit": "kpl",
    "referencePrice": {
      "_type": "Big",
      "value": "5"
    },
    "visiblePrice": {
      "_type": "Big",
      "value": "2.99"
    },
    "visiblePriceUnit": "kpl",
    "isDiscounted": false
  },
  {
    "ean": "6430031980578",
    "urlSlug": "prykmestar-nokkospils-52-05l-klp-6430031980578",
    "name": "Prykmestar Nokkospils 5,2% 0,5l",
    "pictureUrls": [],
    "section": "5220",
    "departmentId": "108",
    "contentUnit": "L",
    "contentSize": 0.5,
    "netWeight": 0.5,
    "restriction": "alcoholNoWebStore",
    "available": true,
    "isUtility": false,
    "preprocessedPricing": {
      "products": {},
      "simplePromotions": {},
      "basketPromotions": {}
    },
    "tosPricing": {
      "basketPromotions": []
    },
    "simplePricePlussa": false,
    "pricingUnit": "kpl",
    "referencePrice": {
      "_type": "Big",
      "value": "8.3"
    },
    "visiblePrice": {
      "_type": "Big",
      "value": "4.25"
    },
    "visiblePriceUnit": "kpl",
    "isDiscounted": false
  },
  {
    "ean": "6430031987010",
    "urlSlug": "kieltolaki-kova-omena-55-033l-klp-6430031987010",
    "name": "Kieltolaki Kova Omena 33cl 5,5% long drink",
    "pictureUrls": [
      {
        "original": "https://public.keskofiles.com/f/k-ruoka/product/6430031987010"
      }
    ],
    "section": "5170",
    "departmentId": "108",
    "contentUnit": "L",
    "contentSize": 0.33,
    "netWeight": 0.304,
    "restriction": "alcoholNoWebStore",
    "available": true,
    "isUtility": false,
    "preprocessedPricing": {
      "products": {},
      "simplePromotions": {},
      "basketPromotions": {}
    },
    "tosPricing": {
      "basketPromotions": []
    },
    "simplePricePlussa": false,
    "pricingUnit": "kpl",
    "referencePrice": {
      "_type": "Big",
      "value": "11.78787878787878787879"
    },
    "visiblePrice": {
      "_type": "Big",
      "value": "3.99"
    },
    "visiblePriceUnit": "kpl",
    "isDiscounted": false
  },
  {
    "ean": "6430049691190",
    "urlSlug": "pyynikin-white-i-p-a-46-033l-klp-6430049691190",
    "name": "Pyynikin White I.P.A 4,6% 0,33l",
    "pictureUrls": [
      {
        "original": "https://public.keskofiles.com/f/k-ruoka/product/6430049691190"
      }
    ],
    "section": "5220",
    "departmentId": "108",
    "contentUnit": "L",
    "contentSize": 0.33,
    "netWeight": 0.332,
    "restriction": "alcoholNoWebStore",
    "available": true,
    "isUtility": false,
    "preprocessedPricing": {
      "products": {},
      "simplePromotions": {},
      "basketPromotions": {}
    },
    "tosPricing": {
      "basketPromotions": []
    },
    "simplePricePlussa": false,
    "pricingUnit": "kpl",
    "referencePrice": {
      "_type": "Big",
      "value": "8.75757575757575757576"
    },
    "visiblePrice": {
      "_type": "Big",
      "value": "2.99"
    },
    "visiblePriceUnit": "kpl",
    "isDiscounted": false
  },
  {
    "ean": "6430049693156",
    "urlSlug": "pyynikin-ruby-jazz-ale-47-05l-tlk-6430049693156",
    "name": "Pyynikin Ruby Jazz ale 4,7% 0,5 l",
    "pictureUrls": [
      {
        "original": "https://public.keskofiles.com/f/k-ruoka/product/6430049693156"
      }
    ],
    "section": "5222",
    "departmentId": "108",
    "contentUnit": "L",
    "contentSize": 0.5,
    "netWeight": 0.5,
    "restriction": "alcoholNoWebStore",
    "available": true,
    "isUtility": false,
    "preprocessedPricing": {
      "products": {},
      "simplePromotions": {},
      "basketPromotions": {}
    },
    "tosPricing": {
      "basketPromotions": []
    },
    "simplePricePlussa": false,
    "pricingUnit": "kpl",
    "referencePrice": {
      "_type": "Big",
      "value": "6.8"
    },
    "visiblePrice": {
      "_type": "Big",
      "value": "3.55"
    },
    "visiblePriceUnit": "kpl",
    "isDiscounted": false
  },
  {
    "ean": "6430049693859",
    "urlSlug": "pyynikin-american-ipa-52-05l-tlk-6430049693859",
    "name": "Pyynikin American IPA 5,2% 0,5l",
    "pictureUrls": [
      {
        "original": "https://public.keskofiles.com/f/k-ruoka/product/6430049693859"
      }
    ],
    "section": "5222",
    "departmentId": "108",
    "contentUnit": "L",
    "contentSize": 0.5,
    "netWeight": 0.5,
    "restriction": "alcoholNoWebStore",
    "available": true,
    "isUtility": false,
    "preprocessedPricing": {
      "products": {},
      "simplePromotions": {},
      "basketPromotions": {}
    },
    "tosPricing": {
      "basketPromotions": []
    },
    "simplePricePlussa": false,
    "pricingUnit": "kpl",
    "referencePrice": {
      "_type": "Big",
      "value": "5.88"
    },
    "visiblePrice": {
      "_type": "Big",
      "value": "3.09"
    },
    "visiblePriceUnit": "kpl",
    "isDiscounted": false
  },
  {
    "ean": "6430049694368",
    "urlSlug": "pyynikin-two-lakes-lager-50-05l-tlk-6430049694368",
    "name": "Pyynikin Two Lakes lager 5,0% 0,5l",
    "pictureUrls": [
      {
        "original": "https://public.keskofiles.com/f/k-ruoka/product/6430049694368"
      }
    ],
    "section": "5222",
    "departmentId": "108",
    "contentUnit": "L",
    "contentSize": 0.5,
    "netWeight": 0.5,
    "restriction": "alcoholNoWebStore",
    "available": true,
    "isUtility": false,
    "preprocessedPricing": {
      "products": {},
      "simplePromotions": {},
      "basketPromotions": {}
    },
    "tosPricing": {
      "basketPromotions": []
    },
    "simplePricePlussa": false,
    "pricingUnit": "kpl",
    "referencePrice": {
      "_type": "Big",
      "value": "5.68"
    },
    "visiblePrice": {
      "_type": "Big",
      "value": "2.99"
    },
    "visiblePriceUnit": "kpl",
    "isDiscounted": false
  },
  {
    "ean": "6430064990124",
    "urlSlug": "tornion-orig-1964-lager-47-033l-klp-6430064990124",
    "name": "Tornion Orig 1964 lager 4,7% 0,33l",
    "pictureUrls": [
      {
        "original": "https://public.keskofiles.com/f/k-ruoka/product/6430064990124"
      }
    ],
    "section": "5220",
    "departmentId": "108",
    "contentUnit": "L",
    "contentSize": 0.33,
    "netWeight": 0.33,
    "restriction": "alcoholNoWebStore",
    "available": true,
    "isUtility": false,
    "preprocessedPricing": {
      "products": {},
      "simplePromotions": {},
      "basketPromotions": {}
    },
    "tosPricing": {
      "basketPromotions": []
    },
    "simplePricePlussa": false,
    "pricingUnit": "kpl",
    "referencePrice": {
      "_type": "Big",
      "value": "8.15151515151515151515"
    },
    "visiblePrice": {
      "_type": "Big",
      "value": "2.79"
    },
    "visiblePriceUnit": "kpl",
    "isDiscounted": false
  }
]