[
  {
    "ean": "7330242200689",
    "urlSlug": "fria-brod-piparkakkutaikina-500g-gton-pa-7330242200689",
    "name": "Fria Bröd piparkakkutaikina 500g gluteeniton pakaste",
    "pictureUrls": [
      {
        "original": "https://public.keskofiles.com/f/k-ruoka/product/7330242200689"
      }
    ],
    "section": "1468",
    "departmentId": "107",
    "contentUnit": "KG",
    "contentSize": 0.5,
    "netWeight": 0.5,
    "available": true,
    "isUtility": false,
    "preprocessedPricing": {
      "products": {},
      "simplePromotions": {},
      "basketPromotions": {}
    },
    "tosPricing": {
      "basketPromotions": []
    },
    "simplePricePlussa": false,
    "pricingUnit": "kpl",
    "referencePrice": {
      "_type": "Big",
      "value": "8.18"
    },
    "visiblePrice": {
      "_type": "Big",
      "value": "4.09"
    },
    "visiblePriceUnit": "kpl",
    "isDiscounted": false
  },
  {
    "ean": "6410345916005",
    "urlSlug": "fazer-dallaspulla-9kpl450g-pa-6410345916005",
    "name": "Fazer Dallaspulla 9 kpl / 450 g",
    "pictureUrls": [
      {
        "original": "https://public.keskofiles.com/f/k-ruoka/product/6410345916005"
      }
    ],
    "section": "1458",
    "departmentId": "107",
    "contentUnit": "KG",
    "contentSize": 0.45,
    "netWeight": 0.45,
    "available": true,
    "isUtility": false,
    "preprocessedPricing": {
      "products": {},
      "simplePromotions": {},
      "basketPromotions": {}
    },
    "tosPricing": {
      "basketPromotions": []
    },
    "simplePricePlussa": false,
    "pricingUnit": "kpl",
    "referencePrice": {
      "_type": "Big",
      "value": "5.97777777777777777778"
    },
    "visiblePrice": {
      "_type": "Big",
      "value": "2.69"
    },
    "visiblePriceUnit": "kpl",
    "isDiscounted": false
  },
  {
    "ean": "6410405181091",
    "urlSlug": "pirkka-parhaat-vadelma-175g-suomalain-6410405181091",
    "name": "Pirkka Parhaat suomalainen vadelma 175g pakaste",
    "pictureUrls": [
      {
        "original": "https://public.keskofiles.com/f/k-ruoka/product/6410405181091"
      }
    ],
    "section": "2510",
    "departmentId": "107",
    "contentUnit": "KG",
    "contentSize": 0.175,
    "netWeight": 0.175,
    "available": true,
    "isUtility": false,
    "preprocessedPricing": {
      "products": {},
      "simplePromotions": {},
      "basketPromotions": {}
    },
    "tosPricing": {
      "basketPromotions": []
    },
    "simplePricePlussa": false,
    "pricingUnit": "kpl",
    "referencePrice": {
      "_type": "Big",
      "value": "24.51428571428571428571"
    },
    "visiblePrice": {
      "_type": "Big",
      "value": "4.29"
    },
    "visiblePriceUnit": "kpl",
    "isDiscounted": false
  },
  {
    "ean": "4001724819806",
    "urlSlug": "ristorante-pizza-335g-mozzarella-pa-4001724819806",
    "name": "Ristorante Mozzarella Pizza 325g",
    "pictureUrls": [
      {
        "original": "https://public.keskofiles.com/f/k-ruoka/product/4001724819806"
      }
    ],
    "section": "2570",
    "departmentId": "107",
    "contentUnit": "KG",
    "contentSize": 0.335,
    "netWeight": 0.335,
    "available": true,
    "isUtility": false,
    "preprocessedPricing": {
      "products": {},
      "simplePromotions": {},
      "basketPromotions": {}
    },
    "tosPricing": {
      "basketPromotions": []
    },
    "simplePricePlussa": false,
    "pricingUnit": "kpl",
    "referencePrice": {
      "_type": "Big",
      "value": "8.92537313432835820896"
    },
    "visiblePrice": {
      "_type": "Big",
      "value": "2.99"
    },
    "visiblePriceUnit": "kpl",
    "isDiscounted": false
  },
  {
    "ean": "6410402026425",
    "urlSlug": "pirkka-perunaviipaleet-500g-pa-6410402026425",
    "name": "Pirkka perunaviipaleet 500g pakaste",
    "pictureUrls": [
      {
        "original": "https://public.keskofiles.com/f/k-ruoka/product/6410402026425"
      }
    ],
    "section": "2523",
    "departmentId": "107",
    "contentUnit": "KG",
    "contentSize": 0.5,
    "netWeight": 0.5,
    "available": true,
    "isUtility": false,
    "preprocessedPricing": {
      "products": {},
      "simplePromotions": {},
      "basketPromotions": {}
    },
    "tosPricing": {
      "basketPromotions": []
    },
    "simplePricePlussa": false,
    "pricingUnit": "kpl",
    "referencePrice": {
      "_type": "Big",
      "value": "2.38"
    },
    "visiblePrice": {
      "_type": "Big",
      "value": "1.19"
    },
    "visiblePriceUnit": "kpl",
    "isDiscounted": false
  },
  {
    "ean": "6416345001666",
    "urlSlug": "gorans-kebab-liha-400g-pa-6416345001666",
    "name": "Görans grillattuja ja irtopakastettuja kebablastuja 400g perhekoko pakaste",
    "pictureUrls": [
      {
        "original": "https://public.keskofiles.com/f/k-ruoka/product/6416345001666"
      }
    ],
    "section": "2543",
    "departmentId": "107",
    "contentUnit": "KG",
    "contentSize": 0.4,
    "netWeight": 0.4,
    "available": true,
    "isUtility": false,
    "preprocessedPricing": {
      "products": {},
      "simplePromotions": {},
      "basketPromotions": {}
    },
    "tosPricing": {
      "basketPromotions": []
    },
    "simplePricePlussa": false,
    "pricingUnit": "kpl",
    "referencePrice": {
      "_type": "Big",
      "value": "13.375"
    },
    "visiblePrice": {
      "_type": "Big",
      "value": "5.35"
    },
    "visiblePriceUnit": "kpl",
    "isDiscounted": false
  },
  {
    "ean": "6410405182494",
    "urlSlug": "pirkka-sinisimpukka-200g-kuorittu-pa-6410405182494",
    "name": "Pirkka kuoritut sinisimpukat 200g pakaste",
    "pictureUrls": [
      {
        "original": "https://public.keskofiles.com/f/k-ruoka/product/6410405182494"
      }
    ],
    "section": "1176",
    "departmentId": "107",
    "contentUnit": "KG",
    "contentSize": 0.2,
    "netWeight": 0.2,
    "available": true,
    "isUtility": false,
    "preprocessedPricing": {
      "products": {},
      "simplePromotions": {},
      "basketPromotions": {}
    },
    "tosPricing": {
      "basketPromotions": []
    },
    "simplePricePlussa": false,
    "pricingUnit": "kpl",
    "referencePrice": {
      "_type": "Big",
      "value": "12.45"
    },
    "visiblePrice": {
      "_type": "Big",
      "value": "2.49"
    },
    "visiblePriceUnit": "kpl",
    "isDiscounted": false
  },
  {
    "ean": "6413300204216",
    "urlSlug": "lipsi-limonadijaa-68g-vadelma-pa-6413300204216",
    "name": "Lipsi vadelma 68g",
    "pictureUrls": [
      {
        "original": "https://public.keskofiles.com/f/k-ruoka/product/6413300204216"
      }
    ],
    "section": "2600",
    "departmentId": "107",
    "contentUnit": "KG",
    "contentSize": 0.068,
    "netWeight": 0.068,
    "available": true,
    "isUtility": false,
    "preprocessedPricing": {
      "products": {},
      "simplePromotions": {},
      "basketPromotions": {}
    },
    "tosPricing": {
      "basketPromotions": []
    },
    "simplePricePlussa": false,
    "pricingUnit": "kpl",
    "referencePrice": {
      "_type": "Big",
      "value": "11.02941176470588235294"
    },
    "visiblePrice": {
      "_type": "Big",
      "value": "0.75"
    },
    "visiblePriceUnit": "kpl",
    "isDiscounted": false
  },
  {
    "ean": "6410405149640",
    "urlSlug": "pirkka-sitruunajaatelo-05l-maiton-pa-6410405149640",
    "name": "Pirkka maidoton sitruunajäätelö 500ml/330g",
    "pictureUrls": [
      {
        "original": "https://public.keskofiles.com/f/k-ruoka/product/6410405149640"
      }
    ],
    "section": "2615",
    "departmentId": "107",
    "contentUnit": "L",
    "contentSize": 0.5,
    "netWeight": 0.33,
    "available": true,
    "isUtility": false,
    "preprocessedPricing": {
      "products": {},
      "simplePromotions": {},
      "basketPromotions": {}
    },
    "tosPricing": {
      "basketPromotions": []
    },
    "simplePricePlussa": false,
    "pricingUnit": "kpl",
    "referencePrice": {
      "_type": "Big",
      "value": "7.78"
    },
    "visiblePrice": {
      "_type": "Big",
      "value": "3.89"
    },
    "visiblePriceUnit": "kpl",
    "isDiscounted": false
  },
  {
    "ean": "6410380097707",
    "urlSlug": "oolannin-kuorell-maalaisperunat-600g-pa-6410380097707",
    "name": "Oolannin Kuorelliset Maalaisperunat 600g",
    "pictureUrls": [
      {
        "original": "https://public.keskofiles.com/f/k-ruoka/product/6410380097707"
      }
    ],
    "section": "2521",
    "departmentId": "107",
    "contentUnit": "KG",
    "contentSize": 0.6,
    "netWeight": 0.6,
    "available": true,
    "isUtility": false,
    "preprocessedPricing": {
      "products": {},
      "simplePromotions": {},
      "basketPromotions": {}
    },
    "tosPricing": {
      "basketPromotions": []
    },
    "simplePricePlussa": false,
    "pricingUnit": "kpl",
    "referencePrice": {
      "_type": "Big",
      "value": "3.48333333333333333333"
    },
    "visiblePrice": {
      "_type": "Big",
      "value": "2.09"
    },
    "visiblePriceUnit": "kpl",
    "isDiscounted": false,
    "discountType": "PLUSSA",
    "batchSize": 2,
    "batchPrice": {
      "_type": "Big",
      "value": "4"
    }
  },
  {
    "ean": "4001724819400",
    "urlSlug": "ristorante-pizza-390g-spinaci-pa-4001724819400",
    "name": "Ristorante pizza 390g spinaci",
    "pictureUrls": [
      {
        "original": "https://public.keskofiles.com/f/k-ruoka/product/4001724819400"
      }
    ],
    "section": "2570",
    "departmentId": "107",
    "contentUnit": "KG",
    "contentSize": 0.39,
    "netWeight": 0.39,
    "available": true,
    "isUtility": false,
    "preprocessedPricing": {
      "products": {},
      "simplePromotions": {},
      "basketPromotions": {}
    },
    "tosPricing": {
      "basketPromotions": []
    },
    "simplePricePlussa": false,
    "pricingUnit": "kpl",
    "referencePrice": {
      "_type": "Big",
      "value": "7.66666666666666666667"
    },
    "visiblePrice": {
      "_type": "Big",
      "value": "2.99"
    },
    "visiblePriceUnit": "kpl",
    "isDiscounted": false
  },
  {
    "ean": "7312170055531",
    "urlSlug": "semper-toasty-puhdas-kaura-400g-gton-pa-7312170055531",
    "name": "Semper Toasty Puhdas Kaura 400g gluteeniton leipä",
    "pictureUrls": [
      {
        "original": "https://public.keskofiles.com/f/k-ruoka/product/7312170055531"
      }
    ],
    "section": "1466",
    "departmentId": "107",
    "contentUnit": "KG",
    "contentSize": 0.4,
    "netWeight": 0.4,
    "available": true,
    "isUtility": false,
    "preprocessedPricing": {
      "products": {},
      "simplePromotions": {},
      "basketPromotions": {}
    },
    "tosPricing": {
      "basketPromotions": []
    },
    "simplePricePlussa": false,
    "pricingUnit": "kpl",
    "referencePrice": {
      "_type": "Big",
      "value": "7.225"
    },
    "visiblePrice": {
      "_type": "Big",
      "value": "2.89"
    },
    "visiblePriceUnit": "kpl",
    "isDiscounted": false
  },
  {
    "ean": "6420260810005",
    "urlSlug": "kymppi-mammi-700g-pakaste-6420260810005",
    "name": "Kymppi Mämmi 700g",
    "pictureUrls": [
      {
        "original": "https://public.keskofiles.com/f/k-ruoka/product/6420260810005"
      }
    ],
    "section": "1308",
    "departmentId": "103",
    "contentUnit": "KG",
    "contentSize": 0.7,
    "netWeight": 0.7,
    "available": true,
    "isUtility": false,
    "preprocessedPricing": {
      "products": {},
      "simplePromotions": {},
      "basketPromotions": {}
    },
    "tosPricing": {
      "basketPromotions": []
    },
    "simplePricePlussa": false,
    "pricingUnit": "kpl",
    "referencePrice": {
      "_type": "Big",
      "value": "3.78571428571428571429"
    },
    "visiblePrice": {
      "_type": "Big",
      "value": "2.65"
    },
    "visiblePriceUnit": "kpl",
    "isDiscounted": false
  },
  {
    "ean": "7310500112510",
    "urlSlug": "findus-pyttipannu-800g-kievarin-pa-7310500112510",
    "name": "Findus pyttipannu 800g kievarin",
    "pictureUrls": [
      {
        "original": "https://public.keskofiles.com/f/k-ruoka/product/7310500112510"
      }
    ],
    "section": "2550",
    "departmentId": "107",
    "contentUnit": "KG",
    "contentSize": 0.8,
    "netWeight": 0.8,
    "available": true,
    "isUtility": false,
    "preprocessedPricing": {
      "products": {},
      "simplePromotions": {},
      "basketPromotions": {}
    },
    "tosPricing": {
      "basketPromotions": []
    },
    "simplePricePlussa": false,
    "pricingUnit": "kpl",
    "referencePrice": {
      "_type": "Big",
      "value": "6.4875"
    },
    "visiblePrice": {
      "_type": "Big",
      "value": "5.19"
    },
    "visiblePriceUnit": "kpl",
    "isDiscounted": false
  },
  {
    "ean": "6417901007689",
    "urlSlug": "pingviini-jaatelo-1l-tof-kin-lkton-pa-6417901007689",
    "name": "Pingviini Toffee-Kinuski 1L/530g Kermajäätelö Laktoositon",
    "pictureUrls": [
      {
        "original": "https://public.keskofiles.com/f/k-ruoka/product/6417901007689"
      }
    ],
    "section": "2611",
    "departmentId": "107",
    "contentUnit": "L",
    "contentSize": 1,
    "netWeight": 0.514,
    "available": true,
    "isUtility": false,
    "preprocessedPricing": {
      "products": {},
      "simplePromotions": {},
      "basketPromotions": {}
    },
    "tosPricing": {
      "basketPromotions": []
    },
    "simplePricePlussa": false,
    "pricingUnit": "kpl",
    "referencePrice": {
      "_type": "Big",
      "value": "2.89"
    },
    "visiblePrice": {
      "_type": "Big",
      "value": "2.89"
    },
    "visiblePriceUnit": "kpl",
    "isDiscounted": false
  },
  {
    "ean": "7310500078403",
    "urlSlug": "findus-lohikalapuikot-250g-pa-7310500078403",
    "name": "Findus Lohi Kalapuikot 250 g",
    "pictureUrls": [
      {
        "original": "https://public.keskofiles.com/f/k-ruoka/product/7310500078403"
      }
    ],
    "section": "2544",
    "departmentId": "107",
    "contentUnit": "KG",
    "contentSize": 0.25,
    "netWeight": 0.25,
    "available": true,
    "isUtility": false,
    "preprocessedPricing": {
      "products": {},
      "simplePromotions": {},
      "basketPromotions": {}
    },
    "tosPricing": {
      "basketPromotions": []
    },
    "simplePricePlussa": false,
    "pricingUnit": "kpl",
    "referencePrice": {
      "_type": "Big",
      "value": "10.76"
    },
    "visiblePrice": {
      "_type": "Big",
      "value": "2.69"
    },
    "visiblePriceUnit": "kpl",
    "isDiscounted": false
  },
  {
    "ean": "7310500170213",
    "urlSlug": "findus-kasvispyorykat-450g-pa-7310500170213",
    "name": "Findus kasvispyörykät 450g",
    "pictureUrls": [
      {
        "original": "https://public.keskofiles.com/f/k-ruoka/product/7310500170213"
      }
    ],
    "section": "2542",
    "departmentId": "107",
    "contentUnit": "KG",
    "contentSize": 0.45,
    "netWeight": 0.45,
    "available": true,
    "isUtility": false,
    "preprocessedPricing": {
      "products": {},
      "simplePromotions": {},
      "basketPromotions": {}
    },
    "tosPricing": {
      "basketPromotions": []
    },
    "simplePricePlussa": false,
    "pricingUnit": "kpl",
    "referencePrice": {
      "_type": "Big",
      "value": "8.33333333333333333333"
    },
    "visiblePrice": {
      "_type": "Big",
      "value": "3.75"
    },
    "visiblePriceUnit": "kpl",
    "isDiscounted": false
  },
  {
    "ean": "6430104921880",
    "urlSlug": "apetit-puutarhurin-sekoitus-300g-pa-6430104921880",
    "name": "Apetit puutarhurin sekoitus kasvissekoitus 300g pakaste",
    "pictureUrls": [
      {
        "original": "https://public.keskofiles.com/f/k-ruoka/product/6430104921880"
      }
    ],
    "section": "2503",
    "departmentId": "107",
    "contentUnit": "KG",
    "contentSize": 0.3,
    "netWeight": 0.3,
    "available": true,
    "isUtility": false,
    "preprocessedPricing": {
      "products": {},
      "simplePromotions": {},
      "basketPromotions": {}
    },
    "tosPricing": {
      "basketPromotions": []
    },
    "simplePricePlussa": false,
    "pricingUnit": "kpl",
    "referencePrice": {
      "_type": "Big",
      "value": "5.96666666666666666667"
    },
    "visiblePrice": {
      "_type": "Big",
      "value": "1.79"
    },
    "visiblePriceUnit": "kpl",
    "isDiscounted": false,
    "discountType": "PLUSSA",
    "batchSize": 2,
    "batchPrice": {
      "_type": "Big",
      "value": "3"
    }
  },
  {
    "ean": "6431903728991",
    "urlSlug": "moilas-pizza-320g-tropicana-gton-pa-6431903728991",
    "name": "Moilas pizza tropicana 320g gluteeniton, pakaste",
    "pictureUrls": [
      {
        "original": "https://public.keskofiles.com/f/k-ruoka/product/6431903728991"
      }
    ],
    "section": "2570",
    "departmentId": "107",
    "contentUnit": "KG",
    "contentSize": 0.32,
    "netWeight": 0.32,
    "available": true,
    "isUtility": false,
    "preprocessedPricing": {
      "products": {},
      "simplePromotions": {},
      "basketPromotions": {}
    },
    "tosPricing": {
      "basketPromotions": []
    },
    "simplePricePlussa": false,
    "pricingUnit": "kpl",
    "referencePrice": {
      "_type": "Big",
      "value": "12.96875"
    },
    "visiblePrice": {
      "_type": "Big",
      "value": "4.15"
    },
    "visiblePriceUnit": "kpl",
    "isDiscounted": false
  },
  {
    "ean": "6410405096678",
    "urlSlug": "pirkka-murkku-juomaj-10830g-si-ap-ko-pa-6410405096678",
    "name": "Pirkka Murkku kola-sitrus juomajää 10kpl/830g",
    "pictureUrls": [
      {
        "original": "https://public.keskofiles.com/f/k-ruoka/product/6410405096678"
      }
    ],
    "section": "2625",
    "departmentId": "107",
    "contentUnit": "KG",
    "contentSize": 0.83,
    "netWeight": 0.83,
    "available": true,
    "isUtility": false,
    "preprocessedPricing": {
      "products": {},
      "simplePromotions": {},
      "basketPromotions": {}
    },
    "tosPricing": {
      "basketPromotions": []
    },
    "simplePricePlussa": false,
    "pricingUnit": "kpl",
    "referencePrice": {
      "_type": "Big",
      "value": "5.65060240963855421687"
    },
    "visiblePrice": {
      "_type": "Big",
      "value": "4.69"
    },
    "visiblePriceUnit": "kpl",
    "isDiscounted": false
  },
  {
    "ean": "6430056220130",
    "urlSlug": "jymy-luomujaatelo-500ml-hasselpah-mokka-6430056220130",
    "name": "Jymy luomujäätelö 500ml hasselpäh-mokka",
    "pictureUrls": [
      {
        "original": "https://public.keskofiles.com/f/k-ruoka/product/6430056220130"
      }
    ],
    "section": "2614",
    "departmentId": "107",
    "contentUnit": "L",
    "contentSize": 0.5,
    "netWeight": 0.33,
    "available": true,
    "isUtility": false,
    "preprocessedPricing": {
      "products": {},
      "simplePromotions": {},
      "basketPromotions": {}
    },
    "tosPricing": {
      "basketPromotions": []
    },
    "simplePricePlussa": false,
    "pricingUnit": "kpl",
    "referencePrice": {
      "_type": "Big",
      "value": "11.98"
    },
    "visiblePrice": {
      "_type": "Big",
      "value": "5.99"
    },
    "visiblePriceUnit": "kpl",
    "isDiscounted": false
  },
  {
    "ean": "5000159483063",
    "urlSlug": "bounty-jaatelo-6kpl2346g-pa-5000159483063",
    "name": "Bounty jäätelö 6x39,1g",
    "pictureUrls": [
      {
        "original": "https://public.keskofiles.com/f/k-ruoka/product/5000159483063"
      }
    ],
    "section": "2629",
    "departmentId": "107",
    "contentUnit": "KG",
    "contentSize": 0.235,
    "netWeight": 0.235,
    "available": true,
    "isUtility": false,
    "preprocessedPricing": {
      "products": {},
      "simplePromotions": {},
      "basketPromotions": {}
    },
    "tosPricing": {
      "basketPromotions": []
    },
    "simplePricePlussa": false,
    "pricingUnit": "kpl",
    "referencePrice": {
      "_type": "Big",
      "value": "14.42553191489361702128"
    },
    "visiblePrice": {
      "_type": "Big",
      "value": "3.39"
    },
    "visiblePriceUnit": "kpl",
    "isDiscounted": false
  },
  {
    "ean": "7310240171686",
    "urlSlug": "grandiosa-kiviuunipizza-350g-hawaii-pa-7310240171686",
    "name": "Grandiosa Hawaii Kiviuunipizza 350g",
    "pictureUrls": [
      {
        "original": "https://public.keskofiles.com/f/k-ruoka/product/7310240171686"
      }
    ],
    "section": "2570",
    "departmentId": "107",
    "contentUnit": "KG",
    "contentSize": 0.35,
    "netWeight": 0.35,
    "available": true,
    "isUtility": false,
    "preprocessedPricing": {
      "products": {},
      "simplePromotions": {},
      "basketPromotions": {}
    },
    "tosPricing": {
      "basketPromotions": []
    },
    "simplePricePlussa": false,
    "pricingUnit": "kpl",
    "referencePrice": {
      "_type": "Big",
      "value": "6.6"
    },
    "visiblePrice": {
      "_type": "Big",
      "value": "2.31"
    },
    "visiblePriceUnit": "kpl",
    "isDiscounted": true,
    "discountType": "PLUSSA",
    "plussaDiscountPercentage": {
      "_type": "Big",
      "value": "-20.069204152249134948"
    }
  },
  {
    "ean": "6410405115874",
    "urlSlug": "pirkka-toffeetuutti-69g-pa-6410405115874",
    "name": "Pirkka toffeetuutti 120ml/69g",
    "pictureUrls": [
      {
        "original": "https://public.keskofiles.com/f/k-ruoka/product/6410405115874"
      }
    ],
    "section": "2603",
    "departmentId": "107",
    "contentUnit": "KG",
    "contentSize": 0.069,
    "netWeight": 0.069,
    "available": true,
    "isUtility": false,
    "preprocessedPricing": {
      "products": {},
      "simplePromotions": {},
      "basketPromotions": {}
    },
    "tosPricing": {
      "basketPromotions": []
    },
    "simplePricePlussa": false,
    "pricingUnit": "kpl",
    "referencePrice": {
      "_type": "Big",
      "value": "7.24637681159420289855"
    },
    "visiblePrice": {
      "_type": "Big",
      "value": "0.5"
    },
    "visiblePriceUnit": "kpl",
    "isDiscounted": false
  },
  {
    "ean": "7310240077742",
    "urlSlug": "grandiosa-kiviuunipizza-165g-tex-mex-pa-7310240077742",
    "name": "Grandiosa kiviuunipizza 165g tex-mex",
    "pictureUrls": [
      {
        "original": "https://public.keskofiles.com/f/k-ruoka/product/7310240077742"
      }
    ],
    "section": "2573",
    "departmentId": "107",
    "contentUnit": "KG",
    "contentSize": 0.165,
    "netWeight": 0.165,
    "available": true,
    "isUtility": false,
    "preprocessedPricing": {
      "products": {},
      "simplePromotions": {},
      "basketPromotions": {}
    },
    "tosPricing": {
      "basketPromotions": []
    },
    "simplePricePlussa": false,
    "pricingUnit": "kpl",
    "referencePrice": {
      "_type": "Big",
      "value": "8.66666666666666666667"
    },
    "visiblePrice": {
      "_type": "Big",
      "value": "1.43"
    },
    "visiblePriceUnit": "kpl",
    "isDiscounted": true,
    "discountType": "PLUSSA",
    "plussaDiscountPercentage": {
      "_type": "Big",
      "value": "-20.111731843575418994"
    }
  },
  {
    "ean": "6430064400098",
    "urlSlug": "pingviini-tuutti-102g-lakton-vadelmasyda-6430064400098",
    "name": "Pingviini 102g/1,9dl lakton vadelmasydän",
    "pictureUrls": [
      {
        "original": "https://public.keskofiles.com/f/k-ruoka/product/6430064400098"
      }
    ],
    "section": "2605",
    "departmentId": "107",
    "contentUnit": "KG",
    "contentSize": 0.102,
    "netWeight": 0.102,
    "available": true,
    "isUtility": false,
    "preprocessedPricing": {
      "products": {},
      "simplePromotions": {},
      "basketPromotions": {}
    },
    "tosPricing": {
      "basketPromotions": []
    },
    "simplePricePlussa": false,
    "pricingUnit": "kpl",
    "referencePrice": {
      "_type": "Big",
      "value": "14.21568627450980392157"
    },
    "visiblePrice": {
      "_type": "Big",
      "value": "1.45"
    },
    "visiblePriceUnit": "kpl",
    "isDiscounted": false
  },
  {
    "ean": "6430104965785",
    "urlSlug": "apetit-kermaperunat-750g-pa-6430104965785",
    "name": "Apetit uunivalmiit kermaperunat 750g pakaste",
    "pictureUrls": [
      {
        "original": "https://public.keskofiles.com/f/k-ruoka/product/6430104965785"
      }
    ],
    "section": "2526",
    "departmentId": "107",
    "contentUnit": "KG",
    "contentSize": 0.75,
    "netWeight": 0.75,
    "available": true,
    "isUtility": false,
    "preprocessedPricing": {
      "products": {},
      "simplePromotions": {},
      "basketPromotions": {}
    },
    "tosPricing": {
      "basketPromotions": []
    },
    "simplePricePlussa": false,
    "pricingUnit": "kpl",
    "referencePrice": {
      "_type": "Big",
      "value": "3.8"
    },
    "visiblePrice": {
      "_type": "Big",
      "value": "2.85"
    },
    "visiblePriceUnit": "kpl",
    "isDiscounted": false,
    "discountType": "PLUSSA",
    "batchSize": 2,
    "batchPrice": {
      "_type": "Big",
      "value": "5"
    }
  },
  {
    "ean": "6408430005017",
    "urlSlug": "valio-jaatelo-480-ml-mansikka-basil--lak-6408430005017",
    "name": "Valio jäätelö 480 ml mansikka-basil. lak",
    "pictureUrls": [
      {
        "original": "https://public.keskofiles.com/f/k-ruoka/product/6408430005017"
      }
    ],
    "section": "2614",
    "departmentId": "107",
    "contentUnit": "L",
    "contentSize": 0.48,
    "netWeight": 0.288,
    "available": true,
    "isUtility": false,
    "preprocessedPricing": {
      "products": {},
      "simplePromotions": {},
      "basketPromotions": {}
    },
    "tosPricing": {
      "basketPromotions": []
    },
    "simplePricePlussa": false,
    "pricingUnit": "kpl",
    "referencePrice": {
      "_type": "Big",
      "value": "9.97916666666666666667"
    },
    "visiblePrice": {
      "_type": "Big",
      "value": "4.79"
    },
    "visiblePriceUnit": "kpl",
    "isDiscounted": false
  },
  {
    "ean": "6410405086778",
    "urlSlug": "pirkka-puolukka-500g-suomalainen-pa-6410405086778",
    "name": "Pirkka suomalainen puolukka 500g pakaste",
    "pictureUrls": [
      {
        "original": "https://public.keskofiles.com/f/k-ruoka/product/6410405086778"
      }
    ],
    "section": "2510",
    "departmentId": "107",
    "contentUnit": "KG",
    "contentSize": 0.5,
    "netWeight": 0.5,
    "available": true,
    "isUtility": false,
    "preprocessedPricing": {
      "products": {},
      "simplePromotions": {},
      "basketPromotions": {}
    },
    "tosPricing": {
      "basketPromotions": []
    },
    "simplePricePlussa": false,
    "pricingUnit": "kpl",
    "referencePrice": {
      "_type": "Big",
      "value": "9.58"
    },
    "visiblePrice": {
      "_type": "Big",
      "value": "4.79"
    },
    "visiblePriceUnit": "kpl",
    "isDiscounted": false
  },
  {
    "ean": "7312930004663",
    "urlSlug": "almondy-marabou-mantelikakku-400g-schwei-7312930004663",
    "name": "Almondy Marabou mantelikakku schweitzernöt 400g",
    "pictureUrls": [
      {
        "original": "https://public.keskofiles.com/f/k-ruoka/product/7312930004663"
      }
    ],
    "section": "1435",
    "departmentId": "107",
    "contentUnit": "KG",
    "contentSize": 0.4,
    "netWeight": 0.4,
    "available": true,
    "isUtility": false,
    "preprocessedPricing": {
      "products": {},
      "simplePromotions": {},
      "basketPromotions": {}
    },
    "tosPricing": {
      "basketPromotions": []
    },
    "simplePricePlussa": false,
    "pricingUnit": "kpl",
    "referencePrice": {
      "_type": "Big",
      "value": "15.475"
    },
    "visiblePrice": {
      "_type": "Big",
      "value": "6.19"
    },
    "visiblePriceUnit": "kpl",
    "isDiscounted": false
  }
]