[
  {
    "ean": "6415002506728",
    "urlSlug": "myllarin-kaurahiutale-650g-luomu-6415002506728",
    "name": "Myllärin Luomu Kaurahiutale 650g",
    "pictureUrls": [
      {
        "original": "https://public.keskofiles.com/f/k-ruoka/product/6415002506728"
      }
    ],
    "section": "3040",
    "departmentId": "115",
    "contentUnit": "KG",
    "contentSize": 0.65,
    "netWeight": 0.65,
    "available": true,
    "isUtility": false,
    "preprocessedPricing": {
      "products": {},
      "simplePromotions": {},
      "basketPromotions": {}
    },
    "tosPricing": {
      "basketPromotions": []
    },
    "simplePricePlussa": false,
    "pricingUnit": "kpl",
    "referencePrice": {
      "_type": "Big",
      "value": "2.75384615384615384615"
    },
    "visiblePrice": {
      "_type": "Big",
      "value": "1.79"
    },
    "visiblePriceUnit": "kpl",
    "isDiscounted": false
  },
  {
    "ean": "6409531659802",
    "urlSlug": "jalostaja-hernekeitto-860g-perinteinen-6409531659802",
    "name": "Jalostaja Perinteinen hernekeitto 860 g",
    "pictureUrls": [
      {
        "original": "https://public.keskofiles.com/f/k-ruoka/product/6409531659802"
      }
    ],
    "section": "3273",
    "departmentId": "115",
    "contentUnit": "KG",
    "contentSize": 0.86,
    "netWeight": 0.86,
    "available": true,
    "isUtility": false,
    "preprocessedPricing": {
      "products": {},
      "simplePromotions": {},
      "basketPromotions": {}
    },
    "tosPricing": {
      "basketPromotions": []
    },
    "simplePricePlussa": false,
    "pricingUnit": "kpl",
    "referencePrice": {
      "_type": "Big",
      "value": "2.96511627906976744186"
    },
    "visiblePrice": {
      "_type": "Big",
      "value": "2.55"
    },
    "visiblePriceUnit": "kpl",
    "isDiscounted": false
  },
  {
    "ean": "8718114751900",
    "urlSlug": "maizena-250g-vaalea-suuruste-8718114751900",
    "name": "Maizena Suuruste vaaleille kastikkeille ja keitoille 250 g",
    "pictureUrls": [
      {
        "original": "https://public.keskofiles.com/f/k-ruoka/product/8718114751900"
      }
    ],
    "section": "3090",
    "departmentId": "115",
    "contentUnit": "KG",
    "contentSize": 0.25,
    "netWeight": 0.26,
    "available": true,
    "isUtility": false,
    "preprocessedPricing": {
      "products": {},
      "simplePromotions": {},
      "basketPromotions": {}
    },
    "tosPricing": {
      "basketPromotions": []
    },
    "simplePricePlussa": false,
    "pricingUnit": "kpl",
    "referencePrice": {
      "_type": "Big",
      "value": "8.36"
    },
    "visiblePrice": {
      "_type": "Big",
      "value": "2.09"
    },
    "visiblePriceUnit": "kpl",
    "isDiscounted": false
  },
  {
    "ean": "7310130006296",
    "urlSlug": "axa-proteiini-mysli-650g-omena-kookos-7310130006296",
    "name": "AXA Proteiini mysli 650g omena-kookos",
    "pictureUrls": [
      {
        "original": "https://public.keskofiles.com/f/k-ruoka/product/7310130006296"
      }
    ],
    "section": "3088",
    "departmentId": "115",
    "contentUnit": "KG",
    "contentSize": 0.65,
    "netWeight": 0.65,
    "available": true,
    "isUtility": false,
    "preprocessedPricing": {
      "products": {},
      "simplePromotions": {},
      "basketPromotions": {}
    },
    "tosPricing": {
      "basketPromotions": []
    },
    "simplePricePlussa": false,
    "pricingUnit": "kpl",
    "referencePrice": {
      "_type": "Big",
      "value": "6.53846153846153846154"
    },
    "visiblePrice": {
      "_type": "Big",
      "value": "4.25"
    },
    "visiblePriceUnit": "kpl",
    "isDiscounted": false
  },
  {
    "ean": "5765228128947",
    "urlSlug": "urtekram-spelttipops-200g-luomu-5765228128947",
    "name": "Urtekram spelttipops 200 g luomu",
    "pictureUrls": [
      {
        "original": "https://public.keskofiles.com/f/k-ruoka/product/5765228128947"
      }
    ],
    "section": "3087",
    "departmentId": "115",
    "contentUnit": "KG",
    "contentSize": 0.2,
    "netWeight": 0.2,
    "available": true,
    "isUtility": false,
    "preprocessedPricing": {
      "products": {},
      "simplePromotions": {},
      "basketPromotions": {}
    },
    "tosPricing": {
      "basketPromotions": []
    },
    "simplePricePlussa": false,
    "pricingUnit": "kpl",
    "referencePrice": {
      "_type": "Big",
      "value": "14.95"
    },
    "visiblePrice": {
      "_type": "Big",
      "value": "2.99"
    },
    "visiblePriceUnit": "kpl",
    "isDiscounted": false
  },
  {
    "ean": "7310861040637",
    "urlSlug": "gainomax-proteiinipatukka-60g-sukl-mint-7310861040637",
    "name": "Gainomax proteiinipatukka suklaa-minttu 60g",
    "pictureUrls": [
      {
        "original": "https://public.keskofiles.com/f/k-ruoka/product/7310861040637"
      }
    ],
    "section": "4553",
    "departmentId": "115",
    "contentUnit": "KG",
    "contentSize": 0.06,
    "netWeight": 0.06,
    "available": true,
    "isUtility": false,
    "preprocessedPricing": {
      "products": {},
      "simplePromotions": {},
      "basketPromotions": {}
    },
    "tosPricing": {
      "basketPromotions": []
    },
    "simplePricePlussa": false,
    "pricingUnit": "kpl",
    "referencePrice": {
      "_type": "Big",
      "value": "30.83333333333333333333"
    },
    "visiblePrice": {
      "_type": "Big",
      "value": "1.85"
    },
    "visiblePriceUnit": "kpl",
    "isDiscounted": false
  },
  {
    "ean": "4002359010699",
    "urlSlug": "dolmio-pastakastike-750g-mausteinen-4002359010699",
    "name": "Dolmio pastakastike 750g mausteinen",
    "pictureUrls": [
      {
        "original": "https://public.keskofiles.com/f/k-ruoka/product/4002359010699"
      }
    ],
    "section": "4178",
    "departmentId": "115",
    "contentUnit": "KG",
    "contentSize": 0.75,
    "netWeight": 0.75,
    "available": true,
    "isUtility": false,
    "preprocessedPricing": {
      "products": {},
      "simplePromotions": {},
      "basketPromotions": {}
    },
    "tosPricing": {
      "basketPromotions": []
    },
    "simplePricePlussa": false,
    "pricingUnit": "kpl",
    "referencePrice": {
      "_type": "Big",
      "value": "4.52"
    },
    "visiblePrice": {
      "_type": "Big",
      "value": "3.39"
    },
    "visiblePriceUnit": "kpl",
    "isDiscounted": false
  },
  {
    "ean": "8722700163886",
    "urlSlug": "knorr-lasagnette-270g-taysjyva-8722700163886",
    "name": "Knorr Täysjyvä Lasagnette ateria-ainekset 270 g",
    "pictureUrls": [
      {
        "original": "https://public.keskofiles.com/f/k-ruoka/product/8722700163886"
      }
    ],
    "section": "4012",
    "departmentId": "115",
    "contentUnit": "KG",
    "contentSize": 0.27,
    "netWeight": 0.27,
    "available": true,
    "isUtility": false,
    "preprocessedPricing": {
      "products": {},
      "simplePromotions": {},
      "basketPromotions": {}
    },
    "tosPricing": {
      "basketPromotions": []
    },
    "simplePricePlussa": false,
    "pricingUnit": "kpl",
    "referencePrice": {
      "_type": "Big",
      "value": "10.55555555555555555556"
    },
    "visiblePrice": {
      "_type": "Big",
      "value": "2.85"
    },
    "visiblePriceUnit": "kpl",
    "isDiscounted": false
  },
  {
    "ean": "6412000015887",
    "urlSlug": "saarioinen-valkosipulikastike-345ml-6412000015887",
    "name": "Saarioinen Valkosipulisalaattikastike 345ml",
    "pictureUrls": [
      {
        "original": "https://public.keskofiles.com/f/k-ruoka/product/6412000015887"
      }
    ],
    "section": "4172",
    "departmentId": "115",
    "contentUnit": "L",
    "contentSize": 0.345,
    "netWeight": 0.35,
    "available": true,
    "isUtility": false,
    "preprocessedPricing": {
      "products": {},
      "simplePromotions": {},
      "basketPromotions": {}
    },
    "tosPricing": {
      "basketPromotions": []
    },
    "simplePricePlussa": false,
    "pricingUnit": "kpl",
    "referencePrice": {
      "_type": "Big",
      "value": "6.63768115942028985507"
    },
    "visiblePrice": {
      "_type": "Big",
      "value": "2.29"
    },
    "visiblePriceUnit": "kpl",
    "isDiscounted": false
  },
  {
    "ean": "6430061070164",
    "urlSlug": "marjamaan-puolukkahillo-390g-6430061070164",
    "name": "Marjamaan puolukkahillo 390g säilöntäaineeton runsasmarjainen (70% marjoja)",
    "pictureUrls": [
      {
        "original": "https://public.keskofiles.com/f/k-ruoka/product/6430061070164"
      }
    ],
    "section": "3202",
    "departmentId": "106",
    "contentUnit": "KG",
    "contentSize": 0.39,
    "netWeight": 0.39,
    "available": true,
    "isUtility": false,
    "preprocessedPricing": {
      "products": {},
      "simplePromotions": {},
      "basketPromotions": {}
    },
    "tosPricing": {
      "basketPromotions": []
    },
    "simplePricePlussa": false,
    "pricingUnit": "kpl",
    "referencePrice": {
      "_type": "Big",
      "value": "10.74358974358974358974"
    },
    "visiblePrice": {
      "_type": "Big",
      "value": "4.19"
    },
    "visiblePriceUnit": "kpl",
    "isDiscounted": false
  },
  {
    "ean": "6420610110472",
    "urlSlug": "bonne-omenasose-1l-6420610110472",
    "name": "Bonne 1l Omenasose 120%",
    "pictureUrls": [
      {
        "original": "https://public.keskofiles.com/f/k-ruoka/product/6420610110472"
      }
    ],
    "section": "3207",
    "departmentId": "106",
    "contentUnit": "L",
    "contentSize": 1,
    "netWeight": 1.03,
    "available": true,
    "isUtility": false,
    "preprocessedPricing": {
      "products": {},
      "simplePromotions": {},
      "basketPromotions": {}
    },
    "tosPricing": {
      "basketPromotions": []
    },
    "simplePricePlussa": false,
    "pricingUnit": "kpl",
    "referencePrice": {
      "_type": "Big",
      "value": "4.45"
    },
    "visiblePrice": {
      "_type": "Big",
      "value": "4.45"
    },
    "visiblePriceUnit": "kpl",
    "isDiscounted": false
  },
  {
    "ean": "6430056282732",
    "urlSlug": "fast-hera80-500g-maustamaton-6430056282732",
    "name": "Fast hera80 500g maustamaton",
    "pictureUrls": [
      {
        "original": "https://public.keskofiles.com/f/k-ruoka/product/6430056282732"
      }
    ],
    "section": "4551",
    "departmentId": "115",
    "contentUnit": "KG",
    "contentSize": 0.5,
    "netWeight": 0.5,
    "available": true,
    "isUtility": false,
    "preprocessedPricing": {
      "products": {},
      "simplePromotions": {},
      "basketPromotions": {}
    },
    "tosPricing": {
      "basketPromotions": []
    },
    "simplePricePlussa": false,
    "pricingUnit": "kpl",
    "referencePrice": {
      "_type": "Big",
      "value": "28.3"
    },
    "visiblePrice": {
      "_type": "Big",
      "value": "14.15"
    },
    "visiblePriceUnit": "kpl",
    "isDiscounted": false
  },
  {
    "ean": "6424908461888",
    "urlSlug": "felix-suolakurkkuviipale-400215g-6424908461888",
    "name": "Felix suolakurkkuviipale 215 g",
    "pictureUrls": [
      {
        "original": "https://public.keskofiles.com/f/k-ruoka/product/6424908461888"
      }
    ],
    "section": "3225",
    "departmentId": "115",
    "contentUnit": "KG",
    "contentSize": 0.215,
    "netWeight": 0.4,
    "available": true,
    "isUtility": false,
    "preprocessedPricing": {
      "products": {},
      "simplePromotions": {},
      "basketPromotions": {}
    },
    "tosPricing": {
      "basketPromotions": []
    },
    "simplePricePlussa": false,
    "pricingUnit": "kpl",
    "referencePrice": {
      "_type": "Big",
      "value": "8.60465116279069767442"
    },
    "visiblePrice": {
      "_type": "Big",
      "value": "1.85"
    },
    "visiblePriceUnit": "kpl",
    "isDiscounted": false
  },
  {
    "ean": "7311312002341",
    "urlSlug": "santa-maria-tex-mex-salsa-dip-medium250g-7311312002341",
    "name": "Santa Maria tex mex salsa dip medium250g",
    "pictureUrls": [
      {
        "original": "https://public.keskofiles.com/f/k-ruoka/product/7311312002341"
      }
    ],
    "section": "4731",
    "departmentId": "115",
    "contentUnit": "KG",
    "contentSize": 0.25,
    "netWeight": 0.25,
    "available": true,
    "isUtility": false,
    "preprocessedPricing": {
      "products": {},
      "simplePromotions": {},
      "basketPromotions": {}
    },
    "tosPricing": {
      "basketPromotions": []
    },
    "simplePricePlussa": false,
    "pricingUnit": "kpl",
    "referencePrice": {
      "_type": "Big",
      "value": "9.4"
    },
    "visiblePrice": {
      "_type": "Big",
      "value": "2.35"
    },
    "visiblePriceUnit": "kpl",
    "isDiscounted": false
  },
  {
    "ean": "8410090410412",
    "urlSlug": "calvo-sardiini-12084g-kasvisoljy-8410090410412",
    "name": "Calvo sardiini 120/84g kasvisöljy",
    "pictureUrls": [
      {
        "original": "https://public.keskofiles.com/f/k-ruoka/product/8410090410412"
      }
    ],
    "section": "3252",
    "departmentId": "115",
    "contentUnit": "KG",
    "contentSize": 0.084,
    "netWeight": 0.12,
    "available": true,
    "isUtility": false,
    "preprocessedPricing": {
      "products": {},
      "simplePromotions": {},
      "basketPromotions": {}
    },
    "tosPricing": {
      "basketPromotions": []
    },
    "simplePricePlussa": false,
    "pricingUnit": "kpl",
    "referencePrice": {
      "_type": "Big",
      "value": "18.45238095238095238095"
    },
    "visiblePrice": {
      "_type": "Big",
      "value": "1.55"
    },
    "visiblePriceUnit": "kpl",
    "isDiscounted": false
  },
  {
    "ean": "8714100906453",
    "urlSlug": "bertolli--bolognese-tradizionale-400g-8714100906453",
    "name": "Bertolli  bolognese tradizionale 400g",
    "pictureUrls": [
      {
        "original": "https://public.keskofiles.com/f/k-ruoka/product/8714100906453"
      }
    ],
    "section": "4178",
    "departmentId": "115",
    "contentUnit": "KG",
    "contentSize": 0.4,
    "netWeight": 0.4,
    "available": true,
    "isUtility": false,
    "preprocessedPricing": {
      "products": {},
      "simplePromotions": {},
      "basketPromotions": {}
    },
    "tosPricing": {
      "basketPromotions": []
    },
    "simplePricePlussa": false,
    "pricingUnit": "kpl",
    "referencePrice": {
      "_type": "Big",
      "value": "7.225"
    },
    "visiblePrice": {
      "_type": "Big",
      "value": "2.89"
    },
    "visiblePriceUnit": "kpl",
    "isDiscounted": false
  },
  {
    "ean": "6411200104599",
    "urlSlug": "torino-500g-taysjyvapenne-2-vari-6411200104599",
    "name": "Torino kahden värin täysjyväpenne pasta 500 g",
    "pictureUrls": [
      {
        "original": "https://public.keskofiles.com/f/k-ruoka/product/6411200104599"
      }
    ],
    "section": "3074",
    "departmentId": "115",
    "contentUnit": "KG",
    "contentSize": 0.5,
    "netWeight": 0.5,
    "available": true,
    "isUtility": false,
    "preprocessedPricing": {
      "products": {},
      "simplePromotions": {},
      "basketPromotions": {}
    },
    "tosPricing": {
      "basketPromotions": []
    },
    "simplePricePlussa": false,
    "pricingUnit": "kpl",
    "referencePrice": {
      "_type": "Big",
      "value": "3.78"
    },
    "visiblePrice": {
      "_type": "Big",
      "value": "1.89"
    },
    "visiblePriceUnit": "kpl",
    "isDiscounted": false
  },
  {
    "ean": "5997523312237",
    "urlSlug": "nissin-soba-cup-nuudeli-thai-87g-5997523312237",
    "name": "Nissin Soba cup nuudeli THAI 87g",
    "pictureUrls": [
      {
        "original": "https://public.keskofiles.com/f/k-ruoka/product/5997523312237"
      }
    ],
    "section": "4015",
    "departmentId": "115",
    "contentUnit": "KG",
    "contentSize": 0.087,
    "netWeight": 0.087,
    "available": true,
    "isUtility": false,
    "preprocessedPricing": {
      "products": {},
      "simplePromotions": {},
      "basketPromotions": {}
    },
    "tosPricing": {
      "basketPromotions": []
    },
    "simplePricePlussa": false,
    "pricingUnit": "kpl",
    "referencePrice": {
      "_type": "Big",
      "value": "22.41379310344827586207"
    },
    "visiblePrice": {
      "_type": "Big",
      "value": "1.95"
    },
    "visiblePriceUnit": "kpl",
    "isDiscounted": false
  },
  {
    "ean": "6412000016570",
    "urlSlug": "saarioinen-lettuhillo-500g-6412000016570",
    "name": "Saarioinen Lettuhillo 500 g",
    "pictureUrls": [
      {
        "original": "https://public.keskofiles.com/f/k-ruoka/product/6412000016570"
      }
    ],
    "section": "3202",
    "departmentId": "106",
    "contentUnit": "KG",
    "contentSize": 0.5,
    "netWeight": 0.787,
    "available": true,
    "isUtility": false,
    "preprocessedPricing": {
      "products": {},
      "simplePromotions": {},
      "basketPromotions": {}
    },
    "tosPricing": {
      "basketPromotions": []
    },
    "simplePricePlussa": false,
    "pricingUnit": "kpl",
    "referencePrice": {
      "_type": "Big",
      "value": "5.58"
    },
    "visiblePrice": {
      "_type": "Big",
      "value": "2.79"
    },
    "visiblePriceUnit": "kpl",
    "isDiscounted": false
  },
  {
    "ean": "6410405040985",
    "urlSlug": "pirkka-perunajauho-500g-6410405040985",
    "name": "Pirkka perunajauho 500g",
    "pictureUrls": [
      {
        "original": "https://public.keskofiles.com/f/k-ruoka/product/6410405040985"
      }
    ],
    "section": "3090",
    "departmentId": "115",
    "contentUnit": "KG",
    "contentSize": 0.5,
    "netWeight": 0.5,
    "available": true,
    "isUtility": false,
    "preprocessedPricing": {
      "products": {},
      "simplePromotions": {},
      "basketPromotions": {}
    },
    "tosPricing": {
      "basketPromotions": []
    },
    "simplePricePlussa": false,
    "pricingUnit": "kpl",
    "referencePrice": {
      "_type": "Big",
      "value": "1.6"
    },
    "visiblePrice": {
      "_type": "Big",
      "value": "0.8"
    },
    "visiblePriceUnit": "kpl",
    "isDiscounted": false
  },
  {
    "ean": "7311312000583",
    "urlSlug": "santa-maria-egg-noodles-200g-munanuudeli-7311312000583",
    "name": "Santa Maria Egg Noodles 200g munanuudeli",
    "pictureUrls": [
      {
        "original": "https://public.keskofiles.com/f/k-ruoka/product/7311312000583"
      }
    ],
    "section": "3012",
    "departmentId": "115",
    "contentUnit": "KG",
    "contentSize": 0.2,
    "netWeight": 0.2,
    "available": true,
    "isUtility": false,
    "preprocessedPricing": {
      "products": {},
      "simplePromotions": {},
      "basketPromotions": {}
    },
    "tosPricing": {
      "basketPromotions": []
    },
    "simplePricePlussa": false,
    "pricingUnit": "kpl",
    "referencePrice": {
      "_type": "Big",
      "value": "7.75"
    },
    "visiblePrice": {
      "_type": "Big",
      "value": "1.55"
    },
    "visiblePriceUnit": "kpl",
    "isDiscounted": false
  },
  {
    "ean": "7311310038205",
    "urlSlug": "santa-maria-maissikuori-taco-tubs-145g-7311310038205",
    "name": "Santa Maria Tex Mex Taco Tubs 145g",
    "pictureUrls": [
      {
        "original": "https://public.keskofiles.com/f/k-ruoka/product/7311310038205"
      }
    ],
    "section": "4720",
    "departmentId": "115",
    "contentUnit": "KG",
    "contentSize": 0.145,
    "netWeight": 0.145,
    "available": true,
    "isUtility": false,
    "preprocessedPricing": {
      "products": {},
      "simplePromotions": {},
      "basketPromotions": {}
    },
    "tosPricing": {
      "basketPromotions": []
    },
    "simplePricePlussa": false,
    "pricingUnit": "kpl",
    "referencePrice": {
      "_type": "Big",
      "value": "18.96551724137931034483"
    },
    "visiblePrice": {
      "_type": "Big",
      "value": "2.75"
    },
    "visiblePriceUnit": "kpl",
    "isDiscounted": false
  },
  {
    "ean": "6430010880011",
    "urlSlug": "valmarin-sitraattiliuos-250ml-6430010880011",
    "name": "Valmarin sitraattiliuos 250ml",
    "pictureUrls": [],
    "section": "4531",
    "departmentId": "115",
    "contentUnit": "L",
    "contentSize": 0.25,
    "netWeight": 0.285,
    "available": true,
    "isUtility": false,
    "preprocessedPricing": {
      "products": {},
      "simplePromotions": {},
      "basketPromotions": {}
    },
    "tosPricing": {
      "basketPromotions": []
    },
    "simplePricePlussa": false,
    "pricingUnit": "kpl",
    "referencePrice": {
      "_type": "Big",
      "value": "25.16"
    },
    "visiblePrice": {
      "_type": "Big",
      "value": "6.29"
    },
    "visiblePriceUnit": "kpl",
    "isDiscounted": false
  },
  {
    "ean": "8718781600440",
    "urlSlug": "risella-kvinoa-mix-275g-8718781600440",
    "name": "Risella kvinoa mix 275g",
    "pictureUrls": [
      {
        "original": "https://public.keskofiles.com/f/k-ruoka/product/8718781600440"
      }
    ],
    "section": "3059",
    "departmentId": "115",
    "contentUnit": "KG",
    "contentSize": 0.275,
    "netWeight": 0.275,
    "available": true,
    "isUtility": false,
    "preprocessedPricing": {
      "products": {},
      "simplePromotions": {},
      "basketPromotions": {}
    },
    "tosPricing": {
      "basketPromotions": []
    },
    "simplePricePlussa": false,
    "pricingUnit": "kpl",
    "referencePrice": {
      "_type": "Big",
      "value": "12.32727272727272727273"
    },
    "visiblePrice": {
      "_type": "Big",
      "value": "3.39"
    },
    "visiblePriceUnit": "kpl",
    "isDiscounted": false
  },
  {
    "ean": "5053827153188",
    "urlSlug": "kelloggs-all-bran-regular-750g-5053827153188",
    "name": "Kellogg's All Bran Regular 750g",
    "pictureUrls": [
      {
        "original": "https://public.keskofiles.com/f/k-ruoka/product/5053827153188"
      }
    ],
    "section": "3086",
    "departmentId": "115",
    "contentUnit": "KG",
    "contentSize": 0.75,
    "netWeight": 0.75,
    "available": true,
    "isUtility": false,
    "preprocessedPricing": {
      "products": {},
      "simplePromotions": {},
      "basketPromotions": {}
    },
    "tosPricing": {
      "basketPromotions": []
    },
    "simplePricePlussa": false,
    "pricingUnit": "kpl",
    "referencePrice": {
      "_type": "Big",
      "value": "5.93333333333333333333"
    },
    "visiblePrice": {
      "_type": "Big",
      "value": "4.45"
    },
    "visiblePriceUnit": "kpl",
    "isDiscounted": false
  },
  {
    "ean": "8410090720276",
    "urlSlug": "calvo-simpukka-3x80g-mausteliemessa-8410090720276",
    "name": "Calvo simpukka 3x80g mausteliemessä",
    "pictureUrls": [
      {
        "original": "https://public.keskofiles.com/f/k-ruoka/product/8410090720276"
      }
    ],
    "section": "3260",
    "departmentId": "115",
    "contentUnit": "KG",
    "contentSize": 0.2,
    "netWeight": 0.12,
    "available": true,
    "isUtility": false,
    "preprocessedPricing": {
      "products": {},
      "simplePromotions": {},
      "basketPromotions": {}
    },
    "tosPricing": {
      "basketPromotions": []
    },
    "simplePricePlussa": false,
    "pricingUnit": "kpl",
    "referencePrice": {
      "_type": "Big",
      "value": "20.45"
    },
    "visiblePrice": {
      "_type": "Big",
      "value": "4.09"
    },
    "visiblePriceUnit": "kpl",
    "isDiscounted": false
  },
  {
    "ean": "6430018361628",
    "urlSlug": "sportlife-whey100-700g-maustamaton-6430018361628",
    "name": "SportLife Nutrition Whey100 700g maustamaton",
    "pictureUrls": [],
    "section": "4551",
    "departmentId": "115",
    "contentUnit": "KG",
    "contentSize": 0.7,
    "netWeight": 0.7,
    "available": true,
    "isUtility": false,
    "preprocessedPricing": {
      "products": {},
      "simplePromotions": {},
      "basketPromotions": {}
    },
    "tosPricing": {
      "basketPromotions": []
    },
    "simplePricePlussa": false,
    "pricingUnit": "kpl",
    "referencePrice": {
      "_type": "Big",
      "value": "25.07142857142857142857"
    },
    "visiblePrice": {
      "_type": "Big",
      "value": "17.55"
    },
    "visiblePriceUnit": "kpl",
    "isDiscounted": false
  },
  {
    "ean": "6410400037874",
    "urlSlug": "pirkka-pastaa-sienikastikkeessa-160g-6410400037874",
    "name": "Pirkka pastaa sienikastikkeessa 160 g",
    "pictureUrls": [
      {
        "original": "https://public.keskofiles.com/f/k-ruoka/product/6410400037874"
      }
    ],
    "section": "4014",
    "departmentId": "115",
    "contentUnit": "KG",
    "contentSize": 0.16,
    "netWeight": 0.16,
    "available": true,
    "isUtility": false,
    "preprocessedPricing": {
      "products": {},
      "simplePromotions": {},
      "basketPromotions": {}
    },
    "tosPricing": {
      "basketPromotions": []
    },
    "simplePricePlussa": false,
    "pricingUnit": "kpl",
    "referencePrice": {
      "_type": "Big",
      "value": "8.6875"
    },
    "visiblePrice": {
      "_type": "Big",
      "value": "1.39"
    },
    "visiblePriceUnit": "kpl",
    "isDiscounted": false
  },
  {
    "ean": "6410405084118",
    "urlSlug": "pirkka-parh-salaattikastike-250g-toscana-6410405084118",
    "name": "Pirkka Parhaat Toscana-salaattikastike 250g",
    "pictureUrls": [
      {
        "original": "https://public.keskofiles.com/f/k-ruoka/product/6410405084118"
      }
    ],
    "section": "4172",
    "departmentId": "115",
    "contentUnit": "KG",
    "contentSize": 0.25,
    "netWeight": 0.25,
    "available": true,
    "isUtility": false,
    "preprocessedPricing": {
      "products": {},
      "simplePromotions": {},
      "basketPromotions": {}
    },
    "tosPricing": {
      "basketPromotions": []
    },
    "simplePricePlussa": false,
    "pricingUnit": "kpl",
    "referencePrice": {
      "_type": "Big",
      "value": "8.76"
    },
    "visiblePrice": {
      "_type": "Big",
      "value": "2.19"
    },
    "visiblePriceUnit": "kpl",
    "isDiscounted": false
  },
  {
    "ean": "6410405078391",
    "urlSlug": "pirkka-dippi-330-g-barbeque-6410405078391",
    "name": "Pirkka barbequedippi 330g",
    "pictureUrls": [
      {
        "original": "https://public.keskofiles.com/f/k-ruoka/product/6410405078391"
      }
    ],
    "section": "4731",
    "departmentId": "115",
    "contentUnit": "KG",
    "contentSize": 0.33,
    "netWeight": 0.33,
    "available": true,
    "isUtility": false,
    "preprocessedPricing": {
      "products": {},
      "simplePromotions": {},
      "basketPromotions": {}
    },
    "tosPricing": {
      "basketPromotions": []
    },
    "simplePricePlussa": false,
    "pricingUnit": "kpl",
    "referencePrice": {
      "_type": "Big",
      "value": "5.75757575757575757576"
    },
    "visiblePrice": {
      "_type": "Big",
      "value": "1.9"
    },
    "visiblePriceUnit": "kpl",
    "isDiscounted": false
  }
]