[
  {
    "ean": "7311311004940",
    "urlSlug": "santa-maria-laakerinlehti-4g-7311311004940",
    "name": "Santa Maria laakerinlehti 4g",
    "pictureUrls": [
      {
        "original": "https://public.keskofiles.com/f/k-ruoka/product/7311311004940"
      }
    ],
    "section": "4100",
    "departmentId": "106",
    "contentUnit": "KG",
    "contentSize": 0.004,
    "netWeight": 0.004,
    "available": true,
    "isUtility": false,
    "preprocessedPricing": {
      "products": {},
      "simplePromotions": {},
      "basketPromotions": {}
    },
    "tosPricing": {
      "basketPromotions": []
    },
    "simplePricePlussa": false,
    "pricingUnit": "kpl",
    "referencePrice": {
      "_type": "Big",
      "value": "237.5"
    },
    "visiblePrice": {
      "_type": "Big",
      "value": "0.95"
    },
    "visiblePriceUnit": "kpl",
    "isDiscounted": false
  },
  {
    "ean": "5706779055405",
    "urlSlug": "earth-control-omenalastut-75g-5706779055405",
    "name": "Earth Control omenalastut 75g",
    "pictureUrls": [
      {
        "original": "https://public.keskofiles.com/f/k-ruoka/product/5706779055405"
      }
    ],
    "section": "4409",
    "departmentId": "106",
    "contentUnit": "KG",
    "contentSize": 0.075,
    "netWeight": 0.075,
    "available": true,
    "isUtility": false,
    "preprocessedPricing": {
      "products": {},
      "simplePromotions": {},
      "basketPromotions": {}
    },
    "tosPricing": {
      "basketPromotions": []
    },
    "simplePricePlussa": false,
    "pricingUnit": "kpl",
    "referencePrice": {
      "_type": "Big",
      "value": "39.86666666666666666667"
    },
    "visiblePrice": {
      "_type": "Big",
      "value": "2.99"
    },
    "visiblePriceUnit": "kpl",
    "isDiscounted": false,
    "discountType": "PLUSSA",
    "batchSize": 2,
    "batchPrice": {
      "_type": "Big",
      "value": "5"
    }
  },
  {
    "ean": "7311310028626",
    "urlSlug": "santa-maria-rub-herbs-22g-kuiva-marinadi-7311310028626",
    "name": "Santa Maria Rub Herbs 22g",
    "pictureUrls": [
      {
        "original": "https://public.keskofiles.com/f/k-ruoka/product/7311310028626"
      }
    ],
    "section": "4100",
    "departmentId": "106",
    "contentUnit": "KG",
    "contentSize": 0.022,
    "netWeight": 0.022,
    "available": true,
    "isUtility": false,
    "preprocessedPricing": {
      "products": {},
      "simplePromotions": {},
      "basketPromotions": {}
    },
    "tosPricing": {
      "basketPromotions": []
    },
    "simplePricePlussa": false,
    "pricingUnit": "kpl",
    "referencePrice": {
      "_type": "Big",
      "value": "52.27272727272727272727"
    },
    "visiblePrice": {
      "_type": "Big",
      "value": "1.15"
    },
    "visiblePriceUnit": "kpl",
    "isDiscounted": false
  },
  {
    "ean": "6414203400552",
    "urlSlug": "kirjava-strosseli-55g-6414203400552",
    "name": "Meira kirjava strösseli 55g leivontakoriste pussi",
    "pictureUrls": [
      {
        "original": "https://public.keskofiles.com/f/k-ruoka/product/6414203400552"
      }
    ],
    "section": "4113",
    "departmentId": "106",
    "contentUnit": "KG",
    "contentSize": 0.055,
    "netWeight": 0.055,
    "available": true,
    "isUtility": false,
    "preprocessedPricing": {
      "products": {},
      "simplePromotions": {},
      "basketPromotions": {}
    },
    "tosPricing": {
      "basketPromotions": []
    },
    "simplePricePlussa": false,
    "pricingUnit": "kpl",
    "referencePrice": {
      "_type": "Big",
      "value": "20.90909090909090909091"
    },
    "visiblePrice": {
      "_type": "Big",
      "value": "1.15"
    },
    "visiblePriceUnit": "kpl",
    "isDiscounted": false
  },
  {
    "ean": "7311311014581",
    "urlSlug": "santa-maria-maustepippuri-26g-jauhettu-7311311014581",
    "name": "Santa Maria maustepippuri jauhettu 26 g",
    "pictureUrls": [
      {
        "original": "https://public.keskofiles.com/f/k-ruoka/product/7311311014581"
      }
    ],
    "section": "4102",
    "departmentId": "106",
    "contentUnit": "KG",
    "contentSize": 0.026,
    "netWeight": 0.026,
    "available": true,
    "isUtility": false,
    "preprocessedPricing": {
      "products": {},
      "simplePromotions": {},
      "basketPromotions": {}
    },
    "tosPricing": {
      "basketPromotions": []
    },
    "simplePricePlussa": false,
    "pricingUnit": "kpl",
    "referencePrice": {
      "_type": "Big",
      "value": "68.84615384615384615385"
    },
    "visiblePrice": {
      "_type": "Big",
      "value": "1.79"
    },
    "visiblePriceUnit": "kpl",
    "isDiscounted": false
  },
  {
    "ean": "7311442162007",
    "urlSlug": "kavli-hampurilaiskastike-230g-sourcream-7311442162007",
    "name": "Kavli hampurilaiskastike 230g sourcream & onion",
    "pictureUrls": [
      {
        "original": "https://public.keskofiles.com/f/k-ruoka/product/7311442162007"
      }
    ],
    "section": "4173",
    "departmentId": "106",
    "contentUnit": "KG",
    "contentSize": 0.23,
    "netWeight": 0.23,
    "available": true,
    "isUtility": false,
    "preprocessedPricing": {
      "products": {},
      "simplePromotions": {},
      "basketPromotions": {}
    },
    "tosPricing": {
      "basketPromotions": []
    },
    "simplePricePlussa": false,
    "pricingUnit": "kpl",
    "referencePrice": {
      "_type": "Big",
      "value": "8.65217391304347826087"
    },
    "visiblePrice": {
      "_type": "Big",
      "value": "1.99"
    },
    "visiblePriceUnit": "kpl",
    "isDiscounted": true
  },
  {
    "ean": "5035139218113",
    "urlSlug": "grace-kookosoljy-500ml-5035139218113",
    "name": "Grace Kookosöljy 500ml",
    "pictureUrls": [
      {
        "original": "https://public.keskofiles.com/f/k-ruoka/product/5035139218113"
      }
    ],
    "section": "4192",
    "departmentId": "106",
    "contentUnit": "KG",
    "contentSize": 0.5,
    "netWeight": 0.46,
    "available": true,
    "isUtility": false,
    "preprocessedPricing": {
      "products": {},
      "simplePromotions": {},
      "basketPromotions": {}
    },
    "tosPricing": {
      "basketPromotions": []
    },
    "simplePricePlussa": false,
    "pricingUnit": "kpl",
    "referencePrice": {
      "_type": "Big",
      "value": "12.98"
    },
    "visiblePrice": {
      "_type": "Big",
      "value": "6.49"
    },
    "visiblePriceUnit": "kpl",
    "isDiscounted": false
  },
  {
    "ean": "6408641198249",
    "urlSlug": "pirkka-salviapesto-135g-6408641198249",
    "name": "Pirkka salviapesto 135g",
    "pictureUrls": [
      {
        "original": "https://public.keskofiles.com/f/k-ruoka/product/6408641198249"
      }
    ],
    "section": "4177",
    "departmentId": "106",
    "contentUnit": "KG",
    "contentSize": 0.135,
    "netWeight": 0.135,
    "available": true,
    "isUtility": false,
    "preprocessedPricing": {
      "products": {},
      "simplePromotions": {},
      "basketPromotions": {}
    },
    "tosPricing": {
      "basketPromotions": []
    },
    "simplePricePlussa": false,
    "pricingUnit": "kpl",
    "referencePrice": {
      "_type": "Big",
      "value": "14.07407407407407407407"
    },
    "visiblePrice": {
      "_type": "Big",
      "value": "1.9"
    },
    "visiblePriceUnit": "kpl",
    "isDiscounted": false
  },
  {
    "ean": "6414201001287",
    "urlSlug": "ala-meira-intialainen-mausteseos-28g-ps-6414201001287",
    "name": "Meira Mausteseos 28g intialainen",
    "pictureUrls": [
      {
        "original": "https://public.keskofiles.com/f/k-ruoka/product/6414201001287"
      }
    ],
    "section": "4100",
    "departmentId": "106",
    "contentUnit": "KG",
    "contentSize": 0.028,
    "netWeight": 0.028,
    "available": true,
    "isUtility": false,
    "preprocessedPricing": {
      "products": {},
      "simplePromotions": {},
      "basketPromotions": {}
    },
    "tosPricing": {
      "basketPromotions": []
    },
    "simplePricePlussa": false,
    "pricingUnit": "kpl",
    "referencePrice": {
      "_type": "Big",
      "value": "35.35714285714285714286"
    },
    "visiblePrice": {
      "_type": "Big",
      "value": "0.99"
    },
    "visiblePriceUnit": "kpl",
    "isDiscounted": false
  },
  {
    "ean": "6411410000247",
    "urlSlug": "sam-kesakukka-hunaja-450g-juokseva-6411410000247",
    "name": "SAM Kesäkukka hunaja juokseva 450g",
    "pictureUrls": [
      {
        "original": "https://public.keskofiles.com/f/k-ruoka/product/6411410000247"
      }
    ],
    "section": "3603",
    "departmentId": "106",
    "contentUnit": "KG",
    "contentSize": 0.45,
    "netWeight": 0.45,
    "available": true,
    "isUtility": false,
    "preprocessedPricing": {
      "products": {},
      "simplePromotions": {},
      "basketPromotions": {}
    },
    "tosPricing": {
      "basketPromotions": []
    },
    "simplePricePlussa": false,
    "pricingUnit": "kpl",
    "referencePrice": {
      "_type": "Big",
      "value": "9.88888888888888888889"
    },
    "visiblePrice": {
      "_type": "Big",
      "value": "4.45"
    },
    "visiblePriceUnit": "kpl",
    "isDiscounted": false
  },
  {
    "ean": "5701038033224",
    "urlSlug": "green-choice-creamy-maapahkvoi-350g-luo-5701038033224",
    "name": "Green Choice Creamy maapähkinävoi 350g luomu",
    "pictureUrls": [
      {
        "original": "https://public.keskofiles.com/f/k-ruoka/product/5701038033224"
      }
    ],
    "section": "3205",
    "departmentId": "106",
    "contentUnit": "KG",
    "contentSize": 0.35,
    "netWeight": 0.35,
    "available": true,
    "isUtility": false,
    "preprocessedPricing": {
      "products": {},
      "simplePromotions": {},
      "basketPromotions": {}
    },
    "tosPricing": {
      "basketPromotions": []
    },
    "simplePricePlussa": false,
    "pricingUnit": "kpl",
    "referencePrice": {
      "_type": "Big",
      "value": "13.57142857142857142857"
    },
    "visiblePrice": {
      "_type": "Big",
      "value": "4.75"
    },
    "visiblePriceUnit": "kpl",
    "isDiscounted": false
  },
  {
    "ean": "8712100498848",
    "urlSlug": "knorr-fond-du-chef-4x28g-naudanlihafondi-8712100498848",
    "name": "Knorr Fond du Chef tumma naudanliha-annosfondi 4x28g",
    "pictureUrls": [
      {
        "original": "https://public.keskofiles.com/f/k-ruoka/product/8712100498848"
      }
    ],
    "section": "4181",
    "departmentId": "106",
    "contentUnit": "KG",
    "contentSize": 0.112,
    "netWeight": 0.112,
    "available": true,
    "isUtility": false,
    "preprocessedPricing": {
      "products": {},
      "simplePromotions": {},
      "basketPromotions": {}
    },
    "tosPricing": {
      "basketPromotions": []
    },
    "simplePricePlussa": false,
    "pricingUnit": "kpl",
    "referencePrice": {
      "_type": "Big",
      "value": "14.19642857142857142857"
    },
    "visiblePrice": {
      "_type": "Big",
      "value": "1.59"
    },
    "visiblePriceUnit": "kpl",
    "isDiscounted": false
  },
  {
    "ean": "8712566175086",
    "urlSlug": "hellmanns-majoneesi-250ml-valkosipuli-8712566175086",
    "name": "Hellmannn's Valkosipuli majoneesi 250 ml",
    "pictureUrls": [
      {
        "original": "https://public.keskofiles.com/f/k-ruoka/product/8712566175086"
      }
    ],
    "section": "4173",
    "departmentId": "106",
    "contentUnit": "L",
    "contentSize": 0.25,
    "netWeight": 0.253,
    "available": true,
    "isUtility": false,
    "preprocessedPricing": {
      "products": {},
      "simplePromotions": {},
      "basketPromotions": {}
    },
    "tosPricing": {
      "basketPromotions": []
    },
    "simplePricePlussa": false,
    "pricingUnit": "kpl",
    "referencePrice": {
      "_type": "Big",
      "value": "12.36"
    },
    "visiblePrice": {
      "_type": "Big",
      "value": "3.09"
    },
    "visiblePriceUnit": "kpl",
    "isDiscounted": false
  },
  {
    "ean": "6417808284510",
    "urlSlug": "felix-ranskanperunakastike-280g-6417808284510",
    "name": "Felix ranskanperunakastike 280g",
    "pictureUrls": [],
    "section": "4173",
    "departmentId": "106",
    "contentUnit": "KG",
    "contentSize": 0.28,
    "netWeight": 0.28,
    "available": true,
    "isUtility": false,
    "preprocessedPricing": {
      "products": {},
      "simplePromotions": {},
      "basketPromotions": {}
    },
    "tosPricing": {
      "basketPromotions": []
    },
    "simplePricePlussa": false,
    "pricingUnit": "kpl",
    "referencePrice": {
      "_type": "Big",
      "value": "9.60714285714285714286"
    },
    "visiblePrice": {
      "_type": "Big",
      "value": "2.69"
    },
    "visiblePriceUnit": "kpl",
    "isDiscounted": false
  },
  {
    "ean": "6417700052446",
    "urlSlug": "myllyn-paras-durumvehnajauho-1kg-6417700052446",
    "name": "Myllyn Paras Durumvehnäjauho 1 kg",
    "pictureUrls": [
      {
        "original": "https://public.keskofiles.com/f/k-ruoka/product/6417700052446"
      }
    ],
    "section": "3000",
    "departmentId": "106",
    "contentUnit": "KG",
    "contentSize": 1,
    "netWeight": 1,
    "available": true,
    "isUtility": false,
    "preprocessedPricing": {
      "products": {},
      "simplePromotions": {},
      "basketPromotions": {}
    },
    "tosPricing": {
      "basketPromotions": []
    },
    "simplePricePlussa": false,
    "pricingUnit": "kpl",
    "referencePrice": {
      "_type": "Big",
      "value": "1.85"
    },
    "visiblePrice": {
      "_type": "Big",
      "value": "1.85"
    },
    "visiblePriceUnit": "kpl",
    "isDiscounted": false
  },
  {
    "ean": "7311442162601",
    "urlSlug": "kavli-hot-dog-kastike-230g-7311442162601",
    "name": "Kavli hot dog kastike 230g",
    "pictureUrls": [
      {
        "original": "https://public.keskofiles.com/f/k-ruoka/product/7311442162601"
      }
    ],
    "section": "4173",
    "departmentId": "106",
    "contentUnit": "KG",
    "contentSize": 0.23,
    "netWeight": 0.23,
    "available": true,
    "isUtility": false,
    "preprocessedPricing": {
      "products": {},
      "simplePromotions": {},
      "basketPromotions": {}
    },
    "tosPricing": {
      "basketPromotions": []
    },
    "simplePricePlussa": false,
    "pricingUnit": "kpl",
    "referencePrice": {
      "_type": "Big",
      "value": "8.65217391304347826087"
    },
    "visiblePrice": {
      "_type": "Big",
      "value": "1.99"
    },
    "visiblePriceUnit": "kpl",
    "isDiscounted": true
  },
  {
    "ean": "6420610111967",
    "urlSlug": "bonne-banaanisose-05l-premium-100-6420610111967",
    "name": "Bonne premium banaanisose 100% 0,5l",
    "pictureUrls": [
      {
        "original": "https://public.keskofiles.com/f/k-ruoka/product/6420610111967"
      }
    ],
    "section": "3207",
    "departmentId": "106",
    "contentUnit": "L",
    "contentSize": 0.5,
    "netWeight": 0.518,
    "available": true,
    "isUtility": false,
    "preprocessedPricing": {
      "products": {},
      "simplePromotions": {},
      "basketPromotions": {}
    },
    "tosPricing": {
      "basketPromotions": []
    },
    "simplePricePlussa": false,
    "pricingUnit": "kpl",
    "referencePrice": {
      "_type": "Big",
      "value": "5.5"
    },
    "visiblePrice": {
      "_type": "Big",
      "value": "2.75"
    },
    "visiblePriceUnit": "kpl",
    "isDiscounted": false
  },
  {
    "ean": "0075500670022",
    "urlSlug": "texaspete-orginal-hotsauce355ml-mausteka-0075500670022",
    "name": "TexasPete orginal hotsauce355ml maustekastike",
    "pictureUrls": [
      {
        "original": "https://public.keskofiles.com/f/k-ruoka/product/0075500670022"
      }
    ],
    "section": "4179",
    "departmentId": "106",
    "contentUnit": "L",
    "contentSize": 0.355,
    "netWeight": 0.355,
    "available": true,
    "isUtility": false,
    "preprocessedPricing": {
      "products": {},
      "simplePromotions": {},
      "basketPromotions": {}
    },
    "tosPricing": {
      "basketPromotions": []
    },
    "simplePricePlussa": false,
    "pricingUnit": "kpl",
    "referencePrice": {
      "_type": "Big",
      "value": "12.53521126760563380282"
    },
    "visiblePrice": {
      "_type": "Big",
      "value": "4.45"
    },
    "visiblePriceUnit": "kpl",
    "isDiscounted": false
  },
  {
    "ean": "0075500670114",
    "urlSlug": "texas-pete-buffalo-wing-sauce-355ml-maus-0075500670114",
    "name": "Texas Pete buffalo wing sauce 355ml maustekastike",
    "pictureUrls": [],
    "section": "4175",
    "departmentId": "106",
    "contentUnit": "L",
    "contentSize": 0.355,
    "netWeight": 0.37,
    "available": true,
    "isUtility": false,
    "preprocessedPricing": {
      "products": {},
      "simplePromotions": {},
      "basketPromotions": {}
    },
    "tosPricing": {
      "basketPromotions": []
    },
    "simplePricePlussa": false,
    "pricingUnit": "kpl",
    "referencePrice": {
      "_type": "Big",
      "value": "14.90140845070422535211"
    },
    "visiblePrice": {
      "_type": "Big",
      "value": "5.29"
    },
    "visiblePriceUnit": "kpl",
    "isDiscounted": false
  },
  {
    "ean": "0000087157956",
    "urlSlug": "heinz-ketchup-220ml--jalapeno-chili-0000087157956",
    "name": "Heinz ketchup 220ml  jalapeno-chili",
    "pictureUrls": [
      {
        "original": "https://public.keskofiles.com/f/k-ruoka/product/0000087157956"
      }
    ],
    "section": "4170",
    "departmentId": "106",
    "contentUnit": "L",
    "contentSize": 0.22,
    "netWeight": 0.268,
    "available": true,
    "isUtility": false,
    "preprocessedPricing": {
      "products": {},
      "simplePromotions": {},
      "basketPromotions": {}
    },
    "tosPricing": {
      "basketPromotions": []
    },
    "simplePricePlussa": false,
    "pricingUnit": "kpl",
    "referencePrice": {
      "_type": "Big",
      "value": "9.5"
    },
    "visiblePrice": {
      "_type": "Big",
      "value": "2.09"
    },
    "visiblePriceUnit": "kpl",
    "isDiscounted": false
  },
  {
    "ean": "0000096137055",
    "urlSlug": "eat-natural-45g-vaahterasiirappi-pahkina-0000096137055",
    "name": "Eat Natural 45g Vaahterasiirappi pähkinä",
    "pictureUrls": [
      {
        "original": "https://public.keskofiles.com/f/k-ruoka/product/0000096137055"
      }
    ],
    "section": "4419",
    "departmentId": "106",
    "contentUnit": "KG",
    "contentSize": 0.045,
    "netWeight": 0.045,
    "available": true,
    "isUtility": false,
    "preprocessedPricing": {
      "products": {},
      "simplePromotions": {},
      "basketPromotions": {}
    },
    "tosPricing": {
      "basketPromotions": []
    },
    "simplePricePlussa": false,
    "pricingUnit": "kpl",
    "referencePrice": {
      "_type": "Big",
      "value": "34.44444444444444444444"
    },
    "visiblePrice": {
      "_type": "Big",
      "value": "1.55"
    },
    "visiblePriceUnit": "kpl",
    "isDiscounted": false
  },
  {
    "ean": "0000096137062",
    "urlSlug": "eat-natural-45g-omena-inki-tumma-suklaa-0000096137062",
    "name": "Eat Natural 45g Omena inkivääri ja tumma suklaa",
    "pictureUrls": [
      {
        "original": "https://public.keskofiles.com/f/k-ruoka/product/0000096137062"
      }
    ],
    "section": "4419",
    "departmentId": "106",
    "contentUnit": "KG",
    "contentSize": 0.045,
    "netWeight": 0.045,
    "available": true,
    "isUtility": false,
    "preprocessedPricing": {
      "products": {},
      "simplePromotions": {},
      "basketPromotions": {}
    },
    "tosPricing": {
      "basketPromotions": []
    },
    "simplePricePlussa": false,
    "pricingUnit": "kpl",
    "referencePrice": {
      "_type": "Big",
      "value": "34.44444444444444444444"
    },
    "visiblePrice": {
      "_type": "Big",
      "value": "1.55"
    },
    "visiblePriceUnit": "kpl",
    "isDiscounted": false
  },
  {
    "ean": "6436501005956",
    "urlSlug": "sallinen-pihvimauste-500g-6436501005956-n106",
    "name": "Sallinen Pihvimauste 500g",
    "storeId": "N106",
    "pictureUrls": [
      {
        "original": "https://public.keskofiles.com/f/k-ruoka/N106/product/6436501005956"
      }
    ],
    "section": "4103",
    "departmentId": "106",
    "contentUnit": "kpl",
    "contentSize": 0.5,
    "available": true,
    "isUtility": false,
    "preprocessedPricing": {
      "products": {},
      "simplePromotions": {},
      "basketPromotions": {}
    },
    "tosPricing": {
      "basketPromotions": []
    },
    "simplePricePlussa": false,
    "pricingUnit": "kpl",
    "referencePrice": {
      "_type": "Big",
      "value": "15.98"
    },
    "visiblePrice": {
      "_type": "Big",
      "value": "7.99"
    },
    "visiblePriceUnit": "kpl",
    "isDiscounted": false
  },
  {
    "ean": "6436501001972",
    "urlSlug": "sallinen-nonparelli-monivari-100g-6436501001972-n106",
    "name": "Sallinen Nonparelli moniväri 100g",
    "storeId": "N106",
    "pictureUrls": [
      {
        "original": "https://public.keskofiles.com/f/k-ruoka/N106/product/6436501001972"
      }
    ],
    "section": "4113",
    "departmentId": "106",
    "contentUnit": "kpl",
    "contentSize": 0.1,
    "available": true,
    "isUtility": false,
    "preprocessedPricing": {
      "products": {},
      "simplePromotions": {},
      "basketPromotions": {}
    },
    "tosPricing": {
      "basketPromotions": []
    },
    "simplePricePlussa": false,
    "pricingUnit": "kpl",
    "referencePrice": {
      "_type": "Big",
      "value": "12.9"
    },
    "visiblePrice": {
      "_type": "Big",
      "value": "1.29"
    },
    "visiblePriceUnit": "kpl",
    "isDiscounted": false
  },
  {
    "ean": "6436501025862",
    "urlSlug": "sallinen-appelsiininkuoripala-100g-6436501025862-n106",
    "name": "Sallinen Appelsiininkuoripala 100g",
    "storeId": "N106",
    "pictureUrls": [
      {
        "original": "https://public.keskofiles.com/f/k-ruoka/N106/product/6436501025862"
      }
    ],
    "section": "4113",
    "departmentId": "106",
    "contentUnit": "kpl",
    "contentSize": 0.1,
    "available": true,
    "isUtility": false,
    "preprocessedPricing": {
      "products": {},
      "simplePromotions": {},
      "basketPromotions": {}
    },
    "tosPricing": {
      "basketPromotions": []
    },
    "simplePricePlussa": false,
    "pricingUnit": "kpl",
    "referencePrice": {
      "_type": "Big",
      "value": "12.5"
    },
    "visiblePrice": {
      "_type": "Big",
      "value": "1.25"
    },
    "visiblePriceUnit": "kpl",
    "isDiscounted": false
  },
  {
    "ean": "6436501029976",
    "urlSlug": "sallinen-sokkerimassa-vihrea-250g-6436501029976-n106",
    "name": "Sallinen Sokkerimassa vihreä 250g",
    "storeId": "N106",
    "pictureUrls": [
      {
        "original": "https://public.keskofiles.com/f/k-ruoka/N106/product/6436501029976"
      }
    ],
    "section": "4115",
    "departmentId": "106",
    "contentUnit": "kpl",
    "contentSize": 0.25,
    "available": true,
    "isUtility": false,
    "preprocessedPricing": {
      "products": {},
      "simplePromotions": {},
      "basketPromotions": {}
    },
    "tosPricing": {
      "basketPromotions": []
    },
    "simplePricePlussa": false,
    "pricingUnit": "kpl",
    "referencePrice": {
      "_type": "Big",
      "value": "9.16"
    },
    "visiblePrice": {
      "_type": "Big",
      "value": "2.29"
    },
    "visiblePriceUnit": "kpl",
    "isDiscounted": false
  },
  {
    "ean": "6436501039302",
    "urlSlug": "sallinen-sokerimassa-ruskea-suklaanmakuinen-250g-6436501039302-n106",
    "name": "Sallinen Sokerimassa ruskea suklaanmakuinen 250g",
    "storeId": "N106",
    "pictureUrls": [
      {
        "original": "https://public.keskofiles.com/f/k-ruoka/N106/product/6436501039302"
      }
    ],
    "section": "4115",
    "departmentId": "106",
    "contentUnit": "kpl",
    "contentSize": 0.25,
    "available": true,
    "isUtility": false,
    "preprocessedPricing": {
      "products": {},
      "simplePromotions": {},
      "basketPromotions": {}
    },
    "tosPricing": {
      "basketPromotions": []
    },
    "simplePricePlussa": false,
    "pricingUnit": "kpl",
    "referencePrice": {
      "_type": "Big",
      "value": "9.16"
    },
    "visiblePrice": {
      "_type": "Big",
      "value": "2.29"
    },
    "visiblePriceUnit": "kpl",
    "isDiscounted": false
  },
  {
    "ean": "6436501037377",
    "urlSlug": "sallinen-sokerimassa-musta-250g-6436501037377-n106",
    "name": "Sallinen Sokerimassa musta 250g",
    "storeId": "N106",
    "pictureUrls": [
      {
        "original": "https://public.keskofiles.com/f/k-ruoka/N106/product/6436501037377"
      }
    ],
    "section": "4115",
    "departmentId": "106",
    "contentUnit": "kpl",
    "contentSize": 0.25,
    "available": true,
    "isUtility": false,
    "preprocessedPricing": {
      "products": {},
      "simplePromotions": {},
      "basketPromotions": {}
    },
    "tosPricing": {
      "basketPromotions": []
    },
    "simplePricePlussa": false,
    "pricingUnit": "kpl",
    "referencePrice": {
      "_type": "Big",
      "value": "9.16"
    },
    "visiblePrice": {
      "_type": "Big",
      "value": "2.29"
    },
    "visiblePriceUnit": "kpl",
    "isDiscounted": false
  },
  {
    "ean": "6436501044122",
    "urlSlug": "sallinen-sokerimassa-keltainen-250g-6436501044122-n106",
    "name": "Sallinen Sokerimassa keltainen 250g",
    "storeId": "N106",
    "pictureUrls": [
      {
        "original": "https://public.keskofiles.com/f/k-ruoka/N106/product/6436501044122"
      }
    ],
    "section": "4115",
    "departmentId": "106",
    "contentUnit": "kpl",
    "contentSize": 0.25,
    "available": true,
    "isUtility": false,
    "preprocessedPricing": {
      "products": {},
      "simplePromotions": {},
      "basketPromotions": {}
    },
    "tosPricing": {
      "basketPromotions": []
    },
    "simplePricePlussa": false,
    "pricingUnit": "kpl",
    "referencePrice": {
      "_type": "Big",
      "value": "9.16"
    },
    "visiblePrice": {
      "_type": "Big",
      "value": "2.29"
    },
    "visiblePriceUnit": "kpl",
    "isDiscounted": false
  },
  {
    "ean": "6436501008001",
    "urlSlug": "sallinen-marsipaani-sininen-250g-6436501008001-n106",
    "name": "Sallinen Marsipaani sininen 250g",
    "storeId": "N106",
    "pictureUrls": [
      {
        "original": "https://public.keskofiles.com/f/k-ruoka/N106/product/6436501008001"
      }
    ],
    "section": "4115",
    "departmentId": "106",
    "contentUnit": "kpl",
    "contentSize": 0.25,
    "available": true,
    "isUtility": false,
    "preprocessedPricing": {
      "products": {},
      "simplePromotions": {},
      "basketPromotions": {}
    },
    "tosPricing": {
      "basketPromotions": []
    },
    "simplePricePlussa": false,
    "pricingUnit": "kpl",
    "referencePrice": {
      "_type": "Big",
      "value": "13.96"
    },
    "visiblePrice": {
      "_type": "Big",
      "value": "3.49"
    },
    "visiblePriceUnit": "kpl",
    "isDiscounted": false
  }
]