[
  {
    "ean": "6430062469011",
    "urlSlug": "hhc-donitsi-100g-kana-6430062469011",
    "name": "HHC donitsi kanalla 100g",
    "pictureUrls": [
      {
        "original": "https://public.keskofiles.com/f/k-ruoka/product/6430062469011"
      }
    ],
    "section": "3715",
    "departmentId": "110",
    "contentUnit": "KG",
    "contentSize": 0.1,
    "netWeight": 0.1,
    "available": true,
    "isUtility": false,
    "preprocessedPricing": {
      "products": {},
      "simplePromotions": {},
      "basketPromotions": {}
    },
    "tosPricing": {
      "basketPromotions": []
    },
    "simplePricePlussa": false,
    "pricingUnit": "kpl",
    "referencePrice": {
      "_type": "Big",
      "value": "30.9"
    },
    "visiblePrice": {
      "_type": "Big",
      "value": "3.09"
    },
    "visiblePriceUnit": "kpl",
    "isDiscounted": false
  },
  {
    "ean": "4770608256289",
    "urlSlug": "dreamies-deli-catz-5x5g-harka-4770608256289",
    "name": "Dreamies deli catz 5x5g härkä",
    "pictureUrls": [
      {
        "original": "https://public.keskofiles.com/f/k-ruoka/product/4770608256289"
      }
    ],
    "section": "3702",
    "departmentId": "110",
    "contentUnit": "KG",
    "contentSize": 0.025,
    "netWeight": 0.025,
    "available": true,
    "isUtility": false,
    "preprocessedPricing": {
      "products": {},
      "simplePromotions": {},
      "basketPromotions": {}
    },
    "tosPricing": {
      "basketPromotions": []
    },
    "simplePricePlussa": false,
    "pricingUnit": "kpl",
    "referencePrice": {
      "_type": "Big",
      "value": "59.6"
    },
    "visiblePrice": {
      "_type": "Big",
      "value": "1.49"
    },
    "visiblePriceUnit": "kpl",
    "isDiscounted": false
  },
  {
    "ean": "6430043026967",
    "urlSlug": "hau-hau-champion-tayslihaherkut-12g-lamm-6430043026967",
    "name": "Hau-Hau Champion täyslihaherkut 12g Lammastikku",
    "pictureUrls": [
      {
        "original": "https://public.keskofiles.com/f/k-ruoka/product/6430043026967"
      }
    ],
    "section": "3714",
    "departmentId": "110",
    "contentUnit": "KPL",
    "contentSize": 1,
    "netWeight": 0.012,
    "available": true,
    "isUtility": false,
    "preprocessedPricing": {
      "products": {},
      "simplePromotions": {},
      "basketPromotions": {}
    },
    "tosPricing": {
      "basketPromotions": []
    },
    "simplePricePlussa": false,
    "pricingUnit": "kpl",
    "referencePrice": {
      "_type": "Big",
      "value": "0.41"
    },
    "visiblePrice": {
      "_type": "Big",
      "value": "0.41"
    },
    "visiblePriceUnit": "kpl",
    "isDiscounted": false
  },
  {
    "ean": "6430056888682",
    "urlSlug": "dpc-kissan-herkku-30g-anti-hairball-6430056888682",
    "name": "Deluxe PrimaCat meaty treats 30 g anti-hairball",
    "pictureUrls": [
      {
        "original": "https://public.keskofiles.com/f/k-ruoka/product/6430056888682"
      }
    ],
    "section": "3702",
    "departmentId": "110",
    "contentUnit": "KG",
    "contentSize": 0.03,
    "netWeight": 0.037,
    "available": true,
    "isUtility": false,
    "preprocessedPricing": {
      "products": {},
      "simplePromotions": {},
      "basketPromotions": {}
    },
    "tosPricing": {
      "basketPromotions": []
    },
    "simplePricePlussa": false,
    "pricingUnit": "kpl",
    "referencePrice": {
      "_type": "Big",
      "value": "48.33333333333333333333"
    },
    "visiblePrice": {
      "_type": "Big",
      "value": "1.45"
    },
    "visiblePriceUnit": "kpl",
    "isDiscounted": false
  },
  {
    "ean": "7613030473404",
    "urlSlug": "gourmet-perle-pussi-85g-kaniini-7613030473404",
    "name": "Gourmet Perle Kaniinia kastikkeessa 85g kissanruoka",
    "pictureUrls": [
      {
        "original": "https://public.keskofiles.com/f/k-ruoka/product/7613030473404"
      }
    ],
    "section": "3707",
    "departmentId": "110",
    "contentUnit": "KG",
    "contentSize": 0.085,
    "netWeight": 0.085,
    "available": true,
    "isUtility": false,
    "preprocessedPricing": {
      "products": {},
      "simplePromotions": {},
      "basketPromotions": {}
    },
    "tosPricing": {
      "basketPromotions": []
    },
    "simplePricePlussa": false,
    "pricingUnit": "kpl",
    "referencePrice": {
      "_type": "Big",
      "value": "9.29411764705882352941"
    },
    "visiblePrice": {
      "_type": "Big",
      "value": "0.79"
    },
    "visiblePriceUnit": "kpl",
    "isDiscounted": true,
    "discountType": "PLUSSA",
    "plussaDiscountPercentage": {
      "_type": "Big",
      "value": "-15.611814345991561181"
    },
    "batchSize": 6,
    "batchPrice": {
      "_type": "Big",
      "value": "4"
    }
  },
  {
    "ean": "4008429046483",
    "urlSlug": "whiskas-meaty-sticks-3x6g-kana-4008429046483",
    "name": "Whiskas Meaty Sticks 3x6g Kana",
    "pictureUrls": [
      {
        "original": "https://public.keskofiles.com/f/k-ruoka/product/4008429046483"
      }
    ],
    "section": "3702",
    "departmentId": "110",
    "contentUnit": "KG",
    "contentSize": 0.018,
    "netWeight": 0.018,
    "available": true,
    "isUtility": false,
    "preprocessedPricing": {
      "products": {},
      "simplePromotions": {},
      "basketPromotions": {}
    },
    "tosPricing": {
      "basketPromotions": []
    },
    "simplePricePlussa": false,
    "pricingUnit": "kpl",
    "referencePrice": {
      "_type": "Big",
      "value": "55"
    },
    "visiblePrice": {
      "_type": "Big",
      "value": "0.99"
    },
    "visiblePriceUnit": "kpl",
    "isDiscounted": false
  },
  {
    "ean": "3065890122512",
    "urlSlug": "sheba-speciale-annosateria-85g-kalkkuna-3065890122512",
    "name": "Sheba Speciale kalkkuna kastike 85g",
    "pictureUrls": [
      {
        "original": "https://public.keskofiles.com/f/k-ruoka/product/3065890122512"
      }
    ],
    "section": "3700",
    "departmentId": "110",
    "contentUnit": "KG",
    "contentSize": 0.085,
    "netWeight": 0.085,
    "available": true,
    "isUtility": false,
    "preprocessedPricing": {
      "products": {},
      "simplePromotions": {},
      "basketPromotions": {}
    },
    "tosPricing": {
      "basketPromotions": []
    },
    "simplePricePlussa": false,
    "pricingUnit": "kpl",
    "referencePrice": {
      "_type": "Big",
      "value": "9.29411764705882352941"
    },
    "visiblePrice": {
      "_type": "Big",
      "value": "0.79"
    },
    "visiblePriceUnit": "kpl",
    "isDiscounted": false
  },
  {
    "ean": "3065890136397",
    "urlSlug": "sheba-sauce-85g-kalkkuna-kana-3065890136397",
    "name": "Sheba Sauce 85g kalkkuna kana",
    "pictureUrls": [
      {
        "original": "https://public.keskofiles.com/f/k-ruoka/product/3065890136397"
      }
    ],
    "section": "3700",
    "departmentId": "110",
    "contentUnit": "KG",
    "contentSize": 0.085,
    "netWeight": 0.085,
    "available": true,
    "isUtility": false,
    "preprocessedPricing": {
      "products": {},
      "simplePromotions": {},
      "basketPromotions": {}
    },
    "tosPricing": {
      "basketPromotions": []
    },
    "simplePricePlussa": false,
    "pricingUnit": "kpl",
    "referencePrice": {
      "_type": "Big",
      "value": "9.29411764705882352941"
    },
    "visiblePrice": {
      "_type": "Big",
      "value": "0.79"
    },
    "visiblePriceUnit": "kpl",
    "isDiscounted": false
  },
  {
    "ean": "5700551128509",
    "urlSlug": "bf-herkkuluutikku-ankkafileella-6kpl-78g-5700551128509",
    "name": "Best Friend Bones herkkuluutikku ankkafileellä 6kpl 78g",
    "pictureUrls": [
      {
        "original": "https://public.keskofiles.com/f/k-ruoka/product/5700551128509"
      }
    ],
    "section": "3715",
    "departmentId": "110",
    "contentUnit": "KG",
    "contentSize": 0.078,
    "netWeight": 0.078,
    "available": true,
    "isUtility": false,
    "preprocessedPricing": {
      "products": {},
      "simplePromotions": {},
      "basketPromotions": {}
    },
    "tosPricing": {
      "basketPromotions": []
    },
    "simplePricePlussa": false,
    "pricingUnit": "kpl",
    "referencePrice": {
      "_type": "Big",
      "value": "21.66666666666666666667"
    },
    "visiblePrice": {
      "_type": "Big",
      "value": "1.69"
    },
    "visiblePriceUnit": "kpl",
    "isDiscounted": false
  },
  {
    "ean": "6430049621333",
    "urlSlug": "hhc-koiran-sp-pate-100g-kana-riisi-jr-6430049621333",
    "name": "Hau-Hau Champion kana- ja riisipate pennuille 100g",
    "pictureUrls": [
      {
        "original": "https://public.keskofiles.com/f/k-ruoka/product/6430049621333"
      }
    ],
    "section": "3716",
    "departmentId": "110",
    "contentUnit": "KG",
    "contentSize": 0.1,
    "netWeight": 0.1,
    "available": true,
    "isUtility": false,
    "preprocessedPricing": {
      "products": {},
      "simplePromotions": {},
      "basketPromotions": {}
    },
    "tosPricing": {
      "basketPromotions": []
    },
    "simplePricePlussa": false,
    "pricingUnit": "kpl",
    "referencePrice": {
      "_type": "Big",
      "value": "11.5"
    },
    "visiblePrice": {
      "_type": "Big",
      "value": "1.15"
    },
    "visiblePriceUnit": "kpl",
    "isDiscounted": false
  },
  {
    "ean": "6430062468984",
    "urlSlug": "hhc-purukeppi-230g-32cm-kana-6430062468984",
    "name": "HHC puruluut purukeppi 230g 32cm kana",
    "pictureUrls": [
      {
        "original": "https://public.keskofiles.com/f/k-ruoka/product/6430062468984"
      }
    ],
    "section": "3715",
    "departmentId": "110",
    "contentUnit": "KG",
    "contentSize": 0.23,
    "netWeight": 0.245,
    "available": true,
    "isUtility": false,
    "preprocessedPricing": {
      "products": {},
      "simplePromotions": {},
      "basketPromotions": {}
    },
    "tosPricing": {
      "basketPromotions": []
    },
    "simplePricePlussa": false,
    "pricingUnit": "kpl",
    "referencePrice": {
      "_type": "Big",
      "value": "23.26086956521739130435"
    },
    "visiblePrice": {
      "_type": "Big",
      "value": "5.35"
    },
    "visiblePriceUnit": "kpl",
    "isDiscounted": false
  },
  {
    "ean": "5998749110829",
    "urlSlug": "pedigree-dentastix-4x270g-large-5998749110829",
    "name": "Pedigree DentaStix large 4x270g",
    "pictureUrls": [
      {
        "original": "https://public.keskofiles.com/f/k-ruoka/product/5998749110829"
      }
    ],
    "section": "3715",
    "departmentId": "110",
    "contentUnit": "KG",
    "contentSize": 1.08,
    "netWeight": 1.08,
    "available": true,
    "isUtility": false,
    "preprocessedPricing": {
      "products": {},
      "simplePromotions": {},
      "basketPromotions": {}
    },
    "tosPricing": {
      "basketPromotions": []
    },
    "simplePricePlussa": false,
    "pricingUnit": "kpl",
    "referencePrice": {
      "_type": "Big",
      "value": "6.01851851851851851852"
    },
    "visiblePrice": {
      "_type": "Big",
      "value": "6.5"
    },
    "visiblePriceUnit": "kpl",
    "isDiscounted": true
  },
  {
    "ean": "5998749107898",
    "urlSlug": "pedigree-dentastix-4x180g-medium-5998749107898",
    "name": "Pedigree Denta Stix 4x180g medium monipak",
    "pictureUrls": [
      {
        "original": "https://public.keskofiles.com/f/k-ruoka/product/5998749107898"
      }
    ],
    "section": "3715",
    "departmentId": "110",
    "contentUnit": "KG",
    "contentSize": 0.72,
    "netWeight": 0.72,
    "available": true,
    "isUtility": false,
    "preprocessedPricing": {
      "products": {},
      "simplePromotions": {},
      "basketPromotions": {}
    },
    "tosPricing": {
      "basketPromotions": []
    },
    "simplePricePlussa": false,
    "pricingUnit": "kpl",
    "referencePrice": {
      "_type": "Big",
      "value": "6.94444444444444444444"
    },
    "visiblePrice": {
      "_type": "Big",
      "value": "5"
    },
    "visiblePriceUnit": "kpl",
    "isDiscounted": true
  },
  {
    "ean": "6430062467703",
    "urlSlug": "hhc-hau-hau-parhaat-450g-6430062467703",
    "name": "Hau-Hau Champion Hau-Haun parhaat 450g",
    "pictureUrls": [
      {
        "original": "https://public.keskofiles.com/f/k-ruoka/product/6430062467703"
      }
    ],
    "section": "3714",
    "departmentId": "110",
    "contentUnit": "KG",
    "contentSize": 0.45,
    "netWeight": 0.525,
    "available": true,
    "isUtility": false,
    "preprocessedPricing": {
      "products": {},
      "simplePromotions": {},
      "basketPromotions": {}
    },
    "tosPricing": {
      "basketPromotions": []
    },
    "simplePricePlussa": false,
    "pricingUnit": "kpl",
    "referencePrice": {
      "_type": "Big",
      "value": "6.64444444444444444444"
    },
    "visiblePrice": {
      "_type": "Big",
      "value": "2.99"
    },
    "visiblePriceUnit": "kpl",
    "isDiscounted": true
  },
  {
    "ean": "6430056887173",
    "urlSlug": "primadog-kuivaruoka-15kg-lohi-peruna-6430056887173",
    "name": "Prima Dog täysravinto aikuisille koirille 1,5kg lohi ja peruna, viljaton",
    "pictureUrls": [
      {
        "original": "https://public.keskofiles.com/f/k-ruoka/product/6430056887173"
      }
    ],
    "section": "3712",
    "departmentId": "110",
    "contentUnit": "KG",
    "contentSize": 1.5,
    "netWeight": 1.53,
    "available": true,
    "isUtility": false,
    "preprocessedPricing": {
      "products": {},
      "simplePromotions": {},
      "basketPromotions": {}
    },
    "tosPricing": {
      "basketPromotions": []
    },
    "simplePricePlussa": false,
    "pricingUnit": "kpl",
    "referencePrice": {
      "_type": "Big",
      "value": "8.2"
    },
    "visiblePrice": {
      "_type": "Big",
      "value": "12.3"
    },
    "visiblePriceUnit": "kpl",
    "isDiscounted": false
  },
  {
    "ean": "4008429511110",
    "urlSlug": "cesar-classics-150g-liha-maksa-4008429511110",
    "name": "Cesar Classics 150g liha-maksa",
    "pictureUrls": [
      {
        "original": "https://public.keskofiles.com/f/k-ruoka/product/4008429511110"
      }
    ],
    "section": "3716",
    "departmentId": "110",
    "contentUnit": "KG",
    "contentSize": 0.15,
    "netWeight": 0.15,
    "available": true,
    "isUtility": false,
    "preprocessedPricing": {
      "products": {},
      "simplePromotions": {},
      "basketPromotions": {}
    },
    "tosPricing": {
      "basketPromotions": []
    },
    "simplePricePlussa": false,
    "pricingUnit": "kpl",
    "referencePrice": {
      "_type": "Big",
      "value": "7"
    },
    "visiblePrice": {
      "_type": "Big",
      "value": "1.05"
    },
    "visiblePriceUnit": "kpl",
    "isDiscounted": false
  },
  {
    "ean": "6430043027513",
    "urlSlug": "hhc--puruluurulla-kevyt-13cm-15kpl-525g-6430043027513",
    "name": "Hau-Hau Champion kevytrulla 13cm 15kpl 525g",
    "pictureUrls": [
      {
        "original": "https://public.keskofiles.com/f/k-ruoka/product/6430043027513"
      }
    ],
    "section": "3718",
    "departmentId": "110",
    "contentUnit": "KG",
    "contentSize": 0.525,
    "netWeight": 0.525,
    "available": true,
    "isUtility": false,
    "preprocessedPricing": {
      "products": {},
      "simplePromotions": {},
      "basketPromotions": {}
    },
    "tosPricing": {
      "basketPromotions": []
    },
    "simplePricePlussa": false,
    "pricingUnit": "kpl",
    "referencePrice": {
      "_type": "Big",
      "value": "20.0952380952380952381"
    },
    "visiblePrice": {
      "_type": "Big",
      "value": "10.55"
    },
    "visiblePriceUnit": "kpl",
    "isDiscounted": false
  }
]