[
  {
    "ean": "6430043027537",
    "urlSlug": "hhc--kierretikku-600g-6430043027537",
    "name": "Hau-Hau Champion kierretikku 600 g",
    "pictureUrls": [
      {
        "original": "https://public.keskofiles.com/f/k-ruoka/product/6430043027537"
      }
    ],
    "section": "3718",
    "departmentId": "110",
    "contentUnit": "KG",
    "contentSize": 0.6,
    "netWeight": 0.6,
    "available": true,
    "isUtility": false,
    "preprocessedPricing": {
      "products": {},
      "simplePromotions": {},
      "basketPromotions": {}
    },
    "tosPricing": {
      "basketPromotions": []
    },
    "simplePricePlussa": false,
    "pricingUnit": "kpl",
    "referencePrice": {
      "_type": "Big",
      "value": "20.5"
    },
    "visiblePrice": {
      "_type": "Big",
      "value": "12.3"
    },
    "visiblePriceUnit": "kpl",
    "isDiscounted": false
  },
  {
    "ean": "4008429030611",
    "urlSlug": "frolic-koiran-taysr-4kg-liha-vih-vilja-4008429030611",
    "name": "Frolic kuivaruoka 4kg liha-vihannes-vilja",
    "pictureUrls": [
      {
        "original": "https://public.keskofiles.com/f/k-ruoka/product/4008429030611"
      }
    ],
    "section": "3717",
    "departmentId": "110",
    "contentUnit": "KG",
    "contentSize": 4,
    "netWeight": 4,
    "available": true,
    "isUtility": false,
    "preprocessedPricing": {
      "products": {},
      "simplePromotions": {},
      "basketPromotions": {}
    },
    "tosPricing": {
      "basketPromotions": []
    },
    "simplePricePlussa": false,
    "pricingUnit": "kpl",
    "referencePrice": {
      "_type": "Big",
      "value": "3.2125"
    },
    "visiblePrice": {
      "_type": "Big",
      "value": "12.85"
    },
    "visiblePriceUnit": "kpl",
    "isDiscounted": false
  },
  {
    "ean": "5700551129254",
    "urlSlug": "bones-3in1-kierrerulla-225g-sm-kana-5700551129254",
    "name": "Best Friend Bones 3in1 kierrerulla kanafileellä S/M 7kpl 225g",
    "pictureUrls": [
      {
        "original": "https://public.keskofiles.com/f/k-ruoka/product/5700551129254"
      }
    ],
    "section": "3715",
    "departmentId": "110",
    "contentUnit": "KG",
    "contentSize": 0.225,
    "netWeight": 0.225,
    "available": true,
    "isUtility": false,
    "preprocessedPricing": {
      "products": {},
      "simplePromotions": {},
      "basketPromotions": {}
    },
    "tosPricing": {
      "basketPromotions": []
    },
    "simplePricePlussa": false,
    "pricingUnit": "kpl",
    "referencePrice": {
      "_type": "Big",
      "value": "26"
    },
    "visiblePrice": {
      "_type": "Big",
      "value": "5.85"
    },
    "visiblePriceUnit": "kpl",
    "isDiscounted": false
  },
  {
    "ean": "7613030473466",
    "urlSlug": "gourmet-perle-pussi-85g-lohi-7613030473466",
    "name": "Gourmet Perle Lohta kastikkeessa 85g kissanruoka",
    "pictureUrls": [
      {
        "original": "https://public.keskofiles.com/f/k-ruoka/product/7613030473466"
      }
    ],
    "section": "3707",
    "departmentId": "110",
    "contentUnit": "KG",
    "contentSize": 0.085,
    "netWeight": 0.085,
    "available": true,
    "isUtility": false,
    "preprocessedPricing": {
      "products": {},
      "simplePromotions": {},
      "basketPromotions": {}
    },
    "tosPricing": {
      "basketPromotions": []
    },
    "simplePricePlussa": false,
    "pricingUnit": "kpl",
    "referencePrice": {
      "_type": "Big",
      "value": "9.29411764705882352941"
    },
    "visiblePrice": {
      "_type": "Big",
      "value": "0.79"
    },
    "visiblePriceUnit": "kpl",
    "isDiscounted": true,
    "discountType": "PLUSSA",
    "plussaDiscountPercentage": {
      "_type": "Big",
      "value": "-15.611814345991561181"
    },
    "batchSize": 6,
    "batchPrice": {
      "_type": "Big",
      "value": "4"
    }
  },
  {
    "ean": "6418510000818",
    "urlSlug": "risetti-nokittavaksi-kuor-kaura-15kg-6418510000818",
    "name": "Nokittavaksi kuorittu kaura 1,5 kg suomalainen",
    "pictureUrls": [
      {
        "original": "https://public.keskofiles.com/f/k-ruoka/product/6418510000818"
      }
    ],
    "section": "3739",
    "departmentId": "110",
    "contentUnit": "KG",
    "contentSize": 1.5,
    "netWeight": 1.5,
    "available": true,
    "isUtility": false,
    "preprocessedPricing": {
      "products": {},
      "simplePromotions": {},
      "basketPromotions": {}
    },
    "tosPricing": {
      "basketPromotions": []
    },
    "simplePricePlussa": false,
    "pricingUnit": "kpl",
    "referencePrice": {
      "_type": "Big",
      "value": "1.52666666666666666667"
    },
    "visiblePrice": {
      "_type": "Big",
      "value": "2.29"
    },
    "visiblePriceUnit": "kpl",
    "isDiscounted": false
  },
  {
    "ean": "6430062465914",
    "urlSlug": "hhc-lammasateria-260-g-6430062465914",
    "name": "Hau-Hau Champion lammasateria 260 g",
    "pictureUrls": [
      {
        "original": "https://public.keskofiles.com/f/k-ruoka/product/6430062465914"
      }
    ],
    "section": "3716",
    "departmentId": "110",
    "contentUnit": "KG",
    "contentSize": 0.26,
    "netWeight": 0.28,
    "available": true,
    "isUtility": false,
    "preprocessedPricing": {
      "products": {},
      "simplePromotions": {},
      "basketPromotions": {}
    },
    "tosPricing": {
      "basketPromotions": []
    },
    "simplePricePlussa": false,
    "pricingUnit": "kpl",
    "referencePrice": {
      "_type": "Big",
      "value": "5.96153846153846153846"
    },
    "visiblePrice": {
      "_type": "Big",
      "value": "1.55"
    },
    "visiblePriceUnit": "kpl",
    "isDiscounted": false
  },
  {
    "ean": "6430062465600",
    "urlSlug": "hhc-taytetty-purutikku-400g-13cm-6430062465600",
    "name": "Hau-Hau Champion herkkuluut täytetty purutikku 400g 13cm",
    "pictureUrls": [
      {
        "original": "https://public.keskofiles.com/f/k-ruoka/product/6430062465600"
      }
    ],
    "section": "3715",
    "departmentId": "110",
    "contentUnit": "KG",
    "contentSize": 0.4,
    "netWeight": 0.4,
    "available": true,
    "isUtility": false,
    "preprocessedPricing": {
      "products": {},
      "simplePromotions": {},
      "basketPromotions": {}
    },
    "tosPricing": {
      "basketPromotions": []
    },
    "simplePricePlussa": false,
    "pricingUnit": "kpl",
    "referencePrice": {
      "_type": "Big",
      "value": "21.625"
    },
    "visiblePrice": {
      "_type": "Big",
      "value": "8.65"
    },
    "visiblePriceUnit": "kpl",
    "isDiscounted": false
  },
  {
    "ean": "5700551129285",
    "urlSlug": "bf-bones-rulla-225g-7kpl-kanatayte-file-5700551129285",
    "name": "Best Friend bones pururulla kanatäytteellä ja kanafileellä 7kpl 225g",
    "pictureUrls": [
      {
        "original": "https://public.keskofiles.com/f/k-ruoka/product/5700551129285"
      }
    ],
    "section": "3715",
    "departmentId": "110",
    "contentUnit": "KG",
    "contentSize": 0.225,
    "netWeight": 0.225,
    "available": true,
    "isUtility": false,
    "preprocessedPricing": {
      "products": {},
      "simplePromotions": {},
      "basketPromotions": {}
    },
    "tosPricing": {
      "basketPromotions": []
    },
    "simplePricePlussa": false,
    "pricingUnit": "kpl",
    "referencePrice": {
      "_type": "Big",
      "value": "26.62222222222222222222"
    },
    "visiblePrice": {
      "_type": "Big",
      "value": "5.99"
    },
    "visiblePriceUnit": "kpl",
    "isDiscounted": false
  },
  {
    "ean": "6430056889078",
    "urlSlug": "hhc-taytetty-purutikku-600g-13cm-era-6430056889078",
    "name": "Hau Hau Täytetty purutikku 600g 13cm",
    "pictureUrls": [
      {
        "original": "https://public.keskofiles.com/f/k-ruoka/product/6430056889078"
      }
    ],
    "section": "3715",
    "departmentId": "110",
    "contentUnit": "KG",
    "contentSize": 0.6,
    "netWeight": 0.62,
    "available": true,
    "isUtility": false,
    "preprocessedPricing": {
      "products": {},
      "simplePromotions": {},
      "basketPromotions": {}
    },
    "tosPricing": {
      "basketPromotions": []
    },
    "simplePricePlussa": false,
    "pricingUnit": "kpl",
    "referencePrice": {
      "_type": "Big",
      "value": "16.58333333333333333333"
    },
    "visiblePrice": {
      "_type": "Big",
      "value": "9.95"
    },
    "visiblePriceUnit": "kpl",
    "isDiscounted": false
  },
  {
    "ean": "6430062465907",
    "urlSlug": "hhc-lohiateria-260-g-6430062465907",
    "name": "Hau-Hau Champion lohiateria 260 g",
    "pictureUrls": [
      {
        "original": "https://public.keskofiles.com/f/k-ruoka/product/6430062465907"
      }
    ],
    "section": "3716",
    "departmentId": "110",
    "contentUnit": "KG",
    "contentSize": 0.26,
    "netWeight": 0.28,
    "available": true,
    "isUtility": false,
    "preprocessedPricing": {
      "products": {},
      "simplePromotions": {},
      "basketPromotions": {}
    },
    "tosPricing": {
      "basketPromotions": []
    },
    "simplePricePlussa": false,
    "pricingUnit": "kpl",
    "referencePrice": {
      "_type": "Big",
      "value": "5.96153846153846153846"
    },
    "visiblePrice": {
      "_type": "Big",
      "value": "1.55"
    },
    "visiblePriceUnit": "kpl",
    "isDiscounted": false
  },
  {
    "ean": "7312134703027",
    "urlSlug": "dogman-adult-koiran-kuivaruoka-3kg-kana-7312134703027",
    "name": "Harmony by Dogman Adult koiran viljaton kuivaruoka 3kg kana",
    "pictureUrls": [
      {
        "original": "https://public.keskofiles.com/f/k-ruoka/product/7312134703027"
      }
    ],
    "section": "3712",
    "departmentId": "110",
    "contentUnit": "KG",
    "contentSize": 3,
    "netWeight": 3,
    "available": true,
    "isUtility": false,
    "preprocessedPricing": {
      "products": {},
      "simplePromotions": {},
      "basketPromotions": {}
    },
    "tosPricing": {
      "basketPromotions": []
    },
    "simplePricePlussa": false,
    "pricingUnit": "kpl",
    "referencePrice": {
      "_type": "Big",
      "value": "5.8"
    },
    "visiblePrice": {
      "_type": "Big",
      "value": "17.4"
    },
    "visiblePriceUnit": "kpl",
    "isDiscounted": false
  },
  {
    "ean": "7613035510371",
    "urlSlug": "latz-sensat-crunchy-10x100g40g-herk-vih-7613035510371",
    "name": "Latz Sensations Crunchy 10x100g+40g herkkulajitelma vihanneksilla",
    "pictureUrls": [
      {
        "original": "https://public.keskofiles.com/f/k-ruoka/product/7613035510371"
      }
    ],
    "section": "3707",
    "departmentId": "110",
    "contentUnit": "KG",
    "contentSize": 1.04,
    "netWeight": 1.04,
    "available": true,
    "isUtility": false,
    "preprocessedPricing": {
      "products": {},
      "simplePromotions": {},
      "basketPromotions": {}
    },
    "tosPricing": {
      "basketPromotions": []
    },
    "simplePricePlussa": false,
    "pricingUnit": "kpl",
    "referencePrice": {
      "_type": "Big",
      "value": "3.74038461538461538462"
    },
    "visiblePrice": {
      "_type": "Big",
      "value": "3.89"
    },
    "visiblePriceUnit": "kpl",
    "isDiscounted": false,
    "discountType": "PLUSSA",
    "batchSize": 2,
    "batchPrice": {
      "_type": "Big",
      "value": "7.5"
    }
  },
  {
    "ean": "6418333000354",
    "urlSlug": "osku-auringonk-siem-linnuil-1kg-kuoreton-6418333000354",
    "name": "Osku kuorettomia auringonkukan siemeniä linnuille 1kg",
    "pictureUrls": [
      {
        "original": "https://public.keskofiles.com/f/k-ruoka/product/6418333000354"
      }
    ],
    "section": "3731",
    "departmentId": "110",
    "contentUnit": "KG",
    "contentSize": 1,
    "netWeight": 1,
    "available": true,
    "isUtility": false,
    "preprocessedPricing": {
      "products": {},
      "simplePromotions": {},
      "basketPromotions": {}
    },
    "tosPricing": {
      "basketPromotions": []
    },
    "simplePricePlussa": false,
    "pricingUnit": "kpl",
    "referencePrice": {
      "_type": "Big",
      "value": "2.59"
    },
    "visiblePrice": {
      "_type": "Big",
      "value": "2.59"
    },
    "visiblePriceUnit": "kpl",
    "isDiscounted": false
  },
  {
    "ean": "6430030774161",
    "urlSlug": "hau-hau-champ-kanaherkut-400g-kanafilee-6430030774161",
    "name": "Hau-Hau Champion täyslihaherkut 400 g kanafilee",
    "pictureUrls": [
      {
        "original": "https://public.keskofiles.com/f/k-ruoka/product/6430030774161"
      }
    ],
    "section": "3714",
    "departmentId": "110",
    "contentUnit": "KG",
    "contentSize": 0.4,
    "netWeight": 0.4,
    "available": true,
    "isUtility": false,
    "preprocessedPricing": {
      "products": {},
      "simplePromotions": {},
      "basketPromotions": {}
    },
    "tosPricing": {
      "basketPromotions": []
    },
    "simplePricePlussa": false,
    "pricingUnit": "kpl",
    "referencePrice": {
      "_type": "Big",
      "value": "27.75"
    },
    "visiblePrice": {
      "_type": "Big",
      "value": "11.1"
    },
    "visiblePriceUnit": "kpl",
    "isDiscounted": false
  },
  {
    "ean": "3065890128538",
    "urlSlug": "whiskas-712x100g-kala-lihalajitelma-hyy-3065890128538",
    "name": "WHISKAS 7+ 12x100g Kala&Lihalajitelma hyytelössä, kana, lohi, häränliha, tonnikala, täysrehua yli 7-",
    "pictureUrls": [
      {
        "original": "https://public.keskofiles.com/f/k-ruoka/product/3065890128538"
      }
    ],
    "section": "3707",
    "departmentId": "110",
    "contentUnit": "KG",
    "contentSize": 1.2,
    "netWeight": 1.2,
    "available": true,
    "isUtility": false,
    "preprocessedPricing": {
      "products": {},
      "simplePromotions": {},
      "basketPromotions": {}
    },
    "tosPricing": {
      "basketPromotions": []
    },
    "simplePricePlussa": false,
    "pricingUnit": "kpl",
    "referencePrice": {
      "_type": "Big",
      "value": "3.45833333333333333333"
    },
    "visiblePrice": {
      "_type": "Big",
      "value": "4.15"
    },
    "visiblePriceUnit": "kpl",
    "isDiscounted": false
  },
  {
    "ean": "7613036354318",
    "urlSlug": "latz-party-mix-60g-seaside-mix-7613036354318",
    "name": "Latz Party mix 60g seaside mix",
    "pictureUrls": [],
    "section": "3702",
    "departmentId": "110",
    "contentUnit": "KG",
    "contentSize": 0.06,
    "netWeight": 0.06,
    "available": true,
    "isUtility": false,
    "preprocessedPricing": {
      "products": {},
      "simplePromotions": {},
      "basketPromotions": {}
    },
    "tosPricing": {
      "basketPromotions": []
    },
    "simplePricePlussa": false,
    "pricingUnit": "kpl",
    "referencePrice": {
      "_type": "Big",
      "value": "27.5"
    },
    "visiblePrice": {
      "_type": "Big",
      "value": "1.65"
    },
    "visiblePriceUnit": "kpl",
    "isDiscounted": false
  },
  {
    "ean": "5998749104392",
    "urlSlug": "pedigree-dentastix-puruluu-77g-medium-5998749104392",
    "name": "Pedigree DentaStix puruluu 77g medium",
    "pictureUrls": [
      {
        "original": "https://public.keskofiles.com/f/k-ruoka/product/5998749104392"
      }
    ],
    "section": "3715",
    "departmentId": "110",
    "contentUnit": "KG",
    "contentSize": 0.077,
    "netWeight": 0.077,
    "available": true,
    "isUtility": false,
    "preprocessedPricing": {
      "products": {},
      "simplePromotions": {},
      "basketPromotions": {}
    },
    "tosPricing": {
      "basketPromotions": []
    },
    "simplePricePlussa": false,
    "pricingUnit": "kpl",
    "referencePrice": {
      "_type": "Big",
      "value": "12.85714285714285714286"
    },
    "visiblePrice": {
      "_type": "Big",
      "value": "0.99"
    },
    "visiblePriceUnit": "kpl",
    "isDiscounted": false
  },
  {
    "ean": "6430042170302",
    "urlSlug": "poron-lihainen-kylkipala-300g-6430042170302",
    "name": "Polar Pet poron lihainen kylkipala 300 g",
    "pictureUrls": [],
    "section": "3714",
    "departmentId": "110",
    "contentUnit": "KG",
    "contentSize": 0.3,
    "netWeight": 0.3,
    "available": true,
    "isUtility": false,
    "preprocessedPricing": {
      "products": {},
      "simplePromotions": {},
      "basketPromotions": {}
    },
    "tosPricing": {
      "basketPromotions": []
    },
    "simplePricePlussa": false,
    "pricingUnit": "kpl",
    "referencePrice": {
      "_type": "Big",
      "value": "17.83333333333333333333"
    },
    "visiblePrice": {
      "_type": "Big",
      "value": "5.35"
    },
    "visiblePriceUnit": "kpl",
    "isDiscounted": false
  },
  {
    "ean": "8001154004120",
    "urlSlug": "almo-nat-hfc-nat-70g-tonnikala-katkarapu-8001154004120",
    "name": "Almo Nature HFC natural kissan märkäruoka 70g tonnikala katkarapu",
    "pictureUrls": [
      {
        "original": "https://public.keskofiles.com/f/k-ruoka/product/8001154004120"
      }
    ],
    "section": "3700",
    "departmentId": "110",
    "contentUnit": "KG",
    "contentSize": 0.07,
    "netWeight": 0.07,
    "available": true,
    "isUtility": false,
    "preprocessedPricing": {
      "products": {},
      "simplePromotions": {},
      "basketPromotions": {}
    },
    "tosPricing": {
      "basketPromotions": []
    },
    "simplePricePlussa": false,
    "pricingUnit": "kpl",
    "referencePrice": {
      "_type": "Big",
      "value": "20.71428571428571428571"
    },
    "visiblePrice": {
      "_type": "Big",
      "value": "1.45"
    },
    "visiblePriceUnit": "kpl",
    "isDiscounted": false
  },
  {
    "ean": "6410180045717",
    "urlSlug": "oscar-lihamureke-1kg-koiralle-6410180045717",
    "name": "Oscar Lihamureke koirille 1kg koiranmakkara",
    "pictureUrls": [
      {
        "original": "https://public.keskofiles.com/f/k-ruoka/product/6410180045717"
      }
    ],
    "section": "3711",
    "departmentId": "110",
    "contentUnit": "KG",
    "contentSize": 1,
    "netWeight": 1,
    "available": true,
    "isUtility": false,
    "preprocessedPricing": {
      "products": {},
      "simplePromotions": {},
      "basketPromotions": {}
    },
    "tosPricing": {
      "basketPromotions": []
    },
    "simplePricePlussa": false,
    "pricingUnit": "kpl",
    "referencePrice": {
      "_type": "Big",
      "value": "2.79"
    },
    "visiblePrice": {
      "_type": "Big",
      "value": "2.79"
    },
    "visiblePriceUnit": "kpl",
    "isDiscounted": false
  },
  {
    "ean": "5700551129292",
    "urlSlug": "bf-bones-herkkuluut-550g-50kpl-kanaankk-5700551129292",
    "name": "Best Friend bones herkkuluut 550g 50kpl kana- ja ankkafileellä",
    "pictureUrls": [
      {
        "original": "https://public.keskofiles.com/f/k-ruoka/product/5700551129292"
      }
    ],
    "section": "3715",
    "departmentId": "110",
    "contentUnit": "KG",
    "contentSize": 0.55,
    "netWeight": 0.55,
    "available": true,
    "isUtility": false,
    "preprocessedPricing": {
      "products": {},
      "simplePromotions": {},
      "basketPromotions": {}
    },
    "tosPricing": {
      "basketPromotions": []
    },
    "simplePricePlussa": false,
    "pricingUnit": "kpl",
    "referencePrice": {
      "_type": "Big",
      "value": "15.61818181818181818182"
    },
    "visiblePrice": {
      "_type": "Big",
      "value": "8.59"
    },
    "visiblePriceUnit": "kpl",
    "isDiscounted": false
  },
  {
    "ean": "5900951273131",
    "urlSlug": "whiskas-ragout-junior-12x85g-siipikarja-5900951273131",
    "name": "Whiskas Ragout Junior 12x85g siipikarja",
    "pictureUrls": [
      {
        "original": "https://public.keskofiles.com/f/k-ruoka/product/5900951273131"
      }
    ],
    "section": "3707",
    "departmentId": "110",
    "contentUnit": "KG",
    "contentSize": 1.02,
    "netWeight": 1.02,
    "available": true,
    "isUtility": false,
    "preprocessedPricing": {
      "products": {},
      "simplePromotions": {},
      "basketPromotions": {}
    },
    "tosPricing": {
      "basketPromotions": []
    },
    "simplePricePlussa": false,
    "pricingUnit": "kpl",
    "referencePrice": {
      "_type": "Big",
      "value": "4.06862745098039215686"
    },
    "visiblePrice": {
      "_type": "Big",
      "value": "4.15"
    },
    "visiblePriceUnit": "kpl",
    "isDiscounted": false
  },
  {
    "ean": "4770608251895",
    "urlSlug": "sheba-freshfine-6x50g-herkulliset-siipi-4770608251895",
    "name": "Sheba Fresh&Fine 6x50g Herkulliset siipikarjareseptit, kana,siipikarja,kalkkuna, täysrehua aik. kiss",
    "pictureUrls": [
      {
        "original": "https://public.keskofiles.com/f/k-ruoka/product/4770608251895"
      }
    ],
    "section": "3707",
    "departmentId": "110",
    "contentUnit": "KG",
    "contentSize": 0.3,
    "netWeight": 0.3,
    "available": true,
    "isUtility": false,
    "preprocessedPricing": {
      "products": {},
      "simplePromotions": {},
      "basketPromotions": {}
    },
    "tosPricing": {
      "basketPromotions": []
    },
    "simplePricePlussa": false,
    "pricingUnit": "kpl",
    "referencePrice": {
      "_type": "Big",
      "value": "10.3"
    },
    "visiblePrice": {
      "_type": "Big",
      "value": "3.09"
    },
    "visiblePriceUnit": "kpl",
    "isDiscounted": false
  },
  {
    "ean": "5700551125102",
    "urlSlug": "bf-natural-bites-kanamakkarat-150g-5700551125102",
    "name": "Best Friend Natural Bites kanamakkarat 150g",
    "pictureUrls": [
      {
        "original": "https://public.keskofiles.com/f/k-ruoka/product/5700551125102"
      }
    ],
    "section": "3714",
    "departmentId": "110",
    "contentUnit": "KG",
    "contentSize": 0.15,
    "netWeight": 0.15,
    "available": true,
    "isUtility": false,
    "preprocessedPricing": {
      "products": {},
      "simplePromotions": {},
      "basketPromotions": {}
    },
    "tosPricing": {
      "basketPromotions": []
    },
    "simplePricePlussa": false,
    "pricingUnit": "kpl",
    "referencePrice": {
      "_type": "Big",
      "value": "25"
    },
    "visiblePrice": {
      "_type": "Big",
      "value": "3.75"
    },
    "visiblePriceUnit": "kpl",
    "isDiscounted": false
  },
  {
    "ean": "7613032729578",
    "urlSlug": "latz-kissan-kuivaruoka-400g-kala-7613032729578",
    "name": "Latz Ocean Sensations Lohta,Lyyraturskaa ja lisättyjä Kasviksia 400g  kissanruoka",
    "pictureUrls": [
      {
        "original": "https://public.keskofiles.com/f/k-ruoka/product/7613032729578"
      }
    ],
    "section": "3701",
    "departmentId": "110",
    "contentUnit": "KG",
    "contentSize": 0.4,
    "netWeight": 0.4,
    "available": true,
    "isUtility": false,
    "preprocessedPricing": {
      "products": {},
      "simplePromotions": {},
      "basketPromotions": {}
    },
    "tosPricing": {
      "basketPromotions": []
    },
    "simplePricePlussa": false,
    "pricingUnit": "kpl",
    "referencePrice": {
      "_type": "Big",
      "value": "4.375"
    },
    "visiblePrice": {
      "_type": "Big",
      "value": "1.75"
    },
    "visiblePriceUnit": "kpl",
    "isDiscounted": false
  },
  {
    "ean": "7613032395377",
    "urlSlug": "gourmet-gold-mousselajitelma-12x85g-7613032395377",
    "name": "Gourmet Gold mousselajitelma 12x85g",
    "pictureUrls": [
      {
        "original": "https://public.keskofiles.com/f/k-ruoka/product/7613032395377"
      }
    ],
    "section": "3700",
    "departmentId": "110",
    "contentUnit": "KG",
    "contentSize": 1.02,
    "netWeight": 1.02,
    "available": true,
    "isUtility": false,
    "preprocessedPricing": {
      "products": {},
      "simplePromotions": {},
      "basketPromotions": {}
    },
    "tosPricing": {
      "basketPromotions": []
    },
    "simplePricePlussa": false,
    "pricingUnit": "kpl",
    "referencePrice": {
      "_type": "Big",
      "value": "7.10784313725490196078"
    },
    "visiblePrice": {
      "_type": "Big",
      "value": "7.25"
    },
    "visiblePriceUnit": "kpl",
    "isDiscounted": false
  },
  {
    "ean": "6419698180057",
    "urlSlug": "ami-fanitikut-120g-5kpl-6419698180057",
    "name": "Ami fanitikut puruluurulla 5kpl 120g",
    "pictureUrls": [
      {
        "original": "https://public.keskofiles.com/f/k-ruoka/product/6419698180057"
      }
    ],
    "section": "3718",
    "departmentId": "110",
    "contentUnit": "KG",
    "contentSize": 0.12,
    "netWeight": 0.12,
    "available": true,
    "isUtility": false,
    "preprocessedPricing": {
      "products": {},
      "simplePromotions": {},
      "basketPromotions": {}
    },
    "tosPricing": {
      "basketPromotions": []
    },
    "simplePricePlussa": false,
    "pricingUnit": "kpl",
    "referencePrice": {
      "_type": "Big",
      "value": "42.91666666666666666667"
    },
    "visiblePrice": {
      "_type": "Big",
      "value": "5.15"
    },
    "visiblePriceUnit": "kpl",
    "isDiscounted": false
  },
  {
    "ean": "4008429033810",
    "urlSlug": "frolic-koiran-taysr-15kg-kana-riisi-vih-4008429033810",
    "name": "Frolic kuivaruoka 1,5kg kana-riisi-vihannes",
    "pictureUrls": [
      {
        "original": "https://public.keskofiles.com/f/k-ruoka/product/4008429033810"
      }
    ],
    "section": "3717",
    "departmentId": "110",
    "contentUnit": "KG",
    "contentSize": 1.5,
    "netWeight": 1.5,
    "available": true,
    "isUtility": false,
    "preprocessedPricing": {
      "products": {},
      "simplePromotions": {},
      "basketPromotions": {}
    },
    "tosPricing": {
      "basketPromotions": []
    },
    "simplePricePlussa": false,
    "pricingUnit": "kpl",
    "referencePrice": {
      "_type": "Big",
      "value": "3.46"
    },
    "visiblePrice": {
      "_type": "Big",
      "value": "5.19"
    },
    "visiblePriceUnit": "kpl",
    "isDiscounted": false
  },
  {
    "ean": "6430023296403",
    "urlSlug": "mush-duo-kana-kalkkuna-1kg-taysrav-pa-6430023296403",
    "name": "Mush Duo+ Täysravinto koirille sensitive kana-kalkkuna 1 kg",
    "pictureUrls": [],
    "section": "3713",
    "departmentId": "110",
    "contentUnit": "KG",
    "contentSize": 1,
    "netWeight": 1,
    "available": true,
    "isUtility": false,
    "preprocessedPricing": {
      "products": {},
      "simplePromotions": {},
      "basketPromotions": {}
    },
    "tosPricing": {
      "basketPromotions": []
    },
    "simplePricePlussa": false,
    "pricingUnit": "kpl",
    "referencePrice": {
      "_type": "Big",
      "value": "5.19"
    },
    "visiblePrice": {
      "_type": "Big",
      "value": "5.19"
    },
    "visiblePriceUnit": "kpl",
    "isDiscounted": false
  },
  {
    "ean": "7613035215955",
    "urlSlug": "friskies-14kg-nutrisoft-naudanl-koiranr-7613035215955",
    "name": "Friskies 1,4kg Nutri Soft Naudanlihaa koiranruoka",
    "pictureUrls": [
      {
        "original": "https://public.keskofiles.com/f/k-ruoka/product/7613035215955"
      }
    ],
    "section": "3717",
    "departmentId": "110",
    "contentUnit": "KG",
    "contentSize": 1.4,
    "netWeight": 1.44,
    "available": true,
    "isUtility": false,
    "preprocessedPricing": {
      "products": {},
      "simplePromotions": {},
      "basketPromotions": {}
    },
    "tosPricing": {
      "basketPromotions": []
    },
    "simplePricePlussa": false,
    "pricingUnit": "kpl",
    "referencePrice": {
      "_type": "Big",
      "value": "3.85"
    },
    "visiblePrice": {
      "_type": "Big",
      "value": "5.39"
    },
    "visiblePriceUnit": "kpl",
    "isDiscounted": false
  }
]