[
  {
    "ean": "5701073064894",
    "urlSlug": "dr-oetker-sokerimassa-musta-250g-5701073064894",
    "name": "Dr.Oetker Sokerimassa 250g Musta",
    "pictureUrls": [
      {
        "original": "https://public.keskofiles.com/f/k-ruoka/product/5701073064894"
      }
    ],
    "section": "4115",
    "departmentId": "106",
    "contentUnit": "KG",
    "contentSize": 0.25,
    "netWeight": 0.25,
    "available": true,
    "isUtility": false,
    "preprocessedPricing": {
      "products": {},
      "simplePromotions": {},
      "basketPromotions": {}
    },
    "tosPricing": {
      "basketPromotions": []
    },
    "simplePricePlussa": false,
    "pricingUnit": "kpl",
    "referencePrice": {
      "_type": "Big",
      "value": "9.56"
    },
    "visiblePrice": {
      "_type": "Big",
      "value": "2.39"
    },
    "visiblePriceUnit": "kpl",
    "isDiscounted": false
  },
  {
    "ean": "5701073061077",
    "urlSlug": "dr-oetker-rainbow-mix-koristerakeet-50g-5701073061077",
    "name": "Dr.Oetker rainbow mix koristerakeet 50g",
    "pictureUrls": [
      {
        "original": "https://public.keskofiles.com/f/k-ruoka/product/5701073061077"
      }
    ],
    "section": "4113",
    "departmentId": "106",
    "contentUnit": "KG",
    "contentSize": 0.05,
    "netWeight": 0.05,
    "available": true,
    "isUtility": false,
    "preprocessedPricing": {
      "products": {},
      "simplePromotions": {},
      "basketPromotions": {}
    },
    "tosPricing": {
      "basketPromotions": []
    },
    "simplePricePlussa": false,
    "pricingUnit": "kpl",
    "referencePrice": {
      "_type": "Big",
      "value": "37.8"
    },
    "visiblePrice": {
      "_type": "Big",
      "value": "1.89"
    },
    "visiblePriceUnit": "kpl",
    "isDiscounted": false
  },
  {
    "ean": "6414201001027",
    "urlSlug": "meira-grillausmauste-110g-pss-6414201001027",
    "name": "Meira Grillausmauste 110g pussi mausteseos",
    "pictureUrls": [
      {
        "original": "https://public.keskofiles.com/f/k-ruoka/product/6414201001027"
      }
    ],
    "section": "4100",
    "departmentId": "106",
    "contentUnit": "KG",
    "contentSize": 0.11,
    "netWeight": 0.11,
    "available": true,
    "isUtility": false,
    "preprocessedPricing": {
      "products": {},
      "simplePromotions": {},
      "basketPromotions": {}
    },
    "tosPricing": {
      "basketPromotions": []
    },
    "simplePricePlussa": false,
    "pricingUnit": "kpl",
    "referencePrice": {
      "_type": "Big",
      "value": "17.18181818181818181818"
    },
    "visiblePrice": {
      "_type": "Big",
      "value": "1.89"
    },
    "visiblePriceUnit": "kpl",
    "isDiscounted": false
  },
  {
    "ean": "7316150677775",
    "urlSlug": "fontana-oliivioljy-250ml-orig-e-v-7316150677775",
    "name": "Fontana Oliiviöljy original extra Virgin 250 ml",
    "pictureUrls": [
      {
        "original": "https://public.keskofiles.com/f/k-ruoka/product/7316150677775"
      }
    ],
    "section": "4120",
    "departmentId": "106",
    "contentUnit": "L",
    "contentSize": 0.25,
    "netWeight": 0.25,
    "available": true,
    "isUtility": false,
    "preprocessedPricing": {
      "products": {},
      "simplePromotions": {},
      "basketPromotions": {}
    },
    "tosPricing": {
      "basketPromotions": []
    },
    "simplePricePlussa": false,
    "pricingUnit": "kpl",
    "referencePrice": {
      "_type": "Big",
      "value": "17.4"
    },
    "visiblePrice": {
      "_type": "Big",
      "value": "4.35"
    },
    "visiblePriceUnit": "kpl",
    "isDiscounted": false
  },
  {
    "ean": "6410405076267",
    "urlSlug": "pirkka-ruokasuola-1kg-jodioitu-6410405076267",
    "name": "Pirkka jodioitu ruokasuola 1kg",
    "pictureUrls": [
      {
        "original": "https://public.keskofiles.com/f/k-ruoka/product/6410405076267"
      }
    ],
    "section": "4150",
    "departmentId": "106",
    "contentUnit": "KG",
    "contentSize": 1,
    "netWeight": 1,
    "available": true,
    "isUtility": false,
    "preprocessedPricing": {
      "products": {},
      "simplePromotions": {},
      "basketPromotions": {}
    },
    "tosPricing": {
      "basketPromotions": []
    },
    "simplePricePlussa": false,
    "pricingUnit": "kpl",
    "referencePrice": {
      "_type": "Big",
      "value": "0.6"
    },
    "visiblePrice": {
      "_type": "Big",
      "value": "0.6"
    },
    "visiblePriceUnit": "kpl",
    "isDiscounted": false
  },
  {
    "ean": "7322550052005",
    "urlSlug": "bla-band-vanhanajan-vaniljakastike-2x63g-7322550052005",
    "name": "Blå Band Vanhan ajan Vaniljakastike 126 g",
    "pictureUrls": [
      {
        "original": "https://public.keskofiles.com/f/k-ruoka/product/7322550052005"
      }
    ],
    "section": "4020",
    "departmentId": "106",
    "contentUnit": "KG",
    "contentSize": 0.126,
    "netWeight": 0.126,
    "available": true,
    "isUtility": false,
    "preprocessedPricing": {
      "products": {},
      "simplePromotions": {},
      "basketPromotions": {}
    },
    "tosPricing": {
      "basketPromotions": []
    },
    "simplePricePlussa": false,
    "pricingUnit": "kpl",
    "referencePrice": {
      "_type": "Big",
      "value": "11.50793650793650793651"
    },
    "visiblePrice": {
      "_type": "Big",
      "value": "1.45"
    },
    "visiblePriceUnit": "kpl",
    "isDiscounted": false
  },
  {
    "ean": "3036810204069",
    "urlSlug": "maille-dijon-sinappi-230g-hunaja-3036810204069",
    "name": "Maille Dijon sinappi 230g hunaja",
    "pictureUrls": [
      {
        "original": "https://public.keskofiles.com/f/k-ruoka/product/3036810204069"
      }
    ],
    "section": "4171",
    "departmentId": "106",
    "contentUnit": "KG",
    "contentSize": 0.23,
    "netWeight": 0.23,
    "available": true,
    "isUtility": false,
    "preprocessedPricing": {
      "products": {},
      "simplePromotions": {},
      "basketPromotions": {}
    },
    "tosPricing": {
      "basketPromotions": []
    },
    "simplePricePlussa": false,
    "pricingUnit": "kpl",
    "referencePrice": {
      "_type": "Big",
      "value": "11.08695652173913043478"
    },
    "visiblePrice": {
      "_type": "Big",
      "value": "2.55"
    },
    "visiblePriceUnit": "kpl",
    "isDiscounted": false
  },
  {
    "ean": "6410405138286",
    "urlSlug": "k-menu-puolukkahillo-900g-6410405138286",
    "name": "K-Menu puolukkahillo 900g",
    "pictureUrls": [
      {
        "original": "https://public.keskofiles.com/f/k-ruoka/product/6410405138286"
      }
    ],
    "section": "3202",
    "departmentId": "106",
    "contentUnit": "KG",
    "contentSize": 0.9,
    "netWeight": 0.9,
    "available": true,
    "isUtility": false,
    "preprocessedPricing": {
      "products": {},
      "simplePromotions": {},
      "basketPromotions": {}
    },
    "tosPricing": {
      "basketPromotions": []
    },
    "simplePricePlussa": false,
    "pricingUnit": "kpl",
    "referencePrice": {
      "_type": "Big",
      "value": "3.65555555555555555556"
    },
    "visiblePrice": {
      "_type": "Big",
      "value": "3.29"
    },
    "visiblePriceUnit": "kpl",
    "isDiscounted": false
  },
  {
    "ean": "5765228897744",
    "urlSlug": "urtekram-cajun-mausteseos-110g-luomu-5765228897744",
    "name": "Urtekram cajun mausteseos 110g luomu",
    "pictureUrls": [
      {
        "original": "https://public.keskofiles.com/f/k-ruoka/product/5765228897744"
      }
    ],
    "section": "4102",
    "departmentId": "106",
    "contentUnit": "KG",
    "contentSize": 0.11,
    "netWeight": 0.11,
    "available": true,
    "isUtility": false,
    "preprocessedPricing": {
      "products": {},
      "simplePromotions": {},
      "basketPromotions": {}
    },
    "tosPricing": {
      "basketPromotions": []
    },
    "simplePricePlussa": false,
    "pricingUnit": "kpl",
    "referencePrice": {
      "_type": "Big",
      "value": "39.54545454545454545455"
    },
    "visiblePrice": {
      "_type": "Big",
      "value": "4.35"
    },
    "visiblePriceUnit": "kpl",
    "isDiscounted": false
  },
  {
    "ean": "7311310028787",
    "urlSlug": "sm-bbq-sauce-440g-roasted-garlic-7311310028787",
    "name": "SM BBQ Sauce 440g Roasted Garlic",
    "pictureUrls": [
      {
        "original": "https://public.keskofiles.com/f/k-ruoka/product/7311310028787"
      }
    ],
    "section": "4175",
    "departmentId": "106",
    "contentUnit": "KG",
    "contentSize": 0.44,
    "netWeight": 0.44,
    "available": true,
    "isUtility": false,
    "preprocessedPricing": {
      "products": {},
      "simplePromotions": {},
      "basketPromotions": {}
    },
    "tosPricing": {
      "basketPromotions": []
    },
    "simplePricePlussa": false,
    "pricingUnit": "kpl",
    "referencePrice": {
      "_type": "Big",
      "value": "9.06818181818181818182"
    },
    "visiblePrice": {
      "_type": "Big",
      "value": "3.99"
    },
    "visiblePriceUnit": "kpl",
    "isDiscounted": false
  },
  {
    "ean": "6412000016327",
    "urlSlug": "saarioinen-vadelmahillo-500g-6412000016327",
    "name": "Saarioinen Vadelmahillo 500g",
    "pictureUrls": [
      {
        "original": "https://public.keskofiles.com/f/k-ruoka/product/6412000016327"
      }
    ],
    "section": "3201",
    "departmentId": "106",
    "contentUnit": "KG",
    "contentSize": 0.5,
    "netWeight": 0.5,
    "available": true,
    "isUtility": false,
    "preprocessedPricing": {
      "products": {},
      "simplePromotions": {},
      "basketPromotions": {}
    },
    "tosPricing": {
      "basketPromotions": []
    },
    "simplePricePlussa": false,
    "pricingUnit": "kpl",
    "referencePrice": {
      "_type": "Big",
      "value": "6.18"
    },
    "visiblePrice": {
      "_type": "Big",
      "value": "3.09"
    },
    "visiblePriceUnit": "kpl",
    "isDiscounted": false
  },
  {
    "ean": "5201041015595",
    "urlSlug": "jannis-seesamlevy-40g-luomu-5201041015595",
    "name": "Jannis seesamlevy 40g luomu",
    "pictureUrls": [
      {
        "original": "https://public.keskofiles.com/f/k-ruoka/product/5201041015595"
      }
    ],
    "section": "4419",
    "departmentId": "106",
    "contentUnit": "KG",
    "contentSize": 0.04,
    "netWeight": 0.04,
    "available": true,
    "isUtility": false,
    "preprocessedPricing": {
      "products": {},
      "simplePromotions": {},
      "basketPromotions": {}
    },
    "tosPricing": {
      "basketPromotions": []
    },
    "simplePricePlussa": false,
    "pricingUnit": "kpl",
    "referencePrice": {
      "_type": "Big",
      "value": "19.75"
    },
    "visiblePrice": {
      "_type": "Big",
      "value": "0.79"
    },
    "visiblePriceUnit": "kpl",
    "isDiscounted": false
  },
  {
    "ean": "7312631203617",
    "urlSlug": "risenta-chiansiemen-250g-valkoinen-luomu-7312631203617",
    "name": "Risenta chiansiemen 250g valkoinen luomu",
    "pictureUrls": [
      {
        "original": "https://public.keskofiles.com/f/k-ruoka/product/7312631203617"
      }
    ],
    "section": "4416",
    "departmentId": "106",
    "contentUnit": "KG",
    "contentSize": 0.25,
    "netWeight": 0.25,
    "available": true,
    "isUtility": false,
    "preprocessedPricing": {
      "products": {},
      "simplePromotions": {},
      "basketPromotions": {}
    },
    "tosPricing": {
      "basketPromotions": []
    },
    "simplePricePlussa": false,
    "pricingUnit": "kpl",
    "referencePrice": {
      "_type": "Big",
      "value": "27.96"
    },
    "visiblePrice": {
      "_type": "Big",
      "value": "6.99"
    },
    "visiblePriceUnit": "kpl",
    "isDiscounted": false
  },
  {
    "ean": "6416710030215",
    "urlSlug": "filos-ekstra-neit-oliivioljy-250ml-luomu-6416710030215",
    "name": "Filos luomu ekstra-neitsytoliiviöljy 250 ml",
    "pictureUrls": [
      {
        "original": "https://public.keskofiles.com/f/k-ruoka/product/6416710030215"
      }
    ],
    "section": "4120",
    "departmentId": "106",
    "contentUnit": "L",
    "contentSize": 0.25,
    "netWeight": 0.229,
    "available": true,
    "isUtility": false,
    "preprocessedPricing": {
      "products": {},
      "simplePromotions": {},
      "basketPromotions": {}
    },
    "tosPricing": {
      "basketPromotions": []
    },
    "simplePricePlussa": false,
    "pricingUnit": "kpl",
    "referencePrice": {
      "_type": "Big",
      "value": "20.6"
    },
    "visiblePrice": {
      "_type": "Big",
      "value": "5.15"
    },
    "visiblePriceUnit": "kpl",
    "isDiscounted": false
  },
  {
    "ean": "6414201102205",
    "urlSlug": "ala-meira-muskottipahk-jau-32g-tlk-6414201102205",
    "name": "Meira Muskottipähkinä 32g jauh tlk",
    "pictureUrls": [
      {
        "original": "https://public.keskofiles.com/f/k-ruoka/product/6414201102205"
      }
    ],
    "section": "4102",
    "departmentId": "106",
    "contentUnit": "KG",
    "contentSize": 0.032,
    "netWeight": 0.032,
    "available": true,
    "isUtility": false,
    "preprocessedPricing": {
      "products": {},
      "simplePromotions": {},
      "basketPromotions": {}
    },
    "tosPricing": {
      "basketPromotions": []
    },
    "simplePricePlussa": false,
    "pricingUnit": "kpl",
    "referencePrice": {
      "_type": "Big",
      "value": "109.0625"
    },
    "visiblePrice": {
      "_type": "Big",
      "value": "3.49"
    },
    "visiblePriceUnit": "kpl",
    "isDiscounted": false
  },
  {
    "ean": "6438207012757",
    "urlSlug": "keiju-yrttioljy-250ml-tom-valkosip-basil-6438207012757",
    "name": "Keiju yrttiöljy tomaatti, valkosipuli&basilika 250ml",
    "pictureUrls": [
      {
        "original": "https://public.keskofiles.com/f/k-ruoka/product/6438207012757"
      }
    ],
    "section": "4193",
    "departmentId": "106",
    "contentUnit": "L",
    "contentSize": 0.25,
    "netWeight": 0.225,
    "available": true,
    "isUtility": false,
    "preprocessedPricing": {
      "products": {},
      "simplePromotions": {},
      "basketPromotions": {}
    },
    "tosPricing": {
      "basketPromotions": []
    },
    "simplePricePlussa": false,
    "pricingUnit": "kpl",
    "referencePrice": {
      "_type": "Big",
      "value": "11.8"
    },
    "visiblePrice": {
      "_type": "Big",
      "value": "2.95"
    },
    "visiblePriceUnit": "kpl",
    "isDiscounted": false
  },
  {
    "ean": "5701073065204",
    "urlSlug": "dr-oetker-mantelijauhe-50g-5701073065204",
    "name": "Dr. Oetker Mantelijauhe 50g",
    "pictureUrls": [
      {
        "original": "https://public.keskofiles.com/f/k-ruoka/product/5701073065204"
      }
    ],
    "section": "4410",
    "departmentId": "106",
    "contentUnit": "KG",
    "contentSize": 0.05,
    "netWeight": 0.05,
    "available": true,
    "isUtility": false,
    "preprocessedPricing": {
      "products": {},
      "simplePromotions": {},
      "basketPromotions": {}
    },
    "tosPricing": {
      "basketPromotions": []
    },
    "simplePricePlussa": false,
    "pricingUnit": "kpl",
    "referencePrice": {
      "_type": "Big",
      "value": "23.8"
    },
    "visiblePrice": {
      "_type": "Big",
      "value": "1.19"
    },
    "visiblePriceUnit": "kpl",
    "isDiscounted": false
  },
  {
    "ean": "8710605013603",
    "urlSlug": "go-tan-sambal-oelek-kastike-234g-8710605013603",
    "name": "Go Tan Sambal Oelek kastike 234g",
    "pictureUrls": [
      {
        "original": "https://public.keskofiles.com/f/k-ruoka/product/8710605013603"
      }
    ],
    "section": "4682",
    "departmentId": "106",
    "contentUnit": "KG",
    "contentSize": 0.234,
    "netWeight": 0.234,
    "available": true,
    "isUtility": false,
    "preprocessedPricing": {
      "products": {},
      "simplePromotions": {},
      "basketPromotions": {}
    },
    "tosPricing": {
      "basketPromotions": []
    },
    "simplePricePlussa": false,
    "pricingUnit": "kpl",
    "referencePrice": {
      "_type": "Big",
      "value": "12.39316239316239316239"
    },
    "visiblePrice": {
      "_type": "Big",
      "value": "2.9"
    },
    "visiblePriceUnit": "kpl",
    "isDiscounted": false
  },
  {
    "ean": "6410405055620",
    "urlSlug": "pirkka-jauhelihamauste-28g-6410405055620",
    "name": "Pirkka jauhelihamauste 28g",
    "pictureUrls": [
      {
        "original": "https://public.keskofiles.com/f/k-ruoka/product/6410405055620"
      }
    ],
    "section": "4100",
    "departmentId": "106",
    "contentUnit": "KG",
    "contentSize": 0.028,
    "netWeight": 0.028,
    "available": true,
    "isUtility": false,
    "preprocessedPricing": {
      "products": {},
      "simplePromotions": {},
      "basketPromotions": {}
    },
    "tosPricing": {
      "basketPromotions": []
    },
    "simplePricePlussa": false,
    "pricingUnit": "kpl",
    "referencePrice": {
      "_type": "Big",
      "value": "13.92857142857142857143"
    },
    "visiblePrice": {
      "_type": "Big",
      "value": "0.39"
    },
    "visiblePriceUnit": "kpl",
    "isDiscounted": false
  },
  {
    "ean": "6430048230802",
    "urlSlug": "foodin-kaakaonibs-luomu-200g-6430048230802",
    "name": "Foodin Kaakaonibs Luomu 200g",
    "pictureUrls": [
      {
        "original": "https://public.keskofiles.com/f/k-ruoka/product/6430048230802"
      }
    ],
    "section": "4419",
    "departmentId": "106",
    "contentUnit": "KG",
    "contentSize": 0.2,
    "netWeight": 0,
    "available": true,
    "isUtility": false,
    "preprocessedPricing": {
      "products": {},
      "simplePromotions": {},
      "basketPromotions": {}
    },
    "tosPricing": {
      "basketPromotions": []
    },
    "simplePricePlussa": false,
    "pricingUnit": "kpl",
    "referencePrice": {
      "_type": "Big",
      "value": "39.75"
    },
    "visiblePrice": {
      "_type": "Big",
      "value": "7.95"
    },
    "visiblePriceUnit": "kpl",
    "isDiscounted": false
  },
  {
    "ean": "6410405146045",
    "urlSlug": "pirkka-aprikoosihillo-450g-6410405146045",
    "name": "Pirkka aprikoosihillo 450g",
    "pictureUrls": [
      {
        "original": "https://public.keskofiles.com/f/k-ruoka/product/6410405146045"
      }
    ],
    "section": "3202",
    "departmentId": "106",
    "contentUnit": "KG",
    "contentSize": 0.45,
    "netWeight": 0.45,
    "available": true,
    "isUtility": false,
    "preprocessedPricing": {
      "products": {},
      "simplePromotions": {},
      "basketPromotions": {}
    },
    "tosPricing": {
      "basketPromotions": []
    },
    "simplePricePlussa": false,
    "pricingUnit": "kpl",
    "referencePrice": {
      "_type": "Big",
      "value": "2.77777777777777777778"
    },
    "visiblePrice": {
      "_type": "Big",
      "value": "1.25"
    },
    "visiblePriceUnit": "kpl",
    "isDiscounted": false
  },
  {
    "ean": "7310340464381",
    "urlSlug": "dansukker-ruokosokerisiirappi-400g-reilu-7310340464381",
    "name": "Dansukker Cane Syrup ruokosokerisiirappi 400g Reilun kaupan tuote",
    "pictureUrls": [
      {
        "original": "https://public.keskofiles.com/f/k-ruoka/product/7310340464381"
      }
    ],
    "section": "3606",
    "departmentId": "106",
    "contentUnit": "KG",
    "contentSize": 0.4,
    "netWeight": 0.4,
    "available": true,
    "isUtility": false,
    "preprocessedPricing": {
      "products": {},
      "simplePromotions": {},
      "basketPromotions": {}
    },
    "tosPricing": {
      "basketPromotions": []
    },
    "simplePricePlussa": false,
    "pricingUnit": "kpl",
    "referencePrice": {
      "_type": "Big",
      "value": "5.725"
    },
    "visiblePrice": {
      "_type": "Big",
      "value": "2.29"
    },
    "visiblePriceUnit": "kpl",
    "isDiscounted": false
  },
  {
    "ean": "6410405133878",
    "urlSlug": "pirkka-ketsuppi-470g-pippuri-6410405133878",
    "name": "Pirkka pippuriketsuppi 470g",
    "pictureUrls": [
      {
        "original": "https://public.keskofiles.com/f/k-ruoka/product/6410405133878"
      }
    ],
    "section": "4170",
    "departmentId": "106",
    "contentUnit": "KG",
    "contentSize": 0.47,
    "netWeight": 0.47,
    "available": true,
    "isUtility": false,
    "preprocessedPricing": {
      "products": {},
      "simplePromotions": {},
      "basketPromotions": {}
    },
    "tosPricing": {
      "basketPromotions": []
    },
    "simplePricePlussa": false,
    "pricingUnit": "kpl",
    "referencePrice": {
      "_type": "Big",
      "value": "3.80851063829787234043"
    },
    "visiblePrice": {
      "_type": "Big",
      "value": "1.79"
    },
    "visiblePriceUnit": "kpl",
    "isDiscounted": false
  },
  {
    "ean": "5000157075635",
    "urlSlug": "heinz-tartarkastike-220ml-5000157075635",
    "name": "Heinz tartarkastike 220ml",
    "pictureUrls": [
      {
        "original": "https://public.keskofiles.com/f/k-ruoka/product/5000157075635"
      }
    ],
    "section": "4179",
    "departmentId": "106",
    "contentUnit": "L",
    "contentSize": 0.22,
    "netWeight": 0.222,
    "available": true,
    "isUtility": false,
    "preprocessedPricing": {
      "products": {},
      "simplePromotions": {},
      "basketPromotions": {}
    },
    "tosPricing": {
      "basketPromotions": []
    },
    "simplePricePlussa": false,
    "pricingUnit": "kpl",
    "referencePrice": {
      "_type": "Big",
      "value": "13.40909090909090909091"
    },
    "visiblePrice": {
      "_type": "Big",
      "value": "2.95"
    },
    "visiblePriceUnit": "kpl",
    "isDiscounted": false
  },
  {
    "ean": "7311311014482",
    "urlSlug": "santa-maria-oregano-30g-7311311014482",
    "name": "Santa Maria oregano 30g",
    "pictureUrls": [
      {
        "original": "https://public.keskofiles.com/f/k-ruoka/product/7311311014482"
      }
    ],
    "section": "4103",
    "departmentId": "106",
    "contentUnit": "KG",
    "contentSize": 0.03,
    "netWeight": 0.03,
    "available": true,
    "isUtility": false,
    "preprocessedPricing": {
      "products": {},
      "simplePromotions": {},
      "basketPromotions": {}
    },
    "tosPricing": {
      "basketPromotions": []
    },
    "simplePricePlussa": false,
    "pricingUnit": "kpl",
    "referencePrice": {
      "_type": "Big",
      "value": "113"
    },
    "visiblePrice": {
      "_type": "Big",
      "value": "3.39"
    },
    "visiblePriceUnit": "kpl",
    "isDiscounted": false
  },
  {
    "ean": "6410405115096",
    "urlSlug": "pirkka-valkosuklaa-banaanilastu-100g-6410405115096",
    "name": "Pirkka valkosuklaabanaanilastu 100g",
    "pictureUrls": [
      {
        "original": "https://public.keskofiles.com/f/k-ruoka/product/6410405115096"
      }
    ],
    "section": "4401",
    "departmentId": "106",
    "contentUnit": "KG",
    "contentSize": 0.1,
    "netWeight": 0.1,
    "available": true,
    "isUtility": false,
    "preprocessedPricing": {
      "products": {},
      "simplePromotions": {},
      "basketPromotions": {}
    },
    "tosPricing": {
      "basketPromotions": []
    },
    "simplePricePlussa": false,
    "pricingUnit": "kpl",
    "referencePrice": {
      "_type": "Big",
      "value": "16.9"
    },
    "visiblePrice": {
      "_type": "Big",
      "value": "1.69"
    },
    "visiblePriceUnit": "kpl",
    "isDiscounted": false
  },
  {
    "ean": "6409538435003",
    "urlSlug": "auran-the-burgerkastike-285g-6409538435003",
    "name": "Auran The burgerkastike 285g",
    "pictureUrls": [
      {
        "original": "https://public.keskofiles.com/f/k-ruoka/product/6409538435003"
      }
    ],
    "section": "4173",
    "departmentId": "106",
    "contentUnit": "KG",
    "contentSize": 0.285,
    "netWeight": 0.285,
    "available": true,
    "isUtility": false,
    "preprocessedPricing": {
      "products": {},
      "simplePromotions": {},
      "basketPromotions": {}
    },
    "tosPricing": {
      "basketPromotions": []
    },
    "simplePricePlussa": false,
    "pricingUnit": "kpl",
    "referencePrice": {
      "_type": "Big",
      "value": "9.2982456140350877193"
    },
    "visiblePrice": {
      "_type": "Big",
      "value": "2.65"
    },
    "visiblePriceUnit": "kpl",
    "isDiscounted": false
  },
  {
    "ean": "5706779060966",
    "urlSlug": "earth-control-xl-cashewpahkina-400g-5706779060966",
    "name": "Earth Control XL cashewpähkinä 400g",
    "pictureUrls": [
      {
        "original": "https://public.keskofiles.com/f/k-ruoka/product/5706779060966"
      }
    ],
    "section": "4414",
    "departmentId": "106",
    "contentUnit": "KG",
    "contentSize": 0.4,
    "netWeight": 0.4,
    "available": true,
    "isUtility": false,
    "preprocessedPricing": {
      "products": {},
      "simplePromotions": {},
      "basketPromotions": {}
    },
    "tosPricing": {
      "basketPromotions": []
    },
    "simplePricePlussa": false,
    "pricingUnit": "kpl",
    "referencePrice": {
      "_type": "Big",
      "value": "19.875"
    },
    "visiblePrice": {
      "_type": "Big",
      "value": "7.95"
    },
    "visiblePriceUnit": "kpl",
    "isDiscounted": true
  },
  {
    "ean": "7311311016547",
    "urlSlug": "santa-maria-jauhelihamauste-95g-7311311016547",
    "name": "Santa Maria jauhelihamauste 95g",
    "pictureUrls": [
      {
        "original": "https://public.keskofiles.com/f/k-ruoka/product/7311311016547"
      }
    ],
    "section": "4102",
    "departmentId": "106",
    "contentUnit": "KG",
    "contentSize": 0.095,
    "netWeight": 0.095,
    "available": true,
    "isUtility": false,
    "preprocessedPricing": {
      "products": {},
      "simplePromotions": {},
      "basketPromotions": {}
    },
    "tosPricing": {
      "basketPromotions": []
    },
    "simplePricePlussa": false,
    "pricingUnit": "kpl",
    "referencePrice": {
      "_type": "Big",
      "value": "30"
    },
    "visiblePrice": {
      "_type": "Big",
      "value": "2.85"
    },
    "visiblePriceUnit": "kpl",
    "isDiscounted": false
  },
  {
    "ean": "7311442111708",
    "urlSlug": "kavli-majoneesi-275g-valkosipuli-7311442111708",
    "name": "Kavli aioli valkosipulimajoneesi  275 g",
    "pictureUrls": [
      {
        "original": "https://public.keskofiles.com/f/k-ruoka/product/7311442111708"
      }
    ],
    "section": "4173",
    "departmentId": "106",
    "contentUnit": "KG",
    "contentSize": 0.275,
    "netWeight": 0.3,
    "available": true,
    "isUtility": false,
    "preprocessedPricing": {
      "products": {},
      "simplePromotions": {},
      "basketPromotions": {}
    },
    "tosPricing": {
      "basketPromotions": []
    },
    "simplePricePlussa": false,
    "pricingUnit": "kpl",
    "referencePrice": {
      "_type": "Big",
      "value": "7.23636363636363636364"
    },
    "visiblePrice": {
      "_type": "Big",
      "value": "1.99"
    },
    "visiblePriceUnit": "kpl",
    "isDiscounted": true
  }
]