[
  {
    "ean": "7312631211308",
    "urlSlug": "risenta-auringonkukansiemen200g-paahdett-7312631211308",
    "name": "Risenta Auringonkukansiemen paahdettu 200g",
    "pictureUrls": [
      {
        "original": "https://public.keskofiles.com/f/k-ruoka/product/7312631211308"
      }
    ],
    "section": "4416",
    "departmentId": "106",
    "contentUnit": "KG",
    "contentSize": 0.2,
    "netWeight": 0.2,
    "available": true,
    "isUtility": false,
    "preprocessedPricing": {
      "products": {},
      "simplePromotions": {},
      "basketPromotions": {}
    },
    "tosPricing": {
      "basketPromotions": []
    },
    "simplePricePlussa": false,
    "pricingUnit": "kpl",
    "referencePrice": {
      "_type": "Big",
      "value": "8.95"
    },
    "visiblePrice": {
      "_type": "Big",
      "value": "1.79"
    },
    "visiblePriceUnit": "kpl",
    "isDiscounted": false
  },
  {
    "ean": "5765228517116",
    "urlSlug": "urtekram-viikuna-350g-luomu-5765228517116",
    "name": "Urtekram pieni viikuna 350g luomu",
    "pictureUrls": [
      {
        "original": "https://public.keskofiles.com/f/k-ruoka/product/5765228517116"
      }
    ],
    "section": "4409",
    "departmentId": "106",
    "contentUnit": "KG",
    "contentSize": 0.35,
    "netWeight": 0.35,
    "available": true,
    "isUtility": false,
    "preprocessedPricing": {
      "products": {},
      "simplePromotions": {},
      "basketPromotions": {}
    },
    "tosPricing": {
      "basketPromotions": []
    },
    "simplePricePlussa": false,
    "pricingUnit": "kpl",
    "referencePrice": {
      "_type": "Big",
      "value": "12.25714285714285714286"
    },
    "visiblePrice": {
      "_type": "Big",
      "value": "4.29"
    },
    "visiblePriceUnit": "kpl",
    "isDiscounted": false
  },
  {
    "ean": "4000539303104",
    "urlSlug": "lindt-mini-pralines-suklaa-100g-4000539303104",
    "name": "Lindt Mini pralines suklaa 100g",
    "pictureUrls": [
      {
        "original": "https://public.keskofiles.com/f/k-ruoka/product/4000539303104"
      }
    ],
    "section": "4261",
    "departmentId": "109",
    "contentUnit": "KG",
    "contentSize": 0.1,
    "netWeight": 0.1,
    "available": true,
    "isUtility": false,
    "preprocessedPricing": {
      "products": {},
      "simplePromotions": {},
      "basketPromotions": {}
    },
    "tosPricing": {
      "basketPromotions": []
    },
    "simplePricePlussa": false,
    "pricingUnit": "kpl",
    "referencePrice": {
      "_type": "Big",
      "value": "65.9"
    },
    "visiblePrice": {
      "_type": "Big",
      "value": "6.59"
    },
    "visiblePriceUnit": "kpl",
    "isDiscounted": false
  },
  {
    "ean": "7622210494542",
    "urlSlug": "marabou-premium-180g-manteli-appelsiini-7622210494542",
    "name": "Marabou Premium 180g manteli-appelsiini",
    "pictureUrls": [
      {
        "original": "https://public.keskofiles.com/f/k-ruoka/product/7622210494542"
      }
    ],
    "section": "4213",
    "departmentId": "109",
    "contentUnit": "KG",
    "contentSize": 0.18,
    "netWeight": 0.18,
    "available": true,
    "isUtility": false,
    "preprocessedPricing": {
      "products": {},
      "simplePromotions": {},
      "basketPromotions": {}
    },
    "tosPricing": {
      "basketPromotions": []
    },
    "simplePricePlussa": false,
    "pricingUnit": "kpl",
    "referencePrice": {
      "_type": "Big",
      "value": "18.83333333333333333333"
    },
    "visiblePrice": {
      "_type": "Big",
      "value": "3.39"
    },
    "visiblePriceUnit": "kpl",
    "isDiscounted": false
  },
  {
    "ean": "6412500048606",
    "urlSlug": "panda-talvirakeet-600g-lakritsi-6412500048606",
    "name": "Panda Talvirakeet 600g lakritsi",
    "pictureUrls": [
      {
        "original": "https://public.keskofiles.com/f/k-ruoka/product/6412500048606"
      }
    ],
    "section": "4269",
    "departmentId": "109",
    "contentUnit": "KG",
    "contentSize": 0.6,
    "netWeight": 0.6,
    "available": true,
    "isUtility": false,
    "preprocessedPricing": {
      "products": {},
      "simplePromotions": {},
      "basketPromotions": {}
    },
    "tosPricing": {
      "basketPromotions": []
    },
    "simplePricePlussa": false,
    "pricingUnit": "kpl",
    "referencePrice": {
      "_type": "Big",
      "value": "9.91666666666666666667"
    },
    "visiblePrice": {
      "_type": "Big",
      "value": "5.95"
    },
    "visiblePriceUnit": "kpl",
    "isDiscounted": false
  },
  {
    "ean": "6430051517181",
    "urlSlug": "barebar-leijona-40g-marjamix-6430051517181",
    "name": "Leader Barebar Marjamix välipalapatukka 40mg",
    "pictureUrls": [
      {
        "original": "https://public.keskofiles.com/f/k-ruoka/product/6430051517181"
      }
    ],
    "section": "4419",
    "departmentId": "106",
    "contentUnit": "KG",
    "contentSize": 0.04,
    "netWeight": 0.04,
    "available": true,
    "isUtility": false,
    "preprocessedPricing": {
      "products": {},
      "simplePromotions": {},
      "basketPromotions": {}
    },
    "tosPricing": {
      "basketPromotions": []
    },
    "simplePricePlussa": false,
    "pricingUnit": "kpl",
    "referencePrice": {
      "_type": "Big",
      "value": "36.25"
    },
    "visiblePrice": {
      "_type": "Big",
      "value": "1.45"
    },
    "visiblePriceUnit": "kpl",
    "isDiscounted": false
  },
  {
    "ean": "6417805941638",
    "urlSlug": "ahti-perhesilli-160100g-msc-6417805941638",
    "name": "Ahti Perhesilli 160/100g MSC",
    "pictureUrls": [
      {
        "original": "https://public.keskofiles.com/f/k-ruoka/product/6417805941638"
      }
    ],
    "section": "1182",
    "departmentId": "102",
    "contentUnit": "KG",
    "contentSize": 0.1,
    "netWeight": 0.1,
    "available": true,
    "isUtility": false,
    "preprocessedPricing": {
      "products": {},
      "simplePromotions": {},
      "basketPromotions": {}
    },
    "tosPricing": {
      "basketPromotions": []
    },
    "simplePricePlussa": false,
    "pricingUnit": "kpl",
    "referencePrice": {
      "_type": "Big",
      "value": "30.9"
    },
    "visiblePrice": {
      "_type": "Big",
      "value": "3.09"
    },
    "visiblePriceUnit": "kpl",
    "isDiscounted": false
  },
  {
    "ean": "8000500279823",
    "urlSlug": "kinder-talo-joulukalenteri-234g-8000500279823",
    "name": "Kinder Calendar House 234g",
    "pictureUrls": [],
    "section": "4267",
    "departmentId": "109",
    "contentUnit": "KG",
    "contentSize": 0.234,
    "netWeight": 0.234,
    "available": true,
    "isUtility": false,
    "preprocessedPricing": {
      "products": {},
      "simplePromotions": {},
      "basketPromotions": {}
    },
    "tosPricing": {
      "basketPromotions": []
    },
    "simplePricePlussa": false,
    "pricingUnit": "kpl",
    "referencePrice": {
      "_type": "Big",
      "value": "55.34188034188034188034"
    },
    "visiblePrice": {
      "_type": "Big",
      "value": "12.95"
    },
    "visiblePriceUnit": "kpl",
    "isDiscounted": false
  },
  {
    "ean": "6438207011200",
    "urlSlug": "sunnuntai-lehtitaikinalevy-800g-iso-pa-6438207011200",
    "name": "Sunnuntai isot lehtitaikinalevyt 800g pakaste",
    "pictureUrls": [
      {
        "original": "https://public.keskofiles.com/f/k-ruoka/product/6438207011200"
      }
    ],
    "section": "1481",
    "departmentId": "107",
    "contentUnit": "KG",
    "contentSize": 0.8,
    "netWeight": 0.8,
    "available": true,
    "isUtility": false,
    "preprocessedPricing": {
      "products": {},
      "simplePromotions": {},
      "basketPromotions": {}
    },
    "tosPricing": {
      "basketPromotions": []
    },
    "simplePricePlussa": false,
    "pricingUnit": "kpl",
    "referencePrice": {
      "_type": "Big",
      "value": "4.3625"
    },
    "visiblePrice": {
      "_type": "Big",
      "value": "3.49"
    },
    "visiblePriceUnit": "kpl",
    "isDiscounted": false
  },
  {
    "ean": "7039317006460",
    "urlSlug": "anyday-cashew-140g-7039317006460",
    "name": "Anyday cashew 140g",
    "pictureUrls": [
      {
        "original": "https://public.keskofiles.com/f/k-ruoka/product/7039317006460"
      }
    ],
    "section": "4414",
    "departmentId": "106",
    "contentUnit": "KG",
    "contentSize": 0.14,
    "netWeight": 0.14,
    "available": true,
    "isUtility": false,
    "preprocessedPricing": {
      "products": {},
      "simplePromotions": {},
      "basketPromotions": {}
    },
    "tosPricing": {
      "basketPromotions": []
    },
    "simplePricePlussa": false,
    "pricingUnit": "kpl",
    "referencePrice": {
      "_type": "Big",
      "value": "30.35714285714285714286"
    },
    "visiblePrice": {
      "_type": "Big",
      "value": "4.25"
    },
    "visiblePriceUnit": "kpl",
    "isDiscounted": false
  },
  {
    "ean": "6412500048774",
    "urlSlug": "lakumix-800g-joulu-lakritsisekoitus-6412500048774",
    "name": "Lakumix 800g Joulu lakritsisekoitus",
    "pictureUrls": [
      {
        "original": "https://public.keskofiles.com/f/k-ruoka/product/6412500048774"
      }
    ],
    "section": "4269",
    "departmentId": "109",
    "contentUnit": "KG",
    "contentSize": 0.8,
    "netWeight": 0.8,
    "available": true,
    "isUtility": false,
    "preprocessedPricing": {
      "products": {},
      "simplePromotions": {},
      "basketPromotions": {}
    },
    "tosPricing": {
      "basketPromotions": []
    },
    "simplePricePlussa": false,
    "pricingUnit": "kpl",
    "referencePrice": {
      "_type": "Big",
      "value": "7.4375"
    },
    "visiblePrice": {
      "_type": "Big",
      "value": "5.95"
    },
    "visiblePriceUnit": "kpl",
    "isDiscounted": false
  },
  {
    "ean": "6411440603029",
    "urlSlug": "ssk-tilli-sipulisilakka-300150g-6411440603029",
    "name": "SSK tilli-sipulisilakka 300/150g",
    "pictureUrls": [
      {
        "original": "https://public.keskofiles.com/f/k-ruoka/product/6411440603029"
      }
    ],
    "section": "1182",
    "departmentId": "102",
    "contentUnit": "KG",
    "contentSize": 0.15,
    "netWeight": 0.3,
    "available": true,
    "isUtility": false,
    "preprocessedPricing": {
      "products": {},
      "simplePromotions": {},
      "basketPromotions": {}
    },
    "tosPricing": {
      "basketPromotions": []
    },
    "simplePricePlussa": false,
    "pricingUnit": "kpl",
    "referencePrice": {
      "_type": "Big",
      "value": "31.93333333333333333333"
    },
    "visiblePrice": {
      "_type": "Big",
      "value": "4.79"
    },
    "visiblePriceUnit": "kpl",
    "isDiscounted": false
  },
  {
    "ean": "8029250000945",
    "urlSlug": "solefrutta-viikuna-marmeladi--350g-8029250000945",
    "name": "Solefrutta viikuna marmeladi  350g",
    "pictureUrls": [],
    "section": "3204",
    "departmentId": "106",
    "contentUnit": "KG",
    "contentSize": 0.35,
    "netWeight": 0.35,
    "available": true,
    "isUtility": false,
    "preprocessedPricing": {
      "products": {},
      "simplePromotions": {},
      "basketPromotions": {}
    },
    "tosPricing": {
      "basketPromotions": []
    },
    "simplePricePlussa": false,
    "pricingUnit": "kpl",
    "referencePrice": {
      "_type": "Big",
      "value": "14.54285714285714285714"
    },
    "visiblePrice": {
      "_type": "Big",
      "value": "5.09"
    },
    "visiblePriceUnit": "kpl",
    "isDiscounted": false
  },
  {
    "ean": "6408655601049",
    "urlSlug": "juustoportti-vuohen-grand-reserve-175g-6408655601049",
    "name": "Juustoportti Vuohen GR (Grand reserve) juusto 175g suojak.rasia",
    "pictureUrls": [
      {
        "original": "https://public.keskofiles.com/f/k-ruoka/product/6408655601049"
      }
    ],
    "section": "2433",
    "departmentId": "104",
    "contentUnit": "KG",
    "contentSize": 0.175,
    "netWeight": 0.175,
    "available": true,
    "isUtility": false,
    "preprocessedPricing": {
      "products": {},
      "simplePromotions": {},
      "basketPromotions": {}
    },
    "tosPricing": {
      "basketPromotions": []
    },
    "simplePricePlussa": false,
    "pricingUnit": "kpl",
    "referencePrice": {
      "_type": "Big",
      "value": "35.14285714285714285714"
    },
    "visiblePrice": {
      "_type": "Big",
      "value": "6.15"
    },
    "visiblePriceUnit": "kpl",
    "isDiscounted": false
  },
  {
    "ean": "6430043700010",
    "urlSlug": "cocovi-chia-siemenet-350g-6430043700010",
    "name": "Cocovi chiasiemenet 350 g",
    "pictureUrls": [
      {
        "original": "https://public.keskofiles.com/f/k-ruoka/product/6430043700010"
      }
    ],
    "section": "4416",
    "departmentId": "106",
    "contentUnit": "KG",
    "contentSize": 0.35,
    "netWeight": 0.35,
    "available": true,
    "isUtility": false,
    "preprocessedPricing": {
      "products": {},
      "simplePromotions": {},
      "basketPromotions": {}
    },
    "tosPricing": {
      "basketPromotions": []
    },
    "simplePricePlussa": false,
    "pricingUnit": "kpl",
    "referencePrice": {
      "_type": "Big",
      "value": "16.85714285714285714286"
    },
    "visiblePrice": {
      "_type": "Big",
      "value": "5.9"
    },
    "visiblePriceUnit": "kpl",
    "isDiscounted": true
  },
  {
    "ean": "6430022830257",
    "urlSlug": "laitilan-turun-piparkakakkuja-250g-lakto-6430022830257",
    "name": "Turun Piparkakkuja 250 g",
    "pictureUrls": [
      {
        "original": "https://public.keskofiles.com/f/k-ruoka/product/6430022830257"
      }
    ],
    "section": "3140",
    "departmentId": "101",
    "contentUnit": "KG",
    "contentSize": 0.25,
    "netWeight": 0.25,
    "available": true,
    "isUtility": false,
    "preprocessedPricing": {
      "products": {},
      "simplePromotions": {},
      "basketPromotions": {}
    },
    "tosPricing": {
      "basketPromotions": []
    },
    "simplePricePlussa": false,
    "pricingUnit": "kpl",
    "referencePrice": {
      "_type": "Big",
      "value": "11.96"
    },
    "visiblePrice": {
      "_type": "Big",
      "value": "2.99"
    },
    "visiblePriceUnit": "kpl",
    "isDiscounted": false
  },
  {
    "ean": "8003340093918",
    "urlSlug": "lindor-maito-taytesuklaakuula-337g-8003340093918",
    "name": "Lindor maito täytesuklaakuula 337g",
    "pictureUrls": [
      {
        "original": "https://public.keskofiles.com/f/k-ruoka/product/8003340093918"
      }
    ],
    "section": "4265",
    "departmentId": "109",
    "contentUnit": "KG",
    "contentSize": 0.337,
    "netWeight": 0.337,
    "available": true,
    "isUtility": false,
    "preprocessedPricing": {
      "products": {},
      "simplePromotions": {},
      "basketPromotions": {}
    },
    "tosPricing": {
      "basketPromotions": []
    },
    "simplePricePlussa": false,
    "pricingUnit": "kpl",
    "referencePrice": {
      "_type": "Big",
      "value": "29.52522255192878338279"
    },
    "visiblePrice": {
      "_type": "Big",
      "value": "9.95"
    },
    "visiblePriceUnit": "kpl",
    "isDiscounted": false
  },
  {
    "ean": "6416453072107",
    "urlSlug": "avec-ranskalaisia-pastilleja-200g-6416453072107",
    "name": "Avec ranskalaisia pastilleja 200g",
    "pictureUrls": [
      {
        "original": "https://public.keskofiles.com/f/k-ruoka/product/6416453072107"
      }
    ],
    "section": "4269",
    "departmentId": "109",
    "contentUnit": "KG",
    "contentSize": 0.2,
    "netWeight": 0.2,
    "available": true,
    "isUtility": false,
    "preprocessedPricing": {
      "products": {},
      "simplePromotions": {},
      "basketPromotions": {}
    },
    "tosPricing": {
      "basketPromotions": []
    },
    "simplePricePlussa": false,
    "pricingUnit": "kpl",
    "referencePrice": {
      "_type": "Big",
      "value": "17.95"
    },
    "visiblePrice": {
      "_type": "Big",
      "value": "3.59"
    },
    "visiblePriceUnit": "kpl",
    "isDiscounted": false
  },
  {
    "ean": "7310511352004",
    "urlSlug": "rollo-original-englannintoffee-250g-7310511352004",
    "name": "Rollo 250g Original Toffee englannintoffee",
    "pictureUrls": [
      {
        "original": "https://public.keskofiles.com/f/k-ruoka/product/7310511352004"
      }
    ],
    "section": "4262",
    "departmentId": "109",
    "contentUnit": "KG",
    "contentSize": 0.25,
    "netWeight": 0.25,
    "available": true,
    "isUtility": false,
    "preprocessedPricing": {
      "products": {},
      "simplePromotions": {},
      "basketPromotions": {}
    },
    "tosPricing": {
      "basketPromotions": []
    },
    "simplePricePlussa": false,
    "pricingUnit": "kpl",
    "referencePrice": {
      "_type": "Big",
      "value": "13.56"
    },
    "visiblePrice": {
      "_type": "Big",
      "value": "3.39"
    },
    "visiblePriceUnit": "kpl",
    "isDiscounted": false,
    "discountType": "PLUSSA",
    "batchSize": 2,
    "batchPrice": {
      "_type": "Big",
      "value": "6"
    }
  },
  {
    "ean": "6410405118394",
    "urlSlug": "pirkka-kookoshiutale-100g-6410405118394",
    "name": "Pirkka kookoshiutale 100g",
    "pictureUrls": [
      {
        "original": "https://public.keskofiles.com/f/k-ruoka/product/6410405118394"
      }
    ],
    "section": "4419",
    "departmentId": "106",
    "contentUnit": "KG",
    "contentSize": 0.1,
    "netWeight": 0.1,
    "available": true,
    "isUtility": false,
    "preprocessedPricing": {
      "products": {},
      "simplePromotions": {},
      "basketPromotions": {}
    },
    "tosPricing": {
      "basketPromotions": []
    },
    "simplePricePlussa": false,
    "pricingUnit": "kpl",
    "referencePrice": {
      "_type": "Big",
      "value": "10.9"
    },
    "visiblePrice": {
      "_type": "Big",
      "value": "1.09"
    },
    "visiblePriceUnit": "kpl",
    "isDiscounted": false
  },
  {
    "ean": "6436501008988",
    "urlSlug": "sallinen-saksanpahkina-70g-6436501008988",
    "name": "Sallinen saksanpähkinä 70g",
    "pictureUrls": [
      {
        "original": "https://public.keskofiles.com/f/k-ruoka/product/6436501008988"
      }
    ],
    "section": "4417",
    "departmentId": "106",
    "contentUnit": "KG",
    "contentSize": 0.07,
    "netWeight": 0.07,
    "available": true,
    "isUtility": false,
    "preprocessedPricing": {
      "products": {},
      "simplePromotions": {},
      "basketPromotions": {}
    },
    "tosPricing": {
      "basketPromotions": []
    },
    "simplePricePlussa": false,
    "pricingUnit": "kpl",
    "referencePrice": {
      "_type": "Big",
      "value": "28.42857142857142857143"
    },
    "visiblePrice": {
      "_type": "Big",
      "value": "1.99"
    },
    "visiblePriceUnit": "kpl",
    "isDiscounted": false
  },
  {
    "ean": "6410405136893",
    "urlSlug": "pirkka-parh-konvehtilajitelma-170g-utz-6410405136893",
    "name": "Pirkka Parhaat konvehtilajitelma 170g UTZ",
    "pictureUrls": [
      {
        "original": "https://public.keskofiles.com/f/k-ruoka/product/6410405136893"
      }
    ],
    "section": "4261",
    "departmentId": "109",
    "contentUnit": "KG",
    "contentSize": 0.17,
    "netWeight": 0.17,
    "available": true,
    "isUtility": false,
    "preprocessedPricing": {
      "products": {},
      "simplePromotions": {},
      "basketPromotions": {}
    },
    "tosPricing": {
      "basketPromotions": []
    },
    "simplePricePlussa": false,
    "pricingUnit": "kpl",
    "referencePrice": {
      "_type": "Big",
      "value": "28.17647058823529411765"
    },
    "visiblePrice": {
      "_type": "Big",
      "value": "4.79"
    },
    "visiblePriceUnit": "kpl",
    "isDiscounted": false
  },
  {
    "ean": "3023260001362",
    "urlSlug": "roquefort-societe-sinihomejuusto-100g-3023260001362",
    "name": "Roquefort Société sinihomejuusto 100g",
    "pictureUrls": [
      {
        "original": "https://public.keskofiles.com/f/k-ruoka/product/3023260001362"
      }
    ],
    "section": "2430",
    "departmentId": "104",
    "contentUnit": "KG",
    "contentSize": 0.1,
    "netWeight": 0.1,
    "available": true,
    "isUtility": false,
    "preprocessedPricing": {
      "products": {},
      "simplePromotions": {},
      "basketPromotions": {}
    },
    "tosPricing": {
      "basketPromotions": []
    },
    "simplePricePlussa": false,
    "pricingUnit": "kpl",
    "referencePrice": {
      "_type": "Big",
      "value": "43.9"
    },
    "visiblePrice": {
      "_type": "Big",
      "value": "4.39"
    },
    "visiblePriceUnit": "kpl",
    "isDiscounted": false
  },
  {
    "ean": "6430057510872",
    "urlSlug": "qap-lime-inkivaari-mgc-juomakorkki-8ml-6430057510872",
    "name": "QAP Lime-Inkivääri Mg+C juomakorkki 8ml",
    "pictureUrls": [],
    "section": "5090",
    "departmentId": "108",
    "contentUnit": "KPL",
    "contentSize": 1,
    "netWeight": 0.048,
    "available": true,
    "isUtility": false,
    "preprocessedPricing": {
      "products": {},
      "simplePromotions": {},
      "basketPromotions": {}
    },
    "tosPricing": {
      "basketPromotions": []
    },
    "simplePricePlussa": false,
    "pricingUnit": "kpl",
    "referencePrice": {
      "_type": "Big",
      "value": "1.49"
    },
    "visiblePrice": {
      "_type": "Big",
      "value": "1.49"
    },
    "visiblePriceUnit": "kpl",
    "isDiscounted": false
  },
  {
    "ean": "6409590000331",
    "urlSlug": "toysalainen-piparkakku-400g-6409590000331",
    "name": "Töysäläinen piparkakkuja 400 g",
    "pictureUrls": [
      {
        "original": "https://public.keskofiles.com/f/k-ruoka/product/6409590000331"
      }
    ],
    "section": "3140",
    "departmentId": "101",
    "contentUnit": "KG",
    "contentSize": 0.4,
    "netWeight": 0.4,
    "available": true,
    "isUtility": false,
    "preprocessedPricing": {
      "products": {},
      "simplePromotions": {},
      "basketPromotions": {}
    },
    "tosPricing": {
      "basketPromotions": []
    },
    "simplePricePlussa": false,
    "pricingUnit": "kpl",
    "referencePrice": {
      "_type": "Big",
      "value": "5.225"
    },
    "visiblePrice": {
      "_type": "Big",
      "value": "2.09"
    },
    "visiblePriceUnit": "kpl",
    "isDiscounted": false
  },
  {
    "ean": "4003751012052",
    "urlSlug": "alpenhain-baked-camembert-200150g-4003751012052",
    "name": "Alpenhain gourmet camembert 200g",
    "pictureUrls": [
      {
        "original": "https://public.keskofiles.com/f/k-ruoka/product/4003751012052"
      }
    ],
    "section": "2431",
    "departmentId": "104",
    "contentUnit": "KG",
    "contentSize": 0.2,
    "netWeight": 0.2,
    "available": true,
    "isUtility": false,
    "preprocessedPricing": {
      "products": {},
      "simplePromotions": {},
      "basketPromotions": {}
    },
    "tosPricing": {
      "basketPromotions": []
    },
    "simplePricePlussa": false,
    "pricingUnit": "kpl",
    "referencePrice": {
      "_type": "Big",
      "value": "23.75"
    },
    "visiblePrice": {
      "_type": "Big",
      "value": "4.75"
    },
    "visiblePriceUnit": "kpl",
    "isDiscounted": false
  },
  {
    "ean": "5711953036583",
    "urlSlug": "castello-white-150g-red-chili-5711953036583",
    "name": "Castello white valkohomejuusto 150g chili",
    "pictureUrls": [
      {
        "original": "https://public.keskofiles.com/f/k-ruoka/product/5711953036583"
      }
    ],
    "section": "2431",
    "departmentId": "104",
    "contentUnit": "KG",
    "contentSize": 0.15,
    "netWeight": 0.15,
    "available": true,
    "isUtility": false,
    "preprocessedPricing": {
      "products": {},
      "simplePromotions": {},
      "basketPromotions": {}
    },
    "tosPricing": {
      "basketPromotions": []
    },
    "simplePricePlussa": false,
    "pricingUnit": "kpl",
    "referencePrice": {
      "_type": "Big",
      "value": "16"
    },
    "visiblePrice": {
      "_type": "Big",
      "value": "2.4"
    },
    "visiblePriceUnit": "kpl",
    "isDiscounted": false
  },
  {
    "ean": "6412500005401",
    "urlSlug": "panda-suomi-juhlakonvehti-rasia-250g-6412500005401",
    "name": "Panda Suomi juhlakonvehti rasia 250g",
    "pictureUrls": [
      {
        "original": "https://public.keskofiles.com/f/k-ruoka/product/6412500005401"
      }
    ],
    "section": "4264",
    "departmentId": "109",
    "contentUnit": "KG",
    "contentSize": 0.25,
    "netWeight": 0.25,
    "available": true,
    "isUtility": false,
    "preprocessedPricing": {
      "products": {},
      "simplePromotions": {},
      "basketPromotions": {}
    },
    "tosPricing": {
      "basketPromotions": []
    },
    "simplePricePlussa": false,
    "pricingUnit": "kpl",
    "referencePrice": {
      "_type": "Big",
      "value": "15.96"
    },
    "visiblePrice": {
      "_type": "Big",
      "value": "3.99"
    },
    "visiblePriceUnit": "kpl",
    "isDiscounted": false,
    "discountType": "PLUSSA",
    "batchSize": 3,
    "batchPrice": {
      "_type": "Big",
      "value": "10"
    }
  },
  {
    "ean": "6411401042331",
    "urlSlug": "fazer-finlandia-marmeladi-rasia-500g-6411401042331",
    "name": "Finlandia marmeladirasia 500g",
    "pictureUrls": [
      {
        "original": "https://public.keskofiles.com/f/k-ruoka/product/6411401042331"
      }
    ],
    "section": "4266",
    "departmentId": "109",
    "contentUnit": "KG",
    "contentSize": 0.5,
    "netWeight": 0.5,
    "available": true,
    "isUtility": false,
    "preprocessedPricing": {
      "products": {},
      "simplePromotions": {},
      "basketPromotions": {}
    },
    "tosPricing": {
      "basketPromotions": []
    },
    "simplePricePlussa": false,
    "pricingUnit": "kpl",
    "referencePrice": {
      "_type": "Big",
      "value": "11.58"
    },
    "visiblePrice": {
      "_type": "Big",
      "value": "5.79"
    },
    "visiblePriceUnit": "kpl",
    "isDiscounted": false
  },
  {
    "ean": "6410405118127",
    "urlSlug": "k-menu-cashewpahkina-500g-6410405118127",
    "name": "K-Menu cashewpähkinä 500g",
    "pictureUrls": [
      {
        "original": "https://public.keskofiles.com/f/k-ruoka/product/6410405118127"
      }
    ],
    "section": "4414",
    "departmentId": "106",
    "contentUnit": "KG",
    "contentSize": 0.5,
    "netWeight": 0.5,
    "available": true,
    "isUtility": false,
    "preprocessedPricing": {
      "products": {},
      "simplePromotions": {},
      "basketPromotions": {}
    },
    "tosPricing": {
      "basketPromotions": []
    },
    "simplePricePlussa": false,
    "pricingUnit": "kpl",
    "referencePrice": {
      "_type": "Big",
      "value": "19.58"
    },
    "visiblePrice": {
      "_type": "Big",
      "value": "9.79"
    },
    "visiblePriceUnit": "kpl",
    "isDiscounted": false
  }
]