[
  {
    "ean": "7310090366188",
    "urlSlug": "fun-light-juomatiiviste-05l-vadelm-sitr-7310090366188",
    "name": "Fun Light vadelma-sitruunanmakuinen juomatiiviste 0,5l",
    "pictureUrls": [
      {
        "original": "https://public.keskofiles.com/f/k-ruoka/product/7310090366188"
      }
    ],
    "section": "3360",
    "departmentId": "108",
    "contentUnit": "L",
    "contentSize": 0.5,
    "netWeight": 0.505,
    "available": true,
    "isUtility": false,
    "preprocessedPricing": {
      "products": {},
      "simplePromotions": {},
      "basketPromotions": {}
    },
    "tosPricing": {
      "basketPromotions": []
    },
    "simplePricePlussa": false,
    "pricingUnit": "kpl",
    "referencePrice": {
      "_type": "Big",
      "value": "4.18"
    },
    "visiblePrice": {
      "_type": "Big",
      "value": "2.09"
    },
    "visiblePriceUnit": "kpl",
    "isDiscounted": false
  },
  {
    "ean": "6430039221031",
    "urlSlug": "puhdistamo-raakakaakaojauhe-150g-6430039221031",
    "name": "Puhdistamo Raakakaakaojauhe 150g",
    "pictureUrls": [
      {
        "original": "https://public.keskofiles.com/f/k-ruoka/product/6430039221031"
      }
    ],
    "section": "3485",
    "departmentId": "108",
    "contentUnit": "KG",
    "contentSize": 0.15,
    "netWeight": 0,
    "available": true,
    "isUtility": false,
    "preprocessedPricing": {
      "products": {},
      "simplePromotions": {},
      "basketPromotions": {}
    },
    "tosPricing": {
      "basketPromotions": []
    },
    "simplePricePlussa": false,
    "pricingUnit": "kpl",
    "referencePrice": {
      "_type": "Big",
      "value": "53"
    },
    "visiblePrice": {
      "_type": "Big",
      "value": "7.95"
    },
    "visiblePriceUnit": "kpl",
    "isDiscounted": false
  },
  {
    "ean": "6415130027966",
    "urlSlug": "marli-juissi-1l-sitruuna-limemehujuoma-6415130027966",
    "name": "Marli Juissi 1l Sitruuna-limemehujuoma",
    "pictureUrls": [
      {
        "original": "https://public.keskofiles.com/f/k-ruoka/product/6415130027966"
      }
    ],
    "section": "3349",
    "departmentId": "108",
    "contentUnit": "L",
    "contentSize": 1,
    "netWeight": 1.038,
    "available": true,
    "isUtility": false,
    "preprocessedPricing": {
      "products": {},
      "simplePromotions": {},
      "basketPromotions": {}
    },
    "tosPricing": {
      "basketPromotions": []
    },
    "simplePricePlussa": false,
    "pricingUnit": "kpl",
    "referencePrice": {
      "_type": "Big",
      "value": "0.99"
    },
    "visiblePrice": {
      "_type": "Big",
      "value": "0.99"
    },
    "visiblePriceUnit": "kpl",
    "isDiscounted": false
  },
  {
    "ean": "8722700055525",
    "urlSlug": "lipton-pyramid-green-tee-20ps-rfa-8722700055525",
    "name": "Lipton Green Tea maustettu vihreä tee 20 pyramidipussia 36g",
    "pictureUrls": [
      {
        "original": "https://public.keskofiles.com/f/k-ruoka/product/8722700055525"
      }
    ],
    "section": "3452",
    "departmentId": "108",
    "contentUnit": "KG",
    "contentSize": 0.036,
    "netWeight": 0.036,
    "available": true,
    "isUtility": false,
    "preprocessedPricing": {
      "products": {},
      "simplePromotions": {},
      "basketPromotions": {}
    },
    "tosPricing": {
      "basketPromotions": []
    },
    "simplePricePlussa": false,
    "pricingUnit": "kpl",
    "referencePrice": {
      "_type": "Big",
      "value": "79.16666666666666666667"
    },
    "visiblePrice": {
      "_type": "Big",
      "value": "2.85"
    },
    "visiblePriceUnit": "kpl",
    "isDiscounted": false
  },
  {
    "ean": "7613036305648",
    "urlSlug": "dolce-gusto-16kaps-1864g-cappuccino-7613036305648",
    "name": "Dolce Gusto 16kaps 186,4g Cappuccino",
    "pictureUrls": [
      {
        "original": "https://public.keskofiles.com/f/k-ruoka/product/7613036305648"
      }
    ],
    "section": "3413",
    "departmentId": "108",
    "contentUnit": "KG",
    "contentSize": 0.186,
    "netWeight": 0.186,
    "available": true,
    "isUtility": false,
    "preprocessedPricing": {
      "products": {},
      "simplePromotions": {},
      "basketPromotions": {}
    },
    "tosPricing": {
      "basketPromotions": []
    },
    "simplePricePlussa": false,
    "pricingUnit": "kpl",
    "referencePrice": {
      "_type": "Big",
      "value": "26.82795698924731182796"
    },
    "visiblePrice": {
      "_type": "Big",
      "value": "4.99"
    },
    "visiblePriceUnit": "kpl",
    "isDiscounted": true
  },
  {
    "ean": "7310050001753",
    "urlSlug": "lofbergs-lila-kahvi-500g-magnifika-sj-7310050001753",
    "name": "Löfbergs Lila Magnifika 500g kahvi",
    "pictureUrls": [
      {
        "original": "https://public.keskofiles.com/f/k-ruoka/product/7310050001753"
      }
    ],
    "section": "3401",
    "departmentId": "108",
    "contentUnit": "KG",
    "contentSize": 0.5,
    "netWeight": 0.5,
    "available": true,
    "isUtility": false,
    "preprocessedPricing": {
      "products": {},
      "simplePromotions": {},
      "basketPromotions": {}
    },
    "tosPricing": {
      "basketPromotions": []
    },
    "simplePricePlussa": false,
    "pricingUnit": "kpl",
    "referencePrice": {
      "_type": "Big",
      "value": "8.3"
    },
    "visiblePrice": {
      "_type": "Big",
      "value": "4.15"
    },
    "visiblePriceUnit": "kpl",
    "isDiscounted": false
  },
  {
    "ean": "6410405151728",
    "urlSlug": "pirkka-reilun-kaupan-kahvi-tumma-500g-6410405151728",
    "name": "Pirkka Reilun kaupan kahvi tumma paahto 500g suodatinjauhatus",
    "pictureUrls": [
      {
        "original": "https://public.keskofiles.com/f/k-ruoka/product/6410405151728"
      }
    ],
    "section": "3401",
    "departmentId": "108",
    "contentUnit": "KG",
    "contentSize": 0.5,
    "netWeight": 0.5,
    "available": true,
    "isUtility": false,
    "preprocessedPricing": {
      "products": {},
      "simplePromotions": {},
      "basketPromotions": {}
    },
    "tosPricing": {
      "basketPromotions": []
    },
    "simplePricePlussa": false,
    "pricingUnit": "kpl",
    "referencePrice": {
      "_type": "Big",
      "value": "6.78"
    },
    "visiblePrice": {
      "_type": "Big",
      "value": "3.39"
    },
    "visiblePriceUnit": "kpl",
    "isDiscounted": false
  },
  {
    "ean": "6411020004444",
    "urlSlug": "forsman-tee-60g-keisarin-malja-vih-reil-6411020004444",
    "name": "Forsman 60 g Keisarin Malja Vihrea Reilu kauppa",
    "pictureUrls": [
      {
        "original": "https://public.keskofiles.com/f/k-ruoka/product/6411020004444"
      }
    ],
    "section": "3451",
    "departmentId": "108",
    "contentUnit": "KG",
    "contentSize": 0.06,
    "netWeight": 0.06,
    "available": true,
    "isUtility": false,
    "preprocessedPricing": {
      "products": {},
      "simplePromotions": {},
      "basketPromotions": {}
    },
    "tosPricing": {
      "basketPromotions": []
    },
    "simplePricePlussa": false,
    "pricingUnit": "kpl",
    "referencePrice": {
      "_type": "Big",
      "value": "35.83333333333333333333"
    },
    "visiblePrice": {
      "_type": "Big",
      "value": "2.15"
    },
    "visiblePriceUnit": "kpl",
    "isDiscounted": false
  },
  {
    "ean": "6415130036777",
    "urlSlug": "vital-vadelma-mustikkajuomakuitu-25dl-6415130036777",
    "name": "Vital vadelma-mustikkajuoma+kuitu 2,5dl",
    "pictureUrls": [
      {
        "original": "https://public.keskofiles.com/f/k-ruoka/product/6415130036777"
      }
    ],
    "section": "3301",
    "departmentId": "108",
    "contentUnit": "L",
    "contentSize": 0.25,
    "netWeight": 0.26,
    "available": true,
    "isUtility": false,
    "preprocessedPricing": {
      "products": {},
      "simplePromotions": {},
      "basketPromotions": {}
    },
    "tosPricing": {
      "basketPromotions": []
    },
    "simplePricePlussa": false,
    "pricingUnit": "kpl",
    "referencePrice": {
      "_type": "Big",
      "value": "3.8"
    },
    "visiblePrice": {
      "_type": "Big",
      "value": "0.95"
    },
    "visiblePriceUnit": "kpl",
    "isDiscounted": false
  },
  {
    "ean": "7613035969070",
    "urlSlug": "nescafe-brasero-pikakahvi-200g-7613035969070",
    "name": "Nescafé Brasero pikakahvi 200g",
    "pictureUrls": [
      {
        "original": "https://public.keskofiles.com/f/k-ruoka/product/7613035969070"
      }
    ],
    "section": "3420",
    "departmentId": "108",
    "contentUnit": "KG",
    "contentSize": 0.2,
    "netWeight": 0.2,
    "available": true,
    "isUtility": false,
    "preprocessedPricing": {
      "products": {},
      "simplePromotions": {},
      "basketPromotions": {}
    },
    "tosPricing": {
      "basketPromotions": []
    },
    "simplePricePlussa": false,
    "pricingUnit": "kpl",
    "referencePrice": {
      "_type": "Big",
      "value": "26.45"
    },
    "visiblePrice": {
      "_type": "Big",
      "value": "5.29"
    },
    "visiblePriceUnit": "kpl",
    "isDiscounted": false
  },
  {
    "ean": "6415130045892",
    "urlSlug": "marli-hyvinvointijuoma-25dl-palauttava-6415130045892",
    "name": "Marli hyvinvointijuoma 2,5dl palauttava sitruuna-lime",
    "pictureUrls": [
      {
        "original": "https://public.keskofiles.com/f/k-ruoka/product/6415130045892"
      }
    ],
    "section": "3309",
    "departmentId": "108",
    "contentUnit": "L",
    "contentSize": 0.25,
    "netWeight": 0.254,
    "available": true,
    "isUtility": false,
    "preprocessedPricing": {
      "products": {},
      "simplePromotions": {},
      "basketPromotions": {}
    },
    "tosPricing": {
      "basketPromotions": []
    },
    "simplePricePlussa": false,
    "pricingUnit": "kpl",
    "referencePrice": {
      "_type": "Big",
      "value": "3.8"
    },
    "visiblePrice": {
      "_type": "Big",
      "value": "0.95"
    },
    "visiblePriceUnit": "kpl",
    "isDiscounted": false
  },
  {
    "ean": "6408430006014",
    "urlSlug": "valio-ananastaysmehu-1l-6408430006014",
    "name": "Valio ananastäysmehu 1l",
    "pictureUrls": [
      {
        "original": "https://public.keskofiles.com/f/k-ruoka/product/6408430006014"
      }
    ],
    "section": "1911",
    "departmentId": "108",
    "contentUnit": "L",
    "contentSize": 1,
    "netWeight": 1.049,
    "available": true,
    "isUtility": false,
    "preprocessedPricing": {
      "products": {},
      "simplePromotions": {},
      "basketPromotions": {}
    },
    "tosPricing": {
      "basketPromotions": []
    },
    "simplePricePlussa": false,
    "pricingUnit": "kpl",
    "referencePrice": {
      "_type": "Big",
      "value": "2.35"
    },
    "visiblePrice": {
      "_type": "Big",
      "value": "2.35"
    },
    "visiblePriceUnit": "kpl",
    "isDiscounted": false
  },
  {
    "ean": "6411020066053",
    "urlSlug": "forsman-matcha-teejauhe-40g-luomu-6411020066053",
    "name": "Forsman matcha vihreä tee 40g luomu",
    "pictureUrls": [
      {
        "original": "https://public.keskofiles.com/f/k-ruoka/product/6411020066053"
      }
    ],
    "section": "3450",
    "departmentId": "108",
    "contentUnit": "KG",
    "contentSize": 0.04,
    "netWeight": 0.04,
    "available": true,
    "isUtility": false,
    "preprocessedPricing": {
      "products": {},
      "simplePromotions": {},
      "basketPromotions": {}
    },
    "tosPricing": {
      "basketPromotions": []
    },
    "simplePricePlussa": false,
    "pricingUnit": "kpl",
    "referencePrice": {
      "_type": "Big",
      "value": "231.25"
    },
    "visiblePrice": {
      "_type": "Big",
      "value": "9.25"
    },
    "visiblePriceUnit": "kpl",
    "isDiscounted": false
  },
  {
    "ean": "6430021040022",
    "urlSlug": "gran-palomar-papukahvi-250g-reilu-luomu-6430021040022",
    "name": "Gran Palomar papukahvi 250g reilu kauppa luomu",
    "pictureUrls": [],
    "section": "3403",
    "departmentId": "108",
    "contentUnit": "KG",
    "contentSize": 0.25,
    "netWeight": 0.25,
    "available": true,
    "isUtility": false,
    "preprocessedPricing": {
      "products": {},
      "simplePromotions": {},
      "basketPromotions": {}
    },
    "tosPricing": {
      "basketPromotions": []
    },
    "simplePricePlussa": false,
    "pricingUnit": "kpl",
    "referencePrice": {
      "_type": "Big",
      "value": "24.76"
    },
    "visiblePrice": {
      "_type": "Big",
      "value": "6.19"
    },
    "visiblePriceUnit": "kpl",
    "isDiscounted": false
  },
  {
    "ean": "5060088500217",
    "urlSlug": "mad-croc-energiajuoma-025l-sokerit--tlk-5060088500217",
    "name": "Mad-Croc energiajuoma 0,25l sokerit. tlk",
    "pictureUrls": [
      {
        "original": "https://public.keskofiles.com/f/k-ruoka/product/5060088500217"
      }
    ],
    "section": "5042",
    "departmentId": "108",
    "contentUnit": "L",
    "contentSize": 0.25,
    "netWeight": 0.25,
    "available": true,
    "isUtility": false,
    "preprocessedPricing": {
      "products": {},
      "simplePromotions": {},
      "basketPromotions": {}
    },
    "tosPricing": {
      "basketPromotions": []
    },
    "simplePricePlussa": false,
    "pricingUnit": "kpl",
    "referencePrice": {
      "_type": "Big",
      "value": "4.8"
    },
    "visiblePrice": {
      "_type": "Big",
      "value": "1.35"
    },
    "visiblePriceUnit": "kpl",
    "isDiscounted": false
  },
  {
    "ean": "7350022395206",
    "urlSlug": "van-houten-kaakaojuomajauhe-10x23g-7350022395206",
    "name": "Van Houten Kaakaojuomajauhe 10x23g",
    "pictureUrls": [
      {
        "original": "https://public.keskofiles.com/f/k-ruoka/product/7350022395206"
      }
    ],
    "section": "3481",
    "departmentId": "108",
    "contentUnit": "KG",
    "contentSize": 0.23,
    "netWeight": 0.23,
    "available": true,
    "isUtility": false,
    "preprocessedPricing": {
      "products": {},
      "simplePromotions": {},
      "basketPromotions": {}
    },
    "tosPricing": {
      "basketPromotions": []
    },
    "simplePricePlussa": false,
    "pricingUnit": "kpl",
    "referencePrice": {
      "_type": "Big",
      "value": "16.30434782608695652174"
    },
    "visiblePrice": {
      "_type": "Big",
      "value": "3.75"
    },
    "visiblePriceUnit": "kpl",
    "isDiscounted": false
  },
  {
    "ean": "6413605017276",
    "urlSlug": "novelle-citronelle-15l-kmp-2-pack-dolly-6413605017276",
    "name": "Novelle Citronelle 1,5L 2-pack",
    "pictureUrls": [
      {
        "original": "https://public.keskofiles.com/f/k-ruoka/product/6413605017276"
      }
    ],
    "section": "5028",
    "departmentId": "108",
    "contentUnit": "L",
    "contentSize": 3,
    "netWeight": 3,
    "available": true,
    "isUtility": false,
    "preprocessedPricing": {
      "products": {},
      "simplePromotions": {},
      "basketPromotions": {}
    },
    "tosPricing": {
      "basketPromotions": []
    },
    "simplePricePlussa": false,
    "pricingUnit": "kpl",
    "referencePrice": {
      "_type": "Big",
      "value": "0.73"
    },
    "visiblePrice": {
      "_type": "Big",
      "value": "2.99"
    },
    "visiblePriceUnit": "kpl",
    "isDiscounted": false
  },
  {
    "ean": "6410405190918",
    "urlSlug": "pirkka-vihrea-tee-20pss-pure-utz-6410405190918",
    "name": "Pirkka vihreä tee 20 pussia/30g UTZ",
    "pictureUrls": [
      {
        "original": "https://public.keskofiles.com/f/k-ruoka/product/6410405190918"
      }
    ],
    "section": "3452",
    "departmentId": "108",
    "contentUnit": "KG",
    "contentSize": 0.03,
    "netWeight": 0.03,
    "available": true,
    "isUtility": false,
    "preprocessedPricing": {
      "products": {},
      "simplePromotions": {},
      "basketPromotions": {}
    },
    "tosPricing": {
      "basketPromotions": []
    },
    "simplePricePlussa": false,
    "pricingUnit": "kpl",
    "referencePrice": {
      "_type": "Big",
      "value": "59.66666666666666666667"
    },
    "visiblePrice": {
      "_type": "Big",
      "value": "1.79"
    },
    "visiblePriceUnit": "kpl",
    "isDiscounted": false
  },
  {
    "ean": "6410405208286",
    "urlSlug": "pirkka-vadelmajuoma-1l-6410405208286",
    "name": "Pirkka vadelmajuoma 1l",
    "pictureUrls": [
      {
        "original": "https://public.keskofiles.com/f/k-ruoka/product/6410405208286"
      }
    ],
    "section": "3349",
    "departmentId": "108",
    "contentUnit": "L",
    "contentSize": 1,
    "netWeight": 1.032,
    "available": true,
    "isUtility": false,
    "preprocessedPricing": {
      "products": {},
      "simplePromotions": {},
      "basketPromotions": {}
    },
    "tosPricing": {
      "basketPromotions": []
    },
    "simplePricePlussa": false,
    "pricingUnit": "kpl",
    "referencePrice": {
      "_type": "Big",
      "value": "0.89"
    },
    "visiblePrice": {
      "_type": "Big",
      "value": "0.89"
    },
    "visiblePriceUnit": "kpl",
    "isDiscounted": false,
    "discountType": "PLUSSA",
    "batchSize": 2,
    "batchPrice": {
      "_type": "Big",
      "value": "1.7"
    }
  },
  {
    "ean": "6417241080410",
    "urlSlug": "aten-makumehu-05l--sokeroitu-6417241080410",
    "name": "Aten kylmäpuristettu makumehu 0,5l sokeroitu",
    "pictureUrls": [
      {
        "original": "https://public.keskofiles.com/f/k-ruoka/product/6417241080410"
      }
    ],
    "section": "3359",
    "departmentId": "108",
    "contentUnit": "L",
    "contentSize": 0.5,
    "netWeight": 0.536,
    "available": true,
    "isUtility": false,
    "preprocessedPricing": {
      "products": {},
      "simplePromotions": {},
      "basketPromotions": {}
    },
    "tosPricing": {
      "basketPromotions": []
    },
    "simplePricePlussa": false,
    "pricingUnit": "kpl",
    "referencePrice": {
      "_type": "Big",
      "value": "12.98"
    },
    "visiblePrice": {
      "_type": "Big",
      "value": "6.49"
    },
    "visiblePriceUnit": "kpl",
    "isDiscounted": false
  },
  {
    "ean": "6418785003941",
    "urlSlug": "moomin-paaryna-rypalemehujuoma-02l-tlk-6418785003941",
    "name": "Moomin päärynä-rypälemehujuoma 0,2l",
    "pictureUrls": [
      {
        "original": "https://public.keskofiles.com/f/k-ruoka/product/6418785003941"
      }
    ],
    "section": "3301",
    "departmentId": "108",
    "contentUnit": "L",
    "contentSize": 0.2,
    "netWeight": 0.205,
    "available": true,
    "isUtility": false,
    "preprocessedPricing": {
      "products": {},
      "simplePromotions": {},
      "basketPromotions": {}
    },
    "tosPricing": {
      "basketPromotions": []
    },
    "simplePricePlussa": false,
    "pricingUnit": "kpl",
    "referencePrice": {
      "_type": "Big",
      "value": "2.55"
    },
    "visiblePrice": {
      "_type": "Big",
      "value": "0.51"
    },
    "visiblePriceUnit": "kpl",
    "isDiscounted": false
  },
  {
    "ean": "5908260256166",
    "urlSlug": "oshee-isotonic-multifruit-zero-075l-kmp-5908260256166",
    "name": "Oshee Isotonic Multifruit Zero 0,75l",
    "pictureUrls": [
      {
        "original": "https://public.keskofiles.com/f/k-ruoka/product/5908260256166"
      }
    ],
    "section": "5044",
    "departmentId": "108",
    "contentUnit": "L",
    "contentSize": 0.75,
    "netWeight": 0.75,
    "available": true,
    "isUtility": false,
    "preprocessedPricing": {
      "products": {},
      "simplePromotions": {},
      "basketPromotions": {}
    },
    "tosPricing": {
      "basketPromotions": []
    },
    "simplePricePlussa": false,
    "pricingUnit": "kpl",
    "referencePrice": {
      "_type": "Big",
      "value": "2.38666666666666666667"
    },
    "visiblePrice": {
      "_type": "Big",
      "value": "1.99"
    },
    "visiblePriceUnit": "kpl",
    "isDiscounted": true
  },
  {
    "ean": "4605246009969",
    "urlSlug": "greenfield-tee-25ps-blueberry-nights-4605246009969",
    "name": "Greenfield tee 25ps Blueberry Nights",
    "pictureUrls": [
      {
        "original": "https://public.keskofiles.com/f/k-ruoka/product/4605246009969"
      }
    ],
    "section": "3445",
    "departmentId": "108",
    "contentUnit": "KG",
    "contentSize": 0.038,
    "netWeight": 0.038,
    "available": true,
    "isUtility": false,
    "preprocessedPricing": {
      "products": {},
      "simplePromotions": {},
      "basketPromotions": {}
    },
    "tosPricing": {
      "basketPromotions": []
    },
    "simplePricePlussa": false,
    "pricingUnit": "kpl",
    "referencePrice": {
      "_type": "Big",
      "value": "55"
    },
    "visiblePrice": {
      "_type": "Big",
      "value": "2.09"
    },
    "visiblePriceUnit": "kpl",
    "isDiscounted": false
  },
  {
    "ean": "6410405216380",
    "urlSlug": "pirkka-kivennaisv-sitruuna-033l-kmp-si-6410405216380",
    "name": "Pirkka sitruunanmakuinen kivennäisvesi 0,33l",
    "pictureUrls": [
      {
        "original": "https://public.keskofiles.com/f/k-ruoka/product/6410405216380"
      }
    ],
    "section": "5024",
    "departmentId": "108",
    "contentUnit": "L",
    "contentSize": 0.33,
    "netWeight": 0.33,
    "available": true,
    "isUtility": false,
    "preprocessedPricing": {
      "products": {},
      "simplePromotions": {},
      "basketPromotions": {}
    },
    "tosPricing": {
      "basketPromotions": []
    },
    "simplePricePlussa": false,
    "pricingUnit": "kpl",
    "referencePrice": {
      "_type": "Big",
      "value": "2.27272727272727272727"
    },
    "visiblePrice": {
      "_type": "Big",
      "value": "0.85"
    },
    "visiblePriceUnit": "kpl",
    "isDiscounted": false
  },
  {
    "ean": "6413446000277",
    "urlSlug": "nordqvist-tee-20ps-classic-6413446000277",
    "name": "Nordqvist Classic 4x5pss/35g musta maustamaton pussitee",
    "pictureUrls": [
      {
        "original": "https://public.keskofiles.com/f/k-ruoka/product/6413446000277"
      }
    ],
    "section": "3443",
    "departmentId": "108",
    "contentUnit": "KG",
    "contentSize": 0.035,
    "netWeight": 0.035,
    "available": true,
    "isUtility": false,
    "preprocessedPricing": {
      "products": {},
      "simplePromotions": {},
      "basketPromotions": {}
    },
    "tosPricing": {
      "basketPromotions": []
    },
    "simplePricePlussa": false,
    "pricingUnit": "kpl",
    "referencePrice": {
      "_type": "Big",
      "value": "75.71428571428571428571"
    },
    "visiblePrice": {
      "_type": "Big",
      "value": "2.65"
    },
    "visiblePriceUnit": "kpl",
    "isDiscounted": true,
    "discountType": "PLUSSA",
    "batchSize": 2,
    "batchPrice": {
      "_type": "Big",
      "value": "4.5"
    }
  },
  {
    "ean": "5034718081025",
    "urlSlug": "littles-50g-hazelnut-instant-coffee-5034718081025",
    "name": "Little's Hazelnut Instant Coffee pikakahvi 50 g",
    "pictureUrls": [
      {
        "original": "https://public.keskofiles.com/f/k-ruoka/product/5034718081025"
      }
    ],
    "section": "3421",
    "departmentId": "108",
    "contentUnit": "KG",
    "contentSize": 0.05,
    "netWeight": 0.05,
    "available": true,
    "isUtility": false,
    "preprocessedPricing": {
      "products": {},
      "simplePromotions": {},
      "basketPromotions": {}
    },
    "tosPricing": {
      "basketPromotions": []
    },
    "simplePricePlussa": false,
    "pricingUnit": "kpl",
    "referencePrice": {
      "_type": "Big",
      "value": "103"
    },
    "visiblePrice": {
      "_type": "Big",
      "value": "5.15"
    },
    "visiblePriceUnit": "kpl",
    "isDiscounted": false
  },
  {
    "ean": "6430029320003",
    "urlSlug": "grannas-omenataysmehu-3l-6430029320003",
    "name": "Grannas Omenatäysmehu 3l",
    "pictureUrls": [
      {
        "original": "https://public.keskofiles.com/f/k-ruoka/product/6430029320003"
      }
    ],
    "section": "3331",
    "departmentId": "108",
    "contentUnit": "L",
    "contentSize": 3,
    "netWeight": 3,
    "available": true,
    "isUtility": false,
    "preprocessedPricing": {
      "products": {},
      "simplePromotions": {},
      "basketPromotions": {}
    },
    "tosPricing": {
      "basketPromotions": []
    },
    "simplePricePlussa": false,
    "pricingUnit": "kpl",
    "referencePrice": {
      "_type": "Big",
      "value": "3.26333333333333333333"
    },
    "visiblePrice": {
      "_type": "Big",
      "value": "9.79"
    },
    "visiblePriceUnit": "kpl",
    "isDiscounted": false
  },
  {
    "ean": "8714800019828",
    "urlSlug": "bavaria-00-olut-05-l-tlk-8714800019828",
    "name": "Bavaria 0,0% olut 0,5 l",
    "pictureUrls": [
      {
        "original": "https://public.keskofiles.com/f/k-ruoka/product/8714800019828"
      }
    ],
    "section": "5254",
    "departmentId": "108",
    "contentUnit": "L",
    "contentSize": 0.5,
    "netWeight": 0.53,
    "available": true,
    "isUtility": false,
    "preprocessedPricing": {
      "products": {},
      "simplePromotions": {},
      "basketPromotions": {}
    },
    "tosPricing": {
      "basketPromotions": []
    },
    "simplePricePlussa": false,
    "pricingUnit": "kpl",
    "referencePrice": {
      "_type": "Big",
      "value": "2.8"
    },
    "visiblePrice": {
      "_type": "Big",
      "value": "1.55"
    },
    "visiblePriceUnit": "kpl",
    "isDiscounted": false
  },
  {
    "ean": "6415131415793",
    "urlSlug": "mehukatti-juoma-05l-paaryna-kmp-6415131415793",
    "name": "Mehukatti Päärynäjuoma 0,5l",
    "pictureUrls": [
      {
        "original": "https://public.keskofiles.com/f/k-ruoka/product/6415131415793"
      }
    ],
    "section": "3349",
    "departmentId": "108",
    "contentUnit": "L",
    "contentSize": 0.5,
    "netWeight": 0.52,
    "available": true,
    "isUtility": false,
    "preprocessedPricing": {
      "products": {},
      "simplePromotions": {},
      "basketPromotions": {}
    },
    "tosPricing": {
      "basketPromotions": []
    },
    "simplePricePlussa": false,
    "pricingUnit": "kpl",
    "referencePrice": {
      "_type": "Big",
      "value": "2.9"
    },
    "visiblePrice": {
      "_type": "Big",
      "value": "1.65"
    },
    "visiblePriceUnit": "kpl",
    "isDiscounted": false
  },
  {
    "ean": "6415130068914",
    "urlSlug": "mehukatti-mansikka-paarynamehu-2dl-luomu-6415130068914",
    "name": "Mehukatti mansikka-päärynämehu 2dl luomu",
    "pictureUrls": [
      {
        "original": "https://public.keskofiles.com/f/k-ruoka/product/6415130068914"
      }
    ],
    "section": "3300",
    "departmentId": "108",
    "contentUnit": "L",
    "contentSize": 0.2,
    "netWeight": 0.206,
    "available": true,
    "isUtility": false,
    "preprocessedPricing": {
      "products": {},
      "simplePromotions": {},
      "basketPromotions": {}
    },
    "tosPricing": {
      "basketPromotions": []
    },
    "simplePricePlussa": false,
    "pricingUnit": "kpl",
    "referencePrice": {
      "_type": "Big",
      "value": "3.95"
    },
    "visiblePrice": {
      "_type": "Big",
      "value": "0.79"
    },
    "visiblePriceUnit": "kpl",
    "isDiscounted": false
  }
]