[
      {
          "ean": "3173286516385",
          "urlSlug": "cemoi-classic-truffes-300g-3173286516385",
          "name": "Cemoi Classic Truffes 300g",
          "pictureUrls": [
              {
                  "original": "https://public.keskofiles.com/f/k-ruoka/product/3173286516385"
              }
          ],
          "section": "4261",
          "departmentId": "109",
          "contentUnit": "KG",
          "contentSize": 0.3,
          "netWeight": 0.3,
          "available": true,
          "isUtility": false,
          "preprocessedPricing": {
              "products": {},
              "simplePromotions": {},
              "basketPromotions": {}
          },
          "tosPricing": {
              "basketPromotions": []
          },
          "simplePricePlussa": false,
          "pricingUnit": "kpl",
          "referencePrice": {
              "_type": "Big",
              "value": "23.3"
          },
          "visiblePrice": {
              "_type": "Big",
              "value": "6.99"
          },
          "visiblePriceUnit": "kpl",
          "isDiscounted": false
      },
      {
          "ean": "6416453034112",
          "urlSlug": "remix-makeissekoitus-350g-6416453034112",
          "name": "Party Remix makeissekoitus 350g",
          "pictureUrls": [
              {
                  "original": "https://public.keskofiles.com/f/k-ruoka/product/6416453034112"
              }
          ],
          "section": "4250",
          "departmentId": "109",
          "contentUnit": "KG",
          "contentSize": 0.35,
          "netWeight": 0.35,
          "available": true,
          "isUtility": false,
          "preprocessedPricing": {
              "products": {},
              "simplePromotions": {},
              "basketPromotions": {}
          },
          "tosPricing": {
              "basketPromotions": []
          },
          "simplePricePlussa": false,
          "pricingUnit": "kpl",
          "referencePrice": {
              "_type": "Big",
              "value": "6.71428571428571428571"
          },
          "visiblePrice": {
              "_type": "Big",
              "value": "2.35"
          },
          "visiblePriceUnit": "kpl",
          "isDiscounted": false
      },
      {
          "ean": "6416453019409",
          "urlSlug": "fazermint-suklaapatukka-41g-6416453019409",
          "name": "Fazermint suklaapatukka 41g",
          "pictureUrls": [
              {
                  "original": "https://public.keskofiles.com/f/k-ruoka/product/6416453019409"
              }
          ],
          "section": "4223",
          "departmentId": "109",
          "contentUnit": "KG",
          "contentSize": 0.041,
          "netWeight": 0.041,
          "available": true,
          "isUtility": false,
          "preprocessedPricing": {
              "products": {},
              "simplePromotions": {},
              "basketPromotions": {}
          },
          "tosPricing": {
              "basketPromotions": []
          },
          "simplePricePlussa": false,
          "pricingUnit": "kpl",
          "referencePrice": {
              "_type": "Big",
              "value": "16.34146341463414634146"
          },
          "visiblePrice": {
              "_type": "Big",
              "value": "0.67"
          },
          "visiblePriceUnit": "kpl",
          "isDiscounted": false
      },
      {
          "ean": "6419161700058",
          "urlSlug": "porvoon-lakritsa-100g-gluteeniton-6419161700058",
          "name": "Porvoon lakritsa 100g gluteeniton",
          "pictureUrls": [
              {
                  "original": "https://public.keskofiles.com/f/k-ruoka/product/6419161700058"
              }
          ],
          "section": "4255",
          "departmentId": "109",
          "contentUnit": "KG",
          "contentSize": 0.1,
          "netWeight": 0.1,
          "available": true,
          "isUtility": false,
          "preprocessedPricing": {
              "products": {},
              "simplePromotions": {},
              "basketPromotions": {}
          },
          "tosPricing": {
              "basketPromotions": []
          },
          "simplePricePlussa": false,
          "pricingUnit": "kpl",
          "referencePrice": {
              "_type": "Big",
              "value": "24.5"
          },
          "visiblePrice": {
              "_type": "Big",
              "value": "2.45"
          },
          "visiblePriceUnit": "kpl",
          "isDiscounted": false
      },
      {
          "ean": "4000417231000",
          "urlSlug": "ritter-sport-100g-chocobrownie-suklaa-4000417231000",
          "name": "Ritter Sport 100g ChocoBrownie suklaa",
          "pictureUrls": [
              {
                  "original": "https://public.keskofiles.com/f/k-ruoka/product/4000417231000"
              }
          ],
          "section": "4212",
          "departmentId": "109",
          "contentUnit": "KG",
          "contentSize": 0.1,
          "netWeight": 0.1,
          "available": true,
          "isUtility": false,
          "preprocessedPricing": {
              "products": {},
              "simplePromotions": {},
              "basketPromotions": {}
          },
          "tosPricing": {
              "basketPromotions": []
          },
          "simplePricePlussa": false,
          "pricingUnit": "kpl",
          "referencePrice": {
              "_type": "Big",
              "value": "16.5"
          },
          "visiblePrice": {
              "_type": "Big",
              "value": "1.65"
          },
          "visiblePriceUnit": "kpl",
          "isDiscounted": false
      },
      {
          "ean": "6412500075602",
          "urlSlug": "panda-lakumix-pussi-250g-salmiakki-6412500075602",
          "name": "Panda LakuMix 250g salmiakki",
          "pictureUrls": [
              {
                  "original": "https://public.keskofiles.com/f/k-ruoka/product/6412500075602"
              }
          ],
          "section": "4251",
          "departmentId": "109",
          "contentUnit": "KG",
          "contentSize": 0.25,
          "netWeight": 0.25,
          "available": true,
          "isUtility": false,
          "preprocessedPricing": {
              "products": {},
              "simplePromotions": {},
              "basketPromotions": {}
          },
          "tosPricing": {
              "basketPromotions": []
          },
          "simplePricePlussa": false,
          "pricingUnit": "kpl",
          "referencePrice": {
              "_type": "Big",
              "value": "9"
          },
          "visiblePrice": {
              "_type": "Big",
              "value": "2.25"
          },
          "visiblePriceUnit": "kpl",
          "isDiscounted": false
      },
      {
          "ean": "6410381095542",
          "urlSlug": "taffel-dippi-13g-creamy-pepper-6410381095542",
          "name": "Taffel Creamy Pepper dippimauste 13g",
          "pictureUrls": [
              {
                  "original": "https://public.keskofiles.com/f/k-ruoka/product/6410381095542"
              }
          ],
          "section": "4370",
          "departmentId": "109",
          "contentUnit": "KG",
          "contentSize": 0.013,
          "netWeight": 0.013,
          "available": true,
          "isUtility": false,
          "preprocessedPricing": {
              "products": {},
              "simplePromotions": {},
              "basketPromotions": {}
          },
          "tosPricing": {
              "basketPromotions": []
          },
          "simplePricePlussa": false,
          "pricingUnit": "kpl",
          "referencePrice": {
              "_type": "Big",
              "value": "68.46153846153846153846"
          },
          "visiblePrice": {
              "_type": "Big",
              "value": "0.89"
          },
          "visiblePriceUnit": "kpl",
          "isDiscounted": false,
          "discountType": "PLUSSA",
          "batchSize": 2,
          "batchPrice": {
              "_type": "Big",
              "value": "1.5"
          }
      },
      {
          "ean": "6420256013885",
          "urlSlug": "jenkki-original-purukumi-18g-peppermint-6420256013885",
          "name": "Jenkki Original purukumi 18g Peppermint",
          "pictureUrls": [
              {
                  "original": "https://public.keskofiles.com/f/k-ruoka/product/6420256013885"
              }
          ],
          "section": "4201",
          "departmentId": "109",
          "contentUnit": "KG",
          "contentSize": 0.018,
          "netWeight": 0.018,
          "available": true,
          "isUtility": false,
          "preprocessedPricing": {
              "products": {},
              "simplePromotions": {},
              "basketPromotions": {}
          },
          "tosPricing": {
              "basketPromotions": []
          },
          "simplePricePlussa": false,
          "pricingUnit": "kpl",
          "referencePrice": {
              "_type": "Big",
              "value": "47.22222222222222222222"
          },
          "visiblePrice": {
              "_type": "Big",
              "value": "0.85"
          },
          "visiblePriceUnit": "kpl",
          "isDiscounted": false
      },
      {
          "ean": "6410381086144",
          "urlSlug": "taffel-snacks-120g-hot-rod-6410381086144",
          "name": "Taffel snacks 120g Hot Rod",
          "pictureUrls": [
              {
                  "original": "https://public.keskofiles.com/f/k-ruoka/product/6410381086144"
              }
          ],
          "section": "4320",
          "departmentId": "109",
          "contentUnit": "KG",
          "contentSize": 0.12,
          "netWeight": 0.12,
          "available": true,
          "isUtility": false,
          "preprocessedPricing": {
              "products": {},
              "simplePromotions": {},
              "basketPromotions": {}
          },
          "tosPricing": {
              "basketPromotions": []
          },
          "simplePricePlussa": false,
          "pricingUnit": "kpl",
          "referencePrice": {
              "_type": "Big",
              "value": "12.41666666666666666667"
          },
          "visiblePrice": {
              "_type": "Big",
              "value": "1.49"
          },
          "visiblePriceUnit": "kpl",
          "isDiscounted": false
      },
      {
          "ean": "6410405077950",
          "urlSlug": "pirkka-suklaapatukka-50g-nougat-toffee-6410405077950",
          "name": "Pirkka nougat-toffeesuklaa 50 g UTZ",
          "pictureUrls": [
              {
                  "original": "https://public.keskofiles.com/f/k-ruoka/product/6410405077950"
              }
          ],
          "section": "4220",
          "departmentId": "109",
          "contentUnit": "KG",
          "contentSize": 0.05,
          "netWeight": 0.05,
          "available": true,
          "isUtility": false,
          "preprocessedPricing": {
              "products": {},
              "simplePromotions": {},
              "basketPromotions": {}
          },
          "tosPricing": {
              "basketPromotions": []
          },
          "simplePricePlussa": false,
          "pricingUnit": "kpl",
          "referencePrice": {
              "_type": "Big",
              "value": "8.8"
          },
          "visiblePrice": {
              "_type": "Big",
              "value": "0.44"
          },
          "visiblePriceUnit": "kpl",
          "isDiscounted": false,
          "discountType": "PLUSSA",
          "batchSize": 3,
          "batchPrice": {
              "_type": "Big",
              "value": "1"
          }
      },
      {
          "ean": "7622210315519",
          "urlSlug": "marabou-crisp-suklaapatukka-60g-rice-7622210315519",
          "name": "Marabou Crisp! suklaapatukka 60g rice & toffee",
          "pictureUrls": [
              {
                  "original": "https://public.keskofiles.com/f/k-ruoka/product/7622210315519"
              }
          ],
          "section": "4220",
          "departmentId": "109",
          "contentUnit": "KG",
          "contentSize": 0.06,
          "netWeight": 0.06,
          "available": true,
          "isUtility": false,
          "preprocessedPricing": {
              "products": {},
              "simplePromotions": {},
              "basketPromotions": {}
          },
          "tosPricing": {
              "basketPromotions": []
          },
          "simplePricePlussa": false,
          "pricingUnit": "kpl",
          "referencePrice": {
              "_type": "Big",
              "value": "14.83333333333333333333"
          },
          "visiblePrice": {
              "_type": "Big",
              "value": "0.89"
          },
          "visiblePriceUnit": "kpl",
          "isDiscounted": false
      },
      {
          "ean": "6411401024221",
          "urlSlug": "fazer-wienernougat-rasia-210g-6411401024221",
          "name": "Wienernougat suklaakonvehtirasia 210g",
          "pictureUrls": [
              {
                  "original": "https://public.keskofiles.com/f/k-ruoka/product/6411401024221"
              }
          ],
          "section": "4260",
          "departmentId": "109",
          "contentUnit": "KG",
          "contentSize": 0.21,
          "netWeight": 0.21,
          "available": true,
          "isUtility": false,
          "preprocessedPricing": {
              "products": {},
              "simplePromotions": {},
              "basketPromotions": {}
          },
          "tosPricing": {
              "basketPromotions": []
          },
          "simplePricePlussa": false,
          "pricingUnit": "kpl",
          "referencePrice": {
              "_type": "Big",
              "value": "25.19047619047619047619"
          },
          "visiblePrice": {
              "_type": "Big",
              "value": "5.29"
          },
          "visiblePriceUnit": "kpl",
          "isDiscounted": false,
          "discountType": "PLUSSA",
          "batchSize": 2,
          "batchPrice": {
              "_type": "Big",
              "value": "10"
          }
      },
      {
          "ean": "4000417294005",
          "urlSlug": "ritter-sport-suklaalevy-100g-cocoa-mouss-4000417294005",
          "name": "Ritter Sport suklaalevy 100g cocoa mousse",
          "pictureUrls": [
              {
                  "original": "https://public.keskofiles.com/f/k-ruoka/product/4000417294005"
              }
          ],
          "section": "4211",
          "departmentId": "109",
          "contentUnit": "KG",
          "contentSize": 0.1,
          "netWeight": 0.1,
          "available": true,
          "isUtility": false,
          "preprocessedPricing": {
              "products": {},
              "simplePromotions": {},
              "basketPromotions": {}
          },
          "tosPricing": {
              "basketPromotions": []
          },
          "simplePricePlussa": false,
          "pricingUnit": "kpl",
          "referencePrice": {
              "_type": "Big",
              "value": "16.5"
          },
          "visiblePrice": {
              "_type": "Big",
              "value": "1.65"
          },
          "visiblePriceUnit": "kpl",
          "isDiscounted": false
      },
      {
          "ean": "6420256013649",
          "urlSlug": "herra-hakkaraisen-pastilli-55g-mansikka-6420256013649",
          "name": "Herra Hakkaraisen mansikka täysksylitolipastilli 55g",
          "pictureUrls": [
              {
                  "original": "https://public.keskofiles.com/f/k-ruoka/product/6420256013649"
              }
          ],
          "section": "4241",
          "departmentId": "109",
          "contentUnit": "KG",
          "contentSize": 0.055,
          "netWeight": 0.055,
          "available": true,
          "isUtility": false,
          "preprocessedPricing": {
              "products": {},
              "simplePromotions": {},
              "basketPromotions": {}
          },
          "tosPricing": {
              "basketPromotions": []
          },
          "simplePricePlussa": false,
          "pricingUnit": "kpl",
          "referencePrice": {
              "_type": "Big",
              "value": "40.90909090909090909091"
          },
          "visiblePrice": {
              "_type": "Big",
              "value": "2.25"
          },
          "visiblePriceUnit": "kpl",
          "isDiscounted": false
      },
      {
          "ean": "5060088701942",
          "urlSlug": "nakd-35g-bar-cocoa-delight-5060088701942",
          "name": "Nakd 35g Bar Cocoa Delight",
          "pictureUrls": [
              {
                  "original": "https://public.keskofiles.com/f/k-ruoka/product/5060088701942"
              }
          ],
          "section": "4418",
          "departmentId": "106",
          "contentUnit": "KG",
          "contentSize": 0.035,
          "netWeight": 0.035,
          "available": true,
          "isUtility": false,
          "preprocessedPricing": {
              "products": {},
              "simplePromotions": {},
              "basketPromotions": {}
          },
          "tosPricing": {
              "basketPromotions": []
          },
          "simplePricePlussa": false,
          "pricingUnit": "kpl",
          "referencePrice": {
              "_type": "Big",
              "value": "44.28571428571428571429"
          },
          "visiblePrice": {
              "_type": "Big",
              "value": "1.55"
          },
          "visiblePriceUnit": "kpl",
          "isDiscounted": false
      },
      {
          "ean": "5706779057997",
          "urlSlug": "earth-control-175g-crunchy-nutsbeans-5706779057997",
          "name": "Earth Control 175g crunchy nuts&beans",
          "pictureUrls": [
              {
                  "original": "https://public.keskofiles.com/f/k-ruoka/product/5706779057997"
              }
          ],
          "section": "4418",
          "departmentId": "106",
          "contentUnit": "KG",
          "contentSize": 0.175,
          "netWeight": 0.175,
          "available": true,
          "isUtility": false,
          "preprocessedPricing": {
              "products": {},
              "simplePromotions": {},
              "basketPromotions": {}
          },
          "tosPricing": {
              "basketPromotions": []
          },
          "simplePricePlussa": false,
          "pricingUnit": "kpl",
          "referencePrice": {
              "_type": "Big",
              "value": "17.08571428571428571429"
          },
          "visiblePrice": {
              "_type": "Big",
              "value": "2.99"
          },
          "visiblePriceUnit": "kpl",
          "isDiscounted": false,
          "discountType": "PLUSSA",
          "batchSize": 2,
          "batchPrice": {
              "_type": "Big",
              "value": "5"
          }
      },
      {
          "ean": "7310532160909",
          "urlSlug": "estrella-240g-micropopc-3-p-suolattu-7310532160909",
          "name": "Estrella 240g Micropopc 3-p suolattu",
          "pictureUrls": [],
          "section": "4330",
          "departmentId": "109",
          "contentUnit": "KG",
          "contentSize": 0.24,
          "netWeight": 0.24,
          "available": true,
          "isUtility": false,
          "preprocessedPricing": {
              "products": {},
              "simplePromotions": {},
              "basketPromotions": {}
          },
          "tosPricing": {
              "basketPromotions": []
          },
          "simplePricePlussa": false,
          "pricingUnit": "kpl",
          "referencePrice": {
              "_type": "Big",
              "value": "7.29166666666666666667"
          },
          "visiblePrice": {
              "_type": "Big",
              "value": "1.75"
          },
          "visiblePriceUnit": "kpl",
          "isDiscounted": false
      },
      {
          "ean": "5701090066475",
          "urlSlug": "chatzourr-120g-kirpea-viinikumi-5701090066475",
          "name": "Chatzourr 120g kirpeä viinikumi",
          "pictureUrls": [
              {
                  "original": "https://public.keskofiles.com/f/k-ruoka/product/5701090066475"
              }
          ],
          "section": "4252",
          "departmentId": "109",
          "contentUnit": "KG",
          "contentSize": 0.12,
          "netWeight": 0.12,
          "available": true,
          "isUtility": false,
          "preprocessedPricing": {
              "products": {},
              "simplePromotions": {},
              "basketPromotions": {}
          },
          "tosPricing": {
              "basketPromotions": []
          },
          "simplePricePlussa": false,
          "pricingUnit": "kpl",
          "referencePrice": {
              "_type": "Big",
              "value": "11.25"
          },
          "visiblePrice": {
              "_type": "Big",
              "value": "1.35"
          },
          "visiblePriceUnit": "kpl",
          "isDiscounted": false
      },
      {
          "ean": "5774540702506",
          "urlSlug": "bonbon-harskit-sillit-makeispussi-125g-5774540702506",
          "name": "BonBon härskit sillit makeispussi 125g mansikkamakeisia salmiakkijauheella",
          "pictureUrls": [
              {
                  "original": "https://public.keskofiles.com/f/k-ruoka/product/5774540702506"
              }
          ],
          "section": "4250",
          "departmentId": "109",
          "contentUnit": "KG",
          "contentSize": 0.125,
          "netWeight": 0.125,
          "available": true,
          "isUtility": false,
          "preprocessedPricing": {
              "products": {},
              "simplePromotions": {},
              "basketPromotions": {}
          },
          "tosPricing": {
              "basketPromotions": []
          },
          "simplePricePlussa": false,
          "pricingUnit": "kpl",
          "referencePrice": {
              "_type": "Big",
              "value": "11.6"
          },
          "visiblePrice": {
              "_type": "Big",
              "value": "1.45"
          },
          "visiblePriceUnit": "kpl",
          "isDiscounted": false
      },
      {
          "ean": "7310676446006",
          "urlSlug": "dumle-tikkari-10g-toffee-7310676446006",
          "name": "Dumle toffee tikkari 10g",
          "pictureUrls": [
              {
                  "original": "https://public.keskofiles.com/f/k-ruoka/product/7310676446006"
              }
          ],
          "section": "4290",
          "departmentId": "109",
          "contentUnit": "KG",
          "contentSize": 0.01,
          "netWeight": 0.01,
          "available": true,
          "isUtility": false,
          "preprocessedPricing": {
              "products": {},
              "simplePromotions": {},
              "basketPromotions": {}
          },
          "tosPricing": {
              "basketPromotions": []
          },
          "simplePricePlussa": false,
          "pricingUnit": "kpl",
          "referencePrice": {
              "_type": "Big",
              "value": "21"
          },
          "visiblePrice": {
              "_type": "Big",
              "value": "0.21"
          },
          "visiblePriceUnit": "kpl",
          "isDiscounted": false
      },
      {
          "ean": "6410405128867",
          "urlSlug": "pirkka-tulinen-pippuri-pussi-175g-6410405128867",
          "name": "Pirkka tulinen pippuri 175g",
          "pictureUrls": [
              {
                  "original": "https://public.keskofiles.com/f/k-ruoka/product/6410405128867"
              }
          ],
          "section": "4251",
          "departmentId": "109",
          "contentUnit": "KG",
          "contentSize": 0.175,
          "netWeight": 0.175,
          "available": true,
          "isUtility": false,
          "preprocessedPricing": {
              "products": {},
              "simplePromotions": {},
              "basketPromotions": {}
          },
          "tosPricing": {
              "basketPromotions": []
          },
          "simplePricePlussa": false,
          "pricingUnit": "kpl",
          "referencePrice": {
              "_type": "Big",
              "value": "6.57142857142857142857"
          },
          "visiblePrice": {
              "_type": "Big",
              "value": "1.15"
          },
          "visiblePriceUnit": "kpl",
          "isDiscounted": false
      },
      {
          "ean": "0014100085478",
          "urlSlug": "pf-goldfish-cheddar-187g-0014100085478",
          "name": "PF Goldfish Cheddar 187g",
          "pictureUrls": [
              {
                  "original": "https://public.keskofiles.com/f/k-ruoka/product/0014100085478"
              }
          ],
          "section": "4651",
          "departmentId": "109",
          "contentUnit": "KG",
          "contentSize": 0.187,
          "netWeight": 0.187,
          "available": true,
          "isUtility": false,
          "preprocessedPricing": {
              "products": {},
              "simplePromotions": {},
              "basketPromotions": {}
          },
          "tosPricing": {
              "basketPromotions": []
          },
          "simplePricePlussa": false,
          "pricingUnit": "kpl",
          "referencePrice": {
              "_type": "Big",
              "value": "21.33689839572192513369"
          },
          "visiblePrice": {
              "_type": "Big",
              "value": "3.99"
          },
          "visiblePriceUnit": "kpl",
          "isDiscounted": false
      },
      {
          "ean": "6436501054206",
          "urlSlug": "sallinen-aprikoosirouhe-800g-6436501054206-n106",
          "name": "Sallinen Aprikoosirouhe 800g",
          "storeId": "N106",
          "pictureUrls": [
              {
                  "original": "https://public.keskofiles.com/f/k-ruoka/N106/product/6436501054206"
              }
          ],
          "section": "4407",
          "departmentId": "106",
          "contentUnit": "kpl",
          "contentSize": 0.8,
          "available": true,
          "isUtility": false,
          "preprocessedPricing": {
              "products": {},
              "simplePromotions": {},
              "basketPromotions": {}
          },
          "tosPricing": {
              "basketPromotions": []
          },
          "simplePricePlussa": false,
          "pricingUnit": "kpl",
          "referencePrice": {
              "_type": "Big",
              "value": "8.6875"
          },
          "visiblePrice": {
              "_type": "Big",
              "value": "6.95"
          },
          "visiblePriceUnit": "kpl",
          "isDiscounted": false
      },
      {
          "ean": "6436501000715",
          "urlSlug": "sallinen-kookoshiutale-200g-6436501000715-n106",
          "name": "Sallinen Kookoshiutale 200g",
          "storeId": "N106",
          "pictureUrls": [
              {
                  "original": "https://public.keskofiles.com/f/k-ruoka/N106/product/6436501000715"
              }
          ],
          "section": "4419",
          "departmentId": "106",
          "contentUnit": "kpl",
          "contentSize": 0.2,
          "available": true,
          "isUtility": false,
          "preprocessedPricing": {
              "products": {},
              "simplePromotions": {},
              "basketPromotions": {}
          },
          "tosPricing": {
              "basketPromotions": []
          },
          "simplePricePlussa": false,
          "pricingUnit": "kpl",
          "referencePrice": {
              "_type": "Big",
              "value": "8.95"
          },
          "visiblePrice": {
              "_type": "Big",
              "value": "1.79"
          },
          "visiblePriceUnit": "kpl",
          "isDiscounted": false
      },
      {
          "ean": "6436501010332",
          "urlSlug": "sallinen-kookoshiutale-100g-6436501010332-n106",
          "name": "Sallinen Kookoshiutale 100g",
          "storeId": "N106",
          "pictureUrls": [
              {
                  "original": "https://public.keskofiles.com/f/k-ruoka/N106/product/6436501010332"
              }
          ],
          "section": "4419",
          "departmentId": "106",
          "contentUnit": "kpl",
          "contentSize": 0.1,
          "available": true,
          "isUtility": false,
          "preprocessedPricing": {
              "products": {},
              "simplePromotions": {},
              "basketPromotions": {}
          },
          "tosPricing": {
              "basketPromotions": []
          },
          "simplePricePlussa": false,
          "pricingUnit": "kpl",
          "referencePrice": {
              "_type": "Big",
              "value": "11.9"
          },
          "visiblePrice": {
              "_type": "Big",
              "value": "1.19"
          },
          "visiblePriceUnit": "kpl",
          "isDiscounted": false
      },
      {
          "ean": "6436501052073",
          "urlSlug": "sallinen-seesaminsiemen-musta-400g-6436501052073-n106",
          "name": "Sallinen Seesaminsiemen musta 400g",
          "storeId": "N106",
          "pictureUrls": [
              {
                  "original": "https://public.keskofiles.com/f/k-ruoka/N106/product/6436501052073"
              }
          ],
          "section": "4416",
          "departmentId": "106",
          "contentUnit": "kpl",
          "contentSize": 0.4,
          "available": true,
          "isUtility": false,
          "preprocessedPricing": {
              "products": {},
              "simplePromotions": {},
              "basketPromotions": {}
          },
          "tosPricing": {
              "basketPromotions": []
          },
          "simplePricePlussa": false,
          "pricingUnit": "kpl",
          "referencePrice": {
              "_type": "Big",
              "value": "5.375"
          },
          "visiblePrice": {
              "_type": "Big",
              "value": "2.15"
          },
          "visiblePriceUnit": "kpl",
          "isDiscounted": false
      },
      {
          "ean": "6436501000869",
          "urlSlug": "sallinen-pellavansiemen-400g-6436501000869-n106",
          "name": "Sallinen Pellavansiemen 400g",
          "storeId": "N106",
          "pictureUrls": [
              {
                  "original": "https://public.keskofiles.com/f/k-ruoka/N106/product/6436501000869"
              }
          ],
          "section": "4416",
          "departmentId": "106",
          "contentUnit": "kpl",
          "contentSize": 0.4,
          "available": true,
          "isUtility": false,
          "preprocessedPricing": {
              "products": {},
              "simplePromotions": {},
              "basketPromotions": {}
          },
          "tosPricing": {
              "basketPromotions": []
          },
          "simplePricePlussa": false,
          "pricingUnit": "kpl",
          "referencePrice": {
              "_type": "Big",
              "value": "3.375"
          },
          "visiblePrice": {
              "_type": "Big",
              "value": "1.35"
          },
          "visiblePriceUnit": "kpl",
          "isDiscounted": false
      },
      {
          "ean": "6436501027682",
          "urlSlug": "sallinen-suolapahkina-400g-6436501027682-n106",
          "name": "Sallinen Suolapähkinä 400g",
          "storeId": "N106",
          "pictureUrls": [
              {
                  "original": "https://public.keskofiles.com/f/k-ruoka/N106/product/6436501027682"
              }
          ],
          "section": "4350",
          "departmentId": "109",
          "contentUnit": "kpl",
          "contentSize": 0.4,
          "available": true,
          "isUtility": false,
          "preprocessedPricing": {
              "products": {},
              "simplePromotions": {},
              "basketPromotions": {}
          },
          "tosPricing": {
              "basketPromotions": []
          },
          "simplePricePlussa": false,
          "pricingUnit": "kpl",
          "referencePrice": {
              "_type": "Big",
              "value": "7.975"
          },
          "visiblePrice": {
              "_type": "Big",
              "value": "3.19"
          },
          "visiblePriceUnit": "kpl",
          "isDiscounted": false
      },
      {
          "ean": "6436501050147",
          "urlSlug": "sallinen-pistaasipahkina-250g-6436501050147-n106",
          "name": "Sallinen Pistaasipähkinä 250g",
          "storeId": "N106",
          "pictureUrls": [
              {
                  "original": "https://public.keskofiles.com/f/k-ruoka/N106/product/6436501050147"
              }
          ],
          "section": "4419",
          "departmentId": "106",
          "contentUnit": "kpl",
          "contentSize": 0.25,
          "available": true,
          "isUtility": false,
          "preprocessedPricing": {
              "products": {},
              "simplePromotions": {},
              "basketPromotions": {}
          },
          "tosPricing": {
              "basketPromotions": []
          },
          "simplePricePlussa": false,
          "pricingUnit": "kpl",
          "referencePrice": {
              "_type": "Big",
              "value": "29.96"
          },
          "visiblePrice": {
              "_type": "Big",
              "value": "7.49"
          },
          "visiblePriceUnit": "kpl",
          "isDiscounted": false
      },
      {
          "ean": "6436501043576",
          "urlSlug": "sallinen-maapahkina-kuorittu-250g-6436501043576-n106",
          "name": "Sallinen Maapähkinä kuorittu 250g",
          "storeId": "N106",
          "pictureUrls": [
              {
                  "original": "https://public.keskofiles.com/f/k-ruoka/N106/product/6436501043576"
              }
          ],
          "section": "4413",
          "departmentId": "106",
          "contentUnit": "kpl",
          "contentSize": 0.25,
          "available": true,
          "isUtility": false,
          "preprocessedPricing": {
              "products": {},
              "simplePromotions": {},
              "basketPromotions": {}
          },
          "tosPricing": {
              "basketPromotions": []
          },
          "simplePricePlussa": false,
          "pricingUnit": "kpl",
          "referencePrice": {
              "_type": "Big",
              "value": "6.36"
          },
          "visiblePrice": {
              "_type": "Big",
              "value": "1.59"
          },
          "visiblePriceUnit": "kpl",
          "isDiscounted": false
      }
]