[
  {
    "ean": "6413600017431",
    "urlSlug": "novelle-plus-kalsium-karpalo-15l-kmp-6413600017431",
    "name": "Novelle Plus Kalsium Karpalo 1,5L",
    "pictureUrls": [
      {
        "original": "https://public.keskofiles.com/f/k-ruoka/product/6413600017431"
      }
    ],
    "section": "5026",
    "departmentId": "108",
    "contentUnit": "L",
    "contentSize": 1.5,
    "netWeight": 1.5,
    "available": true,
    "isUtility": false,
    "preprocessedPricing": {
      "products": {},
      "simplePromotions": {},
      "basketPromotions": {}
    },
    "tosPricing": {
      "basketPromotions": []
    },
    "simplePricePlussa": false,
    "pricingUnit": "kpl",
    "referencePrice": {
      "_type": "Big",
      "value": "1.72666666666666666667"
    },
    "visiblePrice": {
      "_type": "Big",
      "value": "2.99"
    },
    "visiblePriceUnit": "kpl",
    "isDiscounted": false,
    "discountType": "PLUSSA",
    "batchSize": 2,
    "batchPrice": {
      "_type": "Big",
      "value": "5"
    }
  },
  {
    "ean": "6416884202227",
    "urlSlug": "spring-aqua-lahdevesi-15l-kmp-6416884202227",
    "name": "Spring Aqua Lähdevesi 1,5l",
    "pictureUrls": [
      {
        "original": "https://public.keskofiles.com/f/k-ruoka/product/6416884202227"
      }
    ],
    "section": "5032",
    "departmentId": "108",
    "contentUnit": "L",
    "contentSize": 1.5,
    "netWeight": 1.5,
    "available": true,
    "isUtility": false,
    "preprocessedPricing": {
      "products": {},
      "simplePromotions": {},
      "basketPromotions": {}
    },
    "tosPricing": {
      "basketPromotions": []
    },
    "simplePricePlussa": false,
    "pricingUnit": "kpl",
    "referencePrice": {
      "_type": "Big",
      "value": "0.83333333333333333333"
    },
    "visiblePrice": {
      "_type": "Big",
      "value": "1.65"
    },
    "visiblePriceUnit": "kpl",
    "isDiscounted": false
  },
  {
    "ean": "7612100063576",
    "urlSlug": "options-kaakaojuomaj-220g-belgium-choc-7612100063576",
    "name": "Options kaakaojuomajauhe Belgian choc 220g",
    "pictureUrls": [
      {
        "original": "https://public.keskofiles.com/f/k-ruoka/product/7612100063576"
      }
    ],
    "section": "3480",
    "departmentId": "108",
    "contentUnit": "KG",
    "contentSize": 0.22,
    "netWeight": 0.22,
    "available": true,
    "isUtility": false,
    "preprocessedPricing": {
      "products": {},
      "simplePromotions": {},
      "basketPromotions": {}
    },
    "tosPricing": {
      "basketPromotions": []
    },
    "simplePricePlussa": false,
    "pricingUnit": "kpl",
    "referencePrice": {
      "_type": "Big",
      "value": "26.77272727272727272727"
    },
    "visiblePrice": {
      "_type": "Big",
      "value": "5.89"
    },
    "visiblePriceUnit": "kpl",
    "isDiscounted": false
  },
  {
    "ean": "4740275000416",
    "urlSlug": "coffeestar-kahvipavut-creme-brulee-200g-4740275000416",
    "name": "Coffeestar kahvipavut Crème Brûlée 200g",
    "pictureUrls": [],
    "section": "3409",
    "departmentId": "108",
    "contentUnit": "KG",
    "contentSize": 0.2,
    "netWeight": 0.2,
    "available": true,
    "isUtility": false,
    "preprocessedPricing": {
      "products": {},
      "simplePromotions": {},
      "basketPromotions": {}
    },
    "tosPricing": {
      "basketPromotions": []
    },
    "simplePricePlussa": false,
    "pricingUnit": "kpl",
    "referencePrice": {
      "_type": "Big",
      "value": "30.45"
    },
    "visiblePrice": {
      "_type": "Big",
      "value": "6.09"
    },
    "visiblePriceUnit": "kpl",
    "isDiscounted": false
  },
  {
    "ean": "6420101883533",
    "urlSlug": "kulta-katriina-450g-luomu-tumma-pj-6420101883533",
    "name": "Kulta Katriina 450g Luomu tumma pannujauhatus",
    "pictureUrls": [
      {
        "original": "https://public.keskofiles.com/f/k-ruoka/product/6420101883533"
      }
    ],
    "section": "3401",
    "departmentId": "108",
    "contentUnit": "KG",
    "contentSize": 0.45,
    "netWeight": 0.45,
    "available": true,
    "isUtility": false,
    "preprocessedPricing": {
      "products": {},
      "simplePromotions": {},
      "basketPromotions": {}
    },
    "tosPricing": {
      "basketPromotions": []
    },
    "simplePricePlussa": false,
    "pricingUnit": "kpl",
    "referencePrice": {
      "_type": "Big",
      "value": "7.66666666666666666667"
    },
    "visiblePrice": {
      "_type": "Big",
      "value": "3.45"
    },
    "visiblePriceUnit": "kpl",
    "isDiscounted": false,
    "discountType": "PLUSSA",
    "batchSize": 3,
    "batchPrice": {
      "_type": "Big",
      "value": "10"
    }
  },
  {
    "ean": "6418654004253",
    "urlSlug": "laitilan-jaffa-limonaadi-033l-tlk-6418654004253",
    "name": "Laitilan Jaffa limonaadi 0,33l",
    "pictureUrls": [
      {
        "original": "https://public.keskofiles.com/f/k-ruoka/product/6418654004253"
      }
    ],
    "section": "5001",
    "departmentId": "108",
    "contentUnit": "L",
    "contentSize": 0.33,
    "netWeight": 0.338,
    "available": true,
    "isUtility": false,
    "preprocessedPricing": {
      "products": {},
      "simplePromotions": {},
      "basketPromotions": {}
    },
    "tosPricing": {
      "basketPromotions": []
    },
    "simplePricePlussa": false,
    "pricingUnit": "kpl",
    "referencePrice": {
      "_type": "Big",
      "value": "2.54545454545454545455"
    },
    "visiblePrice": {
      "_type": "Big",
      "value": "0.99"
    },
    "visiblePriceUnit": "kpl",
    "isDiscounted": false
  },
  {
    "ean": "6419800043881",
    "urlSlug": "olvi-jaffa-05l-kmp-6419800043881",
    "name": "Olvi Jaffa 0,5l",
    "pictureUrls": [
      {
        "original": "https://public.keskofiles.com/f/k-ruoka/product/6419800043881"
      }
    ],
    "section": "5001",
    "departmentId": "108",
    "contentUnit": "L",
    "contentSize": 0.5,
    "netWeight": 0.517,
    "available": true,
    "isUtility": false,
    "preprocessedPricing": {
      "products": {},
      "simplePromotions": {},
      "basketPromotions": {}
    },
    "tosPricing": {
      "basketPromotions": []
    },
    "simplePricePlussa": false,
    "pricingUnit": "kpl",
    "referencePrice": {
      "_type": "Big",
      "value": "3.1"
    },
    "visiblePrice": {
      "_type": "Big",
      "value": "1.75"
    },
    "visiblePriceUnit": "kpl",
    "isDiscounted": false
  },
  {
    "ean": "6413605016231",
    "urlSlug": "hartwall-jaffa-appelsiini-15l-2-p-dolly-6413605016231",
    "name": "Hartwall Jaffa Appelsiini 1,5L 2-pack",
    "pictureUrls": [
      {
        "original": "https://public.keskofiles.com/f/k-ruoka/product/6413605016231"
      }
    ],
    "section": "5016",
    "departmentId": "108",
    "contentUnit": "L",
    "contentSize": 3,
    "netWeight": 3.09,
    "available": true,
    "isUtility": false,
    "preprocessedPricing": {
      "products": {},
      "simplePromotions": {},
      "basketPromotions": {}
    },
    "tosPricing": {
      "basketPromotions": []
    },
    "simplePricePlussa": false,
    "pricingUnit": "kpl",
    "referencePrice": {
      "_type": "Big",
      "value": "0.99666666666666666667"
    },
    "visiblePrice": {
      "_type": "Big",
      "value": "3.79"
    },
    "visiblePriceUnit": "kpl",
    "isDiscounted": false
  },
  {
    "ean": "6415130019923",
    "urlSlug": "mehukatti-sekajuomatiiviste-15l-sokton-6415130019923",
    "name": "Mehukatti sokeriton sekajuomatiiviste 1+3 1,5l",
    "pictureUrls": [
      {
        "original": "https://public.keskofiles.com/f/k-ruoka/product/6415130019923"
      }
    ],
    "section": "3360",
    "departmentId": "108",
    "contentUnit": "L",
    "contentSize": 1.5,
    "netWeight": 1.508,
    "available": true,
    "isUtility": false,
    "preprocessedPricing": {
      "products": {},
      "simplePromotions": {},
      "basketPromotions": {}
    },
    "tosPricing": {
      "basketPromotions": []
    },
    "simplePricePlussa": false,
    "pricingUnit": "kpl",
    "referencePrice": {
      "_type": "Big",
      "value": "2.36666666666666666667"
    },
    "visiblePrice": {
      "_type": "Big",
      "value": "3.55"
    },
    "visiblePriceUnit": "kpl",
    "isDiscounted": false
  },
  {
    "ean": "6410405196149",
    "urlSlug": "pirkka-mustahermehutiiv-znc-05l-sokton-6410405196149",
    "name": "Pirkka sokeroimaton mustaherukkamehutiiviste sinkki + C 0,5l",
    "pictureUrls": [
      {
        "original": "https://public.keskofiles.com/f/k-ruoka/product/6410405196149"
      }
    ],
    "section": "3360",
    "departmentId": "108",
    "contentUnit": "L",
    "contentSize": 0.5,
    "netWeight": 0.508,
    "available": true,
    "isUtility": false,
    "preprocessedPricing": {
      "products": {},
      "simplePromotions": {},
      "basketPromotions": {}
    },
    "tosPricing": {
      "basketPromotions": []
    },
    "simplePricePlussa": false,
    "pricingUnit": "kpl",
    "referencePrice": {
      "_type": "Big",
      "value": "3.18"
    },
    "visiblePrice": {
      "_type": "Big",
      "value": "1.59"
    },
    "visiblePriceUnit": "kpl",
    "isDiscounted": false
  },
  {
    "ean": "7350076810540",
    "urlSlug": "vanilla-coke-355ml-tlk-7350076810540",
    "name": "Vanilla Coke 355ml tlk",
    "pictureUrls": [],
    "section": "4653",
    "departmentId": "108",
    "contentUnit": "L",
    "contentSize": 0.355,
    "netWeight": 0.366,
    "available": true,
    "isUtility": false,
    "preprocessedPricing": {
      "products": {},
      "simplePromotions": {},
      "basketPromotions": {}
    },
    "tosPricing": {
      "basketPromotions": []
    },
    "simplePricePlussa": false,
    "pricingUnit": "kpl",
    "referencePrice": {
      "_type": "Big",
      "value": "4.76056338028169014085"
    },
    "visiblePrice": {
      "_type": "Big",
      "value": "1.84"
    },
    "visiblePriceUnit": "kpl",
    "isDiscounted": false
  },
  {
    "ean": "6430052001405",
    "urlSlug": "mysoda-sitruuna-lime-sokton-05l-plo-6430052001405",
    "name": "MySoda Sitruuna-Lime sokeriton 0,5l",
    "pictureUrls": [
      {
        "original": "https://public.keskofiles.com/f/k-ruoka/product/6430052001405"
      }
    ],
    "section": "5090",
    "departmentId": "108",
    "contentUnit": "L",
    "contentSize": 0.5,
    "netWeight": 0.508,
    "available": true,
    "isUtility": false,
    "preprocessedPricing": {
      "products": {},
      "simplePromotions": {},
      "basketPromotions": {}
    },
    "tosPricing": {
      "basketPromotions": []
    },
    "simplePricePlussa": false,
    "pricingUnit": "kpl",
    "referencePrice": {
      "_type": "Big",
      "value": "7.7"
    },
    "visiblePrice": {
      "_type": "Big",
      "value": "3.85"
    },
    "visiblePriceUnit": "kpl",
    "isDiscounted": false
  },
  {
    "ean": "4740098081333",
    "urlSlug": "a-le-coq-00-033l-tlk-4740098081333",
    "name": "A.Le Coq 0,0% 0,33l tlk",
    "pictureUrls": [
      {
        "original": "https://public.keskofiles.com/f/k-ruoka/product/4740098081333"
      }
    ],
    "section": "5254",
    "departmentId": "108",
    "contentUnit": "L",
    "contentSize": 0.33,
    "netWeight": 0.332,
    "available": true,
    "isUtility": false,
    "preprocessedPricing": {
      "products": {},
      "simplePromotions": {},
      "basketPromotions": {}
    },
    "tosPricing": {
      "basketPromotions": []
    },
    "simplePricePlussa": false,
    "pricingUnit": "kpl",
    "referencePrice": {
      "_type": "Big",
      "value": "2.42424242424242424242"
    },
    "visiblePrice": {
      "_type": "Big",
      "value": "0.95"
    },
    "visiblePriceUnit": "kpl",
    "isDiscounted": false
  },
  {
    "ean": "6410405190772",
    "urlSlug": "pirkka-parhaat-ginger-ale-15l-kmp-6410405190772",
    "name": "Pirkka Parhaat Ginger Ale 1,5l",
    "pictureUrls": [
      {
        "original": "https://public.keskofiles.com/f/k-ruoka/product/6410405190772"
      }
    ],
    "section": "5045",
    "departmentId": "108",
    "contentUnit": "L",
    "contentSize": 1.5,
    "netWeight": 1.5,
    "available": true,
    "isUtility": false,
    "preprocessedPricing": {
      "products": {},
      "simplePromotions": {},
      "basketPromotions": {}
    },
    "tosPricing": {
      "basketPromotions": []
    },
    "simplePricePlussa": false,
    "pricingUnit": "kpl",
    "referencePrice": {
      "_type": "Big",
      "value": "1.19333333333333333333"
    },
    "visiblePrice": {
      "_type": "Big",
      "value": "2.19"
    },
    "visiblePriceUnit": "kpl",
    "isDiscounted": false,
    "discountType": "PLUSSA",
    "batchSize": 2,
    "batchPrice": {
      "_type": "Big",
      "value": "4"
    }
  },
  {
    "ean": "6426000004086",
    "urlSlug": "lagom-smoothie-120g-hed-ja-kvinoa-luomu-6426000004086",
    "name": "Lagom smoothie 120g hedelmä ja kvinoa luomu",
    "pictureUrls": [
      {
        "original": "https://public.keskofiles.com/f/k-ruoka/product/6426000004086"
      }
    ],
    "section": "3309",
    "departmentId": "108",
    "contentUnit": "KG",
    "contentSize": 0.12,
    "netWeight": 0.012,
    "available": true,
    "isUtility": false,
    "preprocessedPricing": {
      "products": {},
      "simplePromotions": {},
      "basketPromotions": {}
    },
    "tosPricing": {
      "basketPromotions": []
    },
    "simplePricePlussa": false,
    "pricingUnit": "kpl",
    "referencePrice": {
      "_type": "Big",
      "value": "12.91666666666666666667"
    },
    "visiblePrice": {
      "_type": "Big",
      "value": "1.55"
    },
    "visiblePriceUnit": "kpl",
    "isDiscounted": false
  },
  {
    "ean": "6430030797146",
    "urlSlug": "barr-tizer-033l-tlk-6430030797146",
    "name": "Barr Tizer 0,33l",
    "pictureUrls": [],
    "section": "5003",
    "departmentId": "108",
    "contentUnit": "L",
    "contentSize": 0.33,
    "netWeight": 0.34,
    "available": true,
    "isUtility": false,
    "preprocessedPricing": {
      "products": {},
      "simplePromotions": {},
      "basketPromotions": {}
    },
    "tosPricing": {
      "basketPromotions": []
    },
    "simplePricePlussa": false,
    "pricingUnit": "kpl",
    "referencePrice": {
      "_type": "Big",
      "value": "4.54545454545454545455"
    },
    "visiblePrice": {
      "_type": "Big",
      "value": "1.65"
    },
    "visiblePriceUnit": "kpl",
    "isDiscounted": false
  },
  {
    "ean": "5032678004870",
    "urlSlug": "franklins-indian-tonic-02l-klp-5032678004870",
    "name": "Franklin & Sons Indian Tonic 0,2l",
    "pictureUrls": [],
    "section": "5045",
    "departmentId": "108",
    "contentUnit": "L",
    "contentSize": 0.2,
    "netWeight": 0.2,
    "available": true,
    "isUtility": false,
    "preprocessedPricing": {
      "products": {},
      "simplePromotions": {},
      "basketPromotions": {}
    },
    "tosPricing": {
      "basketPromotions": []
    },
    "simplePricePlussa": false,
    "pricingUnit": "kpl",
    "referencePrice": {
      "_type": "Big",
      "value": "8.25"
    },
    "visiblePrice": {
      "_type": "Big",
      "value": "1.75"
    },
    "visiblePriceUnit": "kpl",
    "isDiscounted": false
  },
  {
    "ean": "6420101882970",
    "urlSlug": "kulta-katriina-450g-erikoissek-tumma-utz-6420101882970",
    "name": "Kulta Katriina erikoissekoitus 450g tumma paahto UTZ",
    "pictureUrls": [
      {
        "original": "https://public.keskofiles.com/f/k-ruoka/product/6420101882970"
      }
    ],
    "section": "3401",
    "departmentId": "108",
    "contentUnit": "KG",
    "contentSize": 0.45,
    "netWeight": 0.45,
    "available": true,
    "isUtility": false,
    "preprocessedPricing": {
      "products": {},
      "simplePromotions": {},
      "basketPromotions": {}
    },
    "tosPricing": {
      "basketPromotions": []
    },
    "simplePricePlussa": false,
    "pricingUnit": "kpl",
    "referencePrice": {
      "_type": "Big",
      "value": "9.66666666666666666667"
    },
    "visiblePrice": {
      "_type": "Big",
      "value": "4.35"
    },
    "visiblePriceUnit": "kpl",
    "isDiscounted": false
  },
  {
    "ean": "6415130041740",
    "urlSlug": "natur-rypale-omenataysmehu-1l-6415130041740",
    "name": "Natur rypäle-omenatäysmehu 1l",
    "pictureUrls": [
      {
        "original": "https://public.keskofiles.com/f/k-ruoka/product/6415130041740"
      }
    ],
    "section": "3339",
    "departmentId": "108",
    "contentUnit": "L",
    "contentSize": 1,
    "netWeight": 1.053,
    "available": true,
    "isUtility": false,
    "preprocessedPricing": {
      "products": {},
      "simplePromotions": {},
      "basketPromotions": {}
    },
    "tosPricing": {
      "basketPromotions": []
    },
    "simplePricePlussa": false,
    "pricingUnit": "kpl",
    "referencePrice": {
      "_type": "Big",
      "value": "1.95"
    },
    "visiblePrice": {
      "_type": "Big",
      "value": "1.95"
    },
    "visiblePriceUnit": "kpl",
    "isDiscounted": false,
    "discountType": "PLUSSA",
    "batchSize": 2,
    "batchPrice": {
      "_type": "Big",
      "value": "3.5"
    }
  },
  {
    "ean": "9006900218836",
    "urlSlug": "pfanner-lemon-lime-jaatee-075l-tlk-9006900218836",
    "name": "Pfanner lemon-lime jäätee 0,75l",
    "pictureUrls": [
      {
        "original": "https://public.keskofiles.com/f/k-ruoka/product/9006900218836"
      }
    ],
    "section": "3343",
    "departmentId": "108",
    "contentUnit": "L",
    "contentSize": 0.75,
    "netWeight": 0.75,
    "available": true,
    "isUtility": false,
    "preprocessedPricing": {
      "products": {},
      "simplePromotions": {},
      "basketPromotions": {}
    },
    "tosPricing": {
      "basketPromotions": []
    },
    "simplePricePlussa": false,
    "pricingUnit": "kpl",
    "referencePrice": {
      "_type": "Big",
      "value": "2.2"
    },
    "visiblePrice": {
      "_type": "Big",
      "value": "1.65"
    },
    "visiblePriceUnit": "kpl",
    "isDiscounted": false
  },
  {
    "ean": "4605246003578",
    "urlSlug": "greenfield-irtotee-100g-flying-dragon-4605246003578",
    "name": "Greenfield irtotee 100g Flying Dragon",
    "pictureUrls": [
      {
        "original": "https://public.keskofiles.com/f/k-ruoka/product/4605246003578"
      }
    ],
    "section": "3450",
    "departmentId": "108",
    "contentUnit": "KG",
    "contentSize": 0.1,
    "netWeight": 0.1,
    "available": true,
    "isUtility": false,
    "preprocessedPricing": {
      "products": {},
      "simplePromotions": {},
      "basketPromotions": {}
    },
    "tosPricing": {
      "basketPromotions": []
    },
    "simplePricePlussa": false,
    "pricingUnit": "kpl",
    "referencePrice": {
      "_type": "Big",
      "value": "20.9"
    },
    "visiblePrice": {
      "_type": "Big",
      "value": "2.09"
    },
    "visiblePriceUnit": "kpl",
    "isDiscounted": false
  },
  {
    "ean": "6411020002655",
    "urlSlug": "forsman-tee-60g-indian-chai-latte-6411020002655",
    "name": "Forsman India chai-latte musta lehtitee 60g",
    "pictureUrls": [
      {
        "original": "https://public.keskofiles.com/f/k-ruoka/product/6411020002655"
      }
    ],
    "section": "3442",
    "departmentId": "108",
    "contentUnit": "KG",
    "contentSize": 0.06,
    "netWeight": 0.06,
    "available": true,
    "isUtility": false,
    "preprocessedPricing": {
      "products": {},
      "simplePromotions": {},
      "basketPromotions": {}
    },
    "tosPricing": {
      "basketPromotions": []
    },
    "simplePricePlussa": false,
    "pricingUnit": "kpl",
    "referencePrice": {
      "_type": "Big",
      "value": "34.83333333333333333333"
    },
    "visiblePrice": {
      "_type": "Big",
      "value": "2.09"
    },
    "visiblePriceUnit": "kpl",
    "isDiscounted": false
  },
  {
    "ean": "6415130072539",
    "urlSlug": "mehukatti-hedelmavalipala-4x90g-banaanim-6415130072539",
    "name": "Mehukatti hedelmävälipala 4x90g banaanim",
    "pictureUrls": [
      {
        "original": "https://public.keskofiles.com/f/k-ruoka/product/6415130072539"
      }
    ],
    "section": "3309",
    "departmentId": "108",
    "contentUnit": "KG",
    "contentSize": 0.36,
    "netWeight": 0.36,
    "available": true,
    "isUtility": false,
    "preprocessedPricing": {
      "products": {},
      "simplePromotions": {},
      "basketPromotions": {}
    },
    "tosPricing": {
      "basketPromotions": []
    },
    "simplePricePlussa": false,
    "pricingUnit": "kpl",
    "referencePrice": {
      "_type": "Big",
      "value": "8.58333333333333333333"
    },
    "visiblePrice": {
      "_type": "Big",
      "value": "3.09"
    },
    "visiblePriceUnit": "kpl",
    "isDiscounted": false
  },
  {
    "ean": "6410405143822",
    "urlSlug": "pirkka-sekamehutiiviste-05l-15-6410405143822",
    "name": "Pirkka sekamehutiiviste 0,5l",
    "pictureUrls": [
      {
        "original": "https://public.keskofiles.com/f/k-ruoka/product/6410405143822"
      }
    ],
    "section": "3350",
    "departmentId": "108",
    "contentUnit": "L",
    "contentSize": 0.5,
    "netWeight": 0.646,
    "available": true,
    "isUtility": false,
    "preprocessedPricing": {
      "products": {},
      "simplePromotions": {},
      "basketPromotions": {}
    },
    "tosPricing": {
      "basketPromotions": []
    },
    "simplePricePlussa": false,
    "pricingUnit": "kpl",
    "referencePrice": {
      "_type": "Big",
      "value": "5.38"
    },
    "visiblePrice": {
      "_type": "Big",
      "value": "2.69"
    },
    "visiblePriceUnit": "kpl",
    "isDiscounted": false
  },
  {
    "ean": "6415600543521",
    "urlSlug": "koff-crisp-vaalea-lager-00-033l-tlk-6415600543521",
    "name": "Koff Crisp 0% Vaalea Lager 0,33l",
    "pictureUrls": [
      {
        "original": "https://public.keskofiles.com/f/k-ruoka/product/6415600543521"
      }
    ],
    "section": "5251",
    "departmentId": "108",
    "contentUnit": "L",
    "contentSize": 0.33,
    "netWeight": 0.336,
    "available": true,
    "isUtility": false,
    "preprocessedPricing": {
      "products": {},
      "simplePromotions": {},
      "basketPromotions": {}
    },
    "tosPricing": {
      "basketPromotions": []
    },
    "simplePricePlussa": false,
    "pricingUnit": "kpl",
    "referencePrice": {
      "_type": "Big",
      "value": "3.93939393939393939394"
    },
    "visiblePrice": {
      "_type": "Big",
      "value": "1.45"
    },
    "visiblePriceUnit": "kpl",
    "isDiscounted": false
  },
  {
    "ean": "6410405208583",
    "urlSlug": "pirkka-omenataysmehu-1l-luomu-6410405208583",
    "name": "Pirkka Luomu tuorepuristettu omenatäysmehu 1l",
    "pictureUrls": [
      {
        "original": "https://public.keskofiles.com/f/k-ruoka/product/6410405208583"
      }
    ],
    "section": "1911",
    "departmentId": "108",
    "contentUnit": "L",
    "contentSize": 1,
    "netWeight": 1.045,
    "available": true,
    "isUtility": false,
    "preprocessedPricing": {
      "products": {},
      "simplePromotions": {},
      "basketPromotions": {}
    },
    "tosPricing": {
      "basketPromotions": []
    },
    "simplePricePlussa": false,
    "pricingUnit": "kpl",
    "referencePrice": {
      "_type": "Big",
      "value": "3.19"
    },
    "visiblePrice": {
      "_type": "Big",
      "value": "3.19"
    },
    "visiblePriceUnit": "kpl",
    "isDiscounted": false
  },
  {
    "ean": "6410405104144",
    "urlSlug": "pirkka-kaakaojauhe-125g-utz-6410405104144",
    "name": "Pirkka kaakaojauhe 125 g UTZ",
    "pictureUrls": [
      {
        "original": "https://public.keskofiles.com/f/k-ruoka/product/6410405104144"
      }
    ],
    "section": "3484",
    "departmentId": "108",
    "contentUnit": "KG",
    "contentSize": 0.125,
    "netWeight": 0.125,
    "available": true,
    "isUtility": false,
    "preprocessedPricing": {
      "products": {},
      "simplePromotions": {},
      "basketPromotions": {}
    },
    "tosPricing": {
      "basketPromotions": []
    },
    "simplePricePlussa": false,
    "pricingUnit": "kpl",
    "referencePrice": {
      "_type": "Big",
      "value": "11.92"
    },
    "visiblePrice": {
      "_type": "Big",
      "value": "1.49"
    },
    "visiblePriceUnit": "kpl",
    "isDiscounted": false
  },
  {
    "ean": "6411020020888",
    "urlSlug": "forsman-tee-60g-russia-kultainen-omena-6411020020888",
    "name": "Forsman 60 g Kultainen Omena musta tee",
    "pictureUrls": [
      {
        "original": "https://public.keskofiles.com/f/k-ruoka/product/6411020020888"
      }
    ],
    "section": "3442",
    "departmentId": "108",
    "contentUnit": "KG",
    "contentSize": 0.06,
    "netWeight": 0.06,
    "available": true,
    "isUtility": false,
    "preprocessedPricing": {
      "products": {},
      "simplePromotions": {},
      "basketPromotions": {}
    },
    "tosPricing": {
      "basketPromotions": []
    },
    "simplePricePlussa": false,
    "pricingUnit": "kpl",
    "referencePrice": {
      "_type": "Big",
      "value": "34.83333333333333333333"
    },
    "visiblePrice": {
      "_type": "Big",
      "value": "2.09"
    },
    "visiblePriceUnit": "kpl",
    "isDiscounted": false
  },
  {
    "ean": "6419800120575",
    "urlSlug": "motor-oil-energiajuoma-033l-tlk-6419800120575",
    "name": "Motor Oil energiajuoma 0,33 tlk",
    "pictureUrls": [
      {
        "original": "https://public.keskofiles.com/f/k-ruoka/product/6419800120575"
      }
    ],
    "section": "5042",
    "departmentId": "108",
    "contentUnit": "L",
    "contentSize": 0.33,
    "netWeight": 0.3,
    "available": true,
    "isUtility": false,
    "preprocessedPricing": {
      "products": {},
      "simplePromotions": {},
      "basketPromotions": {}
    },
    "tosPricing": {
      "basketPromotions": []
    },
    "simplePricePlussa": false,
    "pricingUnit": "kpl",
    "referencePrice": {
      "_type": "Big",
      "value": "5.15151515151515151515"
    },
    "visiblePrice": {
      "_type": "Big",
      "value": "1.85"
    },
    "visiblePriceUnit": "kpl",
    "isDiscounted": false
  },
  {
    "ean": "6413446012638",
    "urlSlug": "nordqvist-teeps-20x175g-paddington-6413446012638",
    "name": "Nordqvist teeps 20x1,75g Paddington",
    "pictureUrls": [
      {
        "original": "https://public.keskofiles.com/f/k-ruoka/product/6413446012638"
      }
    ],
    "section": "3445",
    "departmentId": "108",
    "contentUnit": "KG",
    "contentSize": 0.035,
    "netWeight": 0.035,
    "available": true,
    "isUtility": false,
    "preprocessedPricing": {
      "products": {},
      "simplePromotions": {},
      "basketPromotions": {}
    },
    "tosPricing": {
      "basketPromotions": []
    },
    "simplePricePlussa": false,
    "pricingUnit": "kpl",
    "referencePrice": {
      "_type": "Big",
      "value": "72.85714285714285714286"
    },
    "visiblePrice": {
      "_type": "Big",
      "value": "2.55"
    },
    "visiblePriceUnit": "kpl",
    "isDiscounted": true,
    "discountType": "PLUSSA",
    "batchSize": 2,
    "batchPrice": {
      "_type": "Big",
      "value": "4.5"
    }
  }
]