[
  {
    "ean": "6430053731943",
    "urlSlug": "herkkutilan-parhaat-1kg-goudajuusto-6430053731943",
    "name": "Herkkutilan Parhaat 1kg goudajuusto",
    "pictureUrls": [
      {
        "original": "https://public.keskofiles.com/f/k-ruoka/product/6430053731943"
      }
    ],
    "section": "2406",
    "departmentId": "104",
    "contentUnit": "KG",
    "contentSize": 1,
    "netWeight": 1,
    "available": true,
    "isUtility": false,
    "preprocessedPricing": {
      "products": {},
      "simplePromotions": {},
      "basketPromotions": {}
    },
    "tosPricing": {
      "basketPromotions": []
    },
    "simplePricePlussa": false,
    "pricingUnit": "kpl",
    "referencePrice": {
      "_type": "Big",
      "value": "5.99"
    },
    "visiblePrice": {
      "_type": "Big",
      "value": "5.99"
    },
    "visiblePriceUnit": "kpl",
    "isDiscounted": false
  },
  {
    "ean": "5690516965204",
    "urlSlug": "skyr-2-170g-wanhan-ajan-vanilja-lton-5690516965204",
    "name": "Skyr 2% laktoositon wanhan ajan vanilja 170g",
    "pictureUrls": [
      {
        "original": "https://public.keskofiles.com/f/k-ruoka/product/5690516965204"
      }
    ],
    "section": "2232",
    "departmentId": "104",
    "contentUnit": "KG",
    "contentSize": 0.17,
    "netWeight": 0.17,
    "available": true,
    "isUtility": false,
    "preprocessedPricing": {
      "products": {},
      "simplePromotions": {},
      "basketPromotions": {}
    },
    "tosPricing": {
      "basketPromotions": []
    },
    "simplePricePlussa": false,
    "pricingUnit": "kpl",
    "referencePrice": {
      "_type": "Big",
      "value": "9.11764705882352941176"
    },
    "visiblePrice": {
      "_type": "Big",
      "value": "1.55"
    },
    "visiblePriceUnit": "kpl",
    "isDiscounted": false
  },
  {
    "ean": "6408652221622",
    "urlSlug": "jp-vapaan-lehman-ab-jogurtti-1kg-mton-6408652221622",
    "name": "Juustoportti Vapaan lehmän AB-jogurtti 1kg maustamaton",
    "pictureUrls": [
      {
        "original": "https://public.keskofiles.com/f/k-ruoka/product/6408652221622"
      }
    ],
    "section": "2205",
    "departmentId": "104",
    "contentUnit": "KG",
    "contentSize": 1,
    "netWeight": 1,
    "available": true,
    "isUtility": false,
    "preprocessedPricing": {
      "products": {},
      "simplePromotions": {},
      "basketPromotions": {}
    },
    "tosPricing": {
      "basketPromotions": []
    },
    "simplePricePlussa": false,
    "pricingUnit": "kpl",
    "referencePrice": {
      "_type": "Big",
      "value": "1.75"
    },
    "visiblePrice": {
      "_type": "Big",
      "value": "1.75"
    },
    "visiblePriceUnit": "kpl",
    "isDiscounted": false
  },
  {
    "ean": "7394376615696",
    "urlSlug": "oatly-kaurajuoma-1-l-7394376615696",
    "name": "Oatly 1l Kaurajuoma",
    "pictureUrls": [
      {
        "original": "https://public.keskofiles.com/f/k-ruoka/product/7394376615696"
      }
    ],
    "section": "2108",
    "departmentId": "104",
    "contentUnit": "L",
    "contentSize": 1,
    "netWeight": 1.031,
    "available": true,
    "isUtility": false,
    "preprocessedPricing": {
      "products": {},
      "simplePromotions": {},
      "basketPromotions": {}
    },
    "tosPricing": {
      "basketPromotions": []
    },
    "simplePricePlussa": false,
    "pricingUnit": "kpl",
    "referencePrice": {
      "_type": "Big",
      "value": "1.79"
    },
    "visiblePrice": {
      "_type": "Big",
      "value": "1.79"
    },
    "visiblePriceUnit": "kpl",
    "isDiscounted": false
  },
  {
    "ean": "6408430339587",
    "urlSlug": "valio-luomu-gouda-500g-6408430339587",
    "name": "Valio Luomu gouda 500g",
    "pictureUrls": [
      {
        "original": "https://public.keskofiles.com/f/k-ruoka/product/6408430339587"
      }
    ],
    "section": "2406",
    "departmentId": "104",
    "contentUnit": "KG",
    "contentSize": 0.5,
    "netWeight": 0.5,
    "available": true,
    "isUtility": false,
    "preprocessedPricing": {
      "products": {},
      "simplePromotions": {},
      "basketPromotions": {}
    },
    "tosPricing": {
      "basketPromotions": []
    },
    "simplePricePlussa": false,
    "pricingUnit": "kpl",
    "referencePrice": {
      "_type": "Big",
      "value": "14.7"
    },
    "visiblePrice": {
      "_type": "Big",
      "value": "7.35"
    },
    "visiblePriceUnit": "kpl",
    "isDiscounted": false
  },
  {
    "ean": "6408430002665",
    "urlSlug": "valiojogurtti-200g-vanilja-hyla-6408430002665",
    "name": "Valiojogurtti 200g vanilja HYLA",
    "pictureUrls": [
      {
        "original": "https://public.keskofiles.com/f/k-ruoka/product/6408430002665"
      }
    ],
    "section": "2200",
    "departmentId": "104",
    "contentUnit": "KG",
    "contentSize": 0.2,
    "netWeight": 0.2,
    "available": true,
    "isUtility": false,
    "preprocessedPricing": {
      "products": {},
      "simplePromotions": {},
      "basketPromotions": {}
    },
    "tosPricing": {
      "basketPromotions": []
    },
    "simplePricePlussa": false,
    "pricingUnit": "kpl",
    "referencePrice": {
      "_type": "Big",
      "value": "2.45"
    },
    "visiblePrice": {
      "_type": "Big",
      "value": "0.49"
    },
    "visiblePriceUnit": "kpl",
    "isDiscounted": false
  },
  {
    "ean": "6410405093424",
    "urlSlug": "pirkka-vispikerma-36-2-dl-laktoositon-6410405093424",
    "name": "Pirkka laktoositon vispikerma 36% 2dl",
    "pictureUrls": [
      {
        "original": "https://public.keskofiles.com/f/k-ruoka/product/6410405093424"
      }
    ],
    "section": "2124",
    "departmentId": "104",
    "contentUnit": "L",
    "contentSize": 0.2,
    "netWeight": 0.199,
    "available": true,
    "isUtility": false,
    "preprocessedPricing": {
      "products": {},
      "simplePromotions": {},
      "basketPromotions": {}
    },
    "tosPricing": {
      "basketPromotions": []
    },
    "simplePricePlussa": false,
    "pricingUnit": "kpl",
    "referencePrice": {
      "_type": "Big",
      "value": "5.45"
    },
    "visiblePrice": {
      "_type": "Big",
      "value": "1.09"
    },
    "visiblePriceUnit": "kpl",
    "isDiscounted": false
  },
  {
    "ean": "3228021950051",
    "urlSlug": "president-brie-500g-valkohomejuusto-3228021950051",
    "name": "Président Petit brie 500g valkohomejuusto",
    "pictureUrls": [
      {
        "original": "https://public.keskofiles.com/f/k-ruoka/product/3228021950051"
      }
    ],
    "section": "2431",
    "departmentId": "104",
    "contentUnit": "KG",
    "contentSize": 0.5,
    "netWeight": 0.5,
    "available": true,
    "isUtility": false,
    "preprocessedPricing": {
      "products": {},
      "simplePromotions": {},
      "basketPromotions": {}
    },
    "tosPricing": {
      "basketPromotions": []
    },
    "simplePricePlussa": false,
    "pricingUnit": "kpl",
    "referencePrice": {
      "_type": "Big",
      "value": "13.9"
    },
    "visiblePrice": {
      "_type": "Big",
      "value": "6.95"
    },
    "visiblePriceUnit": "kpl",
    "isDiscounted": false
  },
  {
    "ean": "4009301043187",
    "urlSlug": "castello-sweet-maasdam-juusto-500g-4009301043187",
    "name": "Castello seductively sweet maasdam juusto 500g luomu",
    "pictureUrls": [
      {
        "original": "https://public.keskofiles.com/f/k-ruoka/product/4009301043187"
      }
    ],
    "section": "2405",
    "departmentId": "104",
    "contentUnit": "KG",
    "contentSize": 0.5,
    "netWeight": 0.5,
    "available": true,
    "isUtility": false,
    "preprocessedPricing": {
      "products": {},
      "simplePromotions": {},
      "basketPromotions": {}
    },
    "tosPricing": {
      "basketPromotions": []
    },
    "simplePricePlussa": false,
    "pricingUnit": "kpl",
    "referencePrice": {
      "_type": "Big",
      "value": "10.7"
    },
    "visiblePrice": {
      "_type": "Big",
      "value": "5.35"
    },
    "visiblePriceUnit": "kpl",
    "isDiscounted": false
  },
  {
    "ean": "6413300000764",
    "urlSlug": "kalinka-top-kerrosjog-150g-mansikka-vlak-6413300000764",
    "name": "Ingman kalinka top mansikkakerrosjogurtti 150g vähälaktoosinen",
    "pictureUrls": [
      {
        "original": "https://public.keskofiles.com/f/k-ruoka/product/6413300000764"
      }
    ],
    "section": "2200",
    "departmentId": "104",
    "contentUnit": "KG",
    "contentSize": 0.15,
    "netWeight": 0.15,
    "available": true,
    "isUtility": false,
    "preprocessedPricing": {
      "products": {},
      "simplePromotions": {},
      "basketPromotions": {}
    },
    "tosPricing": {
      "basketPromotions": []
    },
    "simplePricePlussa": false,
    "pricingUnit": "kpl",
    "referencePrice": {
      "_type": "Big",
      "value": "3.26666666666666666667"
    },
    "visiblePrice": {
      "_type": "Big",
      "value": "0.49"
    },
    "visiblePriceUnit": "kpl",
    "isDiscounted": false
  },
  {
    "ean": "6408620004561",
    "urlSlug": "riitan-herkku-tyrni-appelsiinikeitto-1l-6408620004561",
    "name": "Riitan Herkku tyrni-appelsiinikeitto 1L",
    "pictureUrls": [
      {
        "original": "https://public.keskofiles.com/f/k-ruoka/product/6408620004561"
      }
    ],
    "section": "1900",
    "departmentId": "104",
    "contentUnit": "L",
    "contentSize": 1,
    "netWeight": 1,
    "available": true,
    "isUtility": false,
    "preprocessedPricing": {
      "products": {},
      "simplePromotions": {},
      "basketPromotions": {}
    },
    "tosPricing": {
      "basketPromotions": []
    },
    "simplePricePlussa": false,
    "pricingUnit": "kpl",
    "referencePrice": {
      "_type": "Big",
      "value": "2.09"
    },
    "visiblePrice": {
      "_type": "Big",
      "value": "2.09"
    },
    "visiblePriceUnit": "kpl",
    "isDiscounted": false
  },
  {
    "ean": "6413300020458",
    "urlSlug": "arla-lempi-smetana-200g-laktoositon-6413300020458",
    "name": "Arla Lempi laktoositon smetana 200g",
    "pictureUrls": [
      {
        "original": "https://public.keskofiles.com/f/k-ruoka/product/6413300020458"
      }
    ],
    "section": "2141",
    "departmentId": "104",
    "contentUnit": "KG",
    "contentSize": 0.2,
    "netWeight": 0.2,
    "available": true,
    "isUtility": false,
    "preprocessedPricing": {
      "products": {},
      "simplePromotions": {},
      "basketPromotions": {}
    },
    "tosPricing": {
      "basketPromotions": []
    },
    "simplePricePlussa": false,
    "pricingUnit": "kpl",
    "referencePrice": {
      "_type": "Big",
      "value": "10.45"
    },
    "visiblePrice": {
      "_type": "Big",
      "value": "2.09"
    },
    "visiblePriceUnit": "kpl",
    "isDiscounted": false
  },
  {
    "ean": "6408430340873",
    "urlSlug": "valio-karelia-350g-6408430340873",
    "name": "Valio Karelia 350g",
    "pictureUrls": [
      {
        "original": "https://public.keskofiles.com/f/k-ruoka/product/6408430340873"
      }
    ],
    "section": "2436",
    "departmentId": "104",
    "contentUnit": "KG",
    "contentSize": 0.35,
    "netWeight": 0.35,
    "available": true,
    "isUtility": false,
    "preprocessedPricing": {
      "products": {},
      "simplePromotions": {},
      "basketPromotions": {}
    },
    "tosPricing": {
      "basketPromotions": []
    },
    "simplePricePlussa": false,
    "pricingUnit": "kpl",
    "referencePrice": {
      "_type": "Big",
      "value": "12.25714285714285714286"
    },
    "visiblePrice": {
      "_type": "Big",
      "value": "4.29"
    },
    "visiblePriceUnit": "kpl",
    "isDiscounted": true,
    "discountType": "PLUSSA",
    "plussaDiscountPercentage": {
      "_type": "Big",
      "value": "-12.269938650306748466"
    }
  },
  {
    "ean": "6411600081162",
    "urlSlug": "flora-vispi-25dl-20-6411600081162",
    "name": "Flora Vispi 20 % 2,5 dl",
    "pictureUrls": [
      {
        "original": "https://public.keskofiles.com/f/k-ruoka/product/6411600081162"
      }
    ],
    "section": "2124",
    "departmentId": "104",
    "contentUnit": "L",
    "contentSize": 0.25,
    "netWeight": 0.235,
    "available": true,
    "isUtility": false,
    "preprocessedPricing": {
      "products": {},
      "simplePromotions": {},
      "basketPromotions": {}
    },
    "tosPricing": {
      "basketPromotions": []
    },
    "simplePricePlussa": false,
    "pricingUnit": "kpl",
    "referencePrice": {
      "_type": "Big",
      "value": "5.56"
    },
    "visiblePrice": {
      "_type": "Big",
      "value": "1.39"
    },
    "visiblePriceUnit": "kpl",
    "isDiscounted": false
  },
  {
    "ean": "6408430141043",
    "urlSlug": "valio-dippi--kastike-200g-valkosip-lton-6408430141043",
    "name": "Valio dippi & kastike valkosipuli jogurtti 200g laktoositon",
    "pictureUrls": [
      {
        "original": "https://public.keskofiles.com/f/k-ruoka/product/6408430141043"
      }
    ],
    "section": "2145",
    "departmentId": "104",
    "contentUnit": "KG",
    "contentSize": 0.2,
    "netWeight": 0.2,
    "available": true,
    "isUtility": false,
    "preprocessedPricing": {
      "products": {},
      "simplePromotions": {},
      "basketPromotions": {}
    },
    "tosPricing": {
      "basketPromotions": []
    },
    "simplePricePlussa": false,
    "pricingUnit": "kpl",
    "referencePrice": {
      "_type": "Big",
      "value": "5.95"
    },
    "visiblePrice": {
      "_type": "Big",
      "value": "1.19"
    },
    "visiblePriceUnit": "kpl",
    "isDiscounted": true
  },
  {
    "ean": "7394376616747",
    "urlSlug": "oatly-cold-brew-latte-235ml-7394376616747",
    "name": "Oatly cold brew latte 235ml",
    "pictureUrls": [
      {
        "original": "https://public.keskofiles.com/f/k-ruoka/product/7394376616747"
      }
    ],
    "section": "2108",
    "departmentId": "104",
    "contentUnit": "L",
    "contentSize": 0.235,
    "netWeight": 0.249,
    "available": true,
    "isUtility": false,
    "preprocessedPricing": {
      "products": {},
      "simplePromotions": {},
      "basketPromotions": {}
    },
    "tosPricing": {
      "basketPromotions": []
    },
    "simplePricePlussa": false,
    "pricingUnit": "kpl",
    "referencePrice": {
      "_type": "Big",
      "value": "11.02127659574468085106"
    },
    "visiblePrice": {
      "_type": "Big",
      "value": "2.59"
    },
    "visiblePriceUnit": "kpl",
    "isDiscounted": false
  },
  {
    "ean": "6408430407286",
    "urlSlug": "valio-luomu-jog-tuorepuuro-175g-must-ban-6408430407286",
    "name": "Valio Luomu jogurttinen tuorepuuro 175 g mustikka-banaani-kaura laktoositon",
    "pictureUrls": [
      {
        "original": "https://public.keskofiles.com/f/k-ruoka/product/6408430407286"
      }
    ],
    "section": "2231",
    "departmentId": "104",
    "contentUnit": "KG",
    "contentSize": 0.175,
    "netWeight": 0.175,
    "available": true,
    "isUtility": false,
    "preprocessedPricing": {
      "products": {},
      "simplePromotions": {},
      "basketPromotions": {}
    },
    "tosPricing": {
      "basketPromotions": []
    },
    "simplePricePlussa": false,
    "pricingUnit": "kpl",
    "referencePrice": {
      "_type": "Big",
      "value": "7.14285714285714285714"
    },
    "visiblePrice": {
      "_type": "Big",
      "value": "1.25"
    },
    "visiblePriceUnit": "kpl",
    "isDiscounted": false
  },
  {
    "ean": "6408430043002",
    "urlSlug": "valio-eila-raejuusto-200g-lakton-6408430043002",
    "name": "Valio raejuusto 200g laktoositon",
    "pictureUrls": [
      {
        "original": "https://public.keskofiles.com/f/k-ruoka/product/6408430043002"
      }
    ],
    "section": "2131",
    "departmentId": "104",
    "contentUnit": "KG",
    "contentSize": 0.2,
    "netWeight": 0.2,
    "available": true,
    "isUtility": false,
    "preprocessedPricing": {
      "products": {},
      "simplePromotions": {},
      "basketPromotions": {}
    },
    "tosPricing": {
      "basketPromotions": []
    },
    "simplePricePlussa": false,
    "pricingUnit": "kpl",
    "referencePrice": {
      "_type": "Big",
      "value": "9.25"
    },
    "visiblePrice": {
      "_type": "Big",
      "value": "1.85"
    },
    "visiblePriceUnit": "kpl",
    "isDiscounted": false
  },
  {
    "ean": "6408430310784",
    "urlSlug": "oivariini-400g-oliivioljy-ja-merisuola-6408430310784",
    "name": "Valio Oivariini 400 g oliiviöljy ja hieno merisuola HYLA",
    "pictureUrls": [
      {
        "original": "https://public.keskofiles.com/f/k-ruoka/product/6408430310784"
      }
    ],
    "section": "2310",
    "departmentId": "104",
    "contentUnit": "KG",
    "contentSize": 0.4,
    "netWeight": 0.4,
    "available": true,
    "isUtility": false,
    "preprocessedPricing": {
      "products": {},
      "simplePromotions": {},
      "basketPromotions": {}
    },
    "tosPricing": {
      "basketPromotions": []
    },
    "simplePricePlussa": false,
    "pricingUnit": "kpl",
    "referencePrice": {
      "_type": "Big",
      "value": "6.225"
    },
    "visiblePrice": {
      "_type": "Big",
      "value": "2.49"
    },
    "visiblePriceUnit": "kpl",
    "isDiscounted": false
  },
  {
    "ean": "6410405141330",
    "urlSlug": "pirkka-leivontamargariini-500g-lakton-6410405141330",
    "name": "Pirkka margariini 500g",
    "pictureUrls": [
      {
        "original": "https://public.keskofiles.com/f/k-ruoka/product/6410405141330"
      }
    ],
    "section": "2350",
    "departmentId": "104",
    "contentUnit": "KG",
    "contentSize": 0.5,
    "netWeight": 0.5,
    "available": true,
    "isUtility": false,
    "preprocessedPricing": {
      "products": {},
      "simplePromotions": {},
      "basketPromotions": {}
    },
    "tosPricing": {
      "basketPromotions": []
    },
    "simplePricePlussa": false,
    "pricingUnit": "kpl",
    "referencePrice": {
      "_type": "Big",
      "value": "2.38"
    },
    "visiblePrice": {
      "_type": "Big",
      "value": "1.19"
    },
    "visiblePriceUnit": "kpl",
    "isDiscounted": false
  },
  {
    "ean": "6416961002900",
    "urlSlug": "porlammin-mustaleima-emmental-450-g-6416961002900",
    "name": "Porlammin Mustaleima emmental 450 g",
    "pictureUrls": [],
    "section": "2401",
    "departmentId": "104",
    "contentUnit": "KG",
    "contentSize": 0.45,
    "netWeight": 0.456,
    "available": true,
    "isUtility": false,
    "preprocessedPricing": {
      "products": {},
      "simplePromotions": {},
      "basketPromotions": {}
    },
    "tosPricing": {
      "basketPromotions": []
    },
    "simplePricePlussa": false,
    "pricingUnit": "kpl",
    "referencePrice": {
      "_type": "Big",
      "value": "17.75555555555555555556"
    },
    "visiblePrice": {
      "_type": "Big",
      "value": "7.99"
    },
    "visiblePriceUnit": "kpl",
    "isDiscounted": false
  },
  {
    "ean": "4008400290423",
    "urlSlug": "kinder-pingui-schoko-valipalapatuk-4x30g-4008400290423",
    "name": "Kinder pinguí schoko välipalapatukka 4kpl/120g",
    "pictureUrls": [
      {
        "original": "https://public.keskofiles.com/f/k-ruoka/product/4008400290423"
      }
    ],
    "section": "2290",
    "departmentId": "104",
    "contentUnit": "KG",
    "contentSize": 0.12,
    "netWeight": 0.03,
    "available": true,
    "isUtility": false,
    "preprocessedPricing": {
      "products": {},
      "simplePromotions": {},
      "basketPromotions": {}
    },
    "tosPricing": {
      "basketPromotions": []
    },
    "simplePricePlussa": false,
    "pricingUnit": "kpl",
    "referencePrice": {
      "_type": "Big",
      "value": "14.91666666666666666667"
    },
    "visiblePrice": {
      "_type": "Big",
      "value": "1.79"
    },
    "visiblePriceUnit": "kpl",
    "isDiscounted": false
  },
  {
    "ean": "7350020724619",
    "urlSlug": "yosa-kaurajuoma-1l-esl-7350020724619",
    "name": "Yosa kaurajuoma 1l",
    "pictureUrls": [
      {
        "original": "https://public.keskofiles.com/f/k-ruoka/product/7350020724619"
      }
    ],
    "section": "2108",
    "departmentId": "104",
    "contentUnit": "L",
    "contentSize": 1,
    "netWeight": 1.05,
    "available": true,
    "isUtility": false,
    "preprocessedPricing": {
      "products": {},
      "simplePromotions": {},
      "basketPromotions": {}
    },
    "tosPricing": {
      "basketPromotions": []
    },
    "simplePricePlussa": false,
    "pricingUnit": "kpl",
    "referencePrice": {
      "_type": "Big",
      "value": "1.99"
    },
    "visiblePrice": {
      "_type": "Big",
      "value": "1.99"
    },
    "visiblePriceUnit": "kpl",
    "isDiscounted": false
  },
  {
    "ean": "6410405178053",
    "urlSlug": "pirkka-mozzarella-280g125g-laktoositon-6410405178053",
    "name": "Pirkka mozzarella 280g/125g laktoositon",
    "pictureUrls": [
      {
        "original": "https://public.keskofiles.com/f/k-ruoka/product/6410405178053"
      }
    ],
    "section": "2445",
    "departmentId": "104",
    "contentUnit": "KG",
    "contentSize": 0.125,
    "netWeight": 0.125,
    "available": true,
    "isUtility": false,
    "preprocessedPricing": {
      "products": {},
      "simplePromotions": {},
      "basketPromotions": {}
    },
    "tosPricing": {
      "basketPromotions": []
    },
    "simplePricePlussa": false,
    "pricingUnit": "kpl",
    "referencePrice": {
      "_type": "Big",
      "value": "11.92"
    },
    "visiblePrice": {
      "_type": "Big",
      "value": "1.49"
    },
    "visiblePriceUnit": "kpl",
    "isDiscounted": false
  },
  {
    "ean": "7350020721786",
    "urlSlug": "froosh-smoothie-250ml-must-vad-klp-7350020721786",
    "name": "Froosh smoothie mustikka-vadelma 250ml",
    "pictureUrls": [
      {
        "original": "https://public.keskofiles.com/f/k-ruoka/product/7350020721786"
      }
    ],
    "section": "1920",
    "departmentId": "104",
    "contentUnit": "L",
    "contentSize": 0.25,
    "netWeight": 0.265,
    "available": true,
    "isUtility": false,
    "preprocessedPricing": {
      "products": {},
      "simplePromotions": {},
      "basketPromotions": {}
    },
    "tosPricing": {
      "basketPromotions": []
    },
    "simplePricePlussa": false,
    "pricingUnit": "kpl",
    "referencePrice": {
      "_type": "Big",
      "value": "9.56"
    },
    "visiblePrice": {
      "_type": "Big",
      "value": "2.49"
    },
    "visiblePriceUnit": "kpl",
    "isDiscounted": false,
    "discountType": "PLUSSA",
    "batchSize": 2,
    "batchPrice": {
      "_type": "Big",
      "value": "4"
    }
  },
  {
    "ean": "6438207011637",
    "urlSlug": "keiju-margariini-400g-norm-suol-60-6438207011637",
    "name": "Keiju normaalisuolainen margariini 60% 400g",
    "pictureUrls": [
      {
        "original": "https://public.keskofiles.com/f/k-ruoka/product/6438207011637"
      }
    ],
    "section": "2310",
    "departmentId": "104",
    "contentUnit": "KG",
    "contentSize": 0.4,
    "netWeight": 0.4,
    "available": true,
    "isUtility": false,
    "preprocessedPricing": {
      "products": {},
      "simplePromotions": {},
      "basketPromotions": {}
    },
    "tosPricing": {
      "basketPromotions": []
    },
    "simplePricePlussa": false,
    "pricingUnit": "kpl",
    "referencePrice": {
      "_type": "Big",
      "value": "3.875"
    },
    "visiblePrice": {
      "_type": "Big",
      "value": "1.55"
    },
    "visiblePriceUnit": "kpl",
    "isDiscounted": false
  },
  {
    "ean": "6408430340248",
    "urlSlug": "hyva-suomalainen-arki-gouda-1-kg-6408430340248",
    "name": "Hyvä suomalainen Arki gouda juusto 1 kg",
    "pictureUrls": [
      {
        "original": "https://public.keskofiles.com/f/k-ruoka/product/6408430340248"
      }
    ],
    "section": "2406",
    "departmentId": "104",
    "contentUnit": "KG",
    "contentSize": 1,
    "netWeight": 1,
    "available": true,
    "isUtility": false,
    "preprocessedPricing": {
      "products": {},
      "simplePromotions": {},
      "basketPromotions": {}
    },
    "tosPricing": {
      "basketPromotions": []
    },
    "simplePricePlussa": false,
    "pricingUnit": "kpl",
    "referencePrice": {
      "_type": "Big",
      "value": "5.75"
    },
    "visiblePrice": {
      "_type": "Big",
      "value": "5.75"
    },
    "visiblePriceUnit": "kpl",
    "isDiscounted": false
  },
  {
    "ean": "6430011152148",
    "urlSlug": "jukkolan-mustajussi-100g-mustapippurituo-6430011152148",
    "name": "Jukkolan Mustajussi 100g mustapippurituorejuustom",
    "pictureUrls": [],
    "section": "2420",
    "departmentId": "104",
    "contentUnit": "KG",
    "contentSize": 0.1,
    "netWeight": 0.1,
    "available": true,
    "isUtility": false,
    "preprocessedPricing": {
      "products": {},
      "simplePromotions": {},
      "basketPromotions": {}
    },
    "tosPricing": {
      "basketPromotions": []
    },
    "simplePricePlussa": false,
    "pricingUnit": "kpl",
    "referencePrice": {
      "_type": "Big",
      "value": "15"
    },
    "visiblePrice": {
      "_type": "Big",
      "value": "1.5"
    },
    "visiblePriceUnit": "kpl",
    "isDiscounted": true
  },
  {
    "ean": "7394376616877",
    "urlSlug": "oatly-mocha-latte-235ml-7394376616877",
    "name": "Oatly mocha latte 235ml",
    "pictureUrls": [],
    "section": "2108",
    "departmentId": "104",
    "contentUnit": "L",
    "contentSize": 0.235,
    "netWeight": 0.235,
    "available": true,
    "isUtility": false,
    "preprocessedPricing": {
      "products": {},
      "simplePromotions": {},
      "basketPromotions": {}
    },
    "tosPricing": {
      "basketPromotions": []
    },
    "simplePricePlussa": false,
    "pricingUnit": "kpl",
    "referencePrice": {
      "_type": "Big",
      "value": "11.02127659574468085106"
    },
    "visiblePrice": {
      "_type": "Big",
      "value": "2.59"
    },
    "visiblePriceUnit": "kpl",
    "isDiscounted": false
  },
  {
    "ean": "6416419130513",
    "urlSlug": "soya-jalotofu-300g-marinoitu-luomu-6416419130513",
    "name": "Jalotofu marinoitu 300 g Luomu",
    "pictureUrls": [
      {
        "original": "https://public.keskofiles.com/f/k-ruoka/product/6416419130513"
      }
    ],
    "section": "2449",
    "departmentId": "104",
    "contentUnit": "KG",
    "contentSize": 0.3,
    "netWeight": 0.3,
    "available": true,
    "isUtility": false,
    "preprocessedPricing": {
      "products": {},
      "simplePromotions": {},
      "basketPromotions": {}
    },
    "tosPricing": {
      "basketPromotions": []
    },
    "simplePricePlussa": false,
    "pricingUnit": "kpl",
    "referencePrice": {
      "_type": "Big",
      "value": "11.3"
    },
    "visiblePrice": {
      "_type": "Big",
      "value": "3.39"
    },
    "visiblePriceUnit": "kpl",
    "isDiscounted": false
  }
]