[
  {
    "ean": "7311442110602",
    "urlSlug": "kavli-majoneesi-275g-tilli-7311442110602",
    "name": "Kavli tillimajoneesi 275 g",
    "pictureUrls": [
      {
        "original": "https://public.keskofiles.com/f/k-ruoka/product/7311442110602"
      }
    ],
    "section": "4173",
    "departmentId": "106",
    "contentUnit": "KG",
    "contentSize": 0.275,
    "netWeight": 0.3,
    "available": true,
    "isUtility": false,
    "preprocessedPricing": {
      "products": {},
      "simplePromotions": {},
      "basketPromotions": {}
    },
    "tosPricing": {
      "basketPromotions": []
    },
    "simplePricePlussa": false,
    "pricingUnit": "kpl",
    "referencePrice": {
      "_type": "Big",
      "value": "7.23636363636363636364"
    },
    "visiblePrice": {
      "_type": "Big",
      "value": "1.99"
    },
    "visiblePriceUnit": "kpl",
    "isDiscounted": true
  },
  {
    "ean": "7311311004995",
    "urlSlug": "santa-maria-pizzamauste-12g-7311311004995",
    "name": "Santa Maria pizzamauste 12g",
    "pictureUrls": [
      {
        "original": "https://public.keskofiles.com/f/k-ruoka/product/7311311004995"
      }
    ],
    "section": "4100",
    "departmentId": "106",
    "contentUnit": "KG",
    "contentSize": 0.012,
    "netWeight": 0.012,
    "available": true,
    "isUtility": false,
    "preprocessedPricing": {
      "products": {},
      "simplePromotions": {},
      "basketPromotions": {}
    },
    "tosPricing": {
      "basketPromotions": []
    },
    "simplePricePlussa": false,
    "pricingUnit": "kpl",
    "referencePrice": {
      "_type": "Big",
      "value": "79.16666666666666666667"
    },
    "visiblePrice": {
      "_type": "Big",
      "value": "0.95"
    },
    "visiblePriceUnit": "kpl",
    "isDiscounted": false
  },
  {
    "ean": "6409944200554",
    "urlSlug": "pansuola-mineraalisuola-100g-6409944200554",
    "name": "Pansuola mineraalisuola 100g",
    "pictureUrls": [
      {
        "original": "https://public.keskofiles.com/f/k-ruoka/product/6409944200554"
      }
    ],
    "section": "4151",
    "departmentId": "106",
    "contentUnit": "KG",
    "contentSize": 0.1,
    "netWeight": 0.1,
    "available": true,
    "isUtility": false,
    "preprocessedPricing": {
      "products": {},
      "simplePromotions": {},
      "basketPromotions": {}
    },
    "tosPricing": {
      "basketPromotions": []
    },
    "simplePricePlussa": false,
    "pricingUnit": "kpl",
    "referencePrice": {
      "_type": "Big",
      "value": "22"
    },
    "visiblePrice": {
      "_type": "Big",
      "value": "2.2"
    },
    "visiblePriceUnit": "kpl",
    "isDiscounted": false
  },
  {
    "ean": "6420613180250",
    "urlSlug": "alavuden-sitruuna-rypsioljy-kylmap-250ml-6420613180250",
    "name": "Alavuden Sitruuna rypsiöljy kylmäp 250ml",
    "pictureUrls": [
      {
        "original": "https://public.keskofiles.com/f/k-ruoka/product/6420613180250"
      }
    ],
    "section": "4193",
    "departmentId": "106",
    "contentUnit": "L",
    "contentSize": 0.25,
    "netWeight": 0.225,
    "available": true,
    "isUtility": false,
    "preprocessedPricing": {
      "products": {},
      "simplePromotions": {},
      "basketPromotions": {}
    },
    "tosPricing": {
      "basketPromotions": []
    },
    "simplePricePlussa": false,
    "pricingUnit": "kpl",
    "referencePrice": {
      "_type": "Big",
      "value": "14.36"
    },
    "visiblePrice": {
      "_type": "Big",
      "value": "3.59"
    },
    "visiblePriceUnit": "kpl",
    "isDiscounted": false
  },
  {
    "ean": "7311442162304",
    "urlSlug": "kavli-kurkkupikkelsi-majoneesi-240g-7311442162304",
    "name": "Kavli kurkkupikkelsi majoneesi 240g",
    "pictureUrls": [
      {
        "original": "https://public.keskofiles.com/f/k-ruoka/product/7311442162304"
      }
    ],
    "section": "4173",
    "departmentId": "106",
    "contentUnit": "KG",
    "contentSize": 0.24,
    "netWeight": 0.24,
    "available": true,
    "isUtility": false,
    "preprocessedPricing": {
      "products": {},
      "simplePromotions": {},
      "basketPromotions": {}
    },
    "tosPricing": {
      "basketPromotions": []
    },
    "simplePricePlussa": false,
    "pricingUnit": "kpl",
    "referencePrice": {
      "_type": "Big",
      "value": "8.29166666666666666667"
    },
    "visiblePrice": {
      "_type": "Big",
      "value": "1.99"
    },
    "visiblePriceUnit": "kpl",
    "isDiscounted": true
  },
  {
    "ean": "5765228880371",
    "urlSlug": "urtekram-makea-paprika-28g--luomu-5765228880371",
    "name": "Urtekram makea paprika 28g  luomu",
    "pictureUrls": [
      {
        "original": "https://public.keskofiles.com/f/k-ruoka/product/5765228880371"
      }
    ],
    "section": "4102",
    "departmentId": "106",
    "contentUnit": "KG",
    "contentSize": 0.028,
    "netWeight": 0.028,
    "available": true,
    "isUtility": false,
    "preprocessedPricing": {
      "products": {},
      "simplePromotions": {},
      "basketPromotions": {}
    },
    "tosPricing": {
      "basketPromotions": []
    },
    "simplePricePlussa": false,
    "pricingUnit": "kpl",
    "referencePrice": {
      "_type": "Big",
      "value": "81.78571428571428571429"
    },
    "visiblePrice": {
      "_type": "Big",
      "value": "2.29"
    },
    "visiblePriceUnit": "kpl",
    "isDiscounted": false
  },
  {
    "ean": "6410402008490",
    "urlSlug": "pirkka-soijakastike-150ml-luomu-6410402008490",
    "name": "Pirkka Luomu japanilainen soijakastike 150ml",
    "pictureUrls": [
      {
        "original": "https://public.keskofiles.com/f/k-ruoka/product/6410402008490"
      }
    ],
    "section": "4176",
    "departmentId": "106",
    "contentUnit": "L",
    "contentSize": 0.15,
    "netWeight": 0.165,
    "available": true,
    "isUtility": false,
    "preprocessedPricing": {
      "products": {},
      "simplePromotions": {},
      "basketPromotions": {}
    },
    "tosPricing": {
      "basketPromotions": []
    },
    "simplePricePlussa": false,
    "pricingUnit": "kpl",
    "referencePrice": {
      "_type": "Big",
      "value": "13.26666666666666666667"
    },
    "visiblePrice": {
      "_type": "Big",
      "value": "1.99"
    },
    "visiblePriceUnit": "kpl",
    "isDiscounted": false
  },
  {
    "ean": "5060088701942",
    "urlSlug": "nakd-35g-bar-cocoa-delight-5060088701942",
    "name": "Nakd 35g Bar Cocoa Delight",
    "pictureUrls": [
      {
        "original": "https://public.keskofiles.com/f/k-ruoka/product/5060088701942"
      }
    ],
    "section": "4418",
    "departmentId": "106",
    "contentUnit": "KG",
    "contentSize": 0.035,
    "netWeight": 0.035,
    "available": true,
    "isUtility": false,
    "preprocessedPricing": {
      "products": {},
      "simplePromotions": {},
      "basketPromotions": {}
    },
    "tosPricing": {
      "basketPromotions": []
    },
    "simplePricePlussa": false,
    "pricingUnit": "kpl",
    "referencePrice": {
      "_type": "Big",
      "value": "44.28571428571428571429"
    },
    "visiblePrice": {
      "_type": "Big",
      "value": "1.55"
    },
    "visiblePriceUnit": "kpl",
    "isDiscounted": false
  },
  {
    "ean": "6410405040817",
    "urlSlug": "pirkka-sokeri-1kg-6410405040817",
    "name": "Pirkka sokeri 1 kg",
    "pictureUrls": [
      {
        "original": "https://public.keskofiles.com/f/k-ruoka/product/6410405040817"
      }
    ],
    "section": "3601",
    "departmentId": "106",
    "contentUnit": "KG",
    "contentSize": 1,
    "netWeight": 1,
    "available": true,
    "isUtility": false,
    "preprocessedPricing": {
      "products": {},
      "simplePromotions": {},
      "basketPromotions": {}
    },
    "tosPricing": {
      "basketPromotions": []
    },
    "simplePricePlussa": false,
    "pricingUnit": "kpl",
    "referencePrice": {
      "_type": "Big",
      "value": "0.69"
    },
    "visiblePrice": {
      "_type": "Big",
      "value": "0.69"
    },
    "visiblePriceUnit": "kpl",
    "isDiscounted": false
  },
  {
    "ean": "5706779057997",
    "urlSlug": "earth-control-175g-crunchy-nutsbeans-5706779057997",
    "name": "Earth Control 175g crunchy nuts&beans",
    "pictureUrls": [
      {
        "original": "https://public.keskofiles.com/f/k-ruoka/product/5706779057997"
      }
    ],
    "section": "4418",
    "departmentId": "106",
    "contentUnit": "KG",
    "contentSize": 0.175,
    "netWeight": 0.175,
    "available": true,
    "isUtility": false,
    "preprocessedPricing": {
      "products": {},
      "simplePromotions": {},
      "basketPromotions": {}
    },
    "tosPricing": {
      "basketPromotions": []
    },
    "simplePricePlussa": false,
    "pricingUnit": "kpl",
    "referencePrice": {
      "_type": "Big",
      "value": "17.08571428571428571429"
    },
    "visiblePrice": {
      "_type": "Big",
      "value": "2.99"
    },
    "visiblePriceUnit": "kpl",
    "isDiscounted": false,
    "discountType": "PLUSSA",
    "batchSize": 2,
    "batchPrice": {
      "_type": "Big",
      "value": "5"
    }
  },
  {
    "ean": "6410840033412",
    "urlSlug": "herkkumaa-devils-salad-mild-320g-6410840033412",
    "name": "Herkkumaa Devil's salad mild mieto paholaisen salaatti 320g",
    "pictureUrls": [
      {
        "original": "https://public.keskofiles.com/f/k-ruoka/product/6410840033412"
      }
    ],
    "section": "4179",
    "departmentId": "106",
    "contentUnit": "KG",
    "contentSize": 0.32,
    "netWeight": 0.32,
    "available": true,
    "isUtility": false,
    "preprocessedPricing": {
      "products": {},
      "simplePromotions": {},
      "basketPromotions": {}
    },
    "tosPricing": {
      "basketPromotions": []
    },
    "simplePricePlussa": false,
    "pricingUnit": "kpl",
    "referencePrice": {
      "_type": "Big",
      "value": "7.15625"
    },
    "visiblePrice": {
      "_type": "Big",
      "value": "2.29"
    },
    "visiblePriceUnit": "kpl",
    "isDiscounted": false
  },
  {
    "ean": "6416597211288",
    "urlSlug": "sunnuntai-erikoisvehnajauho-1kg-6416597211288",
    "name": "Sunnuntai erikoisvehnäjauho 1 kg",
    "pictureUrls": [
      {
        "original": "https://public.keskofiles.com/f/k-ruoka/product/6416597211288"
      }
    ],
    "section": "3000",
    "departmentId": "106",
    "contentUnit": "KG",
    "contentSize": 1,
    "netWeight": 1,
    "available": true,
    "isUtility": false,
    "preprocessedPricing": {
      "products": {},
      "simplePromotions": {},
      "basketPromotions": {}
    },
    "tosPricing": {
      "basketPromotions": []
    },
    "simplePricePlussa": false,
    "pricingUnit": "kpl",
    "referencePrice": {
      "_type": "Big",
      "value": "1.65"
    },
    "visiblePrice": {
      "_type": "Big",
      "value": "1.65"
    },
    "visiblePriceUnit": "kpl",
    "isDiscounted": false
  },
  {
    "ean": "7311310026806",
    "urlSlug": "santa-maria-mustapipp-mylly-70gtellicher-7311310026806",
    "name": "Santa Maria Tellicherry Pepper mustapippuri  70g mylly",
    "pictureUrls": [
      {
        "original": "https://public.keskofiles.com/f/k-ruoka/product/7311310026806"
      }
    ],
    "section": "4102",
    "departmentId": "106",
    "contentUnit": "KG",
    "contentSize": 0.07,
    "netWeight": 0.07,
    "available": true,
    "isUtility": false,
    "preprocessedPricing": {
      "products": {},
      "simplePromotions": {},
      "basketPromotions": {}
    },
    "tosPricing": {
      "basketPromotions": []
    },
    "simplePricePlussa": false,
    "pricingUnit": "kpl",
    "referencePrice": {
      "_type": "Big",
      "value": "72.71428571428571428571"
    },
    "visiblePrice": {
      "_type": "Big",
      "value": "5.09"
    },
    "visiblePriceUnit": "kpl",
    "isDiscounted": false
  },
  {
    "ean": "3036810201280",
    "urlSlug": "maille-dijon-sinappi-215g-3036810201280",
    "name": "Maille Dijon Originale sinappi 215 g",
    "pictureUrls": [
      {
        "original": "https://public.keskofiles.com/f/k-ruoka/product/3036810201280"
      }
    ],
    "section": "4171",
    "departmentId": "106",
    "contentUnit": "KG",
    "contentSize": 0.215,
    "netWeight": 0.215,
    "available": true,
    "isUtility": false,
    "preprocessedPricing": {
      "products": {},
      "simplePromotions": {},
      "basketPromotions": {}
    },
    "tosPricing": {
      "basketPromotions": []
    },
    "simplePricePlussa": false,
    "pricingUnit": "kpl",
    "referencePrice": {
      "_type": "Big",
      "value": "10.93023255813953488372"
    },
    "visiblePrice": {
      "_type": "Big",
      "value": "2.35"
    },
    "visiblePriceUnit": "kpl",
    "isDiscounted": false
  },
  {
    "ean": "0011210007253",
    "urlSlug": "tabasco-pippurikastike-60ml-valkosipuli-0011210007253",
    "name": "Tabasco pippurikastike 60ml valkosipuli",
    "pictureUrls": [
      {
        "original": "https://public.keskofiles.com/f/k-ruoka/product/0011210007253"
      }
    ],
    "section": "4179",
    "departmentId": "106",
    "contentUnit": "L",
    "contentSize": 0.06,
    "netWeight": 0.069,
    "available": true,
    "isUtility": false,
    "preprocessedPricing": {
      "products": {},
      "simplePromotions": {},
      "basketPromotions": {}
    },
    "tosPricing": {
      "basketPromotions": []
    },
    "simplePricePlussa": false,
    "pricingUnit": "kpl",
    "referencePrice": {
      "_type": "Big",
      "value": "49.16666666666666666667"
    },
    "visiblePrice": {
      "_type": "Big",
      "value": "2.95"
    },
    "visiblePriceUnit": "kpl",
    "isDiscounted": false
  },
  {
    "ean": "6436501043231",
    "urlSlug": "sallinen-pehmeat-helmet-rosa-80g-6436501043231-n106",
    "name": "Sallinen Pehmeät Helmet Rosa 80g",
    "storeId": "N106",
    "pictureUrls": [
      {
        "original": "https://public.keskofiles.com/f/k-ruoka/N106/product/6436501043231"
      }
    ],
    "section": "4113",
    "departmentId": "106",
    "contentUnit": "kpl",
    "contentSize": 0.08,
    "available": true,
    "isUtility": false,
    "preprocessedPricing": {
      "products": {},
      "simplePromotions": {},
      "basketPromotions": {}
    },
    "tosPricing": {
      "basketPromotions": []
    },
    "simplePricePlussa": false,
    "pricingUnit": "kpl",
    "referencePrice": {
      "_type": "Big",
      "value": "21.125"
    },
    "visiblePrice": {
      "_type": "Big",
      "value": "1.69"
    },
    "visiblePriceUnit": "kpl",
    "isDiscounted": false
  },
  {
    "ean": "6436501037391",
    "urlSlug": "sallinen-sokerimassa-oranssi-250g-6436501037391-n106",
    "name": "Sallinen Sokerimassa oranssi 250g",
    "storeId": "N106",
    "pictureUrls": [
      {
        "original": "https://public.keskofiles.com/f/k-ruoka/N106/product/6436501037391"
      }
    ],
    "section": "4115",
    "departmentId": "106",
    "contentUnit": "kpl",
    "contentSize": 0.25,
    "available": true,
    "isUtility": false,
    "preprocessedPricing": {
      "products": {},
      "simplePromotions": {},
      "basketPromotions": {}
    },
    "tosPricing": {
      "basketPromotions": []
    },
    "simplePricePlussa": false,
    "pricingUnit": "kpl",
    "referencePrice": {
      "_type": "Big",
      "value": "9.16"
    },
    "visiblePrice": {
      "_type": "Big",
      "value": "2.29"
    },
    "visiblePriceUnit": "kpl",
    "isDiscounted": false
  },
  {
    "ean": "6436501000968",
    "urlSlug": "sallinen-marsipaani-punainen-250g-6436501000968-n106",
    "name": "Sallinen Marsipaani punainen 250g",
    "storeId": "N106",
    "pictureUrls": [
      {
        "original": "https://public.keskofiles.com/f/k-ruoka/N106/product/6436501000968"
      }
    ],
    "section": "4115",
    "departmentId": "106",
    "contentUnit": "kpl",
    "contentSize": 0.25,
    "available": true,
    "isUtility": false,
    "preprocessedPricing": {
      "products": {},
      "simplePromotions": {},
      "basketPromotions": {}
    },
    "tosPricing": {
      "basketPromotions": []
    },
    "simplePricePlussa": false,
    "pricingUnit": "kpl",
    "referencePrice": {
      "_type": "Big",
      "value": "13.96"
    },
    "visiblePrice": {
      "_type": "Big",
      "value": "3.49"
    },
    "visiblePriceUnit": "kpl",
    "isDiscounted": false
  },
  {
    "ean": "6436501054206",
    "urlSlug": "sallinen-aprikoosirouhe-800g-6436501054206-n106",
    "name": "Sallinen Aprikoosirouhe 800g",
    "storeId": "N106",
    "pictureUrls": [
      {
        "original": "https://public.keskofiles.com/f/k-ruoka/N106/product/6436501054206"
      }
    ],
    "section": "4407",
    "departmentId": "106",
    "contentUnit": "kpl",
    "contentSize": 0.8,
    "available": true,
    "isUtility": false,
    "preprocessedPricing": {
      "products": {},
      "simplePromotions": {},
      "basketPromotions": {}
    },
    "tosPricing": {
      "basketPromotions": []
    },
    "simplePricePlussa": false,
    "pricingUnit": "kpl",
    "referencePrice": {
      "_type": "Big",
      "value": "8.6875"
    },
    "visiblePrice": {
      "_type": "Big",
      "value": "6.95"
    },
    "visiblePriceUnit": "kpl",
    "isDiscounted": false
  },
  {
    "ean": "6436501050550",
    "urlSlug": "sallinen-vaniljasokeri-500g-6436501050550-n106",
    "name": "Sallinen Vaniljasokeri 500g",
    "storeId": "N106",
    "pictureUrls": [
      {
        "original": "https://public.keskofiles.com/f/k-ruoka/N106/product/6436501050550"
      }
    ],
    "section": "4103",
    "departmentId": "106",
    "contentUnit": "kpl",
    "contentSize": 0.5,
    "available": true,
    "isUtility": false,
    "preprocessedPricing": {
      "products": {},
      "simplePromotions": {},
      "basketPromotions": {}
    },
    "tosPricing": {
      "basketPromotions": []
    },
    "simplePricePlussa": false,
    "pricingUnit": "kpl",
    "referencePrice": {
      "_type": "Big",
      "value": "15.4"
    },
    "visiblePrice": {
      "_type": "Big",
      "value": "7.7"
    },
    "visiblePriceUnit": "kpl",
    "isDiscounted": false
  },
  {
    "ean": "6436501019274",
    "urlSlug": "sallinen-taco-mausteseos-500g-6436501019274-n106",
    "name": "Sallinen Taco mausteseos 500g",
    "storeId": "N106",
    "pictureUrls": [
      {
        "original": "https://public.keskofiles.com/f/k-ruoka/N106/product/6436501019274"
      }
    ],
    "section": "4103",
    "departmentId": "106",
    "contentUnit": "kpl",
    "contentSize": 0.5,
    "available": true,
    "isUtility": false,
    "preprocessedPricing": {
      "products": {},
      "simplePromotions": {},
      "basketPromotions": {}
    },
    "tosPricing": {
      "basketPromotions": []
    },
    "simplePricePlussa": false,
    "pricingUnit": "kpl",
    "referencePrice": {
      "_type": "Big",
      "value": "10.2"
    },
    "visiblePrice": {
      "_type": "Big",
      "value": "5.1"
    },
    "visiblePriceUnit": "kpl",
    "isDiscounted": false
  },
  {
    "ean": "6436501005697",
    "urlSlug": "sallinen-sitruunahappo-680g-6436501005697-n106",
    "name": "Sallinen Sitruunahappo 680g",
    "storeId": "N106",
    "pictureUrls": [
      {
        "original": "https://public.keskofiles.com/f/k-ruoka/N106/product/6436501005697"
      }
    ],
    "section": "4103",
    "departmentId": "106",
    "contentUnit": "kpl",
    "contentSize": 0.68,
    "available": true,
    "isUtility": false,
    "preprocessedPricing": {
      "products": {},
      "simplePromotions": {},
      "basketPromotions": {}
    },
    "tosPricing": {
      "basketPromotions": []
    },
    "simplePricePlussa": false,
    "pricingUnit": "kpl",
    "referencePrice": {
      "_type": "Big",
      "value": "10.27941176470588235294"
    },
    "visiblePrice": {
      "_type": "Big",
      "value": "6.99"
    },
    "visiblePriceUnit": "kpl",
    "isDiscounted": false
  },
  {
    "ean": "6436501044955",
    "urlSlug": "sallinen-paprika-savustettu-380g-6436501044955-n106",
    "name": "Sallinen Paprika savustettu 380g",
    "storeId": "N106",
    "pictureUrls": [
      {
        "original": "https://public.keskofiles.com/f/k-ruoka/N106/product/6436501044955"
      }
    ],
    "section": "4103",
    "departmentId": "106",
    "contentUnit": "kpl",
    "contentSize": 0.38,
    "available": true,
    "isUtility": false,
    "preprocessedPricing": {
      "products": {},
      "simplePromotions": {},
      "basketPromotions": {}
    },
    "tosPricing": {
      "basketPromotions": []
    },
    "simplePricePlussa": false,
    "pricingUnit": "kpl",
    "referencePrice": {
      "_type": "Big",
      "value": "21.02631578947368421053"
    },
    "visiblePrice": {
      "_type": "Big",
      "value": "7.99"
    },
    "visiblePriceUnit": "kpl",
    "isDiscounted": false
  },
  {
    "ean": "6436501005475",
    "urlSlug": "sallinen-cayannepippuri-jauhettu-300g-6436501005475-n106",
    "name": "Sallinen Cayannepippuri jauhettu 300g",
    "storeId": "N106",
    "pictureUrls": [
      {
        "original": "https://public.keskofiles.com/f/k-ruoka/N106/product/6436501005475"
      }
    ],
    "section": "4103",
    "departmentId": "106",
    "contentUnit": "kpl",
    "contentSize": 0.3,
    "available": true,
    "isUtility": false,
    "preprocessedPricing": {
      "products": {},
      "simplePromotions": {},
      "basketPromotions": {}
    },
    "tosPricing": {
      "basketPromotions": []
    },
    "simplePricePlussa": false,
    "pricingUnit": "kpl",
    "referencePrice": {
      "_type": "Big",
      "value": "16.63333333333333333333"
    },
    "visiblePrice": {
      "_type": "Big",
      "value": "4.99"
    },
    "visiblePriceUnit": "kpl",
    "isDiscounted": false
  },
  {
    "ean": "6436501000715",
    "urlSlug": "sallinen-kookoshiutale-200g-6436501000715-n106",
    "name": "Sallinen Kookoshiutale 200g",
    "storeId": "N106",
    "pictureUrls": [
      {
        "original": "https://public.keskofiles.com/f/k-ruoka/N106/product/6436501000715"
      }
    ],
    "section": "4419",
    "departmentId": "106",
    "contentUnit": "kpl",
    "contentSize": 0.2,
    "available": true,
    "isUtility": false,
    "preprocessedPricing": {
      "products": {},
      "simplePromotions": {},
      "basketPromotions": {}
    },
    "tosPricing": {
      "basketPromotions": []
    },
    "simplePricePlussa": false,
    "pricingUnit": "kpl",
    "referencePrice": {
      "_type": "Big",
      "value": "8.95"
    },
    "visiblePrice": {
      "_type": "Big",
      "value": "1.79"
    },
    "visiblePriceUnit": "kpl",
    "isDiscounted": false
  },
  {
    "ean": "6436501010332",
    "urlSlug": "sallinen-kookoshiutale-100g-6436501010332-n106",
    "name": "Sallinen Kookoshiutale 100g",
    "storeId": "N106",
    "pictureUrls": [
      {
        "original": "https://public.keskofiles.com/f/k-ruoka/N106/product/6436501010332"
      }
    ],
    "section": "4419",
    "departmentId": "106",
    "contentUnit": "kpl",
    "contentSize": 0.1,
    "available": true,
    "isUtility": false,
    "preprocessedPricing": {
      "products": {},
      "simplePromotions": {},
      "basketPromotions": {}
    },
    "tosPricing": {
      "basketPromotions": []
    },
    "simplePricePlussa": false,
    "pricingUnit": "kpl",
    "referencePrice": {
      "_type": "Big",
      "value": "11.9"
    },
    "visiblePrice": {
      "_type": "Big",
      "value": "1.19"
    },
    "visiblePriceUnit": "kpl",
    "isDiscounted": false
  },
  {
    "ean": "6436501052073",
    "urlSlug": "sallinen-seesaminsiemen-musta-400g-6436501052073-n106",
    "name": "Sallinen Seesaminsiemen musta 400g",
    "storeId": "N106",
    "pictureUrls": [
      {
        "original": "https://public.keskofiles.com/f/k-ruoka/N106/product/6436501052073"
      }
    ],
    "section": "4416",
    "departmentId": "106",
    "contentUnit": "kpl",
    "contentSize": 0.4,
    "available": true,
    "isUtility": false,
    "preprocessedPricing": {
      "products": {},
      "simplePromotions": {},
      "basketPromotions": {}
    },
    "tosPricing": {
      "basketPromotions": []
    },
    "simplePricePlussa": false,
    "pricingUnit": "kpl",
    "referencePrice": {
      "_type": "Big",
      "value": "5.375"
    },
    "visiblePrice": {
      "_type": "Big",
      "value": "2.15"
    },
    "visiblePriceUnit": "kpl",
    "isDiscounted": false
  },
  {
    "ean": "6436501000869",
    "urlSlug": "sallinen-pellavansiemen-400g-6436501000869-n106",
    "name": "Sallinen Pellavansiemen 400g",
    "storeId": "N106",
    "pictureUrls": [
      {
        "original": "https://public.keskofiles.com/f/k-ruoka/N106/product/6436501000869"
      }
    ],
    "section": "4416",
    "departmentId": "106",
    "contentUnit": "kpl",
    "contentSize": 0.4,
    "available": true,
    "isUtility": false,
    "preprocessedPricing": {
      "products": {},
      "simplePromotions": {},
      "basketPromotions": {}
    },
    "tosPricing": {
      "basketPromotions": []
    },
    "simplePricePlussa": false,
    "pricingUnit": "kpl",
    "referencePrice": {
      "_type": "Big",
      "value": "3.375"
    },
    "visiblePrice": {
      "_type": "Big",
      "value": "1.35"
    },
    "visiblePriceUnit": "kpl",
    "isDiscounted": false
  },
  {
    "ean": "6436501050147",
    "urlSlug": "sallinen-pistaasipahkina-250g-6436501050147-n106",
    "name": "Sallinen Pistaasipähkinä 250g",
    "storeId": "N106",
    "pictureUrls": [
      {
        "original": "https://public.keskofiles.com/f/k-ruoka/N106/product/6436501050147"
      }
    ],
    "section": "4419",
    "departmentId": "106",
    "contentUnit": "kpl",
    "contentSize": 0.25,
    "available": true,
    "isUtility": false,
    "preprocessedPricing": {
      "products": {},
      "simplePromotions": {},
      "basketPromotions": {}
    },
    "tosPricing": {
      "basketPromotions": []
    },
    "simplePricePlussa": false,
    "pricingUnit": "kpl",
    "referencePrice": {
      "_type": "Big",
      "value": "29.96"
    },
    "visiblePrice": {
      "_type": "Big",
      "value": "7.49"
    },
    "visiblePriceUnit": "kpl",
    "isDiscounted": false
  },
  {
    "ean": "6436501043576",
    "urlSlug": "sallinen-maapahkina-kuorittu-250g-6436501043576-n106",
    "name": "Sallinen Maapähkinä kuorittu 250g",
    "storeId": "N106",
    "pictureUrls": [
      {
        "original": "https://public.keskofiles.com/f/k-ruoka/N106/product/6436501043576"
      }
    ],
    "section": "4413",
    "departmentId": "106",
    "contentUnit": "kpl",
    "contentSize": 0.25,
    "available": true,
    "isUtility": false,
    "preprocessedPricing": {
      "products": {},
      "simplePromotions": {},
      "basketPromotions": {}
    },
    "tosPricing": {
      "basketPromotions": []
    },
    "simplePricePlussa": false,
    "pricingUnit": "kpl",
    "referencePrice": {
      "_type": "Big",
      "value": "6.36"
    },
    "visiblePrice": {
      "_type": "Big",
      "value": "1.59"
    },
    "visiblePriceUnit": "kpl",
    "isDiscounted": false
  }
]