[
  {
    "ean": "5900951258701",
    "urlSlug": "whiskas-1-kanaa-38kg-5900951258701",
    "name": "WHISKAS 1+ Kanaa 3,8kg täysrehua aikuisille kissoille",
    "pictureUrls": [
      {
        "original": "https://public.keskofiles.com/f/k-ruoka/product/5900951258701"
      }
    ],
    "section": "3701",
    "departmentId": "110",
    "contentUnit": "KG",
    "contentSize": 3.8,
    "netWeight": 3.8,
    "available": true,
    "isUtility": false,
    "preprocessedPricing": {
      "products": {},
      "simplePromotions": {},
      "basketPromotions": {}
    },
    "tosPricing": {
      "basketPromotions": []
    },
    "simplePricePlussa": false,
    "pricingUnit": "kpl",
    "referencePrice": {
      "_type": "Big",
      "value": "2.75"
    },
    "visiblePrice": {
      "_type": "Big",
      "value": "10.45"
    },
    "visiblePriceUnit": "kpl",
    "isDiscounted": false
  },
  {
    "ean": "5700551220234",
    "urlSlug": "bilanx-anti-hairball-snax-50g-harka-mall-5700551220234",
    "name": "Best Friend Bilanx Anti hairball 50g naudanliha-mallas",
    "pictureUrls": [
      {
        "original": "https://public.keskofiles.com/f/k-ruoka/product/5700551220234"
      }
    ],
    "section": "3702",
    "departmentId": "110",
    "contentUnit": "KG",
    "contentSize": 0.05,
    "netWeight": 0.05,
    "available": true,
    "isUtility": false,
    "preprocessedPricing": {
      "products": {},
      "simplePromotions": {},
      "basketPromotions": {}
    },
    "tosPricing": {
      "basketPromotions": []
    },
    "simplePricePlussa": false,
    "pricingUnit": "kpl",
    "referencePrice": {
      "_type": "Big",
      "value": "22"
    },
    "visiblePrice": {
      "_type": "Big",
      "value": "1.1"
    },
    "visiblePriceUnit": "kpl",
    "isDiscounted": false
  },
  {
    "ean": "5700551129438",
    "urlSlug": "bf-natural-bites-750g-kanafilee-5700551129438",
    "name": "Best Friend Natural Bites 750g kanafile",
    "pictureUrls": [
      {
        "original": "https://public.keskofiles.com/f/k-ruoka/product/5700551129438"
      }
    ],
    "section": "3714",
    "departmentId": "110",
    "contentUnit": "KG",
    "contentSize": 0.75,
    "netWeight": 0.75,
    "available": true,
    "isUtility": false,
    "preprocessedPricing": {
      "products": {},
      "simplePromotions": {},
      "basketPromotions": {}
    },
    "tosPricing": {
      "basketPromotions": []
    },
    "simplePricePlussa": false,
    "pricingUnit": "kpl",
    "referencePrice": {
      "_type": "Big",
      "value": "17.06666666666666666667"
    },
    "visiblePrice": {
      "_type": "Big",
      "value": "12.8"
    },
    "visiblePriceUnit": "kpl",
    "isDiscounted": false
  },
  {
    "ean": "7613033940910",
    "urlSlug": "latz-sensations-sauces-12x100g-kalalajit-7613033940910",
    "name": "Latz Sensations Sauces 12x100g kalalajitelma",
    "pictureUrls": [
      {
        "original": "https://public.keskofiles.com/f/k-ruoka/product/7613033940910"
      }
    ],
    "section": "3707",
    "departmentId": "110",
    "contentUnit": "KG",
    "contentSize": 1.2,
    "netWeight": 1.2,
    "available": true,
    "isUtility": false,
    "preprocessedPricing": {
      "products": {},
      "simplePromotions": {},
      "basketPromotions": {}
    },
    "tosPricing": {
      "basketPromotions": []
    },
    "simplePricePlussa": false,
    "pricingUnit": "kpl",
    "referencePrice": {
      "_type": "Big",
      "value": "3.24166666666666666667"
    },
    "visiblePrice": {
      "_type": "Big",
      "value": "3.89"
    },
    "visiblePriceUnit": "kpl",
    "isDiscounted": false,
    "discountType": "PLUSSA",
    "batchSize": 2,
    "batchPrice": {
      "_type": "Big",
      "value": "7.5"
    }
  },
  {
    "ean": "7613036118286",
    "urlSlug": "latz-24x100g-sensations-jellies-suosikki-7613036118286",
    "name": "Latz Sensations jellies lajitelma hyytelössä",
    "pictureUrls": [
      {
        "original": "https://public.keskofiles.com/f/k-ruoka/product/7613036118286"
      }
    ],
    "section": "3707",
    "departmentId": "110",
    "contentUnit": "KG",
    "contentSize": 2.4,
    "netWeight": 2.4,
    "available": true,
    "isUtility": false,
    "preprocessedPricing": {
      "products": {},
      "simplePromotions": {},
      "basketPromotions": {}
    },
    "tosPricing": {
      "basketPromotions": []
    },
    "simplePricePlussa": false,
    "pricingUnit": "kpl",
    "referencePrice": {
      "_type": "Big",
      "value": "3.3125"
    },
    "visiblePrice": {
      "_type": "Big",
      "value": "7.95"
    },
    "visiblePriceUnit": "kpl",
    "isDiscounted": false
  },
  {
    "ean": "5700551127472",
    "urlSlug": "bf-welldone-koiran-pihvitikku-15g-harka-5700551127472",
    "name": "Best Friend WellDone koiran pihvitikku 15g härkä",
    "pictureUrls": [
      {
        "original": "https://public.keskofiles.com/f/k-ruoka/product/5700551127472"
      }
    ],
    "section": "3714",
    "departmentId": "110",
    "contentUnit": "KG",
    "contentSize": 0.015,
    "netWeight": 0.015,
    "available": true,
    "isUtility": false,
    "preprocessedPricing": {
      "products": {},
      "simplePromotions": {},
      "basketPromotions": {}
    },
    "tosPricing": {
      "basketPromotions": []
    },
    "simplePricePlussa": false,
    "pricingUnit": "kpl",
    "referencePrice": {
      "_type": "Big",
      "value": "46.66666666666666666667"
    },
    "visiblePrice": {
      "_type": "Big",
      "value": "0.7"
    },
    "visiblePriceUnit": "kpl",
    "isDiscounted": false
  },
  {
    "ean": "5700551310782",
    "urlSlug": "bf-festival-exclusive-1kg-rabbit-5700551310782",
    "name": "Best Friend festival exclusive täysravinto kaneille 1kg",
    "pictureUrls": [
      {
        "original": "https://public.keskofiles.com/f/k-ruoka/product/5700551310782"
      }
    ],
    "section": "3729",
    "departmentId": "110",
    "contentUnit": "KG",
    "contentSize": 1,
    "netWeight": 1,
    "available": true,
    "isUtility": false,
    "preprocessedPricing": {
      "products": {},
      "simplePromotions": {},
      "basketPromotions": {}
    },
    "tosPricing": {
      "basketPromotions": []
    },
    "simplePricePlussa": false,
    "pricingUnit": "kpl",
    "referencePrice": {
      "_type": "Big",
      "value": "3.75"
    },
    "visiblePrice": {
      "_type": "Big",
      "value": "3.75"
    },
    "visiblePriceUnit": "kpl",
    "isDiscounted": false
  },
  {
    "ean": "6438019005060",
    "urlSlug": "best-in-ydinluu-260g-6438019005060",
    "name": "Best-In ydinluu 260g luonnollinen makupala",
    "pictureUrls": [
      {
        "original": "https://public.keskofiles.com/f/k-ruoka/product/6438019005060"
      }
    ],
    "section": "3715",
    "departmentId": "110",
    "contentUnit": "KG",
    "contentSize": 0.26,
    "netWeight": 0.26,
    "available": true,
    "isUtility": false,
    "preprocessedPricing": {
      "products": {},
      "simplePromotions": {},
      "basketPromotions": {}
    },
    "tosPricing": {
      "basketPromotions": []
    },
    "simplePricePlussa": false,
    "pricingUnit": "kpl",
    "referencePrice": {
      "_type": "Big",
      "value": "17.11538461538461538462"
    },
    "visiblePrice": {
      "_type": "Big",
      "value": "4.45"
    },
    "visiblePriceUnit": "kpl",
    "isDiscounted": false
  },
  {
    "ean": "3065890121249",
    "urlSlug": "cesar-country-special-4x150g-3065890121249",
    "name": "Cesar Country special selection 4x150g",
    "pictureUrls": [
      {
        "original": "https://public.keskofiles.com/f/k-ruoka/product/3065890121249"
      }
    ],
    "section": "3716",
    "departmentId": "110",
    "contentUnit": "KG",
    "contentSize": 0.6,
    "netWeight": 0.6,
    "available": true,
    "isUtility": false,
    "preprocessedPricing": {
      "products": {},
      "simplePromotions": {},
      "basketPromotions": {}
    },
    "tosPricing": {
      "basketPromotions": []
    },
    "simplePricePlussa": false,
    "pricingUnit": "kpl",
    "referencePrice": {
      "_type": "Big",
      "value": "7.15"
    },
    "visiblePrice": {
      "_type": "Big",
      "value": "4.29"
    },
    "visiblePriceUnit": "kpl",
    "isDiscounted": false
  },
  {
    "ean": "3065890137028",
    "urlSlug": "sheba-sauce-lover-lajitelma-8x85g-3065890137028",
    "name": "Sheba Sauce lover lajitelma 8x85g",
    "pictureUrls": [
      {
        "original": "https://public.keskofiles.com/f/k-ruoka/product/3065890137028"
      }
    ],
    "section": "3700",
    "departmentId": "110",
    "contentUnit": "KG",
    "contentSize": 0.68,
    "netWeight": 0.68,
    "available": true,
    "isUtility": false,
    "preprocessedPricing": {
      "products": {},
      "simplePromotions": {},
      "basketPromotions": {}
    },
    "tosPricing": {
      "basketPromotions": []
    },
    "simplePricePlussa": false,
    "pricingUnit": "kpl",
    "referencePrice": {
      "_type": "Big",
      "value": "8.01470588235294117647"
    },
    "visiblePrice": {
      "_type": "Big",
      "value": "5.45"
    },
    "visiblePriceUnit": "kpl",
    "isDiscounted": false
  },
  {
    "ean": "5900951015137",
    "urlSlug": "kitekat-kissan-kuivar-4kg-harka-lamm-kas-5900951015137",
    "name": "Kitekat 4kg härkä-lammas-kasviksia kuivaruoka",
    "pictureUrls": [
      {
        "original": "https://public.keskofiles.com/f/k-ruoka/product/5900951015137"
      }
    ],
    "section": "3701",
    "departmentId": "110",
    "contentUnit": "KG",
    "contentSize": 4,
    "netWeight": 4,
    "available": true,
    "isUtility": false,
    "preprocessedPricing": {
      "products": {},
      "simplePromotions": {},
      "basketPromotions": {}
    },
    "tosPricing": {
      "basketPromotions": []
    },
    "simplePricePlussa": false,
    "pricingUnit": "kpl",
    "referencePrice": {
      "_type": "Big",
      "value": "2.4375"
    },
    "visiblePrice": {
      "_type": "Big",
      "value": "9.75"
    },
    "visiblePriceUnit": "kpl",
    "isDiscounted": false
  },
  {
    "ean": "7613033580147",
    "urlSlug": "gourmet-perle-duo-85g-lohi-ja-valk-kala-7613033580147",
    "name": "Gourmet Perle Lohta & Valkoista kalaa Seaside Duo 85g kissanruoka",
    "pictureUrls": [
      {
        "original": "https://public.keskofiles.com/f/k-ruoka/product/7613033580147"
      }
    ],
    "section": "3707",
    "departmentId": "110",
    "contentUnit": "KG",
    "contentSize": 0.085,
    "netWeight": 0.085,
    "available": true,
    "isUtility": false,
    "preprocessedPricing": {
      "products": {},
      "simplePromotions": {},
      "basketPromotions": {}
    },
    "tosPricing": {
      "basketPromotions": []
    },
    "simplePricePlussa": false,
    "pricingUnit": "kpl",
    "referencePrice": {
      "_type": "Big",
      "value": "9.29411764705882352941"
    },
    "visiblePrice": {
      "_type": "Big",
      "value": "0.79"
    },
    "visiblePriceUnit": "kpl",
    "isDiscounted": true,
    "discountType": "PLUSSA",
    "plussaDiscountPercentage": {
      "_type": "Big",
      "value": "-15.611814345991561181"
    },
    "batchSize": 6,
    "batchPrice": {
      "_type": "Big",
      "value": "4"
    }
  },
  {
    "ean": "6430056889054",
    "urlSlug": "hhc-kanapurutikku-600g-13cm-era-6430056889054",
    "name": "Hau Hau kanapurutikku 600g 13cm",
    "pictureUrls": [
      {
        "original": "https://public.keskofiles.com/f/k-ruoka/product/6430056889054"
      }
    ],
    "section": "3715",
    "departmentId": "110",
    "contentUnit": "KG",
    "contentSize": 0.6,
    "netWeight": 0.62,
    "available": true,
    "isUtility": false,
    "preprocessedPricing": {
      "products": {},
      "simplePromotions": {},
      "basketPromotions": {}
    },
    "tosPricing": {
      "basketPromotions": []
    },
    "simplePricePlussa": false,
    "pricingUnit": "kpl",
    "referencePrice": {
      "_type": "Big",
      "value": "16.58333333333333333333"
    },
    "visiblePrice": {
      "_type": "Big",
      "value": "9.95"
    },
    "visiblePriceUnit": "kpl",
    "isDiscounted": false
  },
  {
    "ean": "8714265973543",
    "urlSlug": "yarrah-koiran-annosr-150g-kanavih-luomu-8714265973543",
    "name": "Yarrah koiran annosrasia kana/vihannes 150g bio",
    "pictureUrls": [
      {
        "original": "https://public.keskofiles.com/f/k-ruoka/product/8714265973543"
      }
    ],
    "section": "3716",
    "departmentId": "110",
    "contentUnit": "KG",
    "contentSize": 0.15,
    "netWeight": 0.15,
    "available": true,
    "isUtility": false,
    "preprocessedPricing": {
      "products": {},
      "simplePromotions": {},
      "basketPromotions": {}
    },
    "tosPricing": {
      "basketPromotions": []
    },
    "simplePricePlussa": false,
    "pricingUnit": "kpl",
    "referencePrice": {
      "_type": "Big",
      "value": "9"
    },
    "visiblePrice": {
      "_type": "Big",
      "value": "1.35"
    },
    "visiblePriceUnit": "kpl",
    "isDiscounted": false
  },
  {
    "ean": "6410180055518",
    "urlSlug": "oscar-lohioljy-300ml-6410180055518",
    "name": "Oscar lohiöljy lisäravinto koirille ja kissoille 300ml",
    "pictureUrls": [
      {
        "original": "https://public.keskofiles.com/f/k-ruoka/product/6410180055518"
      }
    ],
    "section": "3719",
    "departmentId": "110",
    "contentUnit": "L",
    "contentSize": 0.3,
    "netWeight": 0.3,
    "available": true,
    "isUtility": false,
    "preprocessedPricing": {
      "products": {},
      "simplePromotions": {},
      "basketPromotions": {}
    },
    "tosPricing": {
      "basketPromotions": []
    },
    "simplePricePlussa": false,
    "pricingUnit": "kpl",
    "referencePrice": {
      "_type": "Big",
      "value": "43.63333333333333333333"
    },
    "visiblePrice": {
      "_type": "Big",
      "value": "13.09"
    },
    "visiblePriceUnit": "kpl",
    "isDiscounted": false
  },
  {
    "ean": "5700551129018",
    "urlSlug": "bf-purutikut-sm-350g-kana-ankkafile-5700551129018",
    "name": "Best Friend purutikut s/m 350g kana-ankkafile",
    "pictureUrls": [
      {
        "original": "https://public.keskofiles.com/f/k-ruoka/product/5700551129018"
      }
    ],
    "section": "3715",
    "departmentId": "110",
    "contentUnit": "KG",
    "contentSize": 0.35,
    "netWeight": 0.35,
    "available": true,
    "isUtility": false,
    "preprocessedPricing": {
      "products": {},
      "simplePromotions": {},
      "basketPromotions": {}
    },
    "tosPricing": {
      "basketPromotions": []
    },
    "simplePricePlussa": false,
    "pricingUnit": "kpl",
    "referencePrice": {
      "_type": "Big",
      "value": "23.11428571428571428571"
    },
    "visiblePrice": {
      "_type": "Big",
      "value": "8.09"
    },
    "visiblePriceUnit": "kpl",
    "isDiscounted": false
  },
  {
    "ean": "6410400033869",
    "urlSlug": "pirkka-tonnikala-kissalle-170g-6410400033869",
    "name": "Pirkka tonnikala kissalle 170 g",
    "pictureUrls": [
      {
        "original": "https://public.keskofiles.com/f/k-ruoka/product/6410400033869"
      }
    ],
    "section": "3704",
    "departmentId": "110",
    "contentUnit": "KG",
    "contentSize": 0.17,
    "netWeight": 0.17,
    "available": true,
    "isUtility": false,
    "preprocessedPricing": {
      "products": {},
      "simplePromotions": {},
      "basketPromotions": {}
    },
    "tosPricing": {
      "basketPromotions": []
    },
    "simplePricePlussa": false,
    "pricingUnit": "kpl",
    "referencePrice": {
      "_type": "Big",
      "value": "3.82352941176470588235"
    },
    "visiblePrice": {
      "_type": "Big",
      "value": "0.65"
    },
    "visiblePriceUnit": "kpl",
    "isDiscounted": false
  },
  {
    "ean": "6430049621371",
    "urlSlug": "primacat-kissanpate-80g-tonnikala-kana-6430049621371",
    "name": "Deluxe PrimaCat 80g tonnikalaa ja kanaa paté",
    "pictureUrls": [
      {
        "original": "https://public.keskofiles.com/f/k-ruoka/product/6430049621371"
      }
    ],
    "section": "3700",
    "departmentId": "110",
    "contentUnit": "KG",
    "contentSize": 0.08,
    "netWeight": 0.108,
    "available": true,
    "isUtility": false,
    "preprocessedPricing": {
      "products": {},
      "simplePromotions": {},
      "basketPromotions": {}
    },
    "tosPricing": {
      "basketPromotions": []
    },
    "simplePricePlussa": false,
    "pricingUnit": "kpl",
    "referencePrice": {
      "_type": "Big",
      "value": "11.125"
    },
    "visiblePrice": {
      "_type": "Big",
      "value": "0.89"
    },
    "visiblePriceUnit": "kpl",
    "isDiscounted": false
  },
  {
    "ean": "6438019004063",
    "urlSlug": "best-in-kalkkunankaula-150g-6438019004063",
    "name": "Best-in kalkkunankaula 150g luonnollinen makupala",
    "pictureUrls": [
      {
        "original": "https://public.keskofiles.com/f/k-ruoka/product/6438019004063"
      }
    ],
    "section": "3714",
    "departmentId": "110",
    "contentUnit": "KG",
    "contentSize": 0.15,
    "netWeight": 0.15,
    "available": true,
    "isUtility": false,
    "preprocessedPricing": {
      "products": {},
      "simplePromotions": {},
      "basketPromotions": {}
    },
    "tosPricing": {
      "basketPromotions": []
    },
    "simplePricePlussa": false,
    "pricingUnit": "kpl",
    "referencePrice": {
      "_type": "Big",
      "value": "34.33333333333333333333"
    },
    "visiblePrice": {
      "_type": "Big",
      "value": "5.15"
    },
    "visiblePriceUnit": "kpl",
    "isDiscounted": false
  },
  {
    "ean": "6410402025374",
    "urlSlug": "pirkka-koiran-kuivaruoka-4kg-kana-riisi-6410402025374",
    "name": "Pirkka koiran kuivaruoka kana-riisi 4kg",
    "pictureUrls": [
      {
        "original": "https://public.keskofiles.com/f/k-ruoka/product/6410402025374"
      }
    ],
    "section": "3712",
    "departmentId": "110",
    "contentUnit": "KG",
    "contentSize": 4,
    "netWeight": 4,
    "available": true,
    "isUtility": false,
    "preprocessedPricing": {
      "products": {},
      "simplePromotions": {},
      "basketPromotions": {}
    },
    "tosPricing": {
      "basketPromotions": []
    },
    "simplePricePlussa": false,
    "pricingUnit": "kpl",
    "referencePrice": {
      "_type": "Big",
      "value": "1.6225"
    },
    "visiblePrice": {
      "_type": "Big",
      "value": "6.49"
    },
    "visiblePriceUnit": "kpl",
    "isDiscounted": false
  },
  {
    "ean": "5700551127526",
    "urlSlug": "bf-welldone-koiran-pihvitik-3-pack-harka-5700551127526",
    "name": "Best Friend WellDone koiran pihvitikku 3-pack härkä",
    "pictureUrls": [
      {
        "original": "https://public.keskofiles.com/f/k-ruoka/product/5700551127526"
      }
    ],
    "section": "3714",
    "departmentId": "110",
    "contentUnit": "KG",
    "contentSize": 0.045,
    "netWeight": 0.045,
    "available": true,
    "isUtility": false,
    "preprocessedPricing": {
      "products": {},
      "simplePromotions": {},
      "basketPromotions": {}
    },
    "tosPricing": {
      "basketPromotions": []
    },
    "simplePricePlussa": false,
    "pricingUnit": "kpl",
    "referencePrice": {
      "_type": "Big",
      "value": "42"
    },
    "visiblePrice": {
      "_type": "Big",
      "value": "1.89"
    },
    "visiblePriceUnit": "kpl",
    "isDiscounted": false
  },
  {
    "ean": "7613036307451",
    "urlSlug": "purina-one-adult-25kg-nauta-riisi-7613036307451",
    "name": "Purina One Adult 2,5kg nauta riisi",
    "pictureUrls": [
      {
        "original": "https://public.keskofiles.com/f/k-ruoka/product/7613036307451"
      }
    ],
    "section": "3712",
    "departmentId": "110",
    "contentUnit": "KG",
    "contentSize": 2.5,
    "netWeight": 2.5,
    "available": true,
    "isUtility": false,
    "preprocessedPricing": {
      "products": {},
      "simplePromotions": {},
      "basketPromotions": {}
    },
    "tosPricing": {
      "basketPromotions": []
    },
    "simplePricePlussa": false,
    "pricingUnit": "kpl",
    "referencePrice": {
      "_type": "Big",
      "value": "3.98"
    },
    "visiblePrice": {
      "_type": "Big",
      "value": "9.95"
    },
    "visiblePriceUnit": "kpl",
    "isDiscounted": false
  },
  {
    "ean": "6430066380213",
    "urlSlug": "dagsmark-eira-1kg-pienen-koiran-kuivaru-6430066380213",
    "name": "Dagsmark Eira 1kg pienen koiran kuivaruoka kotimainen",
    "pictureUrls": [],
    "section": "3712",
    "departmentId": "110",
    "contentUnit": "KG",
    "contentSize": 1,
    "netWeight": 1,
    "available": true,
    "isUtility": false,
    "preprocessedPricing": {
      "products": {},
      "simplePromotions": {},
      "basketPromotions": {}
    },
    "tosPricing": {
      "basketPromotions": []
    },
    "simplePricePlussa": false,
    "pricingUnit": "kpl",
    "referencePrice": {
      "_type": "Big",
      "value": "7.55"
    },
    "visiblePrice": {
      "_type": "Big",
      "value": "7.55"
    },
    "visiblePriceUnit": "kpl",
    "isDiscounted": false
  },
  {
    "ean": "6418333000491",
    "urlSlug": "osku-siemenseos-ulkolinnuille-1kg-6418333000491",
    "name": "Osku siemenseos ulkolinnuille 1kg",
    "pictureUrls": [
      {
        "original": "https://public.keskofiles.com/f/k-ruoka/product/6418333000491"
      }
    ],
    "section": "3739",
    "departmentId": "110",
    "contentUnit": "KG",
    "contentSize": 1,
    "netWeight": 1,
    "available": true,
    "isUtility": false,
    "preprocessedPricing": {
      "products": {},
      "simplePromotions": {},
      "basketPromotions": {}
    },
    "tosPricing": {
      "basketPromotions": []
    },
    "simplePricePlussa": false,
    "pricingUnit": "kpl",
    "referencePrice": {
      "_type": "Big",
      "value": "1.59"
    },
    "visiblePrice": {
      "_type": "Big",
      "value": "1.59"
    },
    "visiblePriceUnit": "kpl",
    "isDiscounted": false
  },
  {
    "ean": "6430043027360",
    "urlSlug": "hhc-tayslihaherkut-kanakierre-325g-xl-6430043027360",
    "name": "Hau-Hau Champion täyslihaherkut 325 g Kanakierre xl",
    "pictureUrls": [
      {
        "original": "https://public.keskofiles.com/f/k-ruoka/product/6430043027360"
      }
    ],
    "section": "3714",
    "departmentId": "110",
    "contentUnit": "KG",
    "contentSize": 0.325,
    "netWeight": 0.325,
    "available": true,
    "isUtility": false,
    "preprocessedPricing": {
      "products": {},
      "simplePromotions": {},
      "basketPromotions": {}
    },
    "tosPricing": {
      "basketPromotions": []
    },
    "simplePricePlussa": false,
    "pricingUnit": "kpl",
    "referencePrice": {
      "_type": "Big",
      "value": "29.2"
    },
    "visiblePrice": {
      "_type": "Big",
      "value": "9.49"
    },
    "visiblePriceUnit": "kpl",
    "isDiscounted": false
  },
  {
    "ean": "6430030783880",
    "urlSlug": "hhc-tayslihaherkku-100g-ankkafilee-6430030783880",
    "name": "Hau Hau Champion täyslihaherkku 100g ankkafilee",
    "pictureUrls": [
      {
        "original": "https://public.keskofiles.com/f/k-ruoka/product/6430030783880"
      }
    ],
    "section": "3714",
    "departmentId": "110",
    "contentUnit": "KG",
    "contentSize": 0.1,
    "netWeight": 0.1,
    "available": true,
    "isUtility": false,
    "preprocessedPricing": {
      "products": {},
      "simplePromotions": {},
      "basketPromotions": {}
    },
    "tosPricing": {
      "basketPromotions": []
    },
    "simplePricePlussa": false,
    "pricingUnit": "kpl",
    "referencePrice": {
      "_type": "Big",
      "value": "27.9"
    },
    "visiblePrice": {
      "_type": "Big",
      "value": "2.79"
    },
    "visiblePriceUnit": "kpl",
    "isDiscounted": false
  },
  {
    "ean": "4008429015885",
    "urlSlug": "frolic-mini-koiran-taysr-1kg-kana-kasvis-4008429015885",
    "name": "Frolic Mini kuivaruoka 1kg kana-kasvis",
    "pictureUrls": [
      {
        "original": "https://public.keskofiles.com/f/k-ruoka/product/4008429015885"
      }
    ],
    "section": "3717",
    "departmentId": "110",
    "contentUnit": "KG",
    "contentSize": 1,
    "netWeight": 1,
    "available": true,
    "isUtility": false,
    "preprocessedPricing": {
      "products": {},
      "simplePromotions": {},
      "basketPromotions": {}
    },
    "tosPricing": {
      "basketPromotions": []
    },
    "simplePricePlussa": false,
    "pricingUnit": "kpl",
    "referencePrice": {
      "_type": "Big",
      "value": "3.85"
    },
    "visiblePrice": {
      "_type": "Big",
      "value": "3.85"
    },
    "visiblePriceUnit": "kpl",
    "isDiscounted": false
  },
  {
    "ean": "5700551310515",
    "urlSlug": "bf-festival-jyrsijanheina-500-g-5700551310515",
    "name": "Best Friend festival heinä 500g",
    "pictureUrls": [
      {
        "original": "https://public.keskofiles.com/f/k-ruoka/product/5700551310515"
      }
    ],
    "section": "3720",
    "departmentId": "110",
    "contentUnit": "KG",
    "contentSize": 0.5,
    "netWeight": 0.52,
    "available": true,
    "isUtility": false,
    "preprocessedPricing": {
      "products": {},
      "simplePromotions": {},
      "basketPromotions": {}
    },
    "tosPricing": {
      "basketPromotions": []
    },
    "simplePricePlussa": false,
    "pricingUnit": "kpl",
    "referencePrice": {
      "_type": "Big",
      "value": "6.8"
    },
    "visiblePrice": {
      "_type": "Big",
      "value": "3.4"
    },
    "visiblePriceUnit": "kpl",
    "isDiscounted": false
  },
  {
    "ean": "6430043024321",
    "urlSlug": "hhc-kanaherkkul-purutikku-13cm-45-kpl-6430043024321",
    "name": "Hau-Hau Champion kanaherkkuluut purutikku 45kpl 400g",
    "pictureUrls": [
      {
        "original": "https://public.keskofiles.com/f/k-ruoka/product/6430043024321"
      }
    ],
    "section": "3715",
    "departmentId": "110",
    "contentUnit": "KG",
    "contentSize": 0.4,
    "netWeight": 0.4,
    "available": true,
    "isUtility": false,
    "preprocessedPricing": {
      "products": {},
      "simplePromotions": {},
      "basketPromotions": {}
    },
    "tosPricing": {
      "basketPromotions": []
    },
    "simplePricePlussa": false,
    "pricingUnit": "kpl",
    "referencePrice": {
      "_type": "Big",
      "value": "21.975"
    },
    "visiblePrice": {
      "_type": "Big",
      "value": "8.79"
    },
    "visiblePriceUnit": "kpl",
    "isDiscounted": false
  },
  {
    "ean": "6418333005328",
    "urlSlug": "osku-2kg-premium-siemenseos-6418333005328",
    "name": "Osku premium siemenseos ulkolinnuille 2kg",
    "pictureUrls": [
      {
        "original": "https://public.keskofiles.com/f/k-ruoka/product/6418333005328"
      }
    ],
    "section": "3739",
    "departmentId": "110",
    "contentUnit": "KG",
    "contentSize": 2,
    "netWeight": 2,
    "available": true,
    "isUtility": false,
    "preprocessedPricing": {
      "products": {},
      "simplePromotions": {},
      "basketPromotions": {}
    },
    "tosPricing": {
      "basketPromotions": []
    },
    "simplePricePlussa": false,
    "pricingUnit": "kpl",
    "referencePrice": {
      "_type": "Big",
      "value": "3.095"
    },
    "visiblePrice": {
      "_type": "Big",
      "value": "6.19"
    },
    "visiblePriceUnit": "kpl",
    "isDiscounted": false
  }
]