[
  {
    "ean": "7311170022871",
    "urlSlug": "abba-anjovisfilee-12579g-7311170022871",
    "name": "Abba anjovisfileitä 125/79g",
    "pictureUrls": [
      {
        "original": "https://public.keskofiles.com/f/k-ruoka/product/7311170022871"
      }
    ],
    "section": "1183",
    "departmentId": "102",
    "contentUnit": "KG",
    "contentSize": 0.079,
    "netWeight": 0.125,
    "available": true,
    "isUtility": false,
    "preprocessedPricing": {
      "products": {},
      "simplePromotions": {},
      "basketPromotions": {}
    },
    "tosPricing": {
      "basketPromotions": []
    },
    "simplePricePlussa": false,
    "pricingUnit": "kpl",
    "referencePrice": {
      "_type": "Big",
      "value": "29.74683544303797468354"
    },
    "visiblePrice": {
      "_type": "Big",
      "value": "2.35"
    },
    "visiblePriceUnit": "kpl",
    "isDiscounted": false
  },
  {
    "ean": "6410405120144",
    "urlSlug": "pirkka-kirjolohenmati-50g-kasinlypset--6410405120144",
    "name": "Pirkka kirjolohenmäti 50g (käsinlypsetty)",
    "pictureUrls": [
      {
        "original": "https://public.keskofiles.com/f/k-ruoka/product/6410405120144"
      }
    ],
    "section": "1160",
    "departmentId": "102",
    "contentUnit": "KG",
    "contentSize": 0.05,
    "netWeight": 0.05,
    "available": true,
    "isUtility": false,
    "preprocessedPricing": {
      "products": {},
      "simplePromotions": {},
      "basketPromotions": {}
    },
    "tosPricing": {
      "basketPromotions": []
    },
    "simplePricePlussa": false,
    "pricingUnit": "kpl",
    "referencePrice": {
      "_type": "Big",
      "value": "89.8"
    },
    "visiblePrice": {
      "_type": "Big",
      "value": "4.49"
    },
    "visiblePriceUnit": "kpl",
    "isDiscounted": false
  },
  {
    "ean": "6409620010040",
    "urlSlug": "snellman-all-natural-grillimakkara-360g-6409620010040",
    "name": "Snellman All natural grillimakkara 360g",
    "pictureUrls": [
      {
        "original": "https://public.keskofiles.com/f/k-ruoka/product/6409620010040"
      }
    ],
    "section": "1214",
    "departmentId": "102",
    "contentUnit": "KG",
    "contentSize": 0.36,
    "netWeight": 0.36,
    "available": true,
    "isUtility": false,
    "preprocessedPricing": {
      "products": {},
      "simplePromotions": {},
      "basketPromotions": {}
    },
    "tosPricing": {
      "basketPromotions": []
    },
    "simplePricePlussa": false,
    "pricingUnit": "kpl",
    "referencePrice": {
      "_type": "Big",
      "value": "8.58333333333333333333"
    },
    "visiblePrice": {
      "_type": "Big",
      "value": "3.09"
    },
    "visiblePriceUnit": "kpl",
    "isDiscounted": false
  },
  {
    "ean": "6408720008667",
    "urlSlug": "wigren-herkkusiskonmakkara-250g-6408720008667",
    "name": "Wigren Herkkusiskonmakkara 250g",
    "pictureUrls": [
      {
        "original": "https://public.keskofiles.com/f/k-ruoka/product/6408720008667"
      }
    ],
    "section": "1213",
    "departmentId": "102",
    "contentUnit": "KG",
    "contentSize": 0.25,
    "netWeight": 0.25,
    "available": true,
    "isUtility": false,
    "preprocessedPricing": {
      "products": {},
      "simplePromotions": {},
      "basketPromotions": {}
    },
    "tosPricing": {
      "basketPromotions": []
    },
    "simplePricePlussa": false,
    "pricingUnit": "kpl",
    "referencePrice": {
      "_type": "Big",
      "value": "15.16"
    },
    "visiblePrice": {
      "_type": "Big",
      "value": "3.79"
    },
    "visiblePriceUnit": "kpl",
    "isDiscounted": false
  },
  {
    "ean": "6409620003400",
    "urlSlug": "snellman-kalkkunameetvursti-130g-9-kev-6409620003400",
    "name": "Snellman Kalkkuna meetvursti kevyt 130 g",
    "pictureUrls": [
      {
        "original": "https://public.keskofiles.com/f/k-ruoka/product/6409620003400"
      }
    ],
    "section": "1202",
    "departmentId": "102",
    "contentUnit": "KG",
    "contentSize": 0.13,
    "netWeight": 0.13,
    "available": true,
    "isUtility": false,
    "preprocessedPricing": {
      "products": {},
      "simplePromotions": {},
      "basketPromotions": {}
    },
    "tosPricing": {
      "basketPromotions": []
    },
    "simplePricePlussa": false,
    "pricingUnit": "kpl",
    "referencePrice": {
      "_type": "Big",
      "value": "26.53846153846153846154"
    },
    "visiblePrice": {
      "_type": "Big",
      "value": "3.45"
    },
    "visiblePriceUnit": "kpl",
    "isDiscounted": false
  },
  {
    "ean": "7311171004494",
    "urlSlug": "abba-sinappisilli-230g-msc-7311171004494",
    "name": "Abba Sinappisilli 230g",
    "pictureUrls": [
      {
        "original": "https://public.keskofiles.com/f/k-ruoka/product/7311171004494"
      }
    ],
    "section": "1182",
    "departmentId": "102",
    "contentUnit": "KG",
    "contentSize": 0.23,
    "netWeight": 0.23,
    "available": true,
    "isUtility": false,
    "preprocessedPricing": {
      "products": {},
      "simplePromotions": {},
      "basketPromotions": {}
    },
    "tosPricing": {
      "basketPromotions": []
    },
    "simplePricePlussa": false,
    "pricingUnit": "kpl",
    "referencePrice": {
      "_type": "Big",
      "value": "13.43478260869565217391"
    },
    "visiblePrice": {
      "_type": "Big",
      "value": "3.09"
    },
    "visiblePriceUnit": "kpl",
    "isDiscounted": false
  },
  {
    "ean": "6410402012237",
    "urlSlug": "pirkka-parh-poron-kylmasavupaisti-100g-6410402012237",
    "name": "Pirkka Parhaat poron kylmäsavupaisti 100g",
    "pictureUrls": [
      {
        "original": "https://public.keskofiles.com/f/k-ruoka/product/6410402012237"
      }
    ],
    "section": "1208",
    "departmentId": "102",
    "contentUnit": "KG",
    "contentSize": 0.1,
    "netWeight": 0.1,
    "available": true,
    "isUtility": false,
    "preprocessedPricing": {
      "products": {},
      "simplePromotions": {},
      "basketPromotions": {}
    },
    "tosPricing": {
      "basketPromotions": []
    },
    "simplePricePlussa": false,
    "pricingUnit": "kpl",
    "referencePrice": {
      "_type": "Big",
      "value": "62.9"
    },
    "visiblePrice": {
      "_type": "Big",
      "value": "6.29"
    },
    "visiblePriceUnit": "kpl",
    "isDiscounted": false
  },
  {
    "ean": "6409100047252",
    "urlSlug": "hk-porsaan-kylmasavupaisti-100g-oo-viip-6409100047252",
    "name": "HK Ohuen ohut Porsaan kylmäsavupaisti 100 g",
    "pictureUrls": [
      {
        "original": "https://public.keskofiles.com/f/k-ruoka/product/6409100047252"
      }
    ],
    "section": "1208",
    "departmentId": "102",
    "contentUnit": "KG",
    "contentSize": 0.1,
    "netWeight": 0.1,
    "available": true,
    "isUtility": false,
    "preprocessedPricing": {
      "products": {},
      "simplePromotions": {},
      "basketPromotions": {}
    },
    "tosPricing": {
      "basketPromotions": []
    },
    "simplePricePlussa": false,
    "pricingUnit": "kpl",
    "referencePrice": {
      "_type": "Big",
      "value": "33.5"
    },
    "visiblePrice": {
      "_type": "Big",
      "value": "3.35"
    },
    "visiblePriceUnit": "kpl",
    "isDiscounted": false
  },
  {
    "ean": "6409100026677",
    "urlSlug": "kariniemen-kp-min-pihvi-290g-mton-6409100026677",
    "name": "Kariniemen kananpojan minuuttipihvi maustamaton 290g",
    "pictureUrls": [
      {
        "original": "https://public.keskofiles.com/f/k-ruoka/product/6409100026677"
      }
    ],
    "section": "1053",
    "departmentId": "102",
    "contentUnit": "KG",
    "contentSize": 0.29,
    "netWeight": 0.29,
    "available": true,
    "isUtility": false,
    "preprocessedPricing": {
      "products": {},
      "simplePromotions": {},
      "basketPromotions": {}
    },
    "tosPricing": {
      "basketPromotions": []
    },
    "simplePricePlussa": false,
    "pricingUnit": "kpl",
    "referencePrice": {
      "_type": "Big",
      "value": "18.93103448275862068966"
    },
    "visiblePrice": {
      "_type": "Big",
      "value": "5.49"
    },
    "visiblePriceUnit": "kpl",
    "isDiscounted": false
  },
  {
    "ean": "6407870073259",
    "urlSlug": "atrilli-grillimakkara-400g-6407870073259",
    "name": "Atria Atrilli 400g grillimakkara",
    "pictureUrls": [
      {
        "original": "https://public.keskofiles.com/f/k-ruoka/product/6407870073259"
      }
    ],
    "section": "1215",
    "departmentId": "102",
    "contentUnit": "KG",
    "contentSize": 0.4,
    "netWeight": 0.4,
    "available": true,
    "isUtility": false,
    "preprocessedPricing": {
      "products": {},
      "simplePromotions": {},
      "basketPromotions": {}
    },
    "tosPricing": {
      "basketPromotions": []
    },
    "simplePricePlussa": false,
    "pricingUnit": "kpl",
    "referencePrice": {
      "_type": "Big",
      "value": "3.875"
    },
    "visiblePrice": {
      "_type": "Big",
      "value": "1.55"
    },
    "visiblePriceUnit": "kpl",
    "isDiscounted": false
  },
  {
    "ean": "6407810016896",
    "urlSlug": "atria-pt-kanan-ohut-fileeleike-480g-natu-6407810016896",
    "name": "Atria perhetilan kana ohut fileeleike naturel 5-7kpl 480g",
    "pictureUrls": [
      {
        "original": "https://public.keskofiles.com/f/k-ruoka/product/6407810016896"
      }
    ],
    "section": "1053",
    "departmentId": "102",
    "contentUnit": "KG",
    "contentSize": 0.48,
    "netWeight": 0.4,
    "available": true,
    "isUtility": false,
    "preprocessedPricing": {
      "products": {},
      "simplePromotions": {},
      "basketPromotions": {}
    },
    "tosPricing": {
      "basketPromotions": []
    },
    "simplePricePlussa": false,
    "pricingUnit": "kpl",
    "referencePrice": {
      "_type": "Big",
      "value": "14.5625"
    },
    "visiblePrice": {
      "_type": "Big",
      "value": "6.99"
    },
    "visiblePriceUnit": "kpl",
    "isDiscounted": false
  },
  {
    "ean": "6409100051761",
    "urlSlug": "hk-lihaisa-balkan-250g-9-kevyt-6409100051761",
    "name": "HK lihaisa balkan 250g 9% kevyt",
    "pictureUrls": [
      {
        "original": "https://public.keskofiles.com/f/k-ruoka/product/6409100051761"
      }
    ],
    "section": "1201",
    "departmentId": "102",
    "contentUnit": "KG",
    "contentSize": 0.25,
    "netWeight": 0.25,
    "available": true,
    "isUtility": false,
    "preprocessedPricing": {
      "products": {},
      "simplePromotions": {},
      "basketPromotions": {}
    },
    "tosPricing": {
      "basketPromotions": []
    },
    "simplePricePlussa": false,
    "pricingUnit": "kpl",
    "referencePrice": {
      "_type": "Big",
      "value": "8.2"
    },
    "visiblePrice": {
      "_type": "Big",
      "value": "2.05"
    },
    "visiblePriceUnit": "kpl",
    "isDiscounted": false
  },
  {
    "ean": "6410405157973",
    "urlSlug": "pirkka-parhaat-porsaan-sisapaisti-130g-6410405157973",
    "name": "Pirkka Parhaat porsaan sisäpaisti 130g",
    "pictureUrls": [
      {
        "original": "https://public.keskofiles.com/f/k-ruoka/product/6410405157973"
      }
    ],
    "section": "1206",
    "departmentId": "102",
    "contentUnit": "KG",
    "contentSize": 0.13,
    "netWeight": 0.13,
    "available": true,
    "isUtility": false,
    "preprocessedPricing": {
      "products": {},
      "simplePromotions": {},
      "basketPromotions": {}
    },
    "tosPricing": {
      "basketPromotions": []
    },
    "simplePricePlussa": false,
    "pricingUnit": "kpl",
    "referencePrice": {
      "_type": "Big",
      "value": "16.84615384615384615385"
    },
    "visiblePrice": {
      "_type": "Big",
      "value": "2.19"
    },
    "visiblePriceUnit": "kpl",
    "isDiscounted": false
  },
  {
    "ean": "6407880081602",
    "urlSlug": "atria-vuolu-porsas-sweetn-smoke-200g-6407880081602",
    "name": "Atria Vuolu porsas sweet´n smoke 200g",
    "pictureUrls": [
      {
        "original": "https://public.keskofiles.com/f/k-ruoka/product/6407880081602"
      }
    ],
    "section": "1206",
    "departmentId": "102",
    "contentUnit": "KG",
    "contentSize": 0.2,
    "netWeight": 0.2,
    "available": true,
    "isUtility": false,
    "preprocessedPricing": {
      "products": {},
      "simplePromotions": {},
      "basketPromotions": {}
    },
    "tosPricing": {
      "basketPromotions": []
    },
    "simplePricePlussa": false,
    "pricingUnit": "kpl",
    "referencePrice": {
      "_type": "Big",
      "value": "18.95"
    },
    "visiblePrice": {
      "_type": "Big",
      "value": "3.79"
    },
    "visiblePriceUnit": "kpl",
    "isDiscounted": false,
    "discountType": "PLUSSA",
    "batchSize": 2,
    "batchPrice": {
      "_type": "Big",
      "value": "6.5"
    }
  },
  {
    "ean": "6409052100005",
    "urlSlug": "kankaanpaan-lihasa-meetvursti-300g-kotim-6409052100005",
    "name": "Kankaanpään lihasavustamo kotimainen meetvursti 300g",
    "pictureUrls": [
      {
        "original": "https://public.keskofiles.com/f/k-ruoka/product/6409052100005"
      }
    ],
    "section": "1203",
    "departmentId": "102",
    "contentUnit": "KG",
    "contentSize": 0.3,
    "netWeight": 0.3,
    "available": true,
    "isUtility": false,
    "preprocessedPricing": {
      "products": {},
      "simplePromotions": {},
      "basketPromotions": {}
    },
    "tosPricing": {
      "basketPromotions": []
    },
    "simplePricePlussa": false,
    "pricingUnit": "kpl",
    "referencePrice": {
      "_type": "Big",
      "value": "9.96666666666666666667"
    },
    "visiblePrice": {
      "_type": "Big",
      "value": "2.99"
    },
    "visiblePriceUnit": "kpl",
    "isDiscounted": true
  },
  {
    "ean": "6409100056582",
    "urlSlug": "hk-aito-nakki-350g-lisaaineeton-6409100056582",
    "name": "HK Aito nakki 350g lisäaineeton",
    "pictureUrls": [
      {
        "original": "https://public.keskofiles.com/f/k-ruoka/product/6409100056582"
      }
    ],
    "section": "1211",
    "departmentId": "102",
    "contentUnit": "KG",
    "contentSize": 0.35,
    "netWeight": 0.35,
    "available": true,
    "isUtility": false,
    "preprocessedPricing": {
      "products": {},
      "simplePromotions": {},
      "basketPromotions": {}
    },
    "tosPricing": {
      "basketPromotions": []
    },
    "simplePricePlussa": false,
    "pricingUnit": "kpl",
    "referencePrice": {
      "_type": "Big",
      "value": "12.57142857142857142857"
    },
    "visiblePrice": {
      "_type": "Big",
      "value": "4.4"
    },
    "visiblePriceUnit": "kpl",
    "isDiscounted": false
  },
  {
    "ean": "6407870076397",
    "urlSlug": "jyvabroiler-broilerimeetvursti-100g-6407870076397",
    "name": "Jyväbroiler broilerimeetvursti 100g",
    "pictureUrls": [
      {
        "original": "https://public.keskofiles.com/f/k-ruoka/product/6407870076397"
      }
    ],
    "section": "1202",
    "departmentId": "102",
    "contentUnit": "KG",
    "contentSize": 0.1,
    "netWeight": 0.1,
    "available": true,
    "isUtility": false,
    "preprocessedPricing": {
      "products": {},
      "simplePromotions": {},
      "basketPromotions": {}
    },
    "tosPricing": {
      "basketPromotions": []
    },
    "simplePricePlussa": false,
    "pricingUnit": "kpl",
    "referencePrice": {
      "_type": "Big",
      "value": "26.9"
    },
    "visiblePrice": {
      "_type": "Big",
      "value": "2.69"
    },
    "visiblePriceUnit": "kpl",
    "isDiscounted": false
  },
  {
    "ean": "6407810013475",
    "urlSlug": "atria-pt-kanan-jauheliha-400g-6407810013475",
    "name": "Atria Perhetilan 400g kanan jauheliha",
    "pictureUrls": [
      {
        "original": "https://public.keskofiles.com/f/k-ruoka/product/6407810013475"
      }
    ],
    "section": "1054",
    "departmentId": "102",
    "contentUnit": "KG",
    "contentSize": 0.4,
    "netWeight": 0.4,
    "available": true,
    "isUtility": false,
    "preprocessedPricing": {
      "products": {},
      "simplePromotions": {},
      "basketPromotions": {}
    },
    "tosPricing": {
      "basketPromotions": []
    },
    "simplePricePlussa": false,
    "pricingUnit": "kpl",
    "referencePrice": {
      "_type": "Big",
      "value": "4.975"
    },
    "visiblePrice": {
      "_type": "Big",
      "value": "1.99"
    },
    "visiblePriceUnit": "kpl",
    "isDiscounted": true
  },
  {
    "ean": "6406091510000",
    "urlSlug": "ronka-karitsan-jauheliha-400g-pa-6406091510000",
    "name": "Rönkä karitsa jauheliha 400g pakaste",
    "pictureUrls": [
      {
        "original": "https://public.keskofiles.com/f/k-ruoka/product/6406091510000"
      }
    ],
    "section": "1082",
    "departmentId": "107",
    "contentUnit": "KG",
    "contentSize": 0.4,
    "netWeight": 0.4,
    "available": true,
    "isUtility": false,
    "preprocessedPricing": {
      "products": {},
      "simplePromotions": {},
      "basketPromotions": {}
    },
    "tosPricing": {
      "basketPromotions": []
    },
    "simplePricePlussa": false,
    "pricingUnit": "kpl",
    "referencePrice": {
      "_type": "Big",
      "value": "14.975"
    },
    "visiblePrice": {
      "_type": "Big",
      "value": "5.99"
    },
    "visiblePriceUnit": "kpl",
    "isDiscounted": false
  },
  {
    "ean": "6408720008056",
    "urlSlug": "wigren-naudan-sisapaisti-130g-6408720008056",
    "name": "Wigren Naudan sisäpaisti 130g",
    "pictureUrls": [
      {
        "original": "https://public.keskofiles.com/f/k-ruoka/product/6408720008056"
      }
    ],
    "section": "1208",
    "departmentId": "102",
    "contentUnit": "KG",
    "contentSize": 0.13,
    "netWeight": 0.13,
    "available": true,
    "isUtility": false,
    "preprocessedPricing": {
      "products": {},
      "simplePromotions": {},
      "basketPromotions": {}
    },
    "tosPricing": {
      "basketPromotions": []
    },
    "simplePricePlussa": false,
    "pricingUnit": "kpl",
    "referencePrice": {
      "_type": "Big",
      "value": "26.53846153846153846154"
    },
    "visiblePrice": {
      "_type": "Big",
      "value": "3.45"
    },
    "visiblePriceUnit": "kpl",
    "isDiscounted": false
  },
  {
    "ean": "6408720003860",
    "urlSlug": "wigren-italian-snacky-150g-6408720003860",
    "name": "Wigren italian snacky 150g",
    "pictureUrls": [
      {
        "original": "https://public.keskofiles.com/f/k-ruoka/product/6408720003860"
      }
    ],
    "section": "1202",
    "departmentId": "102",
    "contentUnit": "KG",
    "contentSize": 0.15,
    "netWeight": 0.15,
    "available": true,
    "isUtility": false,
    "preprocessedPricing": {
      "products": {},
      "simplePromotions": {},
      "basketPromotions": {}
    },
    "tosPricing": {
      "basketPromotions": []
    },
    "simplePricePlussa": false,
    "pricingUnit": "kpl",
    "referencePrice": {
      "_type": "Big",
      "value": "21.26666666666666666667"
    },
    "visiblePrice": {
      "_type": "Big",
      "value": "3.19"
    },
    "visiblePriceUnit": "kpl",
    "isDiscounted": false
  },
  {
    "ean": "6412000083138",
    "urlSlug": "saarioinen-grilliwurst-280g-yrtti-bratwu-6412000083138",
    "name": "Saarioinen grilliwurst 280g yrtti-bratwursti",
    "pictureUrls": [
      {
        "original": "https://public.keskofiles.com/f/k-ruoka/product/6412000083138"
      }
    ],
    "section": "1213",
    "departmentId": "102",
    "contentUnit": "KG",
    "contentSize": 0.28,
    "netWeight": 0.28,
    "available": true,
    "isUtility": false,
    "preprocessedPricing": {
      "products": {},
      "simplePromotions": {},
      "basketPromotions": {}
    },
    "tosPricing": {
      "basketPromotions": []
    },
    "simplePricePlussa": false,
    "pricingUnit": "kpl",
    "referencePrice": {
      "_type": "Big",
      "value": "15.67857142857142857143"
    },
    "visiblePrice": {
      "_type": "Big",
      "value": "4.39"
    },
    "visiblePriceUnit": "kpl",
    "isDiscounted": false
  },
  {
    "ean": "6409100057275",
    "urlSlug": "hk-englannin-pekoni-150g-6409100057275",
    "name": "HK Englannin pekoni 150g",
    "pictureUrls": [
      {
        "original": "https://public.keskofiles.com/f/k-ruoka/product/6409100057275"
      }
    ],
    "section": "1217",
    "departmentId": "102",
    "contentUnit": "KG",
    "contentSize": 0.15,
    "netWeight": 0.15,
    "available": true,
    "isUtility": false,
    "preprocessedPricing": {
      "products": {},
      "simplePromotions": {},
      "basketPromotions": {}
    },
    "tosPricing": {
      "basketPromotions": []
    },
    "simplePricePlussa": false,
    "pricingUnit": "kpl",
    "referencePrice": {
      "_type": "Big",
      "value": "19.33333333333333333333"
    },
    "visiblePrice": {
      "_type": "Big",
      "value": "2.9"
    },
    "visiblePriceUnit": "kpl",
    "isDiscounted": false
  },
  {
    "ean": "6409056108007",
    "urlSlug": "huhtahyvat-jonna-kasvisprjauhis-250g-6409056108007",
    "name": "Huhtahyvät Jonna kasvisproteiinijauhis 250g",
    "pictureUrls": [
      {
        "original": "https://public.keskofiles.com/f/k-ruoka/product/6409056108007"
      }
    ],
    "section": "1090",
    "departmentId": "102",
    "contentUnit": "KG",
    "contentSize": 0.25,
    "netWeight": 0.25,
    "available": true,
    "isUtility": false,
    "preprocessedPricing": {
      "products": {},
      "simplePromotions": {},
      "basketPromotions": {}
    },
    "tosPricing": {
      "basketPromotions": []
    },
    "simplePricePlussa": false,
    "pricingUnit": "kpl",
    "referencePrice": {
      "_type": "Big",
      "value": "7.96"
    },
    "visiblePrice": {
      "_type": "Big",
      "value": "1.99"
    },
    "visiblePriceUnit": "kpl",
    "isDiscounted": false
  },
  {
    "ean": "6409100050993",
    "urlSlug": "hk-camping-400g-original-6409100050993",
    "name": "HK Camping 400g",
    "pictureUrls": [
      {
        "original": "https://public.keskofiles.com/f/k-ruoka/product/6409100050993"
      }
    ],
    "section": "1215",
    "departmentId": "102",
    "contentUnit": "KG",
    "contentSize": 0.4,
    "netWeight": 0.4,
    "available": true,
    "isUtility": false,
    "preprocessedPricing": {
      "products": {},
      "simplePromotions": {},
      "basketPromotions": {}
    },
    "tosPricing": {
      "basketPromotions": []
    },
    "simplePricePlussa": false,
    "pricingUnit": "kpl",
    "referencePrice": {
      "_type": "Big",
      "value": "5.225"
    },
    "visiblePrice": {
      "_type": "Big",
      "value": "2.09"
    },
    "visiblePriceUnit": "kpl",
    "isDiscounted": false
  },
  {
    "ean": "6407810016094",
    "urlSlug": "atria-pt-hornet-900g-kanan-siipi-marinoi-6407810016094",
    "name": "Atria perhetilan kana hornet tulisesti marinoitu siipi 900g",
    "pictureUrls": [
      {
        "original": "https://public.keskofiles.com/f/k-ruoka/product/6407810016094"
      }
    ],
    "section": "1051",
    "departmentId": "102",
    "contentUnit": "KG",
    "contentSize": 0.9,
    "netWeight": 0.9,
    "available": true,
    "isUtility": false,
    "preprocessedPricing": {
      "products": {},
      "simplePromotions": {},
      "basketPromotions": {}
    },
    "tosPricing": {
      "basketPromotions": []
    },
    "simplePricePlussa": false,
    "pricingUnit": "kpl",
    "referencePrice": {
      "_type": "Big",
      "value": "3.65555555555555555556"
    },
    "visiblePrice": {
      "_type": "Big",
      "value": "3.29"
    },
    "visiblePriceUnit": "kpl",
    "isDiscounted": false
  },
  {
    "ean": "7311171005019",
    "urlSlug": "abba-ruohosipuli--tillisilli-210g-msc-7311171005019",
    "name": "Abba Ruohosipuli & Tillisill 210g",
    "pictureUrls": [
      {
        "original": "https://public.keskofiles.com/f/k-ruoka/product/7311171005019"
      }
    ],
    "section": "1182",
    "departmentId": "102",
    "contentUnit": "KG",
    "contentSize": 0.21,
    "netWeight": 0.21,
    "available": true,
    "isUtility": false,
    "preprocessedPricing": {
      "products": {},
      "simplePromotions": {},
      "basketPromotions": {}
    },
    "tosPricing": {
      "basketPromotions": []
    },
    "simplePricePlussa": false,
    "pricingUnit": "kpl",
    "referencePrice": {
      "_type": "Big",
      "value": "14.71428571428571428571"
    },
    "visiblePrice": {
      "_type": "Big",
      "value": "3.09"
    },
    "visiblePriceUnit": "kpl",
    "isDiscounted": false
  },
  {
    "ean": "6409100061456",
    "urlSlug": "hk-keittokinkku-300g-ohuen-ohut-6409100061456",
    "name": "HK Ohuen Ohut Keittokinkku 300 g",
    "pictureUrls": [
      {
        "original": "https://public.keskofiles.com/f/k-ruoka/product/6409100061456"
      }
    ],
    "section": "1206",
    "departmentId": "102",
    "contentUnit": "KG",
    "contentSize": 0.3,
    "netWeight": 0.3,
    "available": true,
    "isUtility": false,
    "preprocessedPricing": {
      "products": {},
      "simplePromotions": {},
      "basketPromotions": {}
    },
    "tosPricing": {
      "basketPromotions": []
    },
    "simplePricePlussa": false,
    "pricingUnit": "kpl",
    "referencePrice": {
      "_type": "Big",
      "value": "9.96666666666666666667"
    },
    "visiblePrice": {
      "_type": "Big",
      "value": "2.99"
    },
    "visiblePriceUnit": "kpl",
    "isDiscounted": false
  },
  {
    "ean": "6407800007095",
    "urlSlug": "atria-pt-kana-rustiikkikuutio-350g-6407800007095",
    "name": "Atria perhetilan kana mehevä rustiikkikuutio fileestä 350g",
    "pictureUrls": [
      {
        "original": "https://public.keskofiles.com/f/k-ruoka/product/6407800007095"
      }
    ],
    "section": "1052",
    "departmentId": "102",
    "contentUnit": "KG",
    "contentSize": 0.35,
    "netWeight": 0.35,
    "available": true,
    "isUtility": false,
    "preprocessedPricing": {
      "products": {},
      "simplePromotions": {},
      "basketPromotions": {}
    },
    "tosPricing": {
      "basketPromotions": []
    },
    "simplePricePlussa": false,
    "pricingUnit": "kpl",
    "referencePrice": {
      "_type": "Big",
      "value": "11.68571428571428571429"
    },
    "visiblePrice": {
      "_type": "Big",
      "value": "4.09"
    },
    "visiblePriceUnit": "kpl",
    "isDiscounted": false
  },
  {
    "ean": "6406970004163",
    "urlSlug": "vataja-naudan-sisapaisti-120g-siivupkt-6406970004163",
    "name": "Vataja naudan sisäpaisti 120g siivutettu",
    "pictureUrls": [
      {
        "original": "https://public.keskofiles.com/f/k-ruoka/product/6406970004163"
      }
    ],
    "section": "1208",
    "departmentId": "102",
    "contentUnit": "KG",
    "contentSize": 0.12,
    "netWeight": 0.12,
    "available": true,
    "isUtility": false,
    "preprocessedPricing": {
      "products": {},
      "simplePromotions": {},
      "basketPromotions": {}
    },
    "tosPricing": {
      "basketPromotions": []
    },
    "simplePricePlussa": false,
    "pricingUnit": "kpl",
    "referencePrice": {
      "_type": "Big",
      "value": "16.58333333333333333333"
    },
    "visiblePrice": {
      "_type": "Big",
      "value": "1.99"
    },
    "visiblePriceUnit": "kpl",
    "isDiscounted": true
  }
]