[
  {
    "ean": "6417700067761",
    "urlSlug": "mp-pyorea-piirakkataikina-suol-380g-pa-6417700067761",
    "name": "Myllyn Paras Pyöreä Piirakkataikina suolainen 380 g",
    "pictureUrls": [
      {
        "original": "https://public.keskofiles.com/f/k-ruoka/product/6417700067761"
      }
    ],
    "section": "1483",
    "departmentId": "107",
    "contentUnit": "KG",
    "contentSize": 0.38,
    "netWeight": 0.38,
    "available": true,
    "isUtility": false,
    "preprocessedPricing": {
      "products": {},
      "simplePromotions": {},
      "basketPromotions": {}
    },
    "tosPricing": {
      "basketPromotions": []
    },
    "simplePricePlussa": false,
    "pricingUnit": "kpl",
    "referencePrice": {
      "_type": "Big",
      "value": "4.60526315789473684211"
    },
    "visiblePrice": {
      "_type": "Big",
      "value": "1.75"
    },
    "visiblePriceUnit": "kpl",
    "isDiscounted": false
  },
  {
    "ean": "6431903520205",
    "urlSlug": "moilas-lihapiirakka-2200g-gton-pa-6431903520205",
    "name": "Moilas lihapiirakka 2kpl 200g gluteeniton pakaste",
    "pictureUrls": [
      {
        "original": "https://public.keskofiles.com/f/k-ruoka/product/6431903520205"
      }
    ],
    "section": "1468",
    "departmentId": "107",
    "contentUnit": "KG",
    "contentSize": 0.2,
    "netWeight": 0.2,
    "available": true,
    "isUtility": false,
    "preprocessedPricing": {
      "products": {},
      "simplePromotions": {},
      "basketPromotions": {}
    },
    "tosPricing": {
      "basketPromotions": []
    },
    "simplePricePlussa": false,
    "pricingUnit": "kpl",
    "referencePrice": {
      "_type": "Big",
      "value": "15.45"
    },
    "visiblePrice": {
      "_type": "Big",
      "value": "3.09"
    },
    "visiblePriceUnit": "kpl",
    "isDiscounted": false
  },
  {
    "ean": "6410405183521",
    "urlSlug": "pirkka-mud-cake-400g-gton-pa-6410405183521",
    "name": "Pirkka mud cake 400g gluteeniton pakaste",
    "pictureUrls": [
      {
        "original": "https://public.keskofiles.com/f/k-ruoka/product/6410405183521"
      }
    ],
    "section": "1435",
    "departmentId": "107",
    "contentUnit": "KG",
    "contentSize": 0.4,
    "netWeight": 0.4,
    "available": true,
    "isUtility": false,
    "preprocessedPricing": {
      "products": {},
      "simplePromotions": {},
      "basketPromotions": {}
    },
    "tosPricing": {
      "basketPromotions": []
    },
    "simplePricePlussa": false,
    "pricingUnit": "kpl",
    "referencePrice": {
      "_type": "Big",
      "value": "7.475"
    },
    "visiblePrice": {
      "_type": "Big",
      "value": "2.99"
    },
    "visiblePriceUnit": "kpl",
    "isDiscounted": false
  },
  {
    "ean": "6410405104229",
    "urlSlug": "pirkka-kalapuikko-450g15kpl-msc-pa-6410405104229",
    "name": "Pirkka kalapuikko 15 kpl/450 g MSC pakaste",
    "pictureUrls": [
      {
        "original": "https://public.keskofiles.com/f/k-ruoka/product/6410405104229"
      }
    ],
    "section": "2544",
    "departmentId": "107",
    "contentUnit": "KG",
    "contentSize": 0.45,
    "netWeight": 0.45,
    "available": true,
    "isUtility": false,
    "preprocessedPricing": {
      "products": {},
      "simplePromotions": {},
      "basketPromotions": {}
    },
    "tosPricing": {
      "basketPromotions": []
    },
    "simplePricePlussa": false,
    "pricingUnit": "kpl",
    "referencePrice": {
      "_type": "Big",
      "value": "3.88888888888888888889"
    },
    "visiblePrice": {
      "_type": "Big",
      "value": "1.75"
    },
    "visiblePriceUnit": "kpl",
    "isDiscounted": false
  },
  {
    "ean": "6431903728014",
    "urlSlug": "moilas-kiviarinarieska-3kpl210g-gton-pa-6431903728014",
    "name": "Moilas kiviarinarieska 3kpl/210g gluteeniton, pakaste",
    "pictureUrls": [
      {
        "original": "https://public.keskofiles.com/f/k-ruoka/product/6431903728014"
      }
    ],
    "section": "1466",
    "departmentId": "107",
    "contentUnit": "KG",
    "contentSize": 0.21,
    "netWeight": 0.21,
    "available": true,
    "isUtility": false,
    "preprocessedPricing": {
      "products": {},
      "simplePromotions": {},
      "basketPromotions": {}
    },
    "tosPricing": {
      "basketPromotions": []
    },
    "simplePricePlussa": false,
    "pricingUnit": "kpl",
    "referencePrice": {
      "_type": "Big",
      "value": "9"
    },
    "visiblePrice": {
      "_type": "Big",
      "value": "1.89"
    },
    "visiblePriceUnit": "kpl",
    "isDiscounted": false
  },
  {
    "ean": "6410405149602",
    "urlSlug": "pirkka-daniela-6x56g-vanilja-lakton-pa-6410405149602",
    "name": "Pirkka Daniela laktoositon vanilja 6 kpl/336 g",
    "pictureUrls": [
      {
        "original": "https://public.keskofiles.com/f/k-ruoka/product/6410405149602"
      }
    ],
    "section": "2629",
    "departmentId": "107",
    "contentUnit": "KG",
    "contentSize": 0.336,
    "netWeight": 0.336,
    "available": true,
    "isUtility": false,
    "preprocessedPricing": {
      "products": {},
      "simplePromotions": {},
      "basketPromotions": {}
    },
    "tosPricing": {
      "basketPromotions": []
    },
    "simplePricePlussa": false,
    "pricingUnit": "kpl",
    "referencePrice": {
      "_type": "Big",
      "value": "11.875"
    },
    "visiblePrice": {
      "_type": "Big",
      "value": "3.99"
    },
    "visiblePriceUnit": "kpl",
    "isDiscounted": false
  },
  {
    "ean": "7310500110028",
    "urlSlug": "findus--uunigrillikasv-500g-texas-pa-7310500110028",
    "name": "Findus  Uuni- ja grillikasvikset Texas 500g",
    "pictureUrls": [
      {
        "original": "https://public.keskofiles.com/f/k-ruoka/product/7310500110028"
      }
    ],
    "section": "2503",
    "departmentId": "107",
    "contentUnit": "KG",
    "contentSize": 0.5,
    "netWeight": 0.5,
    "available": true,
    "isUtility": false,
    "preprocessedPricing": {
      "products": {},
      "simplePromotions": {},
      "basketPromotions": {}
    },
    "tosPricing": {
      "basketPromotions": []
    },
    "simplePricePlussa": false,
    "pricingUnit": "kpl",
    "referencePrice": {
      "_type": "Big",
      "value": "5.38"
    },
    "visiblePrice": {
      "_type": "Big",
      "value": "2.69"
    },
    "visiblePriceUnit": "kpl",
    "isDiscounted": false
  },
  {
    "ean": "7310500107981",
    "urlSlug": "findus-ws-vegetarian-couscous-700g-pa-7310500107981",
    "name": "Findus 700g World Selection Vegetarian Couscous",
    "pictureUrls": [
      {
        "original": "https://public.keskofiles.com/f/k-ruoka/product/7310500107981"
      }
    ],
    "section": "2550",
    "departmentId": "107",
    "contentUnit": "KG",
    "contentSize": 0.7,
    "netWeight": 0.7,
    "available": true,
    "isUtility": false,
    "preprocessedPricing": {
      "products": {},
      "simplePromotions": {},
      "basketPromotions": {}
    },
    "tosPricing": {
      "basketPromotions": []
    },
    "simplePricePlussa": false,
    "pricingUnit": "kpl",
    "referencePrice": {
      "_type": "Big",
      "value": "6.78571428571428571429"
    },
    "visiblePrice": {
      "_type": "Big",
      "value": "4.75"
    },
    "visiblePriceUnit": "kpl",
    "isDiscounted": false
  },
  {
    "ean": "7340024185035",
    "urlSlug": "halsans-kok-falafel-friends-300g-veg-pa-7340024185035",
    "name": "Hälsans kök falafel & friends klassinen 300g vegaani",
    "pictureUrls": [
      {
        "original": "https://public.keskofiles.com/f/k-ruoka/product/7340024185035"
      }
    ],
    "section": "2542",
    "departmentId": "107",
    "contentUnit": "KG",
    "contentSize": 0.3,
    "netWeight": 0.3,
    "available": true,
    "isUtility": false,
    "preprocessedPricing": {
      "products": {},
      "simplePromotions": {},
      "basketPromotions": {}
    },
    "tosPricing": {
      "basketPromotions": []
    },
    "simplePricePlussa": false,
    "pricingUnit": "kpl",
    "referencePrice": {
      "_type": "Big",
      "value": "10.96666666666666666667"
    },
    "visiblePrice": {
      "_type": "Big",
      "value": "3.29"
    },
    "visiblePriceUnit": "kpl",
    "isDiscounted": false
  },
  {
    "ean": "6417700065194",
    "urlSlug": "myllyn-paras-cocktail-riisipiirakka-675g-6417700065194",
    "name": "Myllyn Paras cocktail-riisipiirakka 675g",
    "pictureUrls": [
      {
        "original": "https://public.keskofiles.com/f/k-ruoka/product/6417700065194"
      }
    ],
    "section": "1457",
    "departmentId": "107",
    "contentUnit": "KG",
    "contentSize": 0.675,
    "netWeight": 0.675,
    "available": true,
    "isUtility": false,
    "preprocessedPricing": {
      "products": {},
      "simplePromotions": {},
      "basketPromotions": {}
    },
    "tosPricing": {
      "basketPromotions": []
    },
    "simplePricePlussa": false,
    "pricingUnit": "kpl",
    "referencePrice": {
      "_type": "Big",
      "value": "3.39259259259259259259"
    },
    "visiblePrice": {
      "_type": "Big",
      "value": "2.29"
    },
    "visiblePriceUnit": "kpl",
    "isDiscounted": false
  },
  {
    "ean": "8000920855324",
    "urlSlug": "ingman-creamy-850ml-marenkitoff-vlakt-pa-8000920855324",
    "name": "Ingman Creamy 850ml Marenkitoffee vähälaktoosinen",
    "pictureUrls": [
      {
        "original": "https://public.keskofiles.com/f/k-ruoka/product/8000920855324"
      }
    ],
    "section": "2612",
    "departmentId": "107",
    "contentUnit": "L",
    "contentSize": 0.85,
    "netWeight": 0.446,
    "available": true,
    "isUtility": false,
    "preprocessedPricing": {
      "products": {},
      "simplePromotions": {},
      "basketPromotions": {}
    },
    "tosPricing": {
      "basketPromotions": []
    },
    "simplePricePlussa": false,
    "pricingUnit": "kpl",
    "referencePrice": {
      "_type": "Big",
      "value": "4.52941176470588235294"
    },
    "visiblePrice": {
      "_type": "Big",
      "value": "3.85"
    },
    "visiblePriceUnit": "kpl",
    "isDiscounted": true,
    "discountType": "PLUSSA",
    "plussaDiscountPercentage": {
      "_type": "Big",
      "value": "-10.38961038961038961"
    },
    "batchSize": 2,
    "batchPrice": {
      "_type": "Big",
      "value": "6.9"
    }
  },
  {
    "ean": "6410405067548",
    "urlSlug": "pirkka-kukkakaali-450g-pa-6410405067548",
    "name": "Pirkka kukkakaali 450 g pakaste",
    "pictureUrls": [
      {
        "original": "https://public.keskofiles.com/f/k-ruoka/product/6410405067548"
      }
    ],
    "section": "2500",
    "departmentId": "107",
    "contentUnit": "KG",
    "contentSize": 0.45,
    "netWeight": 0.45,
    "available": true,
    "isUtility": false,
    "preprocessedPricing": {
      "products": {},
      "simplePromotions": {},
      "basketPromotions": {}
    },
    "tosPricing": {
      "basketPromotions": []
    },
    "simplePricePlussa": false,
    "pricingUnit": "kpl",
    "referencePrice": {
      "_type": "Big",
      "value": "2.11111111111111111111"
    },
    "visiblePrice": {
      "_type": "Big",
      "value": "0.95"
    },
    "visiblePriceUnit": "kpl",
    "isDiscounted": false
  },
  {
    "ean": "6410405164988",
    "urlSlug": "pirkka-tyrni-200g-pa-6410405164988",
    "name": "Pirkka tyrni 200g pakaste",
    "pictureUrls": [
      {
        "original": "https://public.keskofiles.com/f/k-ruoka/product/6410405164988"
      }
    ],
    "section": "2510",
    "departmentId": "107",
    "contentUnit": "KG",
    "contentSize": 0.2,
    "netWeight": 0.2,
    "available": true,
    "isUtility": false,
    "preprocessedPricing": {
      "products": {},
      "simplePromotions": {},
      "basketPromotions": {}
    },
    "tosPricing": {
      "basketPromotions": []
    },
    "simplePricePlussa": false,
    "pricingUnit": "kpl",
    "referencePrice": {
      "_type": "Big",
      "value": "11.45"
    },
    "visiblePrice": {
      "_type": "Big",
      "value": "2.29"
    },
    "visiblePriceUnit": "kpl",
    "isDiscounted": false
  },
  {
    "ean": "7310500003443",
    "urlSlug": "findus-wok-500g-thai-pa-7310500003443",
    "name": "Findus Wok Thai 500 g",
    "pictureUrls": [
      {
        "original": "https://public.keskofiles.com/f/k-ruoka/product/7310500003443"
      }
    ],
    "section": "2504",
    "departmentId": "107",
    "contentUnit": "KG",
    "contentSize": 0.5,
    "netWeight": 0.5,
    "available": true,
    "isUtility": false,
    "preprocessedPricing": {
      "products": {},
      "simplePromotions": {},
      "basketPromotions": {}
    },
    "tosPricing": {
      "basketPromotions": []
    },
    "simplePricePlussa": false,
    "pricingUnit": "kpl",
    "referencePrice": {
      "_type": "Big",
      "value": "5.18"
    },
    "visiblePrice": {
      "_type": "Big",
      "value": "2.59"
    },
    "visiblePriceUnit": "kpl",
    "isDiscounted": false
  },
  {
    "ean": "6417901007153",
    "urlSlug": "pingviini-jaatelo-1l-suklaa-laktoositon-6417901007153",
    "name": "Pingviini Suklaa 1L/500g Kermajäätelö Laktoositon",
    "pictureUrls": [
      {
        "original": "https://public.keskofiles.com/f/k-ruoka/product/6417901007153"
      }
    ],
    "section": "2611",
    "departmentId": "107",
    "contentUnit": "L",
    "contentSize": 1,
    "netWeight": 0.5,
    "available": true,
    "isUtility": false,
    "preprocessedPricing": {
      "products": {},
      "simplePromotions": {},
      "basketPromotions": {}
    },
    "tosPricing": {
      "basketPromotions": []
    },
    "simplePricePlussa": false,
    "pricingUnit": "kpl",
    "referencePrice": {
      "_type": "Big",
      "value": "2.89"
    },
    "visiblePrice": {
      "_type": "Big",
      "value": "2.89"
    },
    "visiblePriceUnit": "kpl",
    "isDiscounted": false
  },
  {
    "ean": "4001724029816",
    "urlSlug": "dr-oetker-cheesecake-515g-blueberry-pa-4001724029816",
    "name": "Dr.Oetker cheesecake 515g blueberry pakaste",
    "pictureUrls": [
      {
        "original": "https://public.keskofiles.com/f/k-ruoka/product/4001724029816"
      }
    ],
    "section": "1435",
    "departmentId": "107",
    "contentUnit": "KG",
    "contentSize": 0.515,
    "netWeight": 0.54,
    "available": true,
    "isUtility": false,
    "preprocessedPricing": {
      "products": {},
      "simplePromotions": {},
      "basketPromotions": {}
    },
    "tosPricing": {
      "basketPromotions": []
    },
    "simplePricePlussa": false,
    "pricingUnit": "kpl",
    "referencePrice": {
      "_type": "Big",
      "value": "11.24271844660194174757"
    },
    "visiblePrice": {
      "_type": "Big",
      "value": "5.79"
    },
    "visiblePriceUnit": "kpl",
    "isDiscounted": false
  },
  {
    "ean": "6408430005000",
    "urlSlug": "valio-jaatelo-480-ml-kreisi-kinuski-lakt-6408430005000",
    "name": "Valio jäätelö 480 ml kreisi kinuski lakt",
    "pictureUrls": [
      {
        "original": "https://public.keskofiles.com/f/k-ruoka/product/6408430005000"
      }
    ],
    "section": "2614",
    "departmentId": "107",
    "contentUnit": "L",
    "contentSize": 0.48,
    "netWeight": 0.289,
    "available": true,
    "isUtility": false,
    "preprocessedPricing": {
      "products": {},
      "simplePromotions": {},
      "basketPromotions": {}
    },
    "tosPricing": {
      "basketPromotions": []
    },
    "simplePricePlussa": false,
    "pricingUnit": "kpl",
    "referencePrice": {
      "_type": "Big",
      "value": "9.97916666666666666667"
    },
    "visiblePrice": {
      "_type": "Big",
      "value": "4.79"
    },
    "visiblePriceUnit": "kpl",
    "isDiscounted": false
  },
  {
    "ean": "5411188127321",
    "urlSlug": "alpro-500ml-manteli-suolakaramelli-jaate-5411188127321",
    "name": "Alpro 500ml manteli-suolakaramelli jääte",
    "pictureUrls": [],
    "section": "2615",
    "departmentId": "107",
    "contentUnit": "L",
    "contentSize": 0.5,
    "netWeight": 0.34,
    "available": true,
    "isUtility": false,
    "preprocessedPricing": {
      "products": {},
      "simplePromotions": {},
      "basketPromotions": {}
    },
    "tosPricing": {
      "basketPromotions": []
    },
    "simplePricePlussa": false,
    "pricingUnit": "kpl",
    "referencePrice": {
      "_type": "Big",
      "value": "8.98"
    },
    "visiblePrice": {
      "_type": "Big",
      "value": "4.49"
    },
    "visiblePriceUnit": "kpl",
    "isDiscounted": false
  },
  {
    "ean": "6410380097943",
    "urlSlug": "oolannin-farmers-fries-500g-pakaste-6410380097943",
    "name": "Oolannin Farmers Fries 500g pakasteperuna",
    "pictureUrls": [
      {
        "original": "https://public.keskofiles.com/f/k-ruoka/product/6410380097943"
      }
    ],
    "section": "2521",
    "departmentId": "107",
    "contentUnit": "KG",
    "contentSize": 0.5,
    "netWeight": 0.5,
    "available": true,
    "isUtility": false,
    "preprocessedPricing": {
      "products": {},
      "simplePromotions": {},
      "basketPromotions": {}
    },
    "tosPricing": {
      "basketPromotions": []
    },
    "simplePricePlussa": false,
    "pricingUnit": "kpl",
    "referencePrice": {
      "_type": "Big",
      "value": "4.58"
    },
    "visiblePrice": {
      "_type": "Big",
      "value": "2.29"
    },
    "visiblePriceUnit": "kpl",
    "isDiscounted": false
  },
  {
    "ean": "6410405214584",
    "urlSlug": "pirkka-piiras-400g-tarte-au-chevre-pa-6410405214584",
    "name": "Pirkka tarte au chevre vuohenjuustopiiras 400g pakaste",
    "pictureUrls": [
      {
        "original": "https://public.keskofiles.com/f/k-ruoka/product/6410405214584"
      }
    ],
    "section": "1457",
    "departmentId": "107",
    "contentUnit": "KG",
    "contentSize": 0.4,
    "netWeight": 0.4,
    "available": true,
    "isUtility": false,
    "preprocessedPricing": {
      "products": {},
      "simplePromotions": {},
      "basketPromotions": {}
    },
    "tosPricing": {
      "basketPromotions": []
    },
    "simplePricePlussa": false,
    "pricingUnit": "kpl",
    "referencePrice": {
      "_type": "Big",
      "value": "9.725"
    },
    "visiblePrice": {
      "_type": "Big",
      "value": "3.89"
    },
    "visiblePriceUnit": "kpl",
    "isDiscounted": false
  },
  {
    "ean": "6410405066916",
    "urlSlug": "pirkka-lihapullapannu-500g-pa-6410405066916",
    "name": "Pirkka lihapullapannu 500g pakaste",
    "pictureUrls": [
      {
        "original": "https://public.keskofiles.com/f/k-ruoka/product/6410405066916"
      }
    ],
    "section": "2550",
    "departmentId": "107",
    "contentUnit": "KG",
    "contentSize": 0.5,
    "netWeight": 0.5,
    "available": true,
    "isUtility": false,
    "preprocessedPricing": {
      "products": {},
      "simplePromotions": {},
      "basketPromotions": {}
    },
    "tosPricing": {
      "basketPromotions": []
    },
    "simplePricePlussa": false,
    "pricingUnit": "kpl",
    "referencePrice": {
      "_type": "Big",
      "value": "4.38"
    },
    "visiblePrice": {
      "_type": "Big",
      "value": "2.19"
    },
    "visiblePriceUnit": "kpl",
    "isDiscounted": false
  },
  {
    "ean": "6410405172310",
    "urlSlug": "pirkka-minidonitsit-9kpl250g-pa-6410405172310",
    "name": "Pirkka minidonitsit 9kpl/250g pakaste",
    "pictureUrls": [
      {
        "original": "https://public.keskofiles.com/f/k-ruoka/product/6410405172310"
      }
    ],
    "section": "1458",
    "departmentId": "107",
    "contentUnit": "KG",
    "contentSize": 0.25,
    "netWeight": 0.25,
    "available": true,
    "isUtility": false,
    "preprocessedPricing": {
      "products": {},
      "simplePromotions": {},
      "basketPromotions": {}
    },
    "tosPricing": {
      "basketPromotions": []
    },
    "simplePricePlussa": false,
    "pricingUnit": "kpl",
    "referencePrice": {
      "_type": "Big",
      "value": "11.96"
    },
    "visiblePrice": {
      "_type": "Big",
      "value": "2.99"
    },
    "visiblePriceUnit": "kpl",
    "isDiscounted": false
  },
  {
    "ean": "6417901006187",
    "urlSlug": "pingviini-jaatelo-1l-mansikka-laktoosito-6417901006187",
    "name": "Pingviini Mansikka 1L/560g Kermajäätelö Laktoositon",
    "pictureUrls": [
      {
        "original": "https://public.keskofiles.com/f/k-ruoka/product/6417901006187"
      }
    ],
    "section": "2611",
    "departmentId": "107",
    "contentUnit": "L",
    "contentSize": 1,
    "netWeight": 0.515,
    "available": true,
    "isUtility": false,
    "preprocessedPricing": {
      "products": {},
      "simplePromotions": {},
      "basketPromotions": {}
    },
    "tosPricing": {
      "basketPromotions": []
    },
    "simplePricePlussa": false,
    "pricingUnit": "kpl",
    "referencePrice": {
      "_type": "Big",
      "value": "2.89"
    },
    "visiblePrice": {
      "_type": "Big",
      "value": "2.89"
    },
    "visiblePriceUnit": "kpl",
    "isDiscounted": false
  },
  {
    "ean": "8714100641439",
    "urlSlug": "ingman-1l-mango-smoothie-8714100641439",
    "name": "Ingman 1L Mango Smoothie",
    "pictureUrls": [
      {
        "original": "https://public.keskofiles.com/f/k-ruoka/product/8714100641439"
      }
    ],
    "section": "2611",
    "departmentId": "107",
    "contentUnit": "L",
    "contentSize": 1,
    "netWeight": 0.556,
    "available": true,
    "isUtility": false,
    "preprocessedPricing": {
      "products": {},
      "simplePromotions": {},
      "basketPromotions": {}
    },
    "tosPricing": {
      "basketPromotions": []
    },
    "simplePricePlussa": false,
    "pricingUnit": "kpl",
    "referencePrice": {
      "_type": "Big",
      "value": "3.25"
    },
    "visiblePrice": {
      "_type": "Big",
      "value": "3.25"
    },
    "visiblePriceUnit": "kpl",
    "isDiscounted": false
  },
  {
    "ean": "6438200590115",
    "urlSlug": "ingmancreamy-085l-creme-brulee-pa-6438200590115",
    "name": "Ingman INTO Creamy Crème brûlée 0,85 L",
    "pictureUrls": [
      {
        "original": "https://public.keskofiles.com/f/k-ruoka/product/6438200590115"
      }
    ],
    "section": "2612",
    "departmentId": "107",
    "contentUnit": "L",
    "contentSize": 0.85,
    "netWeight": 0.475,
    "available": true,
    "isUtility": false,
    "preprocessedPricing": {
      "products": {},
      "simplePromotions": {},
      "basketPromotions": {}
    },
    "tosPricing": {
      "basketPromotions": []
    },
    "simplePricePlussa": false,
    "pricingUnit": "kpl",
    "referencePrice": {
      "_type": "Big",
      "value": "4.52941176470588235294"
    },
    "visiblePrice": {
      "_type": "Big",
      "value": "3.85"
    },
    "visiblePriceUnit": "kpl",
    "isDiscounted": true,
    "discountType": "PLUSSA",
    "plussaDiscountPercentage": {
      "_type": "Big",
      "value": "-10.38961038961038961"
    },
    "batchSize": 2,
    "batchPrice": {
      "_type": "Big",
      "value": "6.9"
    }
  },
  {
    "ean": "6410380097714",
    "urlSlug": "oolannin-pannuperunat-400g-pa-6410380097714",
    "name": "Oolannin Pannuperuna 400g",
    "pictureUrls": [
      {
        "original": "https://public.keskofiles.com/f/k-ruoka/product/6410380097714"
      }
    ],
    "section": "2523",
    "departmentId": "107",
    "contentUnit": "KG",
    "contentSize": 0.4,
    "netWeight": 0.4,
    "available": true,
    "isUtility": false,
    "preprocessedPricing": {
      "products": {},
      "simplePromotions": {},
      "basketPromotions": {}
    },
    "tosPricing": {
      "basketPromotions": []
    },
    "simplePricePlussa": false,
    "pricingUnit": "kpl",
    "referencePrice": {
      "_type": "Big",
      "value": "5.225"
    },
    "visiblePrice": {
      "_type": "Big",
      "value": "2.09"
    },
    "visiblePriceUnit": "kpl",
    "isDiscounted": false
  },
  {
    "ean": "7310500118987",
    "urlSlug": "findus-dagens-middag-600g-pasta-bolog-pa-7310500118987",
    "name": "Findus Dagens Middag 600g Pasta Bolognese",
    "pictureUrls": [
      {
        "original": "https://public.keskofiles.com/f/k-ruoka/product/7310500118987"
      }
    ],
    "section": "2550",
    "departmentId": "107",
    "contentUnit": "KG",
    "contentSize": 0.6,
    "netWeight": 0.6,
    "available": true,
    "isUtility": false,
    "preprocessedPricing": {
      "products": {},
      "simplePromotions": {},
      "basketPromotions": {}
    },
    "tosPricing": {
      "basketPromotions": []
    },
    "simplePricePlussa": false,
    "pricingUnit": "kpl",
    "referencePrice": {
      "_type": "Big",
      "value": "5.25"
    },
    "visiblePrice": {
      "_type": "Big",
      "value": "3.15"
    },
    "visiblePriceUnit": "kpl",
    "isDiscounted": false
  },
  {
    "ean": "6430025257211",
    "urlSlug": "pappagallo-makulaku-minttu-0136l-6430025257211",
    "name": "Pappagallo MakuLaku-Minttu 0,136L",
    "pictureUrls": [
      {
        "original": "https://public.keskofiles.com/f/k-ruoka/product/6430025257211"
      }
    ],
    "section": "2614",
    "departmentId": "107",
    "contentUnit": "L",
    "contentSize": 0.136,
    "netWeight": 0.085,
    "available": true,
    "isUtility": false,
    "preprocessedPricing": {
      "products": {},
      "simplePromotions": {},
      "basketPromotions": {}
    },
    "tosPricing": {
      "basketPromotions": []
    },
    "simplePricePlussa": false,
    "pricingUnit": "kpl",
    "referencePrice": {
      "_type": "Big",
      "value": "10.95588235294117647059"
    },
    "visiblePrice": {
      "_type": "Big",
      "value": "1.49"
    },
    "visiblePriceUnit": "kpl",
    "isDiscounted": false
  },
  {
    "ean": "8712100870330",
    "urlSlug": "rox-jaatelolajit-10kpl-advent-island-pa-8712100870330",
    "name": "ROX 10 kpl Adventure Island",
    "pictureUrls": [
      {
        "original": "https://public.keskofiles.com/f/k-ruoka/product/8712100870330"
      }
    ],
    "section": "2620",
    "departmentId": "107",
    "contentUnit": "L",
    "contentSize": 0.401,
    "netWeight": 0.354,
    "available": true,
    "isUtility": false,
    "preprocessedPricing": {
      "products": {},
      "simplePromotions": {},
      "basketPromotions": {}
    },
    "tosPricing": {
      "basketPromotions": []
    },
    "simplePricePlussa": false,
    "pricingUnit": "kpl",
    "referencePrice": {
      "_type": "Big",
      "value": "10.59850374064837905237"
    },
    "visiblePrice": {
      "_type": "Big",
      "value": "4.25"
    },
    "visiblePriceUnit": "kpl",
    "isDiscounted": false
  },
  {
    "ean": "7316641915072",
    "urlSlug": "oumph-soijaproteiinipala-280g-pulled-pa-7316641915072",
    "name": "Pulled Oumph soijaproteiinipala 280g",
    "pictureUrls": [
      {
        "original": "https://public.keskofiles.com/f/k-ruoka/product/7316641915072"
      }
    ],
    "section": "2542",
    "departmentId": "107",
    "contentUnit": "KG",
    "contentSize": 0.28,
    "netWeight": 0.28,
    "available": true,
    "isUtility": false,
    "preprocessedPricing": {
      "products": {},
      "simplePromotions": {},
      "basketPromotions": {}
    },
    "tosPricing": {
      "basketPromotions": []
    },
    "simplePricePlussa": false,
    "pricingUnit": "kpl",
    "referencePrice": {
      "_type": "Big",
      "value": "19.96428571428571428571"
    },
    "visiblePrice": {
      "_type": "Big",
      "value": "5.59"
    },
    "visiblePriceUnit": "kpl",
    "isDiscounted": false
  }
]