[
  {
    "ean": "6414201104605",
    "urlSlug": "meira-sitruunapippuri-45g-suol-tlk-6414201104605",
    "name": "Meira Sitruunapippuri 45g ston tlk",
    "pictureUrls": [
      {
        "original": "https://public.keskofiles.com/f/k-ruoka/product/6414201104605"
      }
    ],
    "section": "4102",
    "departmentId": "106",
    "contentUnit": "KG",
    "contentSize": 0.045,
    "netWeight": 0.045,
    "available": true,
    "isUtility": false,
    "preprocessedPricing": {
      "products": {},
      "simplePromotions": {},
      "basketPromotions": {}
    },
    "tosPricing": {
      "basketPromotions": []
    },
    "simplePricePlussa": false,
    "pricingUnit": "kpl",
    "referencePrice": {
      "_type": "Big",
      "value": "48.66666666666666666667"
    },
    "visiblePrice": {
      "_type": "Big",
      "value": "2.19"
    },
    "visiblePriceUnit": "kpl",
    "isDiscounted": false
  },
  {
    "ean": "5707381013708",
    "urlSlug": "torsleffs-kakunkoriste-smileys-12g-5707381013708",
    "name": "Törsleffs kakunkoriste smileys 12g",
    "pictureUrls": [
      {
        "original": "https://public.keskofiles.com/f/k-ruoka/product/5707381013708"
      }
    ],
    "section": "4113",
    "departmentId": "106",
    "contentUnit": "KG",
    "contentSize": 0.012,
    "netWeight": 0.012,
    "available": true,
    "isUtility": false,
    "preprocessedPricing": {
      "products": {},
      "simplePromotions": {},
      "basketPromotions": {}
    },
    "tosPricing": {
      "basketPromotions": []
    },
    "simplePricePlussa": false,
    "pricingUnit": "kpl",
    "referencePrice": {
      "_type": "Big",
      "value": "265.83333333333333333333"
    },
    "visiblePrice": {
      "_type": "Big",
      "value": "3.19"
    },
    "visiblePriceUnit": "kpl",
    "isDiscounted": false
  },
  {
    "ean": "8715800001912",
    "urlSlug": "jozo-mineraalisuola-450g-70-vah-natrium-8715800001912",
    "name": "Jozo Minereraalisuola 450g 70% vähemmän natriumia",
    "pictureUrls": [
      {
        "original": "https://public.keskofiles.com/f/k-ruoka/product/8715800001912"
      }
    ],
    "section": "4151",
    "departmentId": "106",
    "contentUnit": "KG",
    "contentSize": 0.45,
    "netWeight": 0.45,
    "available": true,
    "isUtility": false,
    "preprocessedPricing": {
      "products": {},
      "simplePromotions": {},
      "basketPromotions": {}
    },
    "tosPricing": {
      "basketPromotions": []
    },
    "simplePricePlussa": false,
    "pricingUnit": "kpl",
    "referencePrice": {
      "_type": "Big",
      "value": "5.53333333333333333333"
    },
    "visiblePrice": {
      "_type": "Big",
      "value": "2.49"
    },
    "visiblePriceUnit": "kpl",
    "isDiscounted": false
  },
  {
    "ean": "6410402018604",
    "urlSlug": "pirkka-vaahterasiirappi-250-ml-6410402018604",
    "name": "Pirkka vaahterasiirappi 250 ml",
    "pictureUrls": [
      {
        "original": "https://public.keskofiles.com/f/k-ruoka/product/6410402018604"
      }
    ],
    "section": "3606",
    "departmentId": "106",
    "contentUnit": "L",
    "contentSize": 0.25,
    "netWeight": 0.33,
    "available": true,
    "isUtility": false,
    "preprocessedPricing": {
      "products": {},
      "simplePromotions": {},
      "basketPromotions": {}
    },
    "tosPricing": {
      "basketPromotions": []
    },
    "simplePricePlussa": false,
    "pricingUnit": "kpl",
    "referencePrice": {
      "_type": "Big",
      "value": "20.36"
    },
    "visiblePrice": {
      "_type": "Big",
      "value": "5.09"
    },
    "visiblePriceUnit": "kpl",
    "isDiscounted": false
  },
  {
    "ean": "6409531700726",
    "urlSlug": "auran-sinappi--275g-chili-6409531700726",
    "name": "Auran Sinappi Makea Chili 275g",
    "pictureUrls": [
      {
        "original": "https://public.keskofiles.com/f/k-ruoka/product/6409531700726"
      }
    ],
    "section": "4171",
    "departmentId": "106",
    "contentUnit": "KG",
    "contentSize": 0.275,
    "netWeight": 0.275,
    "available": true,
    "isUtility": false,
    "preprocessedPricing": {
      "products": {},
      "simplePromotions": {},
      "basketPromotions": {}
    },
    "tosPricing": {
      "basketPromotions": []
    },
    "simplePricePlussa": false,
    "pricingUnit": "kpl",
    "referencePrice": {
      "_type": "Big",
      "value": "10.50909090909090909091"
    },
    "visiblePrice": {
      "_type": "Big",
      "value": "2.89"
    },
    "visiblePriceUnit": "kpl",
    "isDiscounted": false
  },
  {
    "ean": "6420101882901",
    "urlSlug": "meiran-juuresketsuppi-480g-porkk-punajuu-6420101882901",
    "name": "Meira juuresketsuppi 480g porkkana-punajuuri",
    "pictureUrls": [
      {
        "original": "https://public.keskofiles.com/f/k-ruoka/product/6420101882901"
      }
    ],
    "section": "4170",
    "departmentId": "106",
    "contentUnit": "KG",
    "contentSize": 0.48,
    "netWeight": 0.48,
    "available": true,
    "isUtility": false,
    "preprocessedPricing": {
      "products": {},
      "simplePromotions": {},
      "basketPromotions": {}
    },
    "tosPricing": {
      "basketPromotions": []
    },
    "simplePricePlussa": false,
    "pricingUnit": "kpl",
    "referencePrice": {
      "_type": "Big",
      "value": "4.77083333333333333333"
    },
    "visiblePrice": {
      "_type": "Big",
      "value": "2.29"
    },
    "visiblePriceUnit": "kpl",
    "isDiscounted": true
  },
  {
    "ean": "6410405172853",
    "urlSlug": "pirkka-parhaat-eksvirgi-oliivioljy-tryff-6410405172853",
    "name": "Pirkka Parhaat maustettu ekstra-neitsytoliiviöljy (98 %) tryffeli 250ml",
    "pictureUrls": [
      {
        "original": "https://public.keskofiles.com/f/k-ruoka/product/6410405172853"
      }
    ],
    "section": "4123",
    "departmentId": "106",
    "contentUnit": "L",
    "contentSize": 0.25,
    "netWeight": 0.25,
    "available": true,
    "isUtility": false,
    "preprocessedPricing": {
      "products": {},
      "simplePromotions": {},
      "basketPromotions": {}
    },
    "tosPricing": {
      "basketPromotions": []
    },
    "simplePricePlussa": false,
    "pricingUnit": "kpl",
    "referencePrice": {
      "_type": "Big",
      "value": "17.16"
    },
    "visiblePrice": {
      "_type": "Big",
      "value": "4.29"
    },
    "visiblePriceUnit": "kpl",
    "isDiscounted": false
  },
  {
    "ean": "6410400029688",
    "urlSlug": "pirkka-sinappi-125g-mieto-6410400029688",
    "name": "Pirkka sinappi mieto 125g",
    "pictureUrls": [
      {
        "original": "https://public.keskofiles.com/f/k-ruoka/product/6410400029688"
      }
    ],
    "section": "4171",
    "departmentId": "106",
    "contentUnit": "KG",
    "contentSize": 0.125,
    "netWeight": 0.125,
    "available": true,
    "isUtility": false,
    "preprocessedPricing": {
      "products": {},
      "simplePromotions": {},
      "basketPromotions": {}
    },
    "tosPricing": {
      "basketPromotions": []
    },
    "simplePricePlussa": false,
    "pricingUnit": "kpl",
    "referencePrice": {
      "_type": "Big",
      "value": "6.32"
    },
    "visiblePrice": {
      "_type": "Big",
      "value": "0.79"
    },
    "visiblePriceUnit": "kpl",
    "isDiscounted": false
  },
  {
    "ean": "7311310027797",
    "urlSlug": "santa-maria-pihvimaustesuola-165g-7311310027797",
    "name": "Santa Maria pihvimaustesuola 165g tölkki",
    "pictureUrls": [
      {
        "original": "https://public.keskofiles.com/f/k-ruoka/product/7311310027797"
      }
    ],
    "section": "4102",
    "departmentId": "106",
    "contentUnit": "KG",
    "contentSize": 0.165,
    "netWeight": 0.165,
    "available": true,
    "isUtility": false,
    "preprocessedPricing": {
      "products": {},
      "simplePromotions": {},
      "basketPromotions": {}
    },
    "tosPricing": {
      "basketPromotions": []
    },
    "simplePricePlussa": false,
    "pricingUnit": "kpl",
    "referencePrice": {
      "_type": "Big",
      "value": "16.66666666666666666667"
    },
    "visiblePrice": {
      "_type": "Big",
      "value": "2.75"
    },
    "visiblePriceUnit": "kpl",
    "isDiscounted": false
  },
  {
    "ean": "6418795100654",
    "urlSlug": "pimeapullo-siipikastike-hot-500-g-6418795100654",
    "name": "Pimeäpullo Siipikastike hot 500 g",
    "pictureUrls": [
      {
        "original": "https://public.keskofiles.com/f/k-ruoka/product/6418795100654"
      }
    ],
    "section": "4175",
    "departmentId": "106",
    "contentUnit": "KG",
    "contentSize": 0.5,
    "netWeight": 0,
    "available": true,
    "isUtility": false,
    "preprocessedPricing": {
      "products": {},
      "simplePromotions": {},
      "basketPromotions": {}
    },
    "tosPricing": {
      "basketPromotions": []
    },
    "simplePricePlussa": false,
    "pricingUnit": "kpl",
    "referencePrice": {
      "_type": "Big",
      "value": "13.98"
    },
    "visiblePrice": {
      "_type": "Big",
      "value": "6.99"
    },
    "visiblePriceUnit": "kpl",
    "isDiscounted": false
  },
  {
    "ean": "6430040190043",
    "urlSlug": "myssyfarmin-kylmap--luomurypsioljy-05l-6430040190043",
    "name": "Myssyfarmin kylmäp. luomurypsiöljy 0,5l",
    "pictureUrls": [],
    "section": "4190",
    "departmentId": "106",
    "contentUnit": "L",
    "contentSize": 0.5,
    "netWeight": 0.5,
    "available": true,
    "isUtility": false,
    "preprocessedPricing": {
      "products": {},
      "simplePromotions": {},
      "basketPromotions": {}
    },
    "tosPricing": {
      "basketPromotions": []
    },
    "simplePricePlussa": false,
    "pricingUnit": "kpl",
    "referencePrice": {
      "_type": "Big",
      "value": "14.58"
    },
    "visiblePrice": {
      "_type": "Big",
      "value": "7.29"
    },
    "visiblePriceUnit": "kpl",
    "isDiscounted": false
  },
  {
    "ean": "6409538431357",
    "urlSlug": "auran-vegaanimajoneesi-285g-6409538431357",
    "name": "Auran Vegaani majoneesi 285g",
    "pictureUrls": [
      {
        "original": "https://public.keskofiles.com/f/k-ruoka/product/6409538431357"
      }
    ],
    "section": "4173",
    "departmentId": "106",
    "contentUnit": "KG",
    "contentSize": 0.285,
    "netWeight": 0.285,
    "available": true,
    "isUtility": false,
    "preprocessedPricing": {
      "products": {},
      "simplePromotions": {},
      "basketPromotions": {}
    },
    "tosPricing": {
      "basketPromotions": []
    },
    "simplePricePlussa": false,
    "pricingUnit": "kpl",
    "referencePrice": {
      "_type": "Big",
      "value": "9.08771929824561403509"
    },
    "visiblePrice": {
      "_type": "Big",
      "value": "2.59"
    },
    "visiblePriceUnit": "kpl",
    "isDiscounted": false
  },
  {
    "ean": "6416710030338",
    "urlSlug": "filos-ekstra-neitsoliivoljy-15l-origina-6416710030338",
    "name": "Filos ekstra-neitsytoliivöljy 1,5l original",
    "pictureUrls": [
      {
        "original": "https://public.keskofiles.com/f/k-ruoka/product/6416710030338"
      }
    ],
    "section": "4120",
    "departmentId": "106",
    "contentUnit": "L",
    "contentSize": 1.5,
    "netWeight": 1.368,
    "available": true,
    "isUtility": false,
    "preprocessedPricing": {
      "products": {},
      "simplePromotions": {},
      "basketPromotions": {}
    },
    "tosPricing": {
      "basketPromotions": []
    },
    "simplePricePlussa": false,
    "pricingUnit": "kpl",
    "referencePrice": {
      "_type": "Big",
      "value": "13.06666666666666666667"
    },
    "visiblePrice": {
      "_type": "Big",
      "value": "19.6"
    },
    "visiblePriceUnit": "kpl",
    "isDiscounted": false
  },
  {
    "ean": "5701073024614",
    "urlSlug": "dr-oetker-kakkumousse-96g-mansikan-maku-5701073024614",
    "name": "Dr. Oetker Kakkumousse mansikkanmakuinen 96g",
    "pictureUrls": [
      {
        "original": "https://public.keskofiles.com/f/k-ruoka/product/5701073024614"
      }
    ],
    "section": "4115",
    "departmentId": "106",
    "contentUnit": "KG",
    "contentSize": 0.096,
    "netWeight": 0.096,
    "available": true,
    "isUtility": false,
    "preprocessedPricing": {
      "products": {},
      "simplePromotions": {},
      "basketPromotions": {}
    },
    "tosPricing": {
      "basketPromotions": []
    },
    "simplePricePlussa": false,
    "pricingUnit": "kpl",
    "referencePrice": {
      "_type": "Big",
      "value": "18.22916666666666666667"
    },
    "visiblePrice": {
      "_type": "Big",
      "value": "1.75"
    },
    "visiblePriceUnit": "kpl",
    "isDiscounted": false
  },
  {
    "ean": "5014271001340",
    "urlSlug": "st-dalfour-karhunvatukkahillo-284g-ransk-5014271001340",
    "name": "St. Dalfour Ranskalainen karhunvatukkahillo 284g",
    "pictureUrls": [
      {
        "original": "https://public.keskofiles.com/f/k-ruoka/product/5014271001340"
      }
    ],
    "section": "3202",
    "departmentId": "106",
    "contentUnit": "KG",
    "contentSize": 0.284,
    "netWeight": 0.284,
    "available": true,
    "isUtility": false,
    "preprocessedPricing": {
      "products": {},
      "simplePromotions": {},
      "basketPromotions": {}
    },
    "tosPricing": {
      "basketPromotions": []
    },
    "simplePricePlussa": false,
    "pricingUnit": "kpl",
    "referencePrice": {
      "_type": "Big",
      "value": "17.57042253521126760563"
    },
    "visiblePrice": {
      "_type": "Big",
      "value": "4.99"
    },
    "visiblePriceUnit": "kpl",
    "isDiscounted": false
  },
  {
    "ean": "6420101882833",
    "urlSlug": "meira-kasvismauste-haudutet-ruok-25g-6420101882833",
    "name": "Meira kasvismauste haudutettaviin ruokiin 25g",
    "pictureUrls": [
      {
        "original": "https://public.keskofiles.com/f/k-ruoka/product/6420101882833"
      }
    ],
    "section": "4100",
    "departmentId": "106",
    "contentUnit": "KG",
    "contentSize": 0.025,
    "netWeight": 0.025,
    "available": true,
    "isUtility": false,
    "preprocessedPricing": {
      "products": {},
      "simplePromotions": {},
      "basketPromotions": {}
    },
    "tosPricing": {
      "basketPromotions": []
    },
    "simplePricePlussa": false,
    "pricingUnit": "kpl",
    "referencePrice": {
      "_type": "Big",
      "value": "47.6"
    },
    "visiblePrice": {
      "_type": "Big",
      "value": "1.19"
    },
    "visiblePriceUnit": "kpl",
    "isDiscounted": false
  },
  {
    "ean": "5701073062425",
    "urlSlug": "dr-oetker-lillifee-kuviota-12kpl-14g-5701073062425",
    "name": "Dr. Oetker Princess Lillifee 12 koristekuviota 14g",
    "pictureUrls": [
      {
        "original": "https://public.keskofiles.com/f/k-ruoka/product/5701073062425"
      }
    ],
    "section": "4113",
    "departmentId": "106",
    "contentUnit": "KG",
    "contentSize": 0.014,
    "netWeight": 0.014,
    "available": true,
    "isUtility": false,
    "preprocessedPricing": {
      "products": {},
      "simplePromotions": {},
      "basketPromotions": {}
    },
    "tosPricing": {
      "basketPromotions": []
    },
    "simplePricePlussa": false,
    "pricingUnit": "kpl",
    "referencePrice": {
      "_type": "Big",
      "value": "245.71428571428571428571"
    },
    "visiblePrice": {
      "_type": "Big",
      "value": "3.44"
    },
    "visiblePriceUnit": "kpl",
    "isDiscounted": false
  },
  {
    "ean": "5701073064726",
    "urlSlug": "dr--oetker-sitruuna-aromi-30ml-5701073064726",
    "name": "Dr. Oetker Luontainen sitruuna-aromi 30ml",
    "pictureUrls": [
      {
        "original": "https://public.keskofiles.com/f/k-ruoka/product/5701073064726"
      }
    ],
    "section": "4119",
    "departmentId": "106",
    "contentUnit": "L",
    "contentSize": 0.03,
    "netWeight": 0.03,
    "available": true,
    "isUtility": false,
    "preprocessedPricing": {
      "products": {},
      "simplePromotions": {},
      "basketPromotions": {}
    },
    "tosPricing": {
      "basketPromotions": []
    },
    "simplePricePlussa": false,
    "pricingUnit": "kpl",
    "referencePrice": {
      "_type": "Big",
      "value": "71.66666666666666666667"
    },
    "visiblePrice": {
      "_type": "Big",
      "value": "2.15"
    },
    "visiblePriceUnit": "kpl",
    "isDiscounted": false
  },
  {
    "ean": "5706779054354",
    "urlSlug": "earth-control-kuiv-sekahedelma-250g-5706779054354",
    "name": "Earth Control Kuivattu sekahedelmä 250g",
    "pictureUrls": [],
    "section": "4405",
    "departmentId": "106",
    "contentUnit": "KG",
    "contentSize": 0.25,
    "netWeight": 0.25,
    "available": true,
    "isUtility": false,
    "preprocessedPricing": {
      "products": {},
      "simplePromotions": {},
      "basketPromotions": {}
    },
    "tosPricing": {
      "basketPromotions": []
    },
    "simplePricePlussa": false,
    "pricingUnit": "kpl",
    "referencePrice": {
      "_type": "Big",
      "value": "11.56"
    },
    "visiblePrice": {
      "_type": "Big",
      "value": "2.89"
    },
    "visiblePriceUnit": "kpl",
    "isDiscounted": false,
    "discountType": "PLUSSA",
    "batchSize": 2,
    "batchPrice": {
      "_type": "Big",
      "value": "5"
    }
  },
  {
    "ean": "6408641203394",
    "urlSlug": "pirkka-paprika-cashewpesto-135g-6408641203394",
    "name": "Pirkka paprika-cashewpesto 135g",
    "pictureUrls": [
      {
        "original": "https://public.keskofiles.com/f/k-ruoka/product/6408641203394"
      }
    ],
    "section": "4177",
    "departmentId": "106",
    "contentUnit": "KG",
    "contentSize": 0.135,
    "netWeight": 0.135,
    "available": true,
    "isUtility": false,
    "preprocessedPricing": {
      "products": {},
      "simplePromotions": {},
      "basketPromotions": {}
    },
    "tosPricing": {
      "basketPromotions": []
    },
    "simplePricePlussa": false,
    "pricingUnit": "kpl",
    "referencePrice": {
      "_type": "Big",
      "value": "14.07407407407407407407"
    },
    "visiblePrice": {
      "_type": "Big",
      "value": "1.9"
    },
    "visiblePriceUnit": "kpl",
    "isDiscounted": false
  },
  {
    "ean": "7310340002316",
    "urlSlug": "dansukker-muscovado-ruokosokeri-400g-tum-7310340002316",
    "name": "Dansukker 400g Tumma Muscovado Ruokosokeri",
    "pictureUrls": [
      {
        "original": "https://public.keskofiles.com/f/k-ruoka/product/7310340002316"
      }
    ],
    "section": "3602",
    "departmentId": "106",
    "contentUnit": "KG",
    "contentSize": 0.4,
    "netWeight": 0.4,
    "available": true,
    "isUtility": false,
    "preprocessedPricing": {
      "products": {},
      "simplePromotions": {},
      "basketPromotions": {}
    },
    "tosPricing": {
      "basketPromotions": []
    },
    "simplePricePlussa": false,
    "pricingUnit": "kpl",
    "referencePrice": {
      "_type": "Big",
      "value": "6.475"
    },
    "visiblePrice": {
      "_type": "Big",
      "value": "2.59"
    },
    "visiblePriceUnit": "kpl",
    "isDiscounted": false
  },
  {
    "ean": "6414201004615",
    "urlSlug": "ala-meira-tilli-8g-pussi-6414201004615",
    "name": "Meira tilli 8g pussi mauste",
    "pictureUrls": [
      {
        "original": "https://public.keskofiles.com/f/k-ruoka/product/6414201004615"
      }
    ],
    "section": "4100",
    "departmentId": "106",
    "contentUnit": "KG",
    "contentSize": 0.008,
    "netWeight": 0.008,
    "available": true,
    "isUtility": false,
    "preprocessedPricing": {
      "products": {},
      "simplePromotions": {},
      "basketPromotions": {}
    },
    "tosPricing": {
      "basketPromotions": []
    },
    "simplePricePlussa": false,
    "pricingUnit": "kpl",
    "referencePrice": {
      "_type": "Big",
      "value": "68.75"
    },
    "visiblePrice": {
      "_type": "Big",
      "value": "0.55"
    },
    "visiblePriceUnit": "kpl",
    "isDiscounted": false
  },
  {
    "ean": "6414203400651",
    "urlSlug": "kirjava-nonparelli-60g-6414203400651",
    "name": "Meira kirjava nonparelli 60g leivontakoriste pussi",
    "pictureUrls": [
      {
        "original": "https://public.keskofiles.com/f/k-ruoka/product/6414203400651"
      }
    ],
    "section": "4113",
    "departmentId": "106",
    "contentUnit": "KG",
    "contentSize": 0.06,
    "netWeight": 0.06,
    "available": true,
    "isUtility": false,
    "preprocessedPricing": {
      "products": {},
      "simplePromotions": {},
      "basketPromotions": {}
    },
    "tosPricing": {
      "basketPromotions": []
    },
    "simplePricePlussa": false,
    "pricingUnit": "kpl",
    "referencePrice": {
      "_type": "Big",
      "value": "19.16666666666666666667"
    },
    "visiblePrice": {
      "_type": "Big",
      "value": "1.15"
    },
    "visiblePriceUnit": "kpl",
    "isDiscounted": false
  },
  {
    "ean": "6410405136817",
    "urlSlug": "pirkka-hedelmanmakuinen-strosseli-80g-6410405136817",
    "name": "Pirkka hedelmänmakuinen strösseli 80g",
    "pictureUrls": [
      {
        "original": "https://public.keskofiles.com/f/k-ruoka/product/6410405136817"
      }
    ],
    "section": "4113",
    "departmentId": "106",
    "contentUnit": "KG",
    "contentSize": 0.08,
    "netWeight": 0.08,
    "available": true,
    "isUtility": false,
    "preprocessedPricing": {
      "products": {},
      "simplePromotions": {},
      "basketPromotions": {}
    },
    "tosPricing": {
      "basketPromotions": []
    },
    "simplePricePlussa": false,
    "pricingUnit": "kpl",
    "referencePrice": {
      "_type": "Big",
      "value": "24.875"
    },
    "visiblePrice": {
      "_type": "Big",
      "value": "1.99"
    },
    "visiblePriceUnit": "kpl",
    "isDiscounted": false,
    "discountType": "PLUSSA",
    "batchSize": 2,
    "batchPrice": {
      "_type": "Big",
      "value": "3.5"
    }
  },
  {
    "ean": "6414200125236",
    "urlSlug": "meira-glogimauste-25g-pussi-6414200125236",
    "name": "Meira Glögimauste 25g pussi mauste",
    "pictureUrls": [
      {
        "original": "https://public.keskofiles.com/f/k-ruoka/product/6414200125236"
      }
    ],
    "section": "4100",
    "departmentId": "106",
    "contentUnit": "KG",
    "contentSize": 0.025,
    "netWeight": 0.025,
    "available": true,
    "isUtility": false,
    "preprocessedPricing": {
      "products": {},
      "simplePromotions": {},
      "basketPromotions": {}
    },
    "tosPricing": {
      "basketPromotions": []
    },
    "simplePricePlussa": false,
    "pricingUnit": "kpl",
    "referencePrice": {
      "_type": "Big",
      "value": "67.6"
    },
    "visiblePrice": {
      "_type": "Big",
      "value": "1.69"
    },
    "visiblePriceUnit": "kpl",
    "isDiscounted": false
  },
  {
    "ean": "5014271795416",
    "urlSlug": "st-dalfour-paarynahillo-284g-ranskal-5014271795416",
    "name": "St.Dalfour Päärynähillo 284g",
    "pictureUrls": [
      {
        "original": "https://public.keskofiles.com/f/k-ruoka/product/5014271795416"
      }
    ],
    "section": "3202",
    "departmentId": "106",
    "contentUnit": "KG",
    "contentSize": 0.284,
    "netWeight": 0.284,
    "available": true,
    "isUtility": false,
    "preprocessedPricing": {
      "products": {},
      "simplePromotions": {},
      "basketPromotions": {}
    },
    "tosPricing": {
      "basketPromotions": []
    },
    "simplePricePlussa": false,
    "pricingUnit": "kpl",
    "referencePrice": {
      "_type": "Big",
      "value": "11.93661971830985915493"
    },
    "visiblePrice": {
      "_type": "Big",
      "value": "3.39"
    },
    "visiblePriceUnit": "kpl",
    "isDiscounted": false
  },
  {
    "ean": "6415000170044",
    "urlSlug": "myllarin-luomu-leivontakarkea-vehn--2kg-6415000170044",
    "name": "Myllärin Luomu Leivontakarkea vehnäjauho 2kg",
    "pictureUrls": [
      {
        "original": "https://public.keskofiles.com/f/k-ruoka/product/6415000170044"
      }
    ],
    "section": "3001",
    "departmentId": "106",
    "contentUnit": "KG",
    "contentSize": 2,
    "netWeight": 2,
    "available": true,
    "isUtility": false,
    "preprocessedPricing": {
      "products": {},
      "simplePromotions": {},
      "basketPromotions": {}
    },
    "tosPricing": {
      "basketPromotions": []
    },
    "simplePricePlussa": false,
    "pricingUnit": "kpl",
    "referencePrice": {
      "_type": "Big",
      "value": "1.395"
    },
    "visiblePrice": {
      "_type": "Big",
      "value": "2.79"
    },
    "visiblePriceUnit": "kpl",
    "isDiscounted": false
  },
  {
    "ean": "6414203405984",
    "urlSlug": "ala-meira-vaniljasokeri-85g-tolkki-6414203405984",
    "name": "Meira vaniljasokeri 85g tölkki",
    "pictureUrls": [
      {
        "original": "https://public.keskofiles.com/f/k-ruoka/product/6414203405984"
      }
    ],
    "section": "4119",
    "departmentId": "106",
    "contentUnit": "KG",
    "contentSize": 0.085,
    "netWeight": 0.085,
    "available": true,
    "isUtility": false,
    "preprocessedPricing": {
      "products": {},
      "simplePromotions": {},
      "basketPromotions": {}
    },
    "tosPricing": {
      "basketPromotions": []
    },
    "simplePricePlussa": false,
    "pricingUnit": "kpl",
    "referencePrice": {
      "_type": "Big",
      "value": "23.41176470588235294118"
    },
    "visiblePrice": {
      "_type": "Big",
      "value": "1.99"
    },
    "visiblePriceUnit": "kpl",
    "isDiscounted": false
  },
  {
    "ean": "7311311006586",
    "urlSlug": "santa-maria-sitruunapippuri-33g-7311311006586",
    "name": "Santa Maria sitruunapippuri 33g",
    "pictureUrls": [
      {
        "original": "https://public.keskofiles.com/f/k-ruoka/product/7311311006586"
      }
    ],
    "section": "4100",
    "departmentId": "106",
    "contentUnit": "KG",
    "contentSize": 0.033,
    "netWeight": 0.033,
    "available": true,
    "isUtility": false,
    "preprocessedPricing": {
      "products": {},
      "simplePromotions": {},
      "basketPromotions": {}
    },
    "tosPricing": {
      "basketPromotions": []
    },
    "simplePricePlussa": false,
    "pricingUnit": "kpl",
    "referencePrice": {
      "_type": "Big",
      "value": "25.75757575757575757576"
    },
    "visiblePrice": {
      "_type": "Big",
      "value": "0.85"
    },
    "visiblePriceUnit": "kpl",
    "isDiscounted": false
  },
  {
    "ean": "7322550052050",
    "urlSlug": "bla-band-suklaamousse-2x56g-7322550052050",
    "name": "Blå Band Suklaamousse 112 g",
    "pictureUrls": [
      {
        "original": "https://public.keskofiles.com/f/k-ruoka/product/7322550052050"
      }
    ],
    "section": "4029",
    "departmentId": "106",
    "contentUnit": "KG",
    "contentSize": 0.112,
    "netWeight": 0.112,
    "available": true,
    "isUtility": false,
    "preprocessedPricing": {
      "products": {},
      "simplePromotions": {},
      "basketPromotions": {}
    },
    "tosPricing": {
      "basketPromotions": []
    },
    "simplePricePlussa": false,
    "pricingUnit": "kpl",
    "referencePrice": {
      "_type": "Big",
      "value": "21.33928571428571428571"
    },
    "visiblePrice": {
      "_type": "Big",
      "value": "2.39"
    },
    "visiblePriceUnit": "kpl",
    "isDiscounted": false
  }
]