[
  {
    "ean": "2000306300000",
    "urlSlug": "pecorino-romano-2000306300000-n106",
    "name": "Pecorino Romano",
    "storeId": "N106",
    "pictureUrls": [
      {
        "original": "https://public.keskofiles.com/f/k-ruoka/N106/product/2000306300000"
      }
    ],
    "section": "2433",
    "departmentId": "104",
    "contentUnit": "kg",
    "available": true,
    "isUtility": false,
    "preprocessedPricing": {
      "products": {},
      "simplePromotions": {},
      "basketPromotions": {}
    },
    "tosPricing": {
      "basketPromotions": []
    },
    "simplePricePlussa": false,
    "pricingUnit": "kg",
    "visiblePrice": {
      "_type": "Big",
      "value": "32.9"
    },
    "visiblePriceUnit": "kg",
    "isDiscounted": false
  },
  {
    "ean": "2000331300006",
    "urlSlug": "chevrette-2000331300006-n106",
    "name": "Chevrette",
    "storeId": "N106",
    "pictureUrls": [
      {
        "original": "https://public.keskofiles.com/f/k-ruoka/N106/product/2000331300006"
      }
    ],
    "section": "2433",
    "departmentId": "104",
    "contentUnit": "kg",
    "available": true,
    "isUtility": false,
    "preprocessedPricing": {
      "products": {},
      "simplePromotions": {},
      "basketPromotions": {}
    },
    "tosPricing": {
      "basketPromotions": []
    },
    "simplePricePlussa": false,
    "pricingUnit": "kg",
    "visiblePrice": {
      "_type": "Big",
      "value": "22.9"
    },
    "visiblePriceUnit": "kg",
    "isDiscounted": false
  },
  {
    "ean": "2000314300009",
    "urlSlug": "vuohen-gran-reserva-2000314300009-n106",
    "name": "Vuohen Gran Reserva",
    "storeId": "N106",
    "pictureUrls": [
      {
        "original": "https://public.keskofiles.com/f/k-ruoka/N106/product/2000314300009"
      }
    ],
    "section": "2433",
    "departmentId": "104",
    "contentUnit": "kg",
    "available": true,
    "isUtility": false,
    "preprocessedPricing": {
      "products": {},
      "simplePromotions": {},
      "basketPromotions": {}
    },
    "tosPricing": {
      "basketPromotions": []
    },
    "simplePricePlussa": false,
    "pricingUnit": "kg",
    "visiblePrice": {
      "_type": "Big",
      "value": "39.9"
    },
    "visiblePriceUnit": "kg",
    "isDiscounted": false
  },
  {
    "ean": "2000321900001",
    "urlSlug": "chevre-2000321900001-n106",
    "name": "Chevre",
    "storeId": "N106",
    "pictureUrls": [
      {
        "original": "https://public.keskofiles.com/f/k-ruoka/N106/product/2000321900001"
      }
    ],
    "section": "2433",
    "departmentId": "104",
    "contentUnit": "kg",
    "available": true,
    "isUtility": false,
    "preprocessedPricing": {
      "products": {},
      "simplePromotions": {},
      "basketPromotions": {}
    },
    "tosPricing": {
      "basketPromotions": []
    },
    "simplePricePlussa": false,
    "pricingUnit": "kg",
    "visiblePrice": {
      "_type": "Big",
      "value": "22.9"
    },
    "visiblePriceUnit": "kg",
    "isDiscounted": false
  },
  {
    "ean": "2000340600005",
    "urlSlug": "roquefort-society-2000340600005-n106",
    "name": "Roquefort Society",
    "storeId": "N106",
    "pictureUrls": [
      {
        "original": "https://public.keskofiles.com/f/k-ruoka/N106/product/2000340600005"
      }
    ],
    "section": "2430",
    "departmentId": "104",
    "contentUnit": "kg",
    "available": true,
    "isUtility": false,
    "preprocessedPricing": {
      "products": {},
      "simplePromotions": {},
      "basketPromotions": {}
    },
    "tosPricing": {
      "basketPromotions": []
    },
    "simplePricePlussa": false,
    "pricingUnit": "kg",
    "visiblePrice": {
      "_type": "Big",
      "value": "39.9"
    },
    "visiblePriceUnit": "kg",
    "isDiscounted": false
  },
  {
    "ean": "2000330700005",
    "urlSlug": "saint-agur-2000330700005-n106",
    "name": "Saint Agur",
    "storeId": "N106",
    "pictureUrls": [
      {
        "original": "https://public.keskofiles.com/f/k-ruoka/N106/product/2000330700005"
      }
    ],
    "section": "2430",
    "departmentId": "104",
    "contentUnit": "kg",
    "available": true,
    "isUtility": false,
    "preprocessedPricing": {
      "products": {},
      "simplePromotions": {},
      "basketPromotions": {}
    },
    "tosPricing": {
      "basketPromotions": []
    },
    "simplePricePlussa": false,
    "pricingUnit": "kg",
    "visiblePrice": {
      "_type": "Big",
      "value": "29.9"
    },
    "visiblePriceUnit": "kg",
    "isDiscounted": false
  },
  {
    "ean": "2000330000006",
    "urlSlug": "saint-albray-2000330000006-n106",
    "name": "Saint Albray",
    "storeId": "N106",
    "pictureUrls": [
      {
        "original": "https://public.keskofiles.com/f/k-ruoka/N106/product/2000330000006"
      }
    ],
    "section": "2431",
    "departmentId": "104",
    "contentUnit": "kg",
    "available": true,
    "isUtility": false,
    "preprocessedPricing": {
      "products": {},
      "simplePromotions": {},
      "basketPromotions": {}
    },
    "tosPricing": {
      "basketPromotions": []
    },
    "simplePricePlussa": false,
    "pricingUnit": "kg",
    "visiblePrice": {
      "_type": "Big",
      "value": "37.9"
    },
    "visiblePriceUnit": "kg",
    "isDiscounted": false
  },
  {
    "ean": "2000304200005",
    "urlSlug": "rustique-camembert-2000304200005-n106",
    "name": "Rustique Camembert",
    "storeId": "N106",
    "pictureUrls": [
      {
        "original": "https://public.keskofiles.com/f/k-ruoka/N106/product/2000304200005"
      }
    ],
    "section": "2431",
    "departmentId": "104",
    "contentUnit": "kg",
    "available": true,
    "isUtility": false,
    "preprocessedPricing": {
      "products": {},
      "simplePromotions": {},
      "basketPromotions": {}
    },
    "tosPricing": {
      "basketPromotions": []
    },
    "simplePricePlussa": false,
    "pricingUnit": "kg",
    "visiblePrice": {
      "_type": "Big",
      "value": "29.9"
    },
    "visiblePriceUnit": "kg",
    "isDiscounted": false
  },
  {
    "ean": "2000300400003",
    "urlSlug": "maasdammer-juusto-2000300400003-n106",
    "name": "Maasdammer juusto",
    "storeId": "N106",
    "pictureUrls": [
      {
        "original": "https://public.keskofiles.com/f/k-ruoka/N106/product/2000300400003"
      }
    ],
    "section": "2401",
    "departmentId": "104",
    "contentUnit": "kg",
    "available": true,
    "isUtility": false,
    "preprocessedPricing": {
      "products": {},
      "simplePromotions": {},
      "basketPromotions": {}
    },
    "tosPricing": {
      "basketPromotions": []
    },
    "simplePricePlussa": false,
    "pricingUnit": "kg",
    "visiblePrice": {
      "_type": "Big",
      "value": "13.9"
    },
    "visiblePriceUnit": "kg",
    "isDiscounted": false
  },
  {
    "ean": "6408430002023",
    "urlSlug": "valiojogurtti-200g-banaani-6408430002023",
    "name": "Valiojogurtti 200g banaani",
    "pictureUrls": [
      {
        "original": "https://public.keskofiles.com/f/k-ruoka/product/6408430002023"
      }
    ],
    "section": "2200",
    "departmentId": "104",
    "contentUnit": "KG",
    "contentSize": 0.2,
    "netWeight": 0.2,
    "available": true,
    "isUtility": false,
    "preprocessedPricing": {
      "products": {},
      "simplePromotions": {},
      "basketPromotions": {}
    },
    "tosPricing": {
      "basketPromotions": []
    },
    "simplePricePlussa": false,
    "pricingUnit": "kpl",
    "referencePrice": {
      "_type": "Big",
      "value": "2.45"
    },
    "visiblePrice": {
      "_type": "Big",
      "value": "0.49"
    },
    "visiblePriceUnit": "kpl",
    "isDiscounted": false
  },
  {
    "ean": "6408430048434",
    "urlSlug": "valio-luomu-valipalara-150g-pers-ba-lton-6408430048434",
    "name": "Valio Luomu laktoositon persikka-banaani välipalarahka 150g",
    "pictureUrls": [
      {
        "original": "https://public.keskofiles.com/f/k-ruoka/product/6408430048434"
      }
    ],
    "section": "2232",
    "departmentId": "104",
    "contentUnit": "KG",
    "contentSize": 0.15,
    "netWeight": 0.15,
    "available": true,
    "isUtility": false,
    "preprocessedPricing": {
      "products": {},
      "simplePromotions": {},
      "basketPromotions": {}
    },
    "tosPricing": {
      "basketPromotions": []
    },
    "simplePricePlussa": false,
    "pricingUnit": "kpl",
    "referencePrice": {
      "_type": "Big",
      "value": "8.6"
    },
    "visiblePrice": {
      "_type": "Big",
      "value": "1.29"
    },
    "visiblePriceUnit": "kpl",
    "isDiscounted": false
  },
  {
    "ean": "6410405079626",
    "urlSlug": "pirkka-rasvaton-piima-1-l-6410405079626",
    "name": "Pirkka suomalainen rasvaton piimä 1l",
    "pictureUrls": [
      {
        "original": "https://public.keskofiles.com/f/k-ruoka/product/6410405079626"
      }
    ],
    "section": "2110",
    "departmentId": "104",
    "contentUnit": "L",
    "contentSize": 1,
    "netWeight": 1.033,
    "available": true,
    "isUtility": false,
    "preprocessedPricing": {
      "products": {},
      "simplePromotions": {},
      "basketPromotions": {}
    },
    "tosPricing": {
      "basketPromotions": []
    },
    "simplePricePlussa": false,
    "pricingUnit": "kpl",
    "referencePrice": {
      "_type": "Big",
      "value": "1.05"
    },
    "visiblePrice": {
      "_type": "Big",
      "value": "1.05"
    },
    "visiblePriceUnit": "kpl",
    "isDiscounted": false
  },
  {
    "ean": "0041570112472",
    "urlSlug": "blue-diamond-mantelijuoma-1l-original-0041570112472",
    "name": "Blue Diamond mantelijuoma 1l original",
    "pictureUrls": [
      {
        "original": "https://public.keskofiles.com/f/k-ruoka/product/0041570112472"
      }
    ],
    "section": "2108",
    "departmentId": "104",
    "contentUnit": "L",
    "contentSize": 1,
    "netWeight": 1.05,
    "available": true,
    "isUtility": false,
    "preprocessedPricing": {
      "products": {},
      "simplePromotions": {},
      "basketPromotions": {}
    },
    "tosPricing": {
      "basketPromotions": []
    },
    "simplePricePlussa": false,
    "pricingUnit": "kpl",
    "referencePrice": {
      "_type": "Big",
      "value": "2.25"
    },
    "visiblePrice": {
      "_type": "Big",
      "value": "2.25"
    },
    "visiblePriceUnit": "kpl",
    "isDiscounted": false
  },
  {
    "ean": "0041570112656",
    "urlSlug": "blue-diamond-mantelijuoma-1l-barista-0041570112656",
    "name": "Blue Diamond mantelijuoma 1l Barista Blend UHT",
    "pictureUrls": [
      {
        "original": "https://public.keskofiles.com/f/k-ruoka/product/0041570112656"
      }
    ],
    "section": "2108",
    "departmentId": "104",
    "contentUnit": "L",
    "contentSize": 1,
    "netWeight": 1.05,
    "available": true,
    "isUtility": false,
    "preprocessedPricing": {
      "products": {},
      "simplePromotions": {},
      "basketPromotions": {}
    },
    "tosPricing": {
      "basketPromotions": []
    },
    "simplePricePlussa": false,
    "pricingUnit": "kpl",
    "referencePrice": {
      "_type": "Big",
      "value": "3.09"
    },
    "visiblePrice": {
      "_type": "Big",
      "value": "3.09"
    },
    "visiblePriceUnit": "kpl",
    "isDiscounted": false
  },
  {
    "ean": "0000064027166",
    "urlSlug": "jacky-makupala-vanukas-120g-vanilja-sukl-0000064027166",
    "name": "Jacky Makupala vanilja-suklaavanukas 120g",
    "pictureUrls": [
      {
        "original": "https://public.keskofiles.com/f/k-ruoka/product/0000064027166"
      }
    ],
    "section": "2220",
    "departmentId": "104",
    "contentUnit": "KG",
    "contentSize": 0.12,
    "netWeight": 0.12,
    "available": true,
    "isUtility": false,
    "preprocessedPricing": {
      "products": {},
      "simplePromotions": {},
      "basketPromotions": {}
    },
    "tosPricing": {
      "basketPromotions": []
    },
    "simplePricePlussa": false,
    "pricingUnit": "kpl",
    "referencePrice": {
      "_type": "Big",
      "value": "4.08333333333333333333"
    },
    "visiblePrice": {
      "_type": "Big",
      "value": "0.49"
    },
    "visiblePriceUnit": "kpl",
    "isDiscounted": false
  },
  {
    "ean": "0000064027180",
    "urlSlug": "jacky-makupala-vanukas-120g-minttusuklaa-0000064027180",
    "name": "Jacky Makupala minttusuklaavanukas 120g",
    "pictureUrls": [
      {
        "original": "https://public.keskofiles.com/f/k-ruoka/product/0000064027180"
      }
    ],
    "section": "2220",
    "departmentId": "104",
    "contentUnit": "KG",
    "contentSize": 0.12,
    "netWeight": 0.12,
    "available": true,
    "isUtility": false,
    "preprocessedPricing": {
      "products": {},
      "simplePromotions": {},
      "basketPromotions": {}
    },
    "tosPricing": {
      "basketPromotions": []
    },
    "simplePricePlussa": false,
    "pricingUnit": "kpl",
    "referencePrice": {
      "_type": "Big",
      "value": "4.08333333333333333333"
    },
    "visiblePrice": {
      "_type": "Big",
      "value": "0.49"
    },
    "visiblePriceUnit": "kpl",
    "isDiscounted": false
  },
  {
    "ean": "6408430062195",
    "urlSlug": "valio-karviais-boysenmarjakeitt1kgkuitu-6408430062195",
    "name": "Valio karviais-boysenmarjakeitt1kg+kuitu",
    "pictureUrls": [
      {
        "original": "https://public.keskofiles.com/f/k-ruoka/product/6408430062195"
      }
    ],
    "section": "1901",
    "departmentId": "104",
    "contentUnit": "KG",
    "contentSize": 1,
    "netWeight": 1,
    "available": true,
    "isUtility": false,
    "preprocessedPricing": {
      "products": {},
      "simplePromotions": {},
      "basketPromotions": {}
    },
    "tosPricing": {
      "basketPromotions": []
    },
    "simplePricePlussa": false,
    "pricingUnit": "kpl",
    "referencePrice": {
      "_type": "Big",
      "value": "2.35"
    },
    "visiblePrice": {
      "_type": "Big",
      "value": "2.35"
    },
    "visiblePriceUnit": "kpl",
    "isDiscounted": false
  },
  {
    "ean": "6408430031221",
    "urlSlug": "valio-emmentaljuusto-350g-17-punaleima-6408430031221",
    "name": "Valio emmentaljuusto 350g 17% punaleima",
    "pictureUrls": [
      {
        "original": "https://public.keskofiles.com/f/k-ruoka/product/6408430031221"
      }
    ],
    "section": "2411",
    "departmentId": "104",
    "contentUnit": "KG",
    "contentSize": 0.35,
    "netWeight": 0.35,
    "available": true,
    "isUtility": false,
    "preprocessedPricing": {
      "products": {},
      "simplePromotions": {},
      "basketPromotions": {}
    },
    "tosPricing": {
      "basketPromotions": []
    },
    "simplePricePlussa": false,
    "pricingUnit": "kpl",
    "referencePrice": {
      "_type": "Big",
      "value": "12.25714285714285714286"
    },
    "visiblePrice": {
      "_type": "Big",
      "value": "4.29"
    },
    "visiblePriceUnit": "kpl",
    "isDiscounted": true,
    "discountType": "PLUSSA",
    "plussaDiscountPercentage": {
      "_type": "Big",
      "value": "-12.269938650306748466"
    }
  },
  {
    "ean": "5411188115687",
    "urlSlug": "alpro-riisijuoma-1l-makeuttamaton-5411188115687",
    "name": "Alpro riisijuoma 1l makeuttamaton",
    "pictureUrls": [
      {
        "original": "https://public.keskofiles.com/f/k-ruoka/product/5411188115687"
      }
    ],
    "section": "2108",
    "departmentId": "104",
    "contentUnit": "L",
    "contentSize": 1,
    "netWeight": 1.049,
    "available": true,
    "isUtility": false,
    "preprocessedPricing": {
      "products": {},
      "simplePromotions": {},
      "basketPromotions": {}
    },
    "tosPricing": {
      "basketPromotions": []
    },
    "simplePricePlussa": false,
    "pricingUnit": "kpl",
    "referencePrice": {
      "_type": "Big",
      "value": "2.25"
    },
    "visiblePrice": {
      "_type": "Big",
      "value": "2.25"
    },
    "visiblePriceUnit": "kpl",
    "isDiscounted": false
  },
  {
    "ean": "6413300000214",
    "urlSlug": "perinteinen-jogurtti-150g-banaani-6413300000214",
    "name": "Perinteinen banaanijogurtti 150g",
    "pictureUrls": [
      {
        "original": "https://public.keskofiles.com/f/k-ruoka/product/6413300000214"
      }
    ],
    "section": "2200",
    "departmentId": "104",
    "contentUnit": "KG",
    "contentSize": 0.15,
    "netWeight": 0.15,
    "available": true,
    "isUtility": false,
    "preprocessedPricing": {
      "products": {},
      "simplePromotions": {},
      "basketPromotions": {}
    },
    "tosPricing": {
      "basketPromotions": []
    },
    "simplePricePlussa": false,
    "pricingUnit": "kpl",
    "referencePrice": {
      "_type": "Big",
      "value": "2.66666666666666666667"
    },
    "visiblePrice": {
      "_type": "Big",
      "value": "0.4"
    },
    "visiblePriceUnit": "kpl",
    "isDiscounted": false
  },
  {
    "ean": "4002971466102",
    "urlSlug": "ehrmann-rasvaton-maitorahka-250g-4002971466102",
    "name": "Ehrmann maitorahka 0,2%",
    "pictureUrls": [
      {
        "original": "https://public.keskofiles.com/f/k-ruoka/product/4002971466102"
      }
    ],
    "section": "2144",
    "departmentId": "104",
    "contentUnit": "KG",
    "contentSize": 0.25,
    "netWeight": 0.25,
    "available": true,
    "isUtility": false,
    "preprocessedPricing": {
      "products": {},
      "simplePromotions": {},
      "basketPromotions": {}
    },
    "tosPricing": {
      "basketPromotions": []
    },
    "simplePricePlussa": false,
    "pricingUnit": "kpl",
    "referencePrice": {
      "_type": "Big",
      "value": "3"
    },
    "visiblePrice": {
      "_type": "Big",
      "value": "0.75"
    },
    "visiblePriceUnit": "kpl",
    "isDiscounted": false,
    "discountType": "PLUSSA",
    "batchSize": 3,
    "batchPrice": {
      "_type": "Big",
      "value": "2"
    }
  },
  {
    "ean": "6430033521649",
    "urlSlug": "maisku-rahkavalipala-38-g-vanilja-6430033521649",
    "name": "Deliciest Maisku Rahkavälipalapatukka vanilja 38 g",
    "pictureUrls": [
      {
        "original": "https://public.keskofiles.com/f/k-ruoka/product/6430033521649"
      }
    ],
    "section": "2290",
    "departmentId": "104",
    "contentUnit": "KG",
    "contentSize": 0.038,
    "netWeight": 0.038,
    "available": true,
    "isUtility": false,
    "preprocessedPricing": {
      "products": {},
      "simplePromotions": {},
      "basketPromotions": {}
    },
    "tosPricing": {
      "basketPromotions": []
    },
    "simplePricePlussa": false,
    "pricingUnit": "kpl",
    "referencePrice": {
      "_type": "Big",
      "value": "12.36842105263157894737"
    },
    "visiblePrice": {
      "_type": "Big",
      "value": "0.47"
    },
    "visiblePriceUnit": "kpl",
    "isDiscounted": false
  },
  {
    "ean": "6413300019117",
    "urlSlug": "arla-lempi-turkkilainen-jog-10-300g-6413300019117",
    "name": "Arla lempi turkkilainen jogurtti 10% 300g laktoositon",
    "pictureUrls": [
      {
        "original": "https://public.keskofiles.com/f/k-ruoka/product/6413300019117"
      }
    ],
    "section": "2202",
    "departmentId": "104",
    "contentUnit": "KG",
    "contentSize": 0.3,
    "netWeight": 0.3,
    "available": true,
    "isUtility": false,
    "preprocessedPricing": {
      "products": {},
      "simplePromotions": {},
      "basketPromotions": {}
    },
    "tosPricing": {
      "basketPromotions": []
    },
    "simplePricePlussa": false,
    "pricingUnit": "kpl",
    "referencePrice": {
      "_type": "Big",
      "value": "3.96666666666666666667"
    },
    "visiblePrice": {
      "_type": "Big",
      "value": "1.19"
    },
    "visiblePriceUnit": "kpl",
    "isDiscounted": true,
    "discountType": "PLUSSA",
    "plussaDiscountPercentage": {
      "_type": "Big",
      "value": "-15.966386554621848739"
    },
    "batchSize": 2,
    "batchPrice": {
      "_type": "Big",
      "value": "2"
    }
  },
  {
    "ean": "6408430026074",
    "urlSlug": "valio-luomu-jog-tuorepuuro-175g-vad-lton-6408430026074",
    "name": "Valio Luomu laktoositon jogurttinen tuorepuuro vadelma-kaura 175g",
    "pictureUrls": [
      {
        "original": "https://public.keskofiles.com/f/k-ruoka/product/6408430026074"
      }
    ],
    "section": "2231",
    "departmentId": "104",
    "contentUnit": "KG",
    "contentSize": 0.175,
    "netWeight": 0.175,
    "available": true,
    "isUtility": false,
    "preprocessedPricing": {
      "products": {},
      "simplePromotions": {},
      "basketPromotions": {}
    },
    "tosPricing": {
      "basketPromotions": []
    },
    "simplePricePlussa": false,
    "pricingUnit": "kpl",
    "referencePrice": {
      "_type": "Big",
      "value": "7.14285714285714285714"
    },
    "visiblePrice": {
      "_type": "Big",
      "value": "1.25"
    },
    "visiblePriceUnit": "kpl",
    "isDiscounted": false
  },
  {
    "ean": "8004603100459",
    "urlSlug": "provolone-juustoruukku-150g-8004603100459",
    "name": "Provolone juustoruukku 150g",
    "pictureUrls": [
      {
        "original": "https://public.keskofiles.com/f/k-ruoka/product/8004603100459"
      }
    ],
    "section": "2436",
    "departmentId": "104",
    "contentUnit": "KG",
    "contentSize": 0.15,
    "netWeight": 0.15,
    "available": true,
    "isUtility": false,
    "preprocessedPricing": {
      "products": {},
      "simplePromotions": {},
      "basketPromotions": {}
    },
    "tosPricing": {
      "basketPromotions": []
    },
    "simplePricePlussa": false,
    "pricingUnit": "kpl",
    "referencePrice": {
      "_type": "Big",
      "value": "25.93333333333333333333"
    },
    "visiblePrice": {
      "_type": "Big",
      "value": "3.89"
    },
    "visiblePriceUnit": "kpl",
    "isDiscounted": false
  },
  {
    "ean": "6408430310890",
    "urlSlug": "oivariini-550g-vaharasvainen-hyla-6408430310890",
    "name": "Oivariini 550g vähärasvainen Hyla",
    "pictureUrls": [
      {
        "original": "https://public.keskofiles.com/f/k-ruoka/product/6408430310890"
      }
    ],
    "section": "2310",
    "departmentId": "104",
    "contentUnit": "KG",
    "contentSize": 0.55,
    "netWeight": 0.55,
    "available": true,
    "isUtility": false,
    "preprocessedPricing": {
      "products": {},
      "simplePromotions": {},
      "basketPromotions": {}
    },
    "tosPricing": {
      "basketPromotions": []
    },
    "simplePricePlussa": false,
    "pricingUnit": "kpl",
    "referencePrice": {
      "_type": "Big",
      "value": "5.98181818181818181818"
    },
    "visiblePrice": {
      "_type": "Big",
      "value": "3.29"
    },
    "visiblePriceUnit": "kpl",
    "isDiscounted": false
  },
  {
    "ean": "6408430310678",
    "urlSlug": "valio-voi-200-g-normaalisuolainen-6408430310678",
    "name": "Valio voi 200 g normaalisuolainen",
    "pictureUrls": [
      {
        "original": "https://public.keskofiles.com/f/k-ruoka/product/6408430310678"
      }
    ],
    "section": "2300",
    "departmentId": "104",
    "contentUnit": "KG",
    "contentSize": 0.2,
    "netWeight": 0.2,
    "available": true,
    "isUtility": false,
    "preprocessedPricing": {
      "products": {},
      "simplePromotions": {},
      "basketPromotions": {}
    },
    "tosPricing": {
      "basketPromotions": []
    },
    "simplePricePlussa": false,
    "pricingUnit": "kpl",
    "referencePrice": {
      "_type": "Big",
      "value": "12.95"
    },
    "visiblePrice": {
      "_type": "Big",
      "value": "2.59"
    },
    "visiblePriceUnit": "kpl",
    "isDiscounted": false
  },
  {
    "ean": "6408430001415",
    "urlSlug": "valio-kuohukerma-2dl-6408430001415",
    "name": "Valio kuohukerma 2 dl",
    "pictureUrls": [
      {
        "original": "https://public.keskofiles.com/f/k-ruoka/product/6408430001415"
      }
    ],
    "section": "2120",
    "departmentId": "104",
    "contentUnit": "L",
    "contentSize": 0.2,
    "netWeight": 0.199,
    "available": true,
    "isUtility": false,
    "preprocessedPricing": {
      "products": {},
      "simplePromotions": {},
      "basketPromotions": {}
    },
    "tosPricing": {
      "basketPromotions": []
    },
    "simplePricePlussa": false,
    "pricingUnit": "kpl",
    "referencePrice": {
      "_type": "Big",
      "value": "6.25"
    },
    "visiblePrice": {
      "_type": "Big",
      "value": "1.25"
    },
    "visiblePriceUnit": "kpl",
    "isDiscounted": false
  },
  {
    "ean": "6413300020267",
    "urlSlug": "arla-protein-rahka-200g-suol-kinusk-lton-6413300020267",
    "name": "Arla Protein suolainen kinuski laktoositon rahka 200g",
    "pictureUrls": [
      {
        "original": "https://public.keskofiles.com/f/k-ruoka/product/6413300020267"
      }
    ],
    "section": "2232",
    "departmentId": "104",
    "contentUnit": "KG",
    "contentSize": 0.2,
    "netWeight": 0.062,
    "available": true,
    "isUtility": false,
    "preprocessedPricing": {
      "products": {},
      "simplePromotions": {},
      "basketPromotions": {}
    },
    "tosPricing": {
      "basketPromotions": []
    },
    "simplePricePlussa": false,
    "pricingUnit": "kpl",
    "referencePrice": {
      "_type": "Big",
      "value": "5.45"
    },
    "visiblePrice": {
      "_type": "Big",
      "value": "1.09"
    },
    "visiblePriceUnit": "kpl",
    "isDiscounted": false
  },
  {
    "ean": "6408430024858",
    "urlSlug": "valio-eila-kreikkal-jog-150g-vad-granome-6408430024858",
    "name": "Valio Eila kreikkalainen jogurtti 150 g vadelma-granaattiomena laktoositon",
    "pictureUrls": [
      {
        "original": "https://public.keskofiles.com/f/k-ruoka/product/6408430024858"
      }
    ],
    "section": "2200",
    "departmentId": "104",
    "contentUnit": "KG",
    "contentSize": 0.15,
    "netWeight": 0.15,
    "available": true,
    "isUtility": false,
    "preprocessedPricing": {
      "products": {},
      "simplePromotions": {},
      "basketPromotions": {}
    },
    "tosPricing": {
      "basketPromotions": []
    },
    "simplePricePlussa": false,
    "pricingUnit": "kpl",
    "referencePrice": {
      "_type": "Big",
      "value": "5.93333333333333333333"
    },
    "visiblePrice": {
      "_type": "Big",
      "value": "0.89"
    },
    "visiblePriceUnit": "kpl",
    "isDiscounted": false
  }
]