[
  {
    "ean": "6412000016976",
    "urlSlug": "dronningholm-vadelmahillo-440g-6412000016976",
    "name": "Dronningholm Vadelmahillo 440g",
    "pictureUrls": [
      {
        "original": "https://public.keskofiles.com/f/k-ruoka/product/6412000016976"
      }
    ],
    "section": "3201",
    "departmentId": "106",
    "contentUnit": "KG",
    "contentSize": 0.44,
    "netWeight": 0.44,
    "available": true,
    "isUtility": false,
    "preprocessedPricing": {
      "products": {},
      "simplePromotions": {},
      "basketPromotions": {}
    },
    "tosPricing": {
      "basketPromotions": []
    },
    "simplePricePlussa": false,
    "pricingUnit": "kpl",
    "referencePrice": {
      "_type": "Big",
      "value": "7.25"
    },
    "visiblePrice": {
      "_type": "Big",
      "value": "3.19"
    },
    "visiblePriceUnit": "kpl",
    "isDiscounted": false
  },
  {
    "ean": "6416710020780",
    "urlSlug": "filos-deluxe-kiv-vihrea-oliivi-400220g-6416710020780",
    "name": "Filos Deluxe kivellinen vihreä oliivi 400/220g",
    "pictureUrls": [
      {
        "original": "https://public.keskofiles.com/f/k-ruoka/product/6416710020780"
      }
    ],
    "section": "3223",
    "departmentId": "115",
    "contentUnit": "KG",
    "contentSize": 0.22,
    "netWeight": 0.4,
    "available": true,
    "isUtility": false,
    "preprocessedPricing": {
      "products": {},
      "simplePromotions": {},
      "basketPromotions": {}
    },
    "tosPricing": {
      "basketPromotions": []
    },
    "simplePricePlussa": false,
    "pricingUnit": "kpl",
    "referencePrice": {
      "_type": "Big",
      "value": "13.40909090909090909091"
    },
    "visiblePrice": {
      "_type": "Big",
      "value": "2.95"
    },
    "visiblePriceUnit": "kpl",
    "isDiscounted": false
  },
  {
    "ean": "6430011810758",
    "urlSlug": "spice-up-valkosipulitahna-110g-6430011810758",
    "name": "Spice Up! Valkosipulitahna 110g",
    "pictureUrls": [
      {
        "original": "https://public.keskofiles.com/f/k-ruoka/product/6430011810758"
      }
    ],
    "section": "4613",
    "departmentId": "115",
    "contentUnit": "KG",
    "contentSize": 0.11,
    "netWeight": 0.11,
    "available": true,
    "isUtility": false,
    "preprocessedPricing": {
      "products": {},
      "simplePromotions": {},
      "basketPromotions": {}
    },
    "tosPricing": {
      "basketPromotions": []
    },
    "simplePricePlussa": false,
    "pricingUnit": "kpl",
    "referencePrice": {
      "_type": "Big",
      "value": "17.72727272727272727273"
    },
    "visiblePrice": {
      "_type": "Big",
      "value": "1.95"
    },
    "visiblePriceUnit": "kpl",
    "isDiscounted": false
  },
  {
    "ean": "3083680664752",
    "urlSlug": "bonduelle-herneita-400280g-erit-hienoja-3083680664752",
    "name": "Bonduelle herneitä 400/280g",
    "pictureUrls": [
      {
        "original": "https://public.keskofiles.com/f/k-ruoka/product/3083680664752"
      }
    ],
    "section": "3222",
    "departmentId": "115",
    "contentUnit": "KG",
    "contentSize": 0.28,
    "netWeight": 0.4,
    "available": true,
    "isUtility": false,
    "preprocessedPricing": {
      "products": {},
      "simplePromotions": {},
      "basketPromotions": {}
    },
    "tosPricing": {
      "basketPromotions": []
    },
    "simplePricePlussa": false,
    "pricingUnit": "kpl",
    "referencePrice": {
      "_type": "Big",
      "value": "5.89285714285714285714"
    },
    "visiblePrice": {
      "_type": "Big",
      "value": "1.65"
    },
    "visiblePriceUnit": "kpl",
    "isDiscounted": false,
    "discountType": "PLUSSA",
    "batchSize": 2,
    "batchPrice": {
      "_type": "Big",
      "value": "2.5"
    }
  },
  {
    "ean": "7310130005855",
    "urlSlug": "gogreen-go-raw-170g-hampunsiemen-luomu-7310130005855",
    "name": "Gogreen Go Raw 170g Hampunsiemen Luomu",
    "pictureUrls": [
      {
        "original": "https://public.keskofiles.com/f/k-ruoka/product/7310130005855"
      }
    ],
    "section": "3093",
    "departmentId": "115",
    "contentUnit": "KG",
    "contentSize": 0.17,
    "netWeight": 0.17,
    "available": true,
    "isUtility": false,
    "preprocessedPricing": {
      "products": {},
      "simplePromotions": {},
      "basketPromotions": {}
    },
    "tosPricing": {
      "basketPromotions": []
    },
    "simplePricePlussa": false,
    "pricingUnit": "kpl",
    "referencePrice": {
      "_type": "Big",
      "value": "35.23529411764705882353"
    },
    "visiblePrice": {
      "_type": "Big",
      "value": "5.99"
    },
    "visiblePriceUnit": "kpl",
    "isDiscounted": false
  },
  {
    "ean": "6430012053871",
    "urlSlug": "tri-tolonen-melatonin-10-mg-30tabl-6430012053871",
    "name": "Tri Tolonen melatonin 1,0 mg 30tabl",
    "pictureUrls": [],
    "section": "4539",
    "departmentId": "115",
    "contentUnit": "KPL",
    "contentSize": 30,
    "netWeight": 0.009,
    "available": true,
    "isUtility": false,
    "preprocessedPricing": {
      "products": {},
      "simplePromotions": {},
      "basketPromotions": {}
    },
    "tosPricing": {
      "basketPromotions": []
    },
    "simplePricePlussa": false,
    "pricingUnit": "kpl",
    "referencePrice": {
      "_type": "Big",
      "value": "0.15966666666666666667"
    },
    "visiblePrice": {
      "_type": "Big",
      "value": "4.79"
    },
    "visiblePriceUnit": "kpl",
    "isDiscounted": false
  },
  {
    "ean": "6430056281278",
    "urlSlug": "fast-creatine250g100-kreatiinimonohydra-6430056281278",
    "name": "FAST Creatine 250g",
    "pictureUrls": [
      {
        "original": "https://public.keskofiles.com/f/k-ruoka/product/6430056281278"
      }
    ],
    "section": "4551",
    "departmentId": "115",
    "contentUnit": "KG",
    "contentSize": 0.25,
    "netWeight": 0.25,
    "available": true,
    "isUtility": false,
    "preprocessedPricing": {
      "products": {},
      "simplePromotions": {},
      "basketPromotions": {}
    },
    "tosPricing": {
      "basketPromotions": []
    },
    "simplePricePlussa": false,
    "pricingUnit": "kpl",
    "referencePrice": {
      "_type": "Big",
      "value": "54.8"
    },
    "visiblePrice": {
      "_type": "Big",
      "value": "13.7"
    },
    "visiblePriceUnit": "kpl",
    "isDiscounted": false
  },
  {
    "ean": "7312170057160",
    "urlSlug": "semper-aamiaishiutaleet-300g-gton-7312170057160",
    "name": "Semper Special Flakes 300g gluteeniton aamiaishiutaleet",
    "pictureUrls": [
      {
        "original": "https://public.keskofiles.com/f/k-ruoka/product/7312170057160"
      }
    ],
    "section": "3086",
    "departmentId": "115",
    "contentUnit": "KG",
    "contentSize": 0.3,
    "netWeight": 0.3,
    "available": true,
    "isUtility": false,
    "preprocessedPricing": {
      "products": {},
      "simplePromotions": {},
      "basketPromotions": {}
    },
    "tosPricing": {
      "basketPromotions": []
    },
    "simplePricePlussa": false,
    "pricingUnit": "kpl",
    "referencePrice": {
      "_type": "Big",
      "value": "16.63333333333333333333"
    },
    "visiblePrice": {
      "_type": "Big",
      "value": "4.99"
    },
    "visiblePriceUnit": "kpl",
    "isDiscounted": false
  },
  {
    "ean": "5010029212655",
    "urlSlug": "weetabix-vehnamuroke-500g-suklaa-5010029212655",
    "name": "Weetabix Chocolate suklaavehnämuroke 500 g",
    "pictureUrls": [
      {
        "original": "https://public.keskofiles.com/f/k-ruoka/product/5010029212655"
      }
    ],
    "section": "3083",
    "departmentId": "115",
    "contentUnit": "KG",
    "contentSize": 0.5,
    "netWeight": 0.5,
    "available": true,
    "isUtility": false,
    "preprocessedPricing": {
      "products": {},
      "simplePromotions": {},
      "basketPromotions": {}
    },
    "tosPricing": {
      "basketPromotions": []
    },
    "simplePricePlussa": false,
    "pricingUnit": "kpl",
    "referencePrice": {
      "_type": "Big",
      "value": "7.18"
    },
    "visiblePrice": {
      "_type": "Big",
      "value": "3.59"
    },
    "visiblePriceUnit": "kpl",
    "isDiscounted": false
  },
  {
    "ean": "8710605030327",
    "urlSlug": "go-tan-korean-barbecue-sauce-270ml-8710605030327",
    "name": "Go-Tan Korean Barbecue Sauce 270ml",
    "pictureUrls": [
      {
        "original": "https://public.keskofiles.com/f/k-ruoka/product/8710605030327"
      }
    ],
    "section": "4682",
    "departmentId": "106",
    "contentUnit": "L",
    "contentSize": 0.27,
    "netWeight": 0.338,
    "available": true,
    "isUtility": false,
    "preprocessedPricing": {
      "products": {},
      "simplePromotions": {},
      "basketPromotions": {}
    },
    "tosPricing": {
      "basketPromotions": []
    },
    "simplePricePlussa": false,
    "pricingUnit": "kpl",
    "referencePrice": {
      "_type": "Big",
      "value": "11.81481481481481481481"
    },
    "visiblePrice": {
      "_type": "Big",
      "value": "3.19"
    },
    "visiblePriceUnit": "kpl",
    "isDiscounted": false
  },
  {
    "ean": "5201119006364",
    "urlSlug": "palirria-lihapyorykat-280g-tomkast-5201119006364",
    "name": "Palirria lihapyörykät tomaattikastikkeessa 280g",
    "pictureUrls": [
      {
        "original": "https://public.keskofiles.com/f/k-ruoka/product/5201119006364"
      }
    ],
    "section": "3272",
    "departmentId": "115",
    "contentUnit": "KG",
    "contentSize": 0.28,
    "netWeight": 0.28,
    "available": true,
    "isUtility": false,
    "preprocessedPricing": {
      "products": {},
      "simplePromotions": {},
      "basketPromotions": {}
    },
    "tosPricing": {
      "basketPromotions": []
    },
    "simplePricePlussa": false,
    "pricingUnit": "kpl",
    "referencePrice": {
      "_type": "Big",
      "value": "15.89285714285714285714"
    },
    "visiblePrice": {
      "_type": "Big",
      "value": "4.45"
    },
    "visiblePriceUnit": "kpl",
    "isDiscounted": false
  },
  {
    "ean": "7322550030997",
    "urlSlug": "bla-band-kastike-3x32g-yrtti-7322550030997",
    "name": "Blå Band klassinen yrttikastike 3x32g",
    "pictureUrls": [
      {
        "original": "https://public.keskofiles.com/f/k-ruoka/product/7322550030997"
      }
    ],
    "section": "4010",
    "departmentId": "115",
    "contentUnit": "KG",
    "contentSize": 0.096,
    "netWeight": 0.096,
    "available": true,
    "isUtility": false,
    "preprocessedPricing": {
      "products": {},
      "simplePromotions": {},
      "basketPromotions": {}
    },
    "tosPricing": {
      "basketPromotions": []
    },
    "simplePricePlussa": false,
    "pricingUnit": "kpl",
    "referencePrice": {
      "_type": "Big",
      "value": "18.22916666666666666667"
    },
    "visiblePrice": {
      "_type": "Big",
      "value": "1.75"
    },
    "visiblePriceUnit": "kpl",
    "isDiscounted": false
  },
  {
    "ean": "7311312002075",
    "urlSlug": "sm-tex-mextaco-sauce-mild-230g-7311312002075",
    "name": "SM Tex MexTaco Sauce Mild 230g",
    "pictureUrls": [
      {
        "original": "https://public.keskofiles.com/f/k-ruoka/product/7311312002075"
      }
    ],
    "section": "4730",
    "departmentId": "115",
    "contentUnit": "KG",
    "contentSize": 0.23,
    "netWeight": 0.23,
    "available": true,
    "isUtility": false,
    "preprocessedPricing": {
      "products": {},
      "simplePromotions": {},
      "basketPromotions": {}
    },
    "tosPricing": {
      "basketPromotions": []
    },
    "simplePricePlussa": false,
    "pricingUnit": "kpl",
    "referencePrice": {
      "_type": "Big",
      "value": "10.21739130434782608696"
    },
    "visiblePrice": {
      "_type": "Big",
      "value": "2.35"
    },
    "visiblePriceUnit": "kpl",
    "isDiscounted": false
  },
  {
    "ean": "7311310038809",
    "urlSlug": "santa-maria-kastike-85ml-hot-pepper-7311310038809",
    "name": "Santa Maria Tex Mex Hot Pepper Sauce chilikastike tulinen 85ml",
    "pictureUrls": [
      {
        "original": "https://public.keskofiles.com/f/k-ruoka/product/7311310038809"
      }
    ],
    "section": "4741",
    "departmentId": "115",
    "contentUnit": "L",
    "contentSize": 0.085,
    "netWeight": 0.094,
    "available": true,
    "isUtility": false,
    "preprocessedPricing": {
      "products": {},
      "simplePromotions": {},
      "basketPromotions": {}
    },
    "tosPricing": {
      "basketPromotions": []
    },
    "simplePricePlussa": false,
    "pricingUnit": "kpl",
    "referencePrice": {
      "_type": "Big",
      "value": "16.35294117647058823529"
    },
    "visiblePrice": {
      "_type": "Big",
      "value": "1.39"
    },
    "visiblePriceUnit": "kpl",
    "isDiscounted": false
  },
  {
    "ean": "5997523312251",
    "urlSlug": "nissin-soba-cup-nuudel-89g-sukiyaki-beef-5997523312251",
    "name": "Nissin SOBA Cup nuudeli Sukiyaki beef 89g",
    "pictureUrls": [
      {
        "original": "https://public.keskofiles.com/f/k-ruoka/product/5997523312251"
      }
    ],
    "section": "4015",
    "departmentId": "115",
    "contentUnit": "KG",
    "contentSize": 0.089,
    "netWeight": 0.089,
    "available": true,
    "isUtility": false,
    "preprocessedPricing": {
      "products": {},
      "simplePromotions": {},
      "basketPromotions": {}
    },
    "tosPricing": {
      "basketPromotions": []
    },
    "simplePricePlussa": false,
    "pricingUnit": "kpl",
    "referencePrice": {
      "_type": "Big",
      "value": "21.91011235955056179775"
    },
    "visiblePrice": {
      "_type": "Big",
      "value": "1.95"
    },
    "visiblePriceUnit": "kpl",
    "isDiscounted": false
  },
  {
    "ean": "6417095300597",
    "urlSlug": "indian-salsa-210g-original-6417095300597",
    "name": "Indian Salsa original 210g",
    "pictureUrls": [
      {
        "original": "https://public.keskofiles.com/f/k-ruoka/product/6417095300597"
      }
    ],
    "section": "4730",
    "departmentId": "115",
    "contentUnit": "KG",
    "contentSize": 0.21,
    "netWeight": 0.21,
    "available": true,
    "isUtility": false,
    "preprocessedPricing": {
      "products": {},
      "simplePromotions": {},
      "basketPromotions": {}
    },
    "tosPricing": {
      "basketPromotions": []
    },
    "simplePricePlussa": false,
    "pricingUnit": "kpl",
    "referencePrice": {
      "_type": "Big",
      "value": "9.95238095238095238095"
    },
    "visiblePrice": {
      "_type": "Big",
      "value": "2.09"
    },
    "visiblePriceUnit": "kpl",
    "isDiscounted": false
  },
  {
    "ean": "8853662004020",
    "urlSlug": "exotic-food-chilikastike-870g-8853662004020",
    "name": "Exotic Food Chilikastike 870g",
    "pictureUrls": [
      {
        "original": "https://public.keskofiles.com/f/k-ruoka/product/8853662004020"
      }
    ],
    "section": "4612",
    "departmentId": "106",
    "contentUnit": "KG",
    "contentSize": 0.87,
    "netWeight": 0,
    "available": true,
    "isUtility": false,
    "preprocessedPricing": {
      "products": {},
      "simplePromotions": {},
      "basketPromotions": {}
    },
    "tosPricing": {
      "basketPromotions": []
    },
    "simplePricePlussa": false,
    "pricingUnit": "kpl",
    "referencePrice": {
      "_type": "Big",
      "value": "4.58620689655172413793"
    },
    "visiblePrice": {
      "_type": "Big",
      "value": "3.99"
    },
    "visiblePriceUnit": "kpl",
    "isDiscounted": false
  },
  {
    "ean": "4002359010491",
    "urlSlug": "uncle-bens-sweetsour-350g-original-4002359010491",
    "name": "Uncle Ben's Sweet&Sour 350g original",
    "pictureUrls": [
      {
        "original": "https://public.keskofiles.com/f/k-ruoka/product/4002359010491"
      }
    ],
    "section": "4174",
    "departmentId": "115",
    "contentUnit": "KG",
    "contentSize": 0.35,
    "netWeight": 0.35,
    "available": true,
    "isUtility": false,
    "preprocessedPricing": {
      "products": {},
      "simplePromotions": {},
      "basketPromotions": {}
    },
    "tosPricing": {
      "basketPromotions": []
    },
    "simplePricePlussa": false,
    "pricingUnit": "kpl",
    "referencePrice": {
      "_type": "Big",
      "value": "5.97142857142857142857"
    },
    "visiblePrice": {
      "_type": "Big",
      "value": "2.09"
    },
    "visiblePriceUnit": "kpl",
    "isDiscounted": false
  },
  {
    "ean": "5412514333324",
    "urlSlug": "poco-loco-tortilla-chips-450g-salted-5412514333324",
    "name": "Poco loco lightly salted tortilla chips 450g maissilastu",
    "pictureUrls": [
      {
        "original": "https://public.keskofiles.com/f/k-ruoka/product/5412514333324"
      }
    ],
    "section": "4710",
    "departmentId": "115",
    "contentUnit": "KG",
    "contentSize": 0.45,
    "netWeight": 0.34,
    "available": true,
    "isUtility": false,
    "preprocessedPricing": {
      "products": {},
      "simplePromotions": {},
      "basketPromotions": {}
    },
    "tosPricing": {
      "basketPromotions": []
    },
    "simplePricePlussa": false,
    "pricingUnit": "kpl",
    "referencePrice": {
      "_type": "Big",
      "value": "6.64444444444444444444"
    },
    "visiblePrice": {
      "_type": "Big",
      "value": "2.99"
    },
    "visiblePriceUnit": "kpl",
    "isDiscounted": false
  },
  {
    "ean": "8410159046170",
    "urlSlug": "figaro-oliivi-935480g-musta-viipaloitu-8410159046170",
    "name": "Figaro oliivi 935/480g musta viipaloitu",
    "pictureUrls": [],
    "section": "3223",
    "departmentId": "115",
    "contentUnit": "KG",
    "contentSize": 0.48,
    "netWeight": 0.935,
    "available": true,
    "isUtility": false,
    "preprocessedPricing": {
      "products": {},
      "simplePromotions": {},
      "basketPromotions": {}
    },
    "tosPricing": {
      "basketPromotions": []
    },
    "simplePricePlussa": false,
    "pricingUnit": "kpl",
    "referencePrice": {
      "_type": "Big",
      "value": "6.22916666666666666667"
    },
    "visiblePrice": {
      "_type": "Big",
      "value": "2.99"
    },
    "visiblePriceUnit": "kpl",
    "isDiscounted": false
  },
  {
    "ean": "7311310039028",
    "urlSlug": "santa-maria-pun-jalapeno215110g-tex-mex-7311310039028",
    "name": "Santa Maria Tex Mex Jalapeno Red Hot  punainen jalapeñochili liemessä 215/110g",
    "pictureUrls": [
      {
        "original": "https://public.keskofiles.com/f/k-ruoka/product/7311310039028"
      }
    ],
    "section": "4750",
    "departmentId": "115",
    "contentUnit": "KG",
    "contentSize": 0.11,
    "netWeight": 0.215,
    "available": true,
    "isUtility": false,
    "preprocessedPricing": {
      "products": {},
      "simplePromotions": {},
      "basketPromotions": {}
    },
    "tosPricing": {
      "basketPromotions": []
    },
    "simplePricePlussa": false,
    "pricingUnit": "kpl",
    "referencePrice": {
      "_type": "Big",
      "value": "20.45454545454545454545"
    },
    "visiblePrice": {
      "_type": "Big",
      "value": "2.25"
    },
    "visiblePriceUnit": "kpl",
    "isDiscounted": false
  },
  {
    "ean": "5702071381686",
    "urlSlug": "sana-sol-b12-vitam-1000ug-100tabl30g-5702071381686",
    "name": "Sana-sol B12-vitam 1000µg 100tabl/30g",
    "pictureUrls": [
      {
        "original": "https://public.keskofiles.com/f/k-ruoka/product/5702071381686"
      }
    ],
    "section": "4512",
    "departmentId": "115",
    "contentUnit": "KG",
    "contentSize": 0.03,
    "netWeight": 0.03,
    "available": true,
    "isUtility": false,
    "preprocessedPricing": {
      "products": {},
      "simplePromotions": {},
      "basketPromotions": {}
    },
    "tosPricing": {
      "basketPromotions": []
    },
    "simplePricePlussa": false,
    "pricingUnit": "kpl",
    "referencePrice": {
      "_type": "Big",
      "value": "265"
    },
    "visiblePrice": {
      "_type": "Big",
      "value": "7.95"
    },
    "visiblePriceUnit": "kpl",
    "isDiscounted": true
  },
  {
    "ean": "6410405136107",
    "urlSlug": "k-menu-salaattikastike-1l-talon-6410405136107",
    "name": "K-Menu Talon salaattikastike 1l",
    "pictureUrls": [
      {
        "original": "https://public.keskofiles.com/f/k-ruoka/product/6410405136107"
      }
    ],
    "section": "4172",
    "departmentId": "115",
    "contentUnit": "L",
    "contentSize": 1,
    "netWeight": 1.05,
    "available": true,
    "isUtility": false,
    "preprocessedPricing": {
      "products": {},
      "simplePromotions": {},
      "basketPromotions": {}
    },
    "tosPricing": {
      "basketPromotions": []
    },
    "simplePricePlussa": false,
    "pricingUnit": "kpl",
    "referencePrice": {
      "_type": "Big",
      "value": "2.99"
    },
    "visiblePrice": {
      "_type": "Big",
      "value": "2.99"
    },
    "visiblePriceUnit": "kpl",
    "isDiscounted": false
  },
  {
    "ean": "5014271796536",
    "urlSlug": "st-dalfour-viikunahillo-284g-5014271796536",
    "name": "St.Dalfour Viikunahillo 284g",
    "pictureUrls": [
      {
        "original": "https://public.keskofiles.com/f/k-ruoka/product/5014271796536"
      }
    ],
    "section": "3202",
    "departmentId": "106",
    "contentUnit": "KG",
    "contentSize": 0.284,
    "netWeight": 0.284,
    "available": true,
    "isUtility": false,
    "preprocessedPricing": {
      "products": {},
      "simplePromotions": {},
      "basketPromotions": {}
    },
    "tosPricing": {
      "basketPromotions": []
    },
    "simplePricePlussa": false,
    "pricingUnit": "kpl",
    "referencePrice": {
      "_type": "Big",
      "value": "11.93661971830985915493"
    },
    "visiblePrice": {
      "_type": "Big",
      "value": "3.39"
    },
    "visiblePriceUnit": "kpl",
    "isDiscounted": false
  },
  {
    "ean": "8001060032088",
    "urlSlug": "sacla-pastakast-300g-arrabiata-tom-chili-8001060032088",
    "name": "Sacla pastakast 300g arrabiata tomaatti - chili",
    "pictureUrls": [
      {
        "original": "https://public.keskofiles.com/f/k-ruoka/product/8001060032088"
      }
    ],
    "section": "4178",
    "departmentId": "115",
    "contentUnit": "KG",
    "contentSize": 0.3,
    "netWeight": 0.3,
    "available": true,
    "isUtility": false,
    "preprocessedPricing": {
      "products": {},
      "simplePromotions": {},
      "basketPromotions": {}
    },
    "tosPricing": {
      "basketPromotions": []
    },
    "simplePricePlussa": false,
    "pricingUnit": "kpl",
    "referencePrice": {
      "_type": "Big",
      "value": "8.16666666666666666667"
    },
    "visiblePrice": {
      "_type": "Big",
      "value": "2.45"
    },
    "visiblePriceUnit": "kpl",
    "isDiscounted": false
  },
  {
    "ean": "7313902800733",
    "urlSlug": "friggs-poretabl-c-vitam-20kpl-80g-sitruu-7313902800733",
    "name": "Friggs C-vitamiini poretabletti 20kpl 80g sitruuna",
    "pictureUrls": [
      {
        "original": "https://public.keskofiles.com/f/k-ruoka/product/7313902800733"
      }
    ],
    "section": "4511",
    "departmentId": "115",
    "contentUnit": "KG",
    "contentSize": 0.08,
    "netWeight": 0.08,
    "available": true,
    "isUtility": false,
    "preprocessedPricing": {
      "products": {},
      "simplePromotions": {},
      "basketPromotions": {}
    },
    "tosPricing": {
      "basketPromotions": []
    },
    "simplePricePlussa": false,
    "pricingUnit": "kpl",
    "referencePrice": {
      "_type": "Big",
      "value": "26.875"
    },
    "visiblePrice": {
      "_type": "Big",
      "value": "2.15"
    },
    "visiblePriceUnit": "kpl",
    "isDiscounted": false,
    "discountType": "PLUSSA",
    "batchSize": 2,
    "batchPrice": {
      "_type": "Big",
      "value": "4"
    }
  },
  {
    "ean": "6430051518591",
    "urlSlug": "leader-dream-protpat-45g-choco-coocies-6430051518591",
    "name": "Leader dream proteiinipatukka 45g suklaata ja keksiä",
    "pictureUrls": [
      {
        "original": "https://public.keskofiles.com/f/k-ruoka/product/6430051518591"
      }
    ],
    "section": "4553",
    "departmentId": "115",
    "contentUnit": "KG",
    "contentSize": 0.045,
    "netWeight": 0.045,
    "available": true,
    "isUtility": false,
    "preprocessedPricing": {
      "products": {},
      "simplePromotions": {},
      "basketPromotions": {}
    },
    "tosPricing": {
      "basketPromotions": []
    },
    "simplePricePlussa": false,
    "pricingUnit": "kpl",
    "referencePrice": {
      "_type": "Big",
      "value": "43.33333333333333333333"
    },
    "visiblePrice": {
      "_type": "Big",
      "value": "1.95"
    },
    "visiblePriceUnit": "kpl",
    "isDiscounted": false,
    "discountType": "PLUSSA",
    "batchSize": 3,
    "batchPrice": {
      "_type": "Big",
      "value": "5"
    }
  },
  {
    "ean": "6418795100227",
    "urlSlug": "pimeapullo-valkosipulisalaattikast-500g-6418795100227",
    "name": "Pimeäpullo Valkosipulisalaattikastike 500g",
    "pictureUrls": [
      {
        "original": "https://public.keskofiles.com/f/k-ruoka/product/6418795100227"
      }
    ],
    "section": "4172",
    "departmentId": "115",
    "contentUnit": "KG",
    "contentSize": 0.5,
    "netWeight": 0.5,
    "available": true,
    "isUtility": false,
    "preprocessedPricing": {
      "products": {},
      "simplePromotions": {},
      "basketPromotions": {}
    },
    "tosPricing": {
      "basketPromotions": []
    },
    "simplePricePlussa": false,
    "pricingUnit": "kpl",
    "referencePrice": {
      "_type": "Big",
      "value": "11.2"
    },
    "visiblePrice": {
      "_type": "Big",
      "value": "5.6"
    },
    "visiblePriceUnit": "kpl",
    "isDiscounted": false
  },
  {
    "ean": "7322550037538",
    "urlSlug": "bla-band-lammin-kuppi-3x23g-juust-parsak-7322550037538",
    "name": "Blå Band Lämmin Kuppi 3x23g juust-parsak",
    "pictureUrls": [
      {
        "original": "https://public.keskofiles.com/f/k-ruoka/product/7322550037538"
      }
    ],
    "section": "4016",
    "departmentId": "115",
    "contentUnit": "KG",
    "contentSize": 0.069,
    "netWeight": 0.069,
    "available": true,
    "isUtility": false,
    "preprocessedPricing": {
      "products": {},
      "simplePromotions": {},
      "basketPromotions": {}
    },
    "tosPricing": {
      "basketPromotions": []
    },
    "simplePricePlussa": false,
    "pricingUnit": "kpl",
    "referencePrice": {
      "_type": "Big",
      "value": "25.36231884057971014493"
    },
    "visiblePrice": {
      "_type": "Big",
      "value": "1.75"
    },
    "visiblePriceUnit": "kpl",
    "isDiscounted": false
  },
  {
    "ean": "5014276703096",
    "urlSlug": "yutaka-yuzu-ponzu-soijakastike-150ml-5014276703096",
    "name": "Yutaka Yuzu Ponzu soijakastike 150ml",
    "pictureUrls": [
      {
        "original": "https://public.keskofiles.com/f/k-ruoka/product/5014276703096"
      }
    ],
    "section": "4621",
    "departmentId": "106",
    "contentUnit": "L",
    "contentSize": 0.15,
    "netWeight": 0.17,
    "available": true,
    "isUtility": false,
    "preprocessedPricing": {
      "products": {},
      "simplePromotions": {},
      "basketPromotions": {}
    },
    "tosPricing": {
      "basketPromotions": []
    },
    "simplePricePlussa": false,
    "pricingUnit": "kpl",
    "referencePrice": {
      "_type": "Big",
      "value": "30.6"
    },
    "visiblePrice": {
      "_type": "Big",
      "value": "4.59"
    },
    "visiblePriceUnit": "kpl",
    "isDiscounted": false
  }
]