[
  {
    "ean": "8008698005576",
    "urlSlug": "schar-classic-vaalea-viipleipa-300g-glto-8008698005576",
    "name": "Schär classic vaalea viipaleleipä 300g gluteeniton",
    "pictureUrls": [
      {
        "original": "https://public.keskofiles.com/f/k-ruoka/product/8008698005576"
      }
    ],
    "section": "1463",
    "departmentId": "101",
    "contentUnit": "KG",
    "contentSize": 0.3,
    "netWeight": 0.3,
    "available": true,
    "isUtility": false,
    "preprocessedPricing": {
      "products": {},
      "simplePromotions": {},
      "basketPromotions": {}
    },
    "tosPricing": {
      "basketPromotions": []
    },
    "simplePricePlussa": false,
    "pricingUnit": "kpl",
    "referencePrice": {
      "_type": "Big",
      "value": "10.5"
    },
    "visiblePrice": {
      "_type": "Big",
      "value": "3.15"
    },
    "visiblePriceUnit": "kpl",
    "isDiscounted": false
  },
  {
    "ean": "6410405109064",
    "urlSlug": "pirkka-helmiina-taytekeksi-350g-vadelma-6410405109064",
    "name": "Pirkka Helmiina vaniljan- ja vadelmanmakuinen täytekeksi 28kpl/350g",
    "pictureUrls": [
      {
        "original": "https://public.keskofiles.com/f/k-ruoka/product/6410405109064"
      }
    ],
    "section": "3120",
    "departmentId": "101",
    "contentUnit": "KG",
    "contentSize": 0.35,
    "netWeight": 0.35,
    "available": true,
    "isUtility": false,
    "preprocessedPricing": {
      "products": {},
      "simplePromotions": {},
      "basketPromotions": {}
    },
    "tosPricing": {
      "basketPromotions": []
    },
    "simplePricePlussa": false,
    "pricingUnit": "kpl",
    "referencePrice": {
      "_type": "Big",
      "value": "7"
    },
    "visiblePrice": {
      "_type": "Big",
      "value": "2.45"
    },
    "visiblePriceUnit": "kpl",
    "isDiscounted": false
  },
  {
    "ean": "7300400127745",
    "urlSlug": "wasa-mineral-plus-nakkileipa-200g-7300400127745",
    "name": "Wasa Mineral Plus näkkileipä 200g",
    "pictureUrls": [
      {
        "original": "https://public.keskofiles.com/f/k-ruoka/product/7300400127745"
      }
    ],
    "section": "3900",
    "departmentId": "101",
    "contentUnit": "KG",
    "contentSize": 0.2,
    "netWeight": 0.2,
    "available": true,
    "isUtility": false,
    "preprocessedPricing": {
      "products": {},
      "simplePromotions": {},
      "basketPromotions": {}
    },
    "tosPricing": {
      "basketPromotions": []
    },
    "simplePricePlussa": false,
    "pricingUnit": "kpl",
    "referencePrice": {
      "_type": "Big",
      "value": "8.95"
    },
    "visiblePrice": {
      "_type": "Big",
      "value": "1.79"
    },
    "visiblePriceUnit": "kpl",
    "isDiscounted": false
  },
  {
    "ean": "7310100602282",
    "urlSlug": "semper-supernakkileipa-140g-chia-gton-7310100602282",
    "name": "Semper supernäkkileipä 140g chia gluteeniton",
    "pictureUrls": [
      {
        "original": "https://public.keskofiles.com/f/k-ruoka/product/7310100602282"
      }
    ],
    "section": "3902",
    "departmentId": "101",
    "contentUnit": "KG",
    "contentSize": 0.14,
    "netWeight": 0.14,
    "available": true,
    "isUtility": false,
    "preprocessedPricing": {
      "products": {},
      "simplePromotions": {},
      "basketPromotions": {}
    },
    "tosPricing": {
      "basketPromotions": []
    },
    "simplePricePlussa": false,
    "pricingUnit": "kpl",
    "referencePrice": {
      "_type": "Big",
      "value": "14.92857142857142857143"
    },
    "visiblePrice": {
      "_type": "Big",
      "value": "2.09"
    },
    "visiblePriceUnit": "kpl",
    "isDiscounted": false
  },
  {
    "ean": "6410402013838",
    "urlSlug": "pirkka-kakkupohja-400g-3-kerros-6410402013838",
    "name": "Pirkka kakkupohja 400g",
    "pictureUrls": [
      {
        "original": "https://public.keskofiles.com/f/k-ruoka/product/6410402013838"
      }
    ],
    "section": "1429",
    "departmentId": "101",
    "contentUnit": "KG",
    "contentSize": 0.4,
    "netWeight": 0.4,
    "available": true,
    "isUtility": false,
    "preprocessedPricing": {
      "products": {},
      "simplePromotions": {},
      "basketPromotions": {}
    },
    "tosPricing": {
      "basketPromotions": []
    },
    "simplePricePlussa": false,
    "pricingUnit": "kpl",
    "referencePrice": {
      "_type": "Big",
      "value": "6.225"
    },
    "visiblePrice": {
      "_type": "Big",
      "value": "2.49"
    },
    "visiblePriceUnit": "kpl",
    "isDiscounted": false
  },
  {
    "ean": "6431903314903",
    "urlSlug": "moilas-sampyla-5kpl-400g-luont-gton-pa-6431903314903",
    "name": "Moilas Gluten-Free Sämpylä 5 kpl",
    "pictureUrls": [
      {
        "original": "https://public.keskofiles.com/f/k-ruoka/product/6431903314903"
      }
    ],
    "section": "1466",
    "departmentId": "107",
    "contentUnit": "KG",
    "contentSize": 0.4,
    "netWeight": 0.4,
    "available": true,
    "isUtility": false,
    "preprocessedPricing": {
      "products": {},
      "simplePromotions": {},
      "basketPromotions": {}
    },
    "tosPricing": {
      "basketPromotions": []
    },
    "simplePricePlussa": false,
    "pricingUnit": "kpl",
    "referencePrice": {
      "_type": "Big",
      "value": "9.375"
    },
    "visiblePrice": {
      "_type": "Big",
      "value": "3.75"
    },
    "visiblePriceUnit": "kpl",
    "isDiscounted": false
  },
  {
    "ean": "6411230033104",
    "urlSlug": "tasangon-pikkuleipa--400g--voimuro-6411230033104",
    "name": "Tasangon voimuro pikkuleipiä 400g",
    "pictureUrls": [
      {
        "original": "https://public.keskofiles.com/f/k-ruoka/product/6411230033104"
      }
    ],
    "section": "3142",
    "departmentId": "101",
    "contentUnit": "KG",
    "contentSize": 0.4,
    "netWeight": 0.4,
    "available": true,
    "isUtility": false,
    "preprocessedPricing": {
      "products": {},
      "simplePromotions": {},
      "basketPromotions": {}
    },
    "tosPricing": {
      "basketPromotions": []
    },
    "simplePricePlussa": false,
    "pricingUnit": "kpl",
    "referencePrice": {
      "_type": "Big",
      "value": "6.975"
    },
    "visiblePrice": {
      "_type": "Big",
      "value": "2.79"
    },
    "visiblePriceUnit": "kpl",
    "isDiscounted": false
  },
  {
    "ean": "6411402486806",
    "urlSlug": "oululainen-wilhelmina-pikkuleipa-185g-6411402486806",
    "name": "Oululainen Wilhelmina pikkuleipä 185 g",
    "pictureUrls": [
      {
        "original": "https://public.keskofiles.com/f/k-ruoka/product/6411402486806"
      }
    ],
    "section": "1429",
    "departmentId": "101",
    "contentUnit": "KG",
    "contentSize": 0.185,
    "netWeight": 0.185,
    "available": true,
    "isUtility": false,
    "preprocessedPricing": {
      "products": {},
      "simplePromotions": {},
      "basketPromotions": {}
    },
    "tosPricing": {
      "basketPromotions": []
    },
    "simplePricePlussa": false,
    "pricingUnit": "kpl",
    "referencePrice": {
      "_type": "Big",
      "value": "12.37837837837837837838"
    },
    "visiblePrice": {
      "_type": "Big",
      "value": "2.29"
    },
    "visiblePriceUnit": "kpl",
    "isDiscounted": false
  },
  {
    "ean": "6411200108863",
    "urlSlug": "nalle-valipalakeksi-150g-taysjvkaura-vad-6411200108863",
    "name": "Nalle välipalakeksi 150g täysjvkaura-vad",
    "pictureUrls": [
      {
        "original": "https://public.keskofiles.com/f/k-ruoka/product/6411200108863"
      }
    ],
    "section": "3131",
    "departmentId": "101",
    "contentUnit": "KG",
    "contentSize": 0.15,
    "netWeight": 0.15,
    "available": true,
    "isUtility": false,
    "preprocessedPricing": {
      "products": {},
      "simplePromotions": {},
      "basketPromotions": {}
    },
    "tosPricing": {
      "basketPromotions": []
    },
    "simplePricePlussa": false,
    "pricingUnit": "kpl",
    "referencePrice": {
      "_type": "Big",
      "value": "17.26666666666666666667"
    },
    "visiblePrice": {
      "_type": "Big",
      "value": "2.59"
    },
    "visiblePriceUnit": "kpl",
    "isDiscounted": false
  },
  {
    "ean": "6438207056973",
    "urlSlug": "sunnuntai-1kg-piparitaikina-6438207056973",
    "name": "Sunnuntai piparitaikina 1 kg",
    "pictureUrls": [
      {
        "original": "https://public.keskofiles.com/f/k-ruoka/product/6438207056973"
      }
    ],
    "section": "1489",
    "departmentId": "107",
    "contentUnit": "KG",
    "contentSize": 1,
    "netWeight": 1,
    "available": true,
    "isUtility": false,
    "preprocessedPricing": {
      "products": {},
      "simplePromotions": {},
      "basketPromotions": {}
    },
    "tosPricing": {
      "basketPromotions": []
    },
    "simplePricePlussa": false,
    "pricingUnit": "kpl",
    "referencePrice": {
      "_type": "Big",
      "value": "4.19"
    },
    "visiblePrice": {
      "_type": "Big",
      "value": "4.19"
    },
    "visiblePriceUnit": "kpl",
    "isDiscounted": false
  },
  {
    "ean": "6410402007929",
    "urlSlug": "pirkka-mireille-kerroskeksi-150g-suklaa-6410402007929",
    "name": "Pirkka Mireille maitosuklaakeksi 150g",
    "pictureUrls": [
      {
        "original": "https://public.keskofiles.com/f/k-ruoka/product/6410402007929"
      }
    ],
    "section": "3111",
    "departmentId": "101",
    "contentUnit": "KG",
    "contentSize": 0.15,
    "netWeight": 0.15,
    "available": true,
    "isUtility": false,
    "preprocessedPricing": {
      "products": {},
      "simplePromotions": {},
      "basketPromotions": {}
    },
    "tosPricing": {
      "basketPromotions": []
    },
    "simplePricePlussa": false,
    "pricingUnit": "kpl",
    "referencePrice": {
      "_type": "Big",
      "value": "11.26666666666666666667"
    },
    "visiblePrice": {
      "_type": "Big",
      "value": "1.69"
    },
    "visiblePriceUnit": "kpl",
    "isDiscounted": false,
    "discountType": "PLUSSA",
    "batchSize": 2,
    "batchPrice": {
      "_type": "Big",
      "value": "3"
    }
  },
  {
    "ean": "6424200019312",
    "urlSlug": "leivo-joululimppu-550g-vaalea-viipaloitu-6424200019312",
    "name": "Leivon Perinteinen Vaalea Joululimppu viipaloitu 550g",
    "pictureUrls": [
      {
        "original": "https://public.keskofiles.com/f/k-ruoka/product/6424200019312"
      }
    ],
    "section": "1418",
    "departmentId": "101",
    "contentUnit": "KG",
    "contentSize": 0.55,
    "netWeight": 0.55,
    "available": true,
    "isUtility": false,
    "preprocessedPricing": {
      "products": {},
      "simplePromotions": {},
      "basketPromotions": {}
    },
    "tosPricing": {
      "basketPromotions": []
    },
    "simplePricePlussa": false,
    "pricingUnit": "kpl",
    "referencePrice": {
      "_type": "Big",
      "value": "3.61818181818181818182"
    },
    "visiblePrice": {
      "_type": "Big",
      "value": "1.99"
    },
    "visiblePriceUnit": "kpl",
    "isDiscounted": false
  },
  {
    "ean": "6413467371301",
    "urlSlug": "fazer-roastd-rye-melon-110g-nakkileipa-6413467371301",
    "name": "Fazer Roastd Rye CrMeln Sd 110g näkkil",
    "pictureUrls": [
      {
        "original": "https://public.keskofiles.com/f/k-ruoka/product/6413467371301"
      }
    ],
    "section": "3901",
    "departmentId": "101",
    "contentUnit": "KG",
    "contentSize": 0.11,
    "netWeight": 0.11,
    "available": true,
    "isUtility": false,
    "preprocessedPricing": {
      "products": {},
      "simplePromotions": {},
      "basketPromotions": {}
    },
    "tosPricing": {
      "basketPromotions": []
    },
    "simplePricePlussa": false,
    "pricingUnit": "kpl",
    "referencePrice": {
      "_type": "Big",
      "value": "18.09090909090909090909"
    },
    "visiblePrice": {
      "_type": "Big",
      "value": "1.99"
    },
    "visiblePriceUnit": "kpl",
    "isDiscounted": false
  },
  {
    "ean": "7330242200689",
    "urlSlug": "fria-brod-piparkakkutaikina-500g-gton-pa-7330242200689",
    "name": "Fria Bröd piparkakkutaikina 500g gluteeniton pakaste",
    "pictureUrls": [
      {
        "original": "https://public.keskofiles.com/f/k-ruoka/product/7330242200689"
      }
    ],
    "section": "1468",
    "departmentId": "107",
    "contentUnit": "KG",
    "contentSize": 0.5,
    "netWeight": 0.5,
    "available": true,
    "isUtility": false,
    "preprocessedPricing": {
      "products": {},
      "simplePromotions": {},
      "basketPromotions": {}
    },
    "tosPricing": {
      "basketPromotions": []
    },
    "simplePricePlussa": false,
    "pricingUnit": "kpl",
    "referencePrice": {
      "_type": "Big",
      "value": "8.18"
    },
    "visiblePrice": {
      "_type": "Big",
      "value": "4.09"
    },
    "visiblePriceUnit": "kpl",
    "isDiscounted": false
  },
  {
    "ean": "6410345916005",
    "urlSlug": "fazer-dallaspulla-9kpl450g-pa-6410345916005",
    "name": "Fazer Dallaspulla 9 kpl / 450 g",
    "pictureUrls": [
      {
        "original": "https://public.keskofiles.com/f/k-ruoka/product/6410345916005"
      }
    ],
    "section": "1458",
    "departmentId": "107",
    "contentUnit": "KG",
    "contentSize": 0.45,
    "netWeight": 0.45,
    "available": true,
    "isUtility": false,
    "preprocessedPricing": {
      "products": {},
      "simplePromotions": {},
      "basketPromotions": {}
    },
    "tosPricing": {
      "basketPromotions": []
    },
    "simplePricePlussa": false,
    "pricingUnit": "kpl",
    "referencePrice": {
      "_type": "Big",
      "value": "5.97777777777777777778"
    },
    "visiblePrice": {
      "_type": "Big",
      "value": "2.69"
    },
    "visiblePriceUnit": "kpl",
    "isDiscounted": false
  },
  {
    "ean": "6430047633000",
    "urlSlug": "free-from-g-hapannappi-150g-naturel-glut-6430047633000",
    "name": "Free from G hapannappi 150g naturel glut",
    "pictureUrls": [
      {
        "original": "https://public.keskofiles.com/f/k-ruoka/product/6430047633000"
      }
    ],
    "section": "1460",
    "departmentId": "101",
    "contentUnit": "KG",
    "contentSize": 0.15,
    "netWeight": 0,
    "available": true,
    "isUtility": false,
    "preprocessedPricing": {
      "products": {},
      "simplePromotions": {},
      "basketPromotions": {}
    },
    "tosPricing": {
      "basketPromotions": []
    },
    "simplePricePlussa": false,
    "pricingUnit": "kpl",
    "referencePrice": {
      "_type": "Big",
      "value": "31.66666666666666666667"
    },
    "visiblePrice": {
      "_type": "Big",
      "value": "4.75"
    },
    "visiblePriceUnit": "kpl",
    "isDiscounted": false
  },
  {
    "ean": "6430036731250",
    "urlSlug": "satumaista-suklaaleivos-200g-glton-6430036731250",
    "name": "Satumaista suklaaleivos 200g glton",
    "pictureUrls": [
      {
        "original": "https://public.keskofiles.com/f/k-ruoka/product/6430036731250"
      }
    ],
    "section": "1461",
    "departmentId": "101",
    "contentUnit": "KG",
    "contentSize": 0.2,
    "netWeight": 0.2,
    "available": true,
    "isUtility": false,
    "preprocessedPricing": {
      "products": {},
      "simplePromotions": {},
      "basketPromotions": {}
    },
    "tosPricing": {
      "basketPromotions": []
    },
    "simplePricePlussa": false,
    "pricingUnit": "kpl",
    "referencePrice": {
      "_type": "Big",
      "value": "19"
    },
    "visiblePrice": {
      "_type": "Big",
      "value": "3.8"
    },
    "visiblePriceUnit": "kpl",
    "isDiscounted": false
  },
  {
    "ean": "7312170055531",
    "urlSlug": "semper-toasty-puhdas-kaura-400g-gton-pa-7312170055531",
    "name": "Semper Toasty Puhdas Kaura 400g gluteeniton leipä",
    "pictureUrls": [
      {
        "original": "https://public.keskofiles.com/f/k-ruoka/product/7312170055531"
      }
    ],
    "section": "1466",
    "departmentId": "107",
    "contentUnit": "KG",
    "contentSize": 0.4,
    "netWeight": 0.4,
    "available": true,
    "isUtility": false,
    "preprocessedPricing": {
      "products": {},
      "simplePromotions": {},
      "basketPromotions": {}
    },
    "tosPricing": {
      "basketPromotions": []
    },
    "simplePricePlussa": false,
    "pricingUnit": "kpl",
    "referencePrice": {
      "_type": "Big",
      "value": "7.225"
    },
    "visiblePrice": {
      "_type": "Big",
      "value": "2.89"
    },
    "visiblePriceUnit": "kpl",
    "isDiscounted": false
  },
  {
    "ean": "6413467282508",
    "urlSlug": "fazer-puikula-taysjyvaruisleipa-330g-6413467282508",
    "name": "Fazer puikula täysjyväruisleipä 330g",
    "pictureUrls": [
      {
        "original": "https://public.keskofiles.com/f/k-ruoka/product/6413467282508"
      }
    ],
    "section": "1401",
    "departmentId": "101",
    "contentUnit": "KG",
    "contentSize": 0.33,
    "netWeight": 0.33,
    "available": true,
    "isUtility": false,
    "preprocessedPricing": {
      "products": {},
      "simplePromotions": {},
      "basketPromotions": {}
    },
    "tosPricing": {
      "basketPromotions": []
    },
    "simplePricePlussa": false,
    "pricingUnit": "kpl",
    "referencePrice": {
      "_type": "Big",
      "value": "3.90909090909090909091"
    },
    "visiblePrice": {
      "_type": "Big",
      "value": "1.29"
    },
    "visiblePriceUnit": "kpl",
    "isDiscounted": false
  },
  {
    "ean": "6409770080054",
    "urlSlug": "rosten-siemennakkileipa-250g-kauraspelt-6409770080054",
    "name": "Rosten Siemen Rapeat siemennäkkileipä 250g kaura, speltti & merisuola",
    "pictureUrls": [
      {
        "original": "https://public.keskofiles.com/f/k-ruoka/product/6409770080054"
      }
    ],
    "section": "3901",
    "departmentId": "101",
    "contentUnit": "KG",
    "contentSize": 0.25,
    "netWeight": 0.25,
    "available": true,
    "isUtility": false,
    "preprocessedPricing": {
      "products": {},
      "simplePromotions": {},
      "basketPromotions": {}
    },
    "tosPricing": {
      "basketPromotions": []
    },
    "simplePricePlussa": false,
    "pricingUnit": "kpl",
    "referencePrice": {
      "_type": "Big",
      "value": "13.4"
    },
    "visiblePrice": {
      "_type": "Big",
      "value": "3.35"
    },
    "visiblePriceUnit": "kpl",
    "isDiscounted": false
  },
  {
    "ean": "7310100561503",
    "urlSlug": "semper-suklaavohveli-45g-lgton-7310100561503",
    "name": "Semper Suklaavohveli 45g gluteeniton keksi",
    "pictureUrls": [
      {
        "original": "https://public.keskofiles.com/f/k-ruoka/product/7310100561503"
      }
    ],
    "section": "3171",
    "departmentId": "101",
    "contentUnit": "KG",
    "contentSize": 0.045,
    "netWeight": 0.045,
    "available": true,
    "isUtility": false,
    "preprocessedPricing": {
      "products": {},
      "simplePromotions": {},
      "basketPromotions": {}
    },
    "tosPricing": {
      "basketPromotions": []
    },
    "simplePricePlussa": false,
    "pricingUnit": "kpl",
    "referencePrice": {
      "_type": "Big",
      "value": "38.88888888888888888889"
    },
    "visiblePrice": {
      "_type": "Big",
      "value": "1.75"
    },
    "visiblePriceUnit": "kpl",
    "isDiscounted": false
  },
  {
    "ean": "6437005058660",
    "urlSlug": "vaasan-taikaruis-taysjyvaruisviip-550g-6437005058660",
    "name": "Vaasan taika taikaruis täysjyväruisviipaleet 550g",
    "pictureUrls": [
      {
        "original": "https://public.keskofiles.com/f/k-ruoka/product/6437005058660"
      }
    ],
    "section": "1418",
    "departmentId": "101",
    "contentUnit": "KG",
    "contentSize": 0.55,
    "netWeight": 0.55,
    "available": true,
    "isUtility": false,
    "preprocessedPricing": {
      "products": {},
      "simplePromotions": {},
      "basketPromotions": {}
    },
    "tosPricing": {
      "basketPromotions": []
    },
    "simplePricePlussa": false,
    "pricingUnit": "kpl",
    "referencePrice": {
      "_type": "Big",
      "value": "3.8"
    },
    "visiblePrice": {
      "_type": "Big",
      "value": "2.09"
    },
    "visiblePriceUnit": "kpl",
    "isDiscounted": false
  },
  {
    "ean": "6410402015078",
    "urlSlug": "pirkka-suklaamuffinit-2kpl160g-6410402015078",
    "name": "Pirkka suklaamuffinit 160g/2kpl",
    "pictureUrls": [
      {
        "original": "https://public.keskofiles.com/f/k-ruoka/product/6410402015078"
      }
    ],
    "section": "1424",
    "departmentId": "101",
    "contentUnit": "KG",
    "contentSize": 0.16,
    "netWeight": 0.16,
    "available": true,
    "isUtility": false,
    "preprocessedPricing": {
      "products": {},
      "simplePromotions": {},
      "basketPromotions": {}
    },
    "tosPricing": {
      "basketPromotions": []
    },
    "simplePricePlussa": false,
    "pricingUnit": "kpl",
    "referencePrice": {
      "_type": "Big",
      "value": "6.8125"
    },
    "visiblePrice": {
      "_type": "Big",
      "value": "1.09"
    },
    "visiblePriceUnit": "kpl",
    "isDiscounted": false
  },
  {
    "ean": "6411401062117",
    "urlSlug": "fazer-doris-tryffeli-250g-6411401062117",
    "name": "Fazer Doris tryffeli 250g",
    "pictureUrls": [
      {
        "original": "https://public.keskofiles.com/f/k-ruoka/product/6411401062117"
      }
    ],
    "section": "3111",
    "departmentId": "101",
    "contentUnit": "KG",
    "contentSize": 0.25,
    "netWeight": 0.25,
    "available": true,
    "isUtility": false,
    "preprocessedPricing": {
      "products": {},
      "simplePromotions": {},
      "basketPromotions": {}
    },
    "tosPricing": {
      "basketPromotions": []
    },
    "simplePricePlussa": false,
    "pricingUnit": "kpl",
    "referencePrice": {
      "_type": "Big",
      "value": "13"
    },
    "visiblePrice": {
      "_type": "Big",
      "value": "3.25"
    },
    "visiblePriceUnit": "kpl",
    "isDiscounted": false
  },
  {
    "ean": "7317066203034",
    "urlSlug": "nyakers-piparkakku-300g-luomu-7317066203034",
    "name": "Nyåkers piparkakku 300g luomu",
    "pictureUrls": [
      {
        "original": "https://public.keskofiles.com/f/k-ruoka/product/7317066203034"
      }
    ],
    "section": "3140",
    "departmentId": "101",
    "contentUnit": "KG",
    "contentSize": 0.3,
    "netWeight": 0.3,
    "available": true,
    "isUtility": false,
    "preprocessedPricing": {
      "products": {},
      "simplePromotions": {},
      "basketPromotions": {}
    },
    "tosPricing": {
      "basketPromotions": []
    },
    "simplePricePlussa": false,
    "pricingUnit": "kpl",
    "referencePrice": {
      "_type": "Big",
      "value": "11.3"
    },
    "visiblePrice": {
      "_type": "Big",
      "value": "3.39"
    },
    "visiblePriceUnit": "kpl",
    "isDiscounted": false
  },
  {
    "ean": "7622210768933",
    "urlSlug": "lu-tuc-105g--seedschives-7622210768933",
    "name": "LU TUC 105g  Seeds&Chives",
    "pictureUrls": [
      {
        "original": "https://public.keskofiles.com/f/k-ruoka/product/7622210768933"
      }
    ],
    "section": "3160",
    "departmentId": "101",
    "contentUnit": "KG",
    "contentSize": 0.105,
    "netWeight": 0.105,
    "available": true,
    "isUtility": false,
    "preprocessedPricing": {
      "products": {},
      "simplePromotions": {},
      "basketPromotions": {}
    },
    "tosPricing": {
      "basketPromotions": []
    },
    "simplePricePlussa": false,
    "pricingUnit": "kpl",
    "referencePrice": {
      "_type": "Big",
      "value": "12.28571428571428571429"
    },
    "visiblePrice": {
      "_type": "Big",
      "value": "1.29"
    },
    "visiblePriceUnit": "kpl",
    "isDiscounted": false
  },
  {
    "ean": "6410405140982",
    "urlSlug": "k-menu-suklaavohvelipala-220g-6410405140982",
    "name": "K-Menu suklaavohvelipala 220g",
    "pictureUrls": [
      {
        "original": "https://public.keskofiles.com/f/k-ruoka/product/6410405140982"
      }
    ],
    "section": "3100",
    "departmentId": "101",
    "contentUnit": "KG",
    "contentSize": 0.22,
    "netWeight": 0.22,
    "available": true,
    "isUtility": false,
    "preprocessedPricing": {
      "products": {},
      "simplePromotions": {},
      "basketPromotions": {}
    },
    "tosPricing": {
      "basketPromotions": []
    },
    "simplePricePlussa": false,
    "pricingUnit": "kpl",
    "referencePrice": {
      "_type": "Big",
      "value": "6.59090909090909090909"
    },
    "visiblePrice": {
      "_type": "Big",
      "value": "1.45"
    },
    "visiblePriceUnit": "kpl",
    "isDiscounted": false
  },
  {
    "ean": "6430047632041",
    "urlSlug": "hannun-tummat-jalkiuunipalat-180g-glutee-6430047632041",
    "name": "Hannun tummat jälkiuunipalat 180g gluteeniton",
    "pictureUrls": [
      {
        "original": "https://public.keskofiles.com/f/k-ruoka/product/6430047632041"
      }
    ],
    "section": "1460",
    "departmentId": "101",
    "contentUnit": "KG",
    "contentSize": 0.18,
    "netWeight": 0,
    "available": true,
    "isUtility": false,
    "preprocessedPricing": {
      "products": {},
      "simplePromotions": {},
      "basketPromotions": {}
    },
    "tosPricing": {
      "basketPromotions": []
    },
    "simplePricePlussa": false,
    "pricingUnit": "kpl",
    "referencePrice": {
      "_type": "Big",
      "value": "26.38888888888888888889"
    },
    "visiblePrice": {
      "_type": "Big",
      "value": "4.75"
    },
    "visiblePriceUnit": "kpl",
    "isDiscounted": false
  },
  {
    "ean": "7310100565723",
    "urlSlug": "semper-nakkileipa-215g-gluteeniton-7310100565723",
    "name": "Semper Karkea näkkileipä 215g gluteeniton",
    "pictureUrls": [
      {
        "original": "https://public.keskofiles.com/f/k-ruoka/product/7310100565723"
      }
    ],
    "section": "3902",
    "departmentId": "101",
    "contentUnit": "KG",
    "contentSize": 0.215,
    "netWeight": 0.215,
    "available": true,
    "isUtility": false,
    "preprocessedPricing": {
      "products": {},
      "simplePromotions": {},
      "basketPromotions": {}
    },
    "tosPricing": {
      "basketPromotions": []
    },
    "simplePricePlussa": false,
    "pricingUnit": "kpl",
    "referencePrice": {
      "_type": "Big",
      "value": "15.11627906976744186047"
    },
    "visiblePrice": {
      "_type": "Big",
      "value": "3.25"
    },
    "visiblePriceUnit": "kpl",
    "isDiscounted": false
  },
  {
    "ean": "6413467366307",
    "urlSlug": "fazer-raparper-jogurttpiirakka-2kpl140g-6413467366307",
    "name": "Fazer raparper-jogurttpiirakka 2kpl/140g",
    "pictureUrls": [
      {
        "original": "https://public.keskofiles.com/f/k-ruoka/product/6413467366307"
      }
    ],
    "section": "1422",
    "departmentId": "101",
    "contentUnit": "KG",
    "contentSize": 0.14,
    "netWeight": 0.14,
    "available": true,
    "isUtility": false,
    "preprocessedPricing": {
      "products": {},
      "simplePromotions": {},
      "basketPromotions": {}
    },
    "tosPricing": {
      "basketPromotions": []
    },
    "simplePricePlussa": false,
    "pricingUnit": "kpl",
    "referencePrice": {
      "_type": "Big",
      "value": "13.5"
    },
    "visiblePrice": {
      "_type": "Big",
      "value": "1.89"
    },
    "visiblePriceUnit": "kpl",
    "isDiscounted": false
  }
]