[
  {
    "ean": "8712566067756",
    "urlSlug": "hellmanns-majoneesi-225-ml-8712566067756",
    "name": "Hellmann's Majoneesi 225 ml",
    "pictureUrls": [
      {
        "original": "https://public.keskofiles.com/f/k-ruoka/product/8712566067756"
      }
    ],
    "section": "4173",
    "departmentId": "106",
    "contentUnit": "L",
    "contentSize": 0.225,
    "netWeight": 0.208,
    "available": true,
    "isUtility": false,
    "preprocessedPricing": {
      "products": {},
      "simplePromotions": {},
      "basketPromotions": {}
    },
    "tosPricing": {
      "basketPromotions": []
    },
    "simplePricePlussa": false,
    "pricingUnit": "kpl",
    "referencePrice": {
      "_type": "Big",
      "value": "12.66666666666666666667"
    },
    "visiblePrice": {
      "_type": "Big",
      "value": "2.85"
    },
    "visiblePriceUnit": "kpl",
    "isDiscounted": false
  },
  {
    "ean": "8715700421834",
    "urlSlug": "heinz-american-burger-kastike-220ml-8715700421834",
    "name": "Heinz American burger kastike 220ml",
    "pictureUrls": [
      {
        "original": "https://public.keskofiles.com/f/k-ruoka/product/8715700421834"
      }
    ],
    "section": "4173",
    "departmentId": "106",
    "contentUnit": "L",
    "contentSize": 0.22,
    "netWeight": 0.23,
    "available": true,
    "isUtility": false,
    "preprocessedPricing": {
      "products": {},
      "simplePromotions": {},
      "basketPromotions": {}
    },
    "tosPricing": {
      "basketPromotions": []
    },
    "simplePricePlussa": false,
    "pricingUnit": "kpl",
    "referencePrice": {
      "_type": "Big",
      "value": "14.04545454545454545455"
    },
    "visiblePrice": {
      "_type": "Big",
      "value": "3.09"
    },
    "visiblePriceUnit": "kpl",
    "isDiscounted": false
  },
  {
    "ean": "6414201001102",
    "urlSlug": "ala-meira-inkivaari-jauh-22g-pussi-6414201001102",
    "name": "Meira inkivääri jauhettu 22g pussi mauste",
    "pictureUrls": [
      {
        "original": "https://public.keskofiles.com/f/k-ruoka/product/6414201001102"
      }
    ],
    "section": "4100",
    "departmentId": "106",
    "contentUnit": "KG",
    "contentSize": 0.022,
    "netWeight": 0.022,
    "available": true,
    "isUtility": false,
    "preprocessedPricing": {
      "products": {},
      "simplePromotions": {},
      "basketPromotions": {}
    },
    "tosPricing": {
      "basketPromotions": []
    },
    "simplePricePlussa": false,
    "pricingUnit": "kpl",
    "referencePrice": {
      "_type": "Big",
      "value": "45"
    },
    "visiblePrice": {
      "_type": "Big",
      "value": "0.99"
    },
    "visiblePriceUnit": "kpl",
    "isDiscounted": false
  },
  {
    "ean": "6410405110039",
    "urlSlug": "pirkka-rypsioljy-500ml-kylmapurist-luomu-6410405110039",
    "name": "Pirkka Luomu kylmäpuristettu rypsiöljy 500ml",
    "pictureUrls": [
      {
        "original": "https://public.keskofiles.com/f/k-ruoka/product/6410405110039"
      }
    ],
    "section": "4190",
    "departmentId": "106",
    "contentUnit": "L",
    "contentSize": 0.5,
    "netWeight": 0.462,
    "available": true,
    "isUtility": false,
    "preprocessedPricing": {
      "products": {},
      "simplePromotions": {},
      "basketPromotions": {}
    },
    "tosPricing": {
      "basketPromotions": []
    },
    "simplePricePlussa": false,
    "pricingUnit": "kpl",
    "referencePrice": {
      "_type": "Big",
      "value": "6.78"
    },
    "visiblePrice": {
      "_type": "Big",
      "value": "3.39"
    },
    "visiblePriceUnit": "kpl",
    "isDiscounted": false
  },
  {
    "ean": "6417700050169",
    "urlSlug": "mp-grahamjauho-1kg-taysjyvavehna-6417700050169",
    "name": "Myllyn Paras Graham Täysjyvävehnäjauho 1 kg",
    "pictureUrls": [
      {
        "original": "https://public.keskofiles.com/f/k-ruoka/product/6417700050169"
      }
    ],
    "section": "3009",
    "departmentId": "106",
    "contentUnit": "KG",
    "contentSize": 1,
    "netWeight": 1,
    "available": true,
    "isUtility": false,
    "preprocessedPricing": {
      "products": {},
      "simplePromotions": {},
      "basketPromotions": {}
    },
    "tosPricing": {
      "basketPromotions": []
    },
    "simplePricePlussa": false,
    "pricingUnit": "kpl",
    "referencePrice": {
      "_type": "Big",
      "value": "1.29"
    },
    "visiblePrice": {
      "_type": "Big",
      "value": "1.29"
    },
    "visiblePriceUnit": "kpl",
    "isDiscounted": false
  },
  {
    "ean": "6410405183743",
    "urlSlug": "k-menu-kiteinen-hunaja-650g-6410405183743",
    "name": "K-Menu kiteinen hunaja 650g",
    "pictureUrls": [
      {
        "original": "https://public.keskofiles.com/f/k-ruoka/product/6410405183743"
      }
    ],
    "section": "3603",
    "departmentId": "106",
    "contentUnit": "KG",
    "contentSize": 0.65,
    "netWeight": 0.65,
    "available": true,
    "isUtility": false,
    "preprocessedPricing": {
      "products": {},
      "simplePromotions": {},
      "basketPromotions": {}
    },
    "tosPricing": {
      "basketPromotions": []
    },
    "simplePricePlussa": false,
    "pricingUnit": "kpl",
    "referencePrice": {
      "_type": "Big",
      "value": "6.38461538461538461538"
    },
    "visiblePrice": {
      "_type": "Big",
      "value": "4.15"
    },
    "visiblePriceUnit": "kpl",
    "isDiscounted": false
  },
  {
    "ean": "7311311015649",
    "urlSlug": "santa-maria-viherpippuri-13g-kokonainen-7311311015649",
    "name": "Santa Maria viherpippuri 13g kokonainen",
    "pictureUrls": [
      {
        "original": "https://public.keskofiles.com/f/k-ruoka/product/7311311015649"
      }
    ],
    "section": "4102",
    "departmentId": "106",
    "contentUnit": "KG",
    "contentSize": 0.013,
    "netWeight": 0.013,
    "available": true,
    "isUtility": false,
    "preprocessedPricing": {
      "products": {},
      "simplePromotions": {},
      "basketPromotions": {}
    },
    "tosPricing": {
      "basketPromotions": []
    },
    "simplePricePlussa": false,
    "pricingUnit": "kpl",
    "referencePrice": {
      "_type": "Big",
      "value": "165.38461538461538461538"
    },
    "visiblePrice": {
      "_type": "Big",
      "value": "2.15"
    },
    "visiblePriceUnit": "kpl",
    "isDiscounted": false
  },
  {
    "ean": "8714100696736",
    "urlSlug": "hellmanns-hunajasinappi-260g-8714100696736",
    "name": "Hellmann's american style yellow mustard",
    "pictureUrls": [
      {
        "original": "https://public.keskofiles.com/f/k-ruoka/product/8714100696736"
      }
    ],
    "section": "4171",
    "departmentId": "106",
    "contentUnit": "KG",
    "contentSize": 0.26,
    "netWeight": 0.26,
    "available": true,
    "isUtility": false,
    "preprocessedPricing": {
      "products": {},
      "simplePromotions": {},
      "basketPromotions": {}
    },
    "tosPricing": {
      "basketPromotions": []
    },
    "simplePricePlussa": false,
    "pricingUnit": "kpl",
    "referencePrice": {
      "_type": "Big",
      "value": "11.5"
    },
    "visiblePrice": {
      "_type": "Big",
      "value": "2.99"
    },
    "visiblePriceUnit": "kpl",
    "isDiscounted": false
  },
  {
    "ean": "5701073064054",
    "urlSlug": "dr--oetker-koristelugeeli--50g-punainen-5701073064054",
    "name": "Dr. Oetker Koristelugeeli Punainen 50g",
    "pictureUrls": [
      {
        "original": "https://public.keskofiles.com/f/k-ruoka/product/5701073064054"
      }
    ],
    "section": "4113",
    "departmentId": "106",
    "contentUnit": "KG",
    "contentSize": 0.05,
    "netWeight": 0.05,
    "available": true,
    "isUtility": false,
    "preprocessedPricing": {
      "products": {},
      "simplePromotions": {},
      "basketPromotions": {}
    },
    "tosPricing": {
      "basketPromotions": []
    },
    "simplePricePlussa": false,
    "pricingUnit": "kpl",
    "referencePrice": {
      "_type": "Big",
      "value": "33.8"
    },
    "visiblePrice": {
      "_type": "Big",
      "value": "1.69"
    },
    "visiblePriceUnit": "kpl",
    "isDiscounted": false
  },
  {
    "ean": "6409944200073",
    "urlSlug": "pansuola-sirotin-250g-6409944200073",
    "name": "Pansuola mineraalisuola sirotin 250 g",
    "pictureUrls": [
      {
        "original": "https://public.keskofiles.com/f/k-ruoka/product/6409944200073"
      }
    ],
    "section": "4151",
    "departmentId": "106",
    "contentUnit": "KG",
    "contentSize": 0.25,
    "netWeight": 0.25,
    "available": true,
    "isUtility": false,
    "preprocessedPricing": {
      "products": {},
      "simplePromotions": {},
      "basketPromotions": {}
    },
    "tosPricing": {
      "basketPromotions": []
    },
    "simplePricePlussa": false,
    "pricingUnit": "kpl",
    "referencePrice": {
      "_type": "Big",
      "value": "7.96"
    },
    "visiblePrice": {
      "_type": "Big",
      "value": "1.99"
    },
    "visiblePriceUnit": "kpl",
    "isDiscounted": false
  },
  {
    "ean": "6410405126962",
    "urlSlug": "pirkka-tumma-leivontasuklaa-200g-utz-6410405126962",
    "name": "Pirkka tumma leivontasuklaa 200g UTZ",
    "pictureUrls": [
      {
        "original": "https://public.keskofiles.com/f/k-ruoka/product/6410405126962"
      }
    ],
    "section": "4112",
    "departmentId": "106",
    "contentUnit": "KG",
    "contentSize": 0.2,
    "netWeight": 0.2,
    "available": true,
    "isUtility": false,
    "preprocessedPricing": {
      "products": {},
      "simplePromotions": {},
      "basketPromotions": {}
    },
    "tosPricing": {
      "basketPromotions": []
    },
    "simplePricePlussa": false,
    "pricingUnit": "kpl",
    "referencePrice": {
      "_type": "Big",
      "value": "9.95"
    },
    "visiblePrice": {
      "_type": "Big",
      "value": "1.99"
    },
    "visiblePriceUnit": "kpl",
    "isDiscounted": false,
    "discountType": "PLUSSA",
    "batchSize": 2,
    "batchPrice": {
      "_type": "Big",
      "value": "3.5"
    }
  },
  {
    "ean": "7311310029524",
    "urlSlug": "santa-maria-bbq-marinadi-75g-valkosipuli-7311310029524",
    "name": "Santa Maria BBQ Marinade Garlic valkosipulimarinadi 75g",
    "pictureUrls": [
      {
        "original": "https://public.keskofiles.com/f/k-ruoka/product/7311310029524"
      }
    ],
    "section": "4175",
    "departmentId": "106",
    "contentUnit": "KG",
    "contentSize": 0.075,
    "netWeight": 0.075,
    "available": true,
    "isUtility": false,
    "preprocessedPricing": {
      "products": {},
      "simplePromotions": {},
      "basketPromotions": {}
    },
    "tosPricing": {
      "basketPromotions": []
    },
    "simplePricePlussa": false,
    "pricingUnit": "kpl",
    "referencePrice": {
      "_type": "Big",
      "value": "14"
    },
    "visiblePrice": {
      "_type": "Big",
      "value": "1.05"
    },
    "visiblePriceUnit": "kpl",
    "isDiscounted": false
  },
  {
    "ean": "6418795100319",
    "urlSlug": "pimeapullo-sinappi-mieto-300g-6418795100319",
    "name": "Pimeäpullo Sinappi mieto 300g",
    "pictureUrls": [
      {
        "original": "https://public.keskofiles.com/f/k-ruoka/product/6418795100319"
      }
    ],
    "section": "4171",
    "departmentId": "106",
    "contentUnit": "KG",
    "contentSize": 0.3,
    "netWeight": 0,
    "available": true,
    "isUtility": false,
    "preprocessedPricing": {
      "products": {},
      "simplePromotions": {},
      "basketPromotions": {}
    },
    "tosPricing": {
      "basketPromotions": []
    },
    "simplePricePlussa": false,
    "pricingUnit": "kpl",
    "referencePrice": {
      "_type": "Big",
      "value": "9.83333333333333333333"
    },
    "visiblePrice": {
      "_type": "Big",
      "value": "2.95"
    },
    "visiblePriceUnit": "kpl",
    "isDiscounted": false
  },
  {
    "ean": "6430043700737",
    "urlSlug": "cocovi-kookossokeri-245g-luomu-6430043700737",
    "name": "Cocov kookossokeri 245g luomu",
    "pictureUrls": [
      {
        "original": "https://public.keskofiles.com/f/k-ruoka/product/6430043700737"
      }
    ],
    "section": "3602",
    "departmentId": "106",
    "contentUnit": "KG",
    "contentSize": 0.245,
    "netWeight": 0.245,
    "available": true,
    "isUtility": false,
    "preprocessedPricing": {
      "products": {},
      "simplePromotions": {},
      "basketPromotions": {}
    },
    "tosPricing": {
      "basketPromotions": []
    },
    "simplePricePlussa": false,
    "pricingUnit": "kpl",
    "referencePrice": {
      "_type": "Big",
      "value": "14.65306122448979591837"
    },
    "visiblePrice": {
      "_type": "Big",
      "value": "3.59"
    },
    "visiblePriceUnit": "kpl",
    "isDiscounted": false
  },
  {
    "ean": "8714100783498",
    "urlSlug": "knorr-kasvisliemikuutio-10x10g-8714100783498",
    "name": "Knorr kasvisliemikuutio 10x10g",
    "pictureUrls": [
      {
        "original": "https://public.keskofiles.com/f/k-ruoka/product/8714100783498"
      }
    ],
    "section": "4182",
    "departmentId": "106",
    "contentUnit": "KG",
    "contentSize": 0.1,
    "netWeight": 0.1,
    "available": true,
    "isUtility": false,
    "preprocessedPricing": {
      "products": {},
      "simplePromotions": {},
      "basketPromotions": {}
    },
    "tosPricing": {
      "basketPromotions": []
    },
    "simplePricePlussa": false,
    "pricingUnit": "kpl",
    "referencePrice": {
      "_type": "Big",
      "value": "13.5"
    },
    "visiblePrice": {
      "_type": "Big",
      "value": "1.35"
    },
    "visiblePriceUnit": "kpl",
    "isDiscounted": false
  },
  {
    "ean": "5701073041420",
    "urlSlug": "dr-oetker-colour-gel-15g-green-5701073041420",
    "name": "Dr.Oetker colour gel 15g green",
    "pictureUrls": [
      {
        "original": "https://public.keskofiles.com/f/k-ruoka/product/5701073041420"
      }
    ],
    "section": "4113",
    "departmentId": "106",
    "contentUnit": "KG",
    "contentSize": 0.015,
    "netWeight": 0.015,
    "available": true,
    "isUtility": false,
    "preprocessedPricing": {
      "products": {},
      "simplePromotions": {},
      "basketPromotions": {}
    },
    "tosPricing": {
      "basketPromotions": []
    },
    "simplePricePlussa": false,
    "pricingUnit": "kpl",
    "referencePrice": {
      "_type": "Big",
      "value": "130"
    },
    "visiblePrice": {
      "_type": "Big",
      "value": "1.95"
    },
    "visiblePriceUnit": "kpl",
    "isDiscounted": false
  },
  {
    "ean": "6410405178893",
    "urlSlug": "pirkka-tumma-jauhoseos-1kg-gluteeniton-6410405178893",
    "name": "Pirkka tumma gluteeniton jauhoseos 1kg",
    "pictureUrls": [
      {
        "original": "https://public.keskofiles.com/f/k-ruoka/product/6410405178893"
      }
    ],
    "section": "3008",
    "departmentId": "106",
    "contentUnit": "KG",
    "contentSize": 1,
    "netWeight": 1,
    "available": true,
    "isUtility": false,
    "preprocessedPricing": {
      "products": {},
      "simplePromotions": {},
      "basketPromotions": {}
    },
    "tosPricing": {
      "basketPromotions": []
    },
    "simplePricePlussa": false,
    "pricingUnit": "kpl",
    "referencePrice": {
      "_type": "Big",
      "value": "4.29"
    },
    "visiblePrice": {
      "_type": "Big",
      "value": "4.29"
    },
    "visiblePriceUnit": "kpl",
    "isDiscounted": false
  },
  {
    "ean": "5706779060904",
    "urlSlug": "earth-control-xl-cashew-karpalosek-500g-5706779060904",
    "name": "Earth Control XL cashew-karpalosek 500g",
    "pictureUrls": [
      {
        "original": "https://public.keskofiles.com/f/k-ruoka/product/5706779060904"
      }
    ],
    "section": "4418",
    "departmentId": "106",
    "contentUnit": "KG",
    "contentSize": 0.5,
    "netWeight": 0.5,
    "available": true,
    "isUtility": false,
    "preprocessedPricing": {
      "products": {},
      "simplePromotions": {},
      "basketPromotions": {}
    },
    "tosPricing": {
      "basketPromotions": []
    },
    "simplePricePlussa": false,
    "pricingUnit": "kpl",
    "referencePrice": {
      "_type": "Big",
      "value": "15.9"
    },
    "visiblePrice": {
      "_type": "Big",
      "value": "7.95"
    },
    "visiblePriceUnit": "kpl",
    "isDiscounted": true
  },
  {
    "ean": "6438207016700",
    "urlSlug": "keiju-rypsioljy-500ml-valkosipuli-6438207016700",
    "name": "Keiju rypsiöljy 500ml valkosipuli",
    "pictureUrls": [
      {
        "original": "https://public.keskofiles.com/f/k-ruoka/product/6438207016700"
      }
    ],
    "section": "4193",
    "departmentId": "106",
    "contentUnit": "L",
    "contentSize": 0.5,
    "netWeight": 0.46,
    "available": true,
    "isUtility": false,
    "preprocessedPricing": {
      "products": {},
      "simplePromotions": {},
      "basketPromotions": {}
    },
    "tosPricing": {
      "basketPromotions": []
    },
    "simplePricePlussa": false,
    "pricingUnit": "kpl",
    "referencePrice": {
      "_type": "Big",
      "value": "6.38"
    },
    "visiblePrice": {
      "_type": "Big",
      "value": "3.19"
    },
    "visiblePriceUnit": "kpl",
    "isDiscounted": false
  },
  {
    "ean": "8722700771449",
    "urlSlug": "knorr-fond-du-chef-224g-kanaliemi-8722700771449",
    "name": "Knorr FOND DU CHEF Kana-annosfondi 8 x 28 g",
    "pictureUrls": [
      {
        "original": "https://public.keskofiles.com/f/k-ruoka/product/8722700771449"
      }
    ],
    "section": "4180",
    "departmentId": "106",
    "contentUnit": "KG",
    "contentSize": 0.224,
    "netWeight": 0.251,
    "available": true,
    "isUtility": false,
    "preprocessedPricing": {
      "products": {},
      "simplePromotions": {},
      "basketPromotions": {}
    },
    "tosPricing": {
      "basketPromotions": []
    },
    "simplePricePlussa": false,
    "pricingUnit": "kpl",
    "referencePrice": {
      "_type": "Big",
      "value": "10.22321428571428571429"
    },
    "visiblePrice": {
      "_type": "Big",
      "value": "2.29"
    },
    "visiblePriceUnit": "kpl",
    "isDiscounted": false
  },
  {
    "ean": "7310155506405",
    "urlSlug": "druvan-valkoviinietikka-300ml-7310155506405",
    "name": "Druvan valkoviinietikka 300ml",
    "pictureUrls": [
      {
        "original": "https://public.keskofiles.com/f/k-ruoka/product/7310155506405"
      }
    ],
    "section": "4162",
    "departmentId": "106",
    "contentUnit": "L",
    "contentSize": 0.3,
    "netWeight": 0.3,
    "available": true,
    "isUtility": false,
    "preprocessedPricing": {
      "products": {},
      "simplePromotions": {},
      "basketPromotions": {}
    },
    "tosPricing": {
      "basketPromotions": []
    },
    "simplePricePlussa": false,
    "pricingUnit": "kpl",
    "referencePrice": {
      "_type": "Big",
      "value": "7.83333333333333333333"
    },
    "visiblePrice": {
      "_type": "Big",
      "value": "2.35"
    },
    "visiblePriceUnit": "kpl",
    "isDiscounted": false
  },
  {
    "ean": "6430024241846",
    "urlSlug": "farina-300g-pizza-ja-piirakkapohjas-gton-6430024241846",
    "name": "Farina 300g Pizza- ja piirakkapohjaseos gluteeniton",
    "pictureUrls": [
      {
        "original": "https://public.keskofiles.com/f/k-ruoka/product/6430024241846"
      }
    ],
    "section": "3008",
    "departmentId": "106",
    "contentUnit": "KG",
    "contentSize": 0.3,
    "netWeight": 0.3,
    "available": true,
    "isUtility": false,
    "preprocessedPricing": {
      "products": {},
      "simplePromotions": {},
      "basketPromotions": {}
    },
    "tosPricing": {
      "basketPromotions": []
    },
    "simplePricePlussa": false,
    "pricingUnit": "kpl",
    "referencePrice": {
      "_type": "Big",
      "value": "17.3"
    },
    "visiblePrice": {
      "_type": "Big",
      "value": "5.19"
    },
    "visiblePriceUnit": "kpl",
    "isDiscounted": false
  },
  {
    "ean": "6412000016648",
    "urlSlug": "dronningholm-mans-vaniljahillo-440g-6412000016648",
    "name": "Dronningholm Mansikka-vaniljahillo 440 g",
    "pictureUrls": [
      {
        "original": "https://public.keskofiles.com/f/k-ruoka/product/6412000016648"
      }
    ],
    "section": "3200",
    "departmentId": "106",
    "contentUnit": "KG",
    "contentSize": 0.44,
    "netWeight": 0.44,
    "available": true,
    "isUtility": false,
    "preprocessedPricing": {
      "products": {},
      "simplePromotions": {},
      "basketPromotions": {}
    },
    "tosPricing": {
      "basketPromotions": []
    },
    "simplePricePlussa": false,
    "pricingUnit": "kpl",
    "referencePrice": {
      "_type": "Big",
      "value": "6.79545454545454545455"
    },
    "visiblePrice": {
      "_type": "Big",
      "value": "2.99"
    },
    "visiblePriceUnit": "kpl",
    "isDiscounted": false
  },
  {
    "ean": "6414201002086",
    "urlSlug": "ala-meira-kumina-22g-kok-pussi-6414201002086",
    "name": "Meira Kumina 22g kok pussi mauste",
    "pictureUrls": [
      {
        "original": "https://public.keskofiles.com/f/k-ruoka/product/6414201002086"
      }
    ],
    "section": "4100",
    "departmentId": "106",
    "contentUnit": "KG",
    "contentSize": 0.022,
    "netWeight": 0.022,
    "available": true,
    "isUtility": false,
    "preprocessedPricing": {
      "products": {},
      "simplePromotions": {},
      "basketPromotions": {}
    },
    "tosPricing": {
      "basketPromotions": []
    },
    "simplePricePlussa": false,
    "pricingUnit": "kpl",
    "referencePrice": {
      "_type": "Big",
      "value": "35.90909090909090909091"
    },
    "visiblePrice": {
      "_type": "Big",
      "value": "0.79"
    },
    "visiblePriceUnit": "kpl",
    "isDiscounted": false
  },
  {
    "ean": "6409538431128",
    "urlSlug": "auran-kurkkumajoneesi-400g-6409538431128",
    "name": "Auran kurkkumajoneesi 400g",
    "pictureUrls": [
      {
        "original": "https://public.keskofiles.com/f/k-ruoka/product/6409538431128"
      }
    ],
    "section": "4173",
    "departmentId": "106",
    "contentUnit": "KG",
    "contentSize": 0.4,
    "netWeight": 0.4,
    "available": true,
    "isUtility": false,
    "preprocessedPricing": {
      "products": {},
      "simplePromotions": {},
      "basketPromotions": {}
    },
    "tosPricing": {
      "basketPromotions": []
    },
    "simplePricePlussa": false,
    "pricingUnit": "kpl",
    "referencePrice": {
      "_type": "Big",
      "value": "8.975"
    },
    "visiblePrice": {
      "_type": "Big",
      "value": "3.59"
    },
    "visiblePriceUnit": "kpl",
    "isDiscounted": false
  },
  {
    "ean": "5765228518045",
    "urlSlug": "urtekram-taateli-250g-aurinkokuiv-luomu-5765228518045",
    "name": "Urtekram aurinkokuivattu taateli 250g luomu",
    "pictureUrls": [
      {
        "original": "https://public.keskofiles.com/f/k-ruoka/product/5765228518045"
      }
    ],
    "section": "4409",
    "departmentId": "106",
    "contentUnit": "KG",
    "contentSize": 0.25,
    "netWeight": 0.25,
    "available": true,
    "isUtility": false,
    "preprocessedPricing": {
      "products": {},
      "simplePromotions": {},
      "basketPromotions": {}
    },
    "tosPricing": {
      "basketPromotions": []
    },
    "simplePricePlussa": false,
    "pricingUnit": "kpl",
    "referencePrice": {
      "_type": "Big",
      "value": "14.76"
    },
    "visiblePrice": {
      "_type": "Big",
      "value": "3.69"
    },
    "visiblePriceUnit": "kpl",
    "isDiscounted": false
  },
  {
    "ean": "7311311004131",
    "urlSlug": "santa-maria-ruohosipuli-15g-7311311004131",
    "name": "Santa Maria ruohosipuli 1,5g",
    "pictureUrls": [
      {
        "original": "https://public.keskofiles.com/f/k-ruoka/product/7311311004131"
      }
    ],
    "section": "4100",
    "departmentId": "106",
    "contentUnit": "KG",
    "contentSize": 0,
    "netWeight": 0.002,
    "available": true,
    "isUtility": false,
    "preprocessedPricing": {
      "products": {},
      "simplePromotions": {},
      "basketPromotions": {}
    },
    "tosPricing": {
      "basketPromotions": []
    },
    "simplePricePlussa": false,
    "pricingUnit": "kpl",
    "visiblePrice": {
      "_type": "Big",
      "value": "0.61"
    },
    "visiblePriceUnit": "kpl",
    "isDiscounted": false
  },
  {
    "ean": "6410405055606",
    "urlSlug": "pirkka-inkivaari-13g-jauhettu-6410405055606",
    "name": "Pirkka inkivääri jauhettu 13 g",
    "pictureUrls": [
      {
        "original": "https://public.keskofiles.com/f/k-ruoka/product/6410405055606"
      }
    ],
    "section": "4100",
    "departmentId": "106",
    "contentUnit": "KG",
    "contentSize": 0.013,
    "netWeight": 0.013,
    "available": true,
    "isUtility": false,
    "preprocessedPricing": {
      "products": {},
      "simplePromotions": {},
      "basketPromotions": {}
    },
    "tosPricing": {
      "basketPromotions": []
    },
    "simplePricePlussa": false,
    "pricingUnit": "kpl",
    "referencePrice": {
      "_type": "Big",
      "value": "57.69230769230769230769"
    },
    "visiblePrice": {
      "_type": "Big",
      "value": "0.75"
    },
    "visiblePriceUnit": "kpl",
    "isDiscounted": false
  },
  {
    "ean": "6410405192677",
    "urlSlug": "pirkka-hoisin-kastike-300ml-6410405192677",
    "name": "Pirkka Hoisin-kastike 300ml",
    "pictureUrls": [
      {
        "original": "https://public.keskofiles.com/f/k-ruoka/product/6410405192677"
      }
    ],
    "section": "4602",
    "departmentId": "106",
    "contentUnit": "L",
    "contentSize": 0.3,
    "netWeight": 0.3,
    "available": true,
    "isUtility": false,
    "preprocessedPricing": {
      "products": {},
      "simplePromotions": {},
      "basketPromotions": {}
    },
    "tosPricing": {
      "basketPromotions": []
    },
    "simplePricePlussa": false,
    "pricingUnit": "kpl",
    "referencePrice": {
      "_type": "Big",
      "value": "8.63333333333333333333"
    },
    "visiblePrice": {
      "_type": "Big",
      "value": "2.59"
    },
    "visiblePriceUnit": "kpl",
    "isDiscounted": false
  },
  {
    "ean": "6411410000360",
    "urlSlug": "sam-kesakukka-hunaja-15kg-pullo-6411410000360",
    "name": "SAM Kesäkukka 1,5Kg Hunaja",
    "pictureUrls": [
      {
        "original": "https://public.keskofiles.com/f/k-ruoka/product/6411410000360"
      }
    ],
    "section": "3603",
    "departmentId": "106",
    "contentUnit": "KG",
    "contentSize": 1.5,
    "netWeight": 1.5,
    "available": true,
    "isUtility": false,
    "preprocessedPricing": {
      "products": {},
      "simplePromotions": {},
      "basketPromotions": {}
    },
    "tosPricing": {
      "basketPromotions": []
    },
    "simplePricePlussa": false,
    "pricingUnit": "kpl",
    "referencePrice": {
      "_type": "Big",
      "value": "11.3"
    },
    "visiblePrice": {
      "_type": "Big",
      "value": "16.95"
    },
    "visiblePriceUnit": "kpl",
    "isDiscounted": false
  }
]