[
  {
    "ean": "6407810014120",
    "urlSlug": "atria-pt-kanan-koipi-800g-naturel-6407810014120",
    "name": "Atria Perhetilan 800g naturel kanan koipi",
    "pictureUrls": [
      {
        "original": "https://public.keskofiles.com/f/k-ruoka/product/6407810014120"
      }
    ],
    "section": "1051",
    "departmentId": "102",
    "contentUnit": "KG",
    "contentSize": 0.8,
    "netWeight": 0.8,
    "available": true,
    "isUtility": false,
    "preprocessedPricing": {
      "products": {},
      "simplePromotions": {},
      "basketPromotions": {}
    },
    "tosPricing": {
      "basketPromotions": []
    },
    "simplePricePlussa": false,
    "pricingUnit": "kpl",
    "referencePrice": {
      "_type": "Big",
      "value": "4.1125"
    },
    "visiblePrice": {
      "_type": "Big",
      "value": "3.29"
    },
    "visiblePriceUnit": "kpl",
    "isDiscounted": false
  },
  {
    "ean": "6406600101323",
    "urlSlug": "hyva-apaja-graavilohiviipaleet-150g-6406600101323",
    "name": "Hyvä Apaja graavilohiviipaleet 150g",
    "pictureUrls": [
      {
        "original": "https://public.keskofiles.com/f/k-ruoka/product/6406600101323"
      }
    ],
    "section": "1123",
    "departmentId": "102",
    "contentUnit": "KG",
    "contentSize": 0.15,
    "netWeight": 0.15,
    "available": true,
    "isUtility": false,
    "preprocessedPricing": {
      "products": {},
      "simplePromotions": {},
      "basketPromotions": {}
    },
    "tosPricing": {
      "basketPromotions": []
    },
    "simplePricePlussa": false,
    "pricingUnit": "kpl",
    "referencePrice": {
      "_type": "Big",
      "value": "46.6"
    },
    "visiblePrice": {
      "_type": "Big",
      "value": "6.99"
    },
    "visiblePriceUnit": "kpl",
    "isDiscounted": false
  },
  {
    "ean": "6410405155825",
    "urlSlug": "k-menu-ohuen-ohu-kalkkunafileeleike-150g-6410405155825",
    "name": "K-Menu ohuen ohut kalkkunafileeleike 150g",
    "pictureUrls": [
      {
        "original": "https://public.keskofiles.com/f/k-ruoka/product/6410405155825"
      }
    ],
    "section": "1207",
    "departmentId": "102",
    "contentUnit": "KG",
    "contentSize": 0.15,
    "netWeight": 0.15,
    "available": true,
    "isUtility": false,
    "preprocessedPricing": {
      "products": {},
      "simplePromotions": {},
      "basketPromotions": {}
    },
    "tosPricing": {
      "basketPromotions": []
    },
    "simplePricePlussa": false,
    "pricingUnit": "kpl",
    "referencePrice": {
      "_type": "Big",
      "value": "8.6"
    },
    "visiblePrice": {
      "_type": "Big",
      "value": "1.29"
    },
    "visiblePriceUnit": "kpl",
    "isDiscounted": false
  },
  {
    "ean": "6405834004899",
    "urlSlug": "savuhovi-murea-uunikinkku-200g-pitkaan-k-6405834004899",
    "name": "Savuhovi pitkään kypsynyt murea uunikinkku 200g",
    "pictureUrls": [
      {
        "original": "https://public.keskofiles.com/f/k-ruoka/product/6405834004899"
      }
    ],
    "section": "1206",
    "departmentId": "102",
    "contentUnit": "KG",
    "contentSize": 0.2,
    "netWeight": 0.2,
    "available": true,
    "isUtility": false,
    "preprocessedPricing": {
      "products": {},
      "simplePromotions": {},
      "basketPromotions": {}
    },
    "tosPricing": {
      "basketPromotions": []
    },
    "simplePricePlussa": false,
    "pricingUnit": "kpl",
    "referencePrice": {
      "_type": "Big",
      "value": "14.95"
    },
    "visiblePrice": {
      "_type": "Big",
      "value": "2.99"
    },
    "visiblePriceUnit": "kpl",
    "isDiscounted": true
  },
  {
    "ean": "6406170036650",
    "urlSlug": "leroy-sushilajitelma-10kpl-290g-oishii-6406170036650",
    "name": "Lerøy sushilajitelma Oishii 10kpl 290g",
    "pictureUrls": [
      {
        "original": "https://public.keskofiles.com/f/k-ruoka/product/6406170036650"
      }
    ],
    "section": "1165",
    "departmentId": "102",
    "contentUnit": "KG",
    "contentSize": 0.29,
    "netWeight": 0.29,
    "available": true,
    "isUtility": false,
    "preprocessedPricing": {
      "products": {},
      "simplePromotions": {},
      "basketPromotions": {}
    },
    "tosPricing": {
      "basketPromotions": []
    },
    "simplePricePlussa": false,
    "pricingUnit": "kpl",
    "referencePrice": {
      "_type": "Big",
      "value": "43.79310344827586206897"
    },
    "visiblePrice": {
      "_type": "Big",
      "value": "12.7"
    },
    "visiblePriceUnit": "kpl",
    "isDiscounted": false
  },
  {
    "ean": "6409620010781",
    "urlSlug": "snellman-uunipaist-maksap-200g-viip-6409620010781",
    "name": "Snellman viipaloitu uunipaistettu maksapatee 200g",
    "pictureUrls": [
      {
        "original": "https://public.keskofiles.com/f/k-ruoka/product/6409620010781"
      }
    ],
    "section": "1204",
    "departmentId": "102",
    "contentUnit": "KG",
    "contentSize": 0.2,
    "netWeight": 0.2,
    "available": true,
    "isUtility": false,
    "preprocessedPricing": {
      "products": {},
      "simplePromotions": {},
      "basketPromotions": {}
    },
    "tosPricing": {
      "basketPromotions": []
    },
    "simplePricePlussa": false,
    "pricingUnit": "kpl",
    "referencePrice": {
      "_type": "Big",
      "value": "12.95"
    },
    "visiblePrice": {
      "_type": "Big",
      "value": "2.59"
    },
    "visiblePriceUnit": "kpl",
    "isDiscounted": false
  },
  {
    "ean": "6408720009046",
    "urlSlug": "wigren-venalainen-meetwursti-100g-6408720009046",
    "name": "Wigren venäläinen meetwursti 100g",
    "pictureUrls": [
      {
        "original": "https://public.keskofiles.com/f/k-ruoka/product/6408720009046"
      }
    ],
    "section": "1203",
    "departmentId": "102",
    "contentUnit": "KG",
    "contentSize": 0.1,
    "netWeight": 0.1,
    "available": true,
    "isUtility": false,
    "preprocessedPricing": {
      "products": {},
      "simplePromotions": {},
      "basketPromotions": {}
    },
    "tosPricing": {
      "basketPromotions": []
    },
    "simplePricePlussa": false,
    "pricingUnit": "kpl",
    "referencePrice": {
      "_type": "Big",
      "value": "29.9"
    },
    "visiblePrice": {
      "_type": "Big",
      "value": "2.99"
    },
    "visiblePriceUnit": "kpl",
    "isDiscounted": false
  },
  {
    "ean": "2391351700007",
    "urlSlug": "hk-naudan-sfpihvi-2xn300g-chateaubriand-2391351700007",
    "name": "HK naudan sisäfileepihvi Châteaubriand n300g",
    "pictureUrls": [
      {
        "original": "https://public.keskofiles.com/f/k-ruoka/product/2391351700007"
      }
    ],
    "section": "1013",
    "departmentId": "102",
    "contentUnit": "KG",
    "contentSize": 1,
    "netWeight": 0,
    "available": true,
    "isUtility": false,
    "preprocessedPricing": {
      "products": {},
      "simplePromotions": {},
      "basketPromotions": {}
    },
    "tosPricing": {
      "basketPromotions": []
    },
    "simplePricePlussa": false,
    "pricingUnit": "kg",
    "referencePrice": {
      "_type": "Big",
      "value": "53.65"
    },
    "visiblePrice": {
      "_type": "Big",
      "value": "53.65"
    },
    "visiblePriceUnit": "kg",
    "isDiscounted": false
  },
  {
    "ean": "2396280200000",
    "urlSlug": "snellman-naudan-maksapala-1xn500g-2396280200000",
    "name": "Snellman Naudan maksapala n. 500g",
    "pictureUrls": [
      {
        "original": "https://public.keskofiles.com/f/k-ruoka/product/2396280200000"
      }
    ],
    "section": "1016",
    "departmentId": "102",
    "contentUnit": "KG",
    "contentSize": 1,
    "netWeight": 0,
    "available": true,
    "isUtility": false,
    "preprocessedPricing": {
      "products": {},
      "simplePromotions": {},
      "basketPromotions": {}
    },
    "tosPricing": {
      "basketPromotions": []
    },
    "simplePricePlussa": false,
    "pricingUnit": "kg",
    "referencePrice": {
      "_type": "Big",
      "value": "7.99"
    },
    "visiblePrice": {
      "_type": "Big",
      "value": "7.99"
    },
    "visiblePriceUnit": "kg",
    "isDiscounted": false
  },
  {
    "ean": "6409052082004",
    "urlSlug": "huhtahyvat-chorizo-130g-6409052082004",
    "name": "Huhtahyvät chorizo 130g",
    "pictureUrls": [
      {
        "original": "https://public.keskofiles.com/f/k-ruoka/product/6409052082004"
      }
    ],
    "section": "1203",
    "departmentId": "102",
    "contentUnit": "KG",
    "contentSize": 0.13,
    "netWeight": 0.13,
    "available": true,
    "isUtility": false,
    "preprocessedPricing": {
      "products": {},
      "simplePromotions": {},
      "basketPromotions": {}
    },
    "tosPricing": {
      "basketPromotions": []
    },
    "simplePricePlussa": false,
    "pricingUnit": "kpl",
    "referencePrice": {
      "_type": "Big",
      "value": "15"
    },
    "visiblePrice": {
      "_type": "Big",
      "value": "1.95"
    },
    "visiblePriceUnit": "kpl",
    "isDiscounted": false
  },
  {
    "ean": "6406300000018",
    "urlSlug": "kivikyla-lauantainmakkara-400g-6406300000018",
    "name": "Kivikylä lauantainmakkara 400g",
    "pictureUrls": [
      {
        "original": "https://public.keskofiles.com/f/k-ruoka/product/6406300000018"
      }
    ],
    "section": "1200",
    "departmentId": "102",
    "contentUnit": "KG",
    "contentSize": 0.4,
    "netWeight": 0.4,
    "available": true,
    "isUtility": false,
    "preprocessedPricing": {
      "products": {},
      "simplePromotions": {},
      "basketPromotions": {}
    },
    "tosPricing": {
      "basketPromotions": []
    },
    "simplePricePlussa": false,
    "pricingUnit": "kpl",
    "referencePrice": {
      "_type": "Big",
      "value": "7.725"
    },
    "visiblePrice": {
      "_type": "Big",
      "value": "3.09"
    },
    "visiblePriceUnit": "kpl",
    "isDiscounted": false
  },
  {
    "ean": "6409100062057",
    "urlSlug": "hk-broilerlauantai-800g-6409100062057",
    "name": "HK 800g Broilerlauantai",
    "pictureUrls": [
      {
        "original": "https://public.keskofiles.com/f/k-ruoka/product/6409100062057"
      }
    ],
    "section": "1200",
    "departmentId": "102",
    "contentUnit": "KG",
    "contentSize": 0.8,
    "netWeight": 0.8,
    "available": true,
    "isUtility": false,
    "preprocessedPricing": {
      "products": {},
      "simplePromotions": {},
      "basketPromotions": {}
    },
    "tosPricing": {
      "basketPromotions": []
    },
    "simplePricePlussa": false,
    "pricingUnit": "kpl",
    "referencePrice": {
      "_type": "Big",
      "value": "5.6125"
    },
    "visiblePrice": {
      "_type": "Big",
      "value": "4.49"
    },
    "visiblePriceUnit": "kpl",
    "isDiscounted": false
  },
  {
    "ean": "6408720008995",
    "urlSlug": "wigren-annan-joulusiivut-400g-6408720008995",
    "name": "Wigren Annan joulusiivut 400g",
    "pictureUrls": [
      {
        "original": "https://public.keskofiles.com/f/k-ruoka/product/6408720008995"
      }
    ],
    "section": "1206",
    "departmentId": "102",
    "contentUnit": "KG",
    "contentSize": 0.4,
    "netWeight": 0.4,
    "available": true,
    "isUtility": false,
    "preprocessedPricing": {
      "products": {},
      "simplePromotions": {},
      "basketPromotions": {}
    },
    "tosPricing": {
      "basketPromotions": []
    },
    "simplePricePlussa": false,
    "pricingUnit": "kpl",
    "referencePrice": {
      "_type": "Big",
      "value": "14.975"
    },
    "visiblePrice": {
      "_type": "Big",
      "value": "5.99"
    },
    "visiblePriceUnit": "kpl",
    "isDiscounted": true
  },
  {
    "ean": "6409620010026",
    "urlSlug": "snellman-kunnon-kuoreton-nakki-560g-6409620010026",
    "name": "Snellman kunnon kuoreton nakki 560g",
    "pictureUrls": [
      {
        "original": "https://public.keskofiles.com/f/k-ruoka/product/6409620010026"
      }
    ],
    "section": "1212",
    "departmentId": "102",
    "contentUnit": "KG",
    "contentSize": 0.56,
    "netWeight": 0.56,
    "available": true,
    "isUtility": false,
    "preprocessedPricing": {
      "products": {},
      "simplePromotions": {},
      "basketPromotions": {}
    },
    "tosPricing": {
      "basketPromotions": []
    },
    "simplePricePlussa": false,
    "pricingUnit": "kpl",
    "referencePrice": {
      "_type": "Big",
      "value": "8.30357142857142857143"
    },
    "visiblePrice": {
      "_type": "Big",
      "value": "4.65"
    },
    "visiblePriceUnit": "kpl",
    "isDiscounted": false
  },
  {
    "ean": "6406300014237",
    "urlSlug": "kivikylan-huiluntuhti-kuoreton-400g-6406300014237",
    "name": "Kivikylän huiluntuhti kuoreton grillimakkara 400g",
    "pictureUrls": [
      {
        "original": "https://public.keskofiles.com/f/k-ruoka/product/6406300014237"
      }
    ],
    "section": "1214",
    "departmentId": "102",
    "contentUnit": "KG",
    "contentSize": 0.4,
    "netWeight": 0.4,
    "available": true,
    "isUtility": false,
    "preprocessedPricing": {
      "products": {},
      "simplePromotions": {},
      "basketPromotions": {}
    },
    "tosPricing": {
      "basketPromotions": []
    },
    "simplePricePlussa": false,
    "pricingUnit": "kpl",
    "referencePrice": {
      "_type": "Big",
      "value": "8.975"
    },
    "visiblePrice": {
      "_type": "Big",
      "value": "3.59"
    },
    "visiblePriceUnit": "kpl",
    "isDiscounted": false
  },
  {
    "ean": "6406170036711",
    "urlSlug": "leroy-kylmasavukirjolohif-200g-viip-rdtn-6406170036711",
    "name": "Lerøy 200g ruodoton viipaloitu kylmäsavustettu kirjolohifilee",
    "pictureUrls": [
      {
        "original": "https://public.keskofiles.com/f/k-ruoka/product/6406170036711"
      }
    ],
    "section": "1121",
    "departmentId": "102",
    "contentUnit": "KG",
    "contentSize": 0.2,
    "netWeight": 0.2,
    "available": true,
    "isUtility": false,
    "preprocessedPricing": {
      "products": {},
      "simplePromotions": {},
      "basketPromotions": {}
    },
    "tosPricing": {
      "basketPromotions": []
    },
    "simplePricePlussa": false,
    "pricingUnit": "kpl",
    "referencePrice": {
      "_type": "Big",
      "value": "44.95"
    },
    "visiblePrice": {
      "_type": "Big",
      "value": "8.99"
    },
    "visiblePriceUnit": "kpl",
    "isDiscounted": false
  },
  {
    "ean": "6406601090305",
    "urlSlug": "hyva-apaja-jaamerensalaatti-200g-6406601090305",
    "name": "Hyvä Apaja jäämerensalaatti 200g",
    "pictureUrls": [
      {
        "original": "https://public.keskofiles.com/f/k-ruoka/product/6406601090305"
      }
    ],
    "section": "1161",
    "departmentId": "102",
    "contentUnit": "KG",
    "contentSize": 0.2,
    "netWeight": 0.2,
    "available": true,
    "isUtility": false,
    "preprocessedPricing": {
      "products": {},
      "simplePromotions": {},
      "basketPromotions": {}
    },
    "tosPricing": {
      "basketPromotions": []
    },
    "simplePricePlussa": false,
    "pricingUnit": "kpl",
    "referencePrice": {
      "_type": "Big",
      "value": "14.95"
    },
    "visiblePrice": {
      "_type": "Big",
      "value": "2.99"
    },
    "visiblePriceUnit": "kpl",
    "isDiscounted": false
  },
  {
    "ean": "6408720004782",
    "urlSlug": "wigren-wigwurstnakki-280g-6408720004782",
    "name": "Wigren wigwurstnakki 280g",
    "pictureUrls": [
      {
        "original": "https://public.keskofiles.com/f/k-ruoka/product/6408720004782"
      }
    ],
    "section": "1211",
    "departmentId": "102",
    "contentUnit": "KG",
    "contentSize": 0.28,
    "netWeight": 0.28,
    "available": true,
    "isUtility": false,
    "preprocessedPricing": {
      "products": {},
      "simplePromotions": {},
      "basketPromotions": {}
    },
    "tosPricing": {
      "basketPromotions": []
    },
    "simplePricePlussa": false,
    "pricingUnit": "kpl",
    "referencePrice": {
      "_type": "Big",
      "value": "14.60714285714285714286"
    },
    "visiblePrice": {
      "_type": "Big",
      "value": "4.09"
    },
    "visiblePriceUnit": "kpl",
    "isDiscounted": false
  },
  {
    "ean": "7392555503888",
    "urlSlug": "tante-juliette-viherpippuripate-150g-7392555503888",
    "name": "Tante Juliette viherpippuripaté 150g",
    "pictureUrls": [
      {
        "original": "https://public.keskofiles.com/f/k-ruoka/product/7392555503888"
      }
    ],
    "section": "1205",
    "departmentId": "102",
    "contentUnit": "KG",
    "contentSize": 0.15,
    "netWeight": 0.15,
    "available": true,
    "isUtility": false,
    "preprocessedPricing": {
      "products": {},
      "simplePromotions": {},
      "basketPromotions": {}
    },
    "tosPricing": {
      "basketPromotions": []
    },
    "simplePricePlussa": false,
    "pricingUnit": "kpl",
    "referencePrice": {
      "_type": "Big",
      "value": "23"
    },
    "visiblePrice": {
      "_type": "Big",
      "value": "3.45"
    },
    "visiblePriceUnit": "kpl",
    "isDiscounted": false
  },
  {
    "ean": "6407870073983",
    "urlSlug": "atria-herkkulenkki-450g-original-6407870073983",
    "name": "Atria kunnon herkkulenkki 450g",
    "pictureUrls": [
      {
        "original": "https://public.keskofiles.com/f/k-ruoka/product/6407870073983"
      }
    ],
    "section": "1210",
    "departmentId": "102",
    "contentUnit": "KG",
    "contentSize": 0.45,
    "netWeight": 0.45,
    "available": true,
    "isUtility": false,
    "preprocessedPricing": {
      "products": {},
      "simplePromotions": {},
      "basketPromotions": {}
    },
    "tosPricing": {
      "basketPromotions": []
    },
    "simplePricePlussa": false,
    "pricingUnit": "kpl",
    "referencePrice": {
      "_type": "Big",
      "value": "5.97777777777777777778"
    },
    "visiblePrice": {
      "_type": "Big",
      "value": "2.69"
    },
    "visiblePriceUnit": "kpl",
    "isDiscounted": false
  },
  {
    "ean": "6412000071135",
    "urlSlug": "saarioinen-meetvursti-200g-kevyt-viip-6412000071135",
    "name": "Saarioinen Kevyt meetvursti 200 g",
    "pictureUrls": [
      {
        "original": "https://public.keskofiles.com/f/k-ruoka/product/6412000071135"
      }
    ],
    "section": "1202",
    "departmentId": "102",
    "contentUnit": "KG",
    "contentSize": 0.2,
    "netWeight": 0.2,
    "available": true,
    "isUtility": false,
    "preprocessedPricing": {
      "products": {},
      "simplePromotions": {},
      "basketPromotions": {}
    },
    "tosPricing": {
      "basketPromotions": []
    },
    "simplePricePlussa": false,
    "pricingUnit": "kpl",
    "referencePrice": {
      "_type": "Big",
      "value": "15.45"
    },
    "visiblePrice": {
      "_type": "Big",
      "value": "3.09"
    },
    "visiblePriceUnit": "kpl",
    "isDiscounted": false
  },
  {
    "ean": "6407880084269",
    "urlSlug": "atria-keittokinkku-250g-6407880084269",
    "name": "Atria keittokinkku 250g",
    "pictureUrls": [
      {
        "original": "https://public.keskofiles.com/f/k-ruoka/product/6407880084269"
      }
    ],
    "section": "1206",
    "departmentId": "102",
    "contentUnit": "KG",
    "contentSize": 0.25,
    "netWeight": 0.25,
    "available": true,
    "isUtility": false,
    "preprocessedPricing": {
      "products": {},
      "simplePromotions": {},
      "basketPromotions": {}
    },
    "tosPricing": {
      "basketPromotions": []
    },
    "simplePricePlussa": false,
    "pricingUnit": "kpl",
    "referencePrice": {
      "_type": "Big",
      "value": "11.96"
    },
    "visiblePrice": {
      "_type": "Big",
      "value": "2.99"
    },
    "visiblePriceUnit": "kpl",
    "isDiscounted": false
  },
  {
    "ean": "6410405157966",
    "urlSlug": "pirkka-parh-porsaanfilee-130g-pippurimau-6410405157966",
    "name": "Pirkka Parhaat pippurimaustettu porsaanfilee 130g",
    "pictureUrls": [
      {
        "original": "https://public.keskofiles.com/f/k-ruoka/product/6410405157966"
      }
    ],
    "section": "1206",
    "departmentId": "102",
    "contentUnit": "KG",
    "contentSize": 0.13,
    "netWeight": 0.13,
    "available": true,
    "isUtility": false,
    "preprocessedPricing": {
      "products": {},
      "simplePromotions": {},
      "basketPromotions": {}
    },
    "tosPricing": {
      "basketPromotions": []
    },
    "simplePricePlussa": false,
    "pricingUnit": "kpl",
    "referencePrice": {
      "_type": "Big",
      "value": "18.84615384615384615385"
    },
    "visiblePrice": {
      "_type": "Big",
      "value": "2.45"
    },
    "visiblePriceUnit": "kpl",
    "isDiscounted": false
  },
  {
    "ean": "2000404000000",
    "urlSlug": "lohifilee-graavi-kg-2000404000000",
    "name": "Lohifilee graavi kg",
    "pictureUrls": [
      {
        "original": "https://public.keskofiles.com/f/k-ruoka/product/2000404000000"
      }
    ],
    "section": "1126",
    "departmentId": "102",
    "contentUnit": "KG",
    "contentSize": 1,
    "netWeight": 1,
    "available": true,
    "isUtility": false,
    "preprocessedPricing": {
      "products": {},
      "simplePromotions": {},
      "basketPromotions": {}
    },
    "tosPricing": {
      "basketPromotions": []
    },
    "simplePricePlussa": false,
    "pricingUnit": "kg",
    "referencePrice": {
      "_type": "Big",
      "value": "54.9"
    },
    "visiblePrice": {
      "_type": "Big",
      "value": "54.9"
    },
    "visiblePriceUnit": "kg",
    "isDiscounted": false
  },
  {
    "ean": "2356553000003",
    "urlSlug": "reini-karitsan-pataliha-luu-n13kg-luomu-2356553000003",
    "name": "Reinin Liha 1,17-1,43kg Luomu karitsan pataliha luulla",
    "pictureUrls": [],
    "section": "1030",
    "departmentId": "102",
    "contentUnit": "KG",
    "contentSize": 1,
    "netWeight": 0,
    "available": true,
    "isUtility": false,
    "preprocessedPricing": {
      "products": {},
      "simplePromotions": {},
      "basketPromotions": {}
    },
    "tosPricing": {
      "basketPromotions": []
    },
    "simplePricePlussa": false,
    "pricingUnit": "kg",
    "referencePrice": {
      "_type": "Big",
      "value": "16.95"
    },
    "visiblePrice": {
      "_type": "Big",
      "value": "16.95"
    },
    "visiblePriceUnit": "kg",
    "isDiscounted": false
  },
  {
    "ean": "6407800009938",
    "urlSlug": "atria-pt-hornet-900g-kanan-siipi-ext-hot-6407800009938",
    "name": "Atria perhetilan kana hornet extra hot marinoitu siipi 900g",
    "pictureUrls": [
      {
        "original": "https://public.keskofiles.com/f/k-ruoka/product/6407800009938"
      }
    ],
    "section": "1051",
    "departmentId": "102",
    "contentUnit": "KG",
    "contentSize": 0.9,
    "netWeight": 0.9,
    "available": true,
    "isUtility": false,
    "preprocessedPricing": {
      "products": {},
      "simplePromotions": {},
      "basketPromotions": {}
    },
    "tosPricing": {
      "basketPromotions": []
    },
    "simplePricePlussa": false,
    "pricingUnit": "kpl",
    "referencePrice": {
      "_type": "Big",
      "value": "3.65555555555555555556"
    },
    "visiblePrice": {
      "_type": "Big",
      "value": "3.29"
    },
    "visiblePriceUnit": "kpl",
    "isDiscounted": false
  },
  {
    "ean": "6431600010559",
    "urlSlug": "boy-matjessilli-580250g-msc-6431600010559",
    "name": "Boy Matjessilli 580g MSC",
    "pictureUrls": [
      {
        "original": "https://public.keskofiles.com/f/k-ruoka/product/6431600010559"
      }
    ],
    "section": "1182",
    "departmentId": "102",
    "contentUnit": "KG",
    "contentSize": 0.25,
    "netWeight": 0.58,
    "available": true,
    "isUtility": false,
    "preprocessedPricing": {
      "products": {},
      "simplePromotions": {},
      "basketPromotions": {}
    },
    "tosPricing": {
      "basketPromotions": []
    },
    "simplePricePlussa": false,
    "pricingUnit": "kpl",
    "referencePrice": {
      "_type": "Big",
      "value": "15"
    },
    "visiblePrice": {
      "_type": "Big",
      "value": "3.75"
    },
    "visiblePriceUnit": "kpl",
    "isDiscounted": false
  },
  {
    "ean": "6406600109077",
    "urlSlug": "hyva-apaja-aioli-200g-6406600109077",
    "name": "Hyvä Apaja aioli 200g",
    "pictureUrls": [
      {
        "original": "https://public.keskofiles.com/f/k-ruoka/product/6406600109077"
      }
    ],
    "section": "1161",
    "departmentId": "102",
    "contentUnit": "KG",
    "contentSize": 0.2,
    "netWeight": 0.2,
    "available": true,
    "isUtility": false,
    "preprocessedPricing": {
      "products": {},
      "simplePromotions": {},
      "basketPromotions": {}
    },
    "tosPricing": {
      "basketPromotions": []
    },
    "simplePricePlussa": false,
    "pricingUnit": "kpl",
    "referencePrice": {
      "_type": "Big",
      "value": "14.95"
    },
    "visiblePrice": {
      "_type": "Big",
      "value": "2.99"
    },
    "visiblePriceUnit": "kpl",
    "isDiscounted": false
  },
  {
    "ean": "6407810014397",
    "urlSlug": "atria-pt-kanan-ohut-fileeleike-600g-pipp-6407810014397",
    "name": "Atria Perhetilan 600g pehmeän pippurinen kanan ohut fileeleike",
    "pictureUrls": [
      {
        "original": "https://public.keskofiles.com/f/k-ruoka/product/6407810014397"
      }
    ],
    "section": "1053",
    "departmentId": "102",
    "contentUnit": "KG",
    "contentSize": 0.6,
    "netWeight": 0.6,
    "available": true,
    "isUtility": false,
    "preprocessedPricing": {
      "products": {},
      "simplePromotions": {},
      "basketPromotions": {}
    },
    "tosPricing": {
      "basketPromotions": []
    },
    "simplePricePlussa": false,
    "pricingUnit": "kpl",
    "referencePrice": {
      "_type": "Big",
      "value": "11.65"
    },
    "visiblePrice": {
      "_type": "Big",
      "value": "6.99"
    },
    "visiblePriceUnit": "kpl",
    "isDiscounted": false
  },
  {
    "ean": "6407810016926",
    "urlSlug": "atria-kanan-paistisuikale-350g-teriyaki-6407810016926",
    "name": "Atria kanan paistisuikale teriaki 350g",
    "pictureUrls": [
      {
        "original": "https://public.keskofiles.com/f/k-ruoka/product/6407810016926"
      }
    ],
    "section": "1052",
    "departmentId": "102",
    "contentUnit": "KG",
    "contentSize": 0.35,
    "netWeight": 0.35,
    "available": true,
    "isUtility": false,
    "preprocessedPricing": {
      "products": {},
      "simplePromotions": {},
      "basketPromotions": {}
    },
    "tosPricing": {
      "basketPromotions": []
    },
    "simplePricePlussa": false,
    "pricingUnit": "kpl",
    "referencePrice": {
      "_type": "Big",
      "value": "8.42857142857142857143"
    },
    "visiblePrice": {
      "_type": "Big",
      "value": "2.95"
    },
    "visiblePriceUnit": "kpl",
    "isDiscounted": false
  }
]