[
  {
    "ean": "5021991245664",
    "urlSlug": "clipper-espresso-227g-luomu-reilu-5021991245664",
    "name": "Clipper espresso 227g Luomu Reilu kauppa",
    "pictureUrls": [
      {
        "original": "https://public.keskofiles.com/f/k-ruoka/product/5021991245664"
      }
    ],
    "section": "3402",
    "departmentId": "108",
    "contentUnit": "KG",
    "contentSize": 0.227,
    "netWeight": 0.227,
    "available": true,
    "isUtility": false,
    "preprocessedPricing": {
      "products": {},
      "simplePromotions": {},
      "basketPromotions": {}
    },
    "tosPricing": {
      "basketPromotions": []
    },
    "simplePricePlussa": false,
    "pricingUnit": "kpl",
    "referencePrice": {
      "_type": "Big",
      "value": "20.92511013215859030837"
    },
    "visiblePrice": {
      "_type": "Big",
      "value": "4.75"
    },
    "visiblePriceUnit": "kpl",
    "isDiscounted": false
  },
  {
    "ean": "6419800052883",
    "urlSlug": "kevytolo-sitruuna-mehukivvesi-15l-kmp-6419800052883",
    "name": "KevytOlo sitruuna mehukivvesi 1,5l",
    "pictureUrls": [
      {
        "original": "https://public.keskofiles.com/f/k-ruoka/product/6419800052883"
      }
    ],
    "section": "5026",
    "departmentId": "108",
    "contentUnit": "L",
    "contentSize": 1.5,
    "netWeight": 1.529,
    "available": true,
    "isUtility": false,
    "preprocessedPricing": {
      "products": {},
      "simplePromotions": {},
      "basketPromotions": {}
    },
    "tosPricing": {
      "basketPromotions": []
    },
    "simplePricePlussa": false,
    "pricingUnit": "kpl",
    "referencePrice": {
      "_type": "Big",
      "value": "1.52666666666666666667"
    },
    "visiblePrice": {
      "_type": "Big",
      "value": "2.69"
    },
    "visiblePriceUnit": "kpl",
    "isDiscounted": false
  },
  {
    "ean": "6408430064359",
    "urlSlug": "valio-gefilus-mehujuoma-1l-karpalo-6408430064359",
    "name": "Valio Gefilus mehujuoma 1l karpalo",
    "pictureUrls": [
      {
        "original": "https://public.keskofiles.com/f/k-ruoka/product/6408430064359"
      }
    ],
    "section": "1913",
    "departmentId": "108",
    "contentUnit": "L",
    "contentSize": 1,
    "netWeight": 1,
    "available": true,
    "isUtility": false,
    "preprocessedPricing": {
      "products": {},
      "simplePromotions": {},
      "basketPromotions": {}
    },
    "tosPricing": {
      "basketPromotions": []
    },
    "simplePricePlussa": false,
    "pricingUnit": "kpl",
    "referencePrice": {
      "_type": "Big",
      "value": "2.15"
    },
    "visiblePrice": {
      "_type": "Big",
      "value": "2.15"
    },
    "visiblePriceUnit": "kpl",
    "isDiscounted": true
  },
  {
    "ean": "8711200327584",
    "urlSlug": "lipton-organic-ginger-lemon-yrttitee-34g-8711200327584",
    "name": "Lipton Organic Ginger Lemon Yrttitee 34g",
    "pictureUrls": [],
    "section": "3463",
    "departmentId": "108",
    "contentUnit": "KG",
    "contentSize": 0.034,
    "netWeight": 0.034,
    "available": true,
    "isUtility": false,
    "preprocessedPricing": {
      "products": {},
      "simplePromotions": {},
      "basketPromotions": {}
    },
    "tosPricing": {
      "basketPromotions": []
    },
    "simplePricePlussa": false,
    "pricingUnit": "kpl",
    "referencePrice": {
      "_type": "Big",
      "value": "90.88235294117647058824"
    },
    "visiblePrice": {
      "_type": "Big",
      "value": "3.09"
    },
    "visiblePriceUnit": "kpl",
    "isDiscounted": false
  },
  {
    "ean": "5060229011077",
    "urlSlug": "pukka-tee-20x19g-blackcurrant-luomu-5060229011077",
    "name": "Pukka tee 20X1,9g Blackcurrant luomu",
    "pictureUrls": [
      {
        "original": "https://public.keskofiles.com/f/k-ruoka/product/5060229011077"
      }
    ],
    "section": "3463",
    "departmentId": "108",
    "contentUnit": "KG",
    "contentSize": 0.038,
    "netWeight": 0.038,
    "available": true,
    "isUtility": false,
    "preprocessedPricing": {
      "products": {},
      "simplePromotions": {},
      "basketPromotions": {}
    },
    "tosPricing": {
      "basketPromotions": []
    },
    "simplePricePlussa": false,
    "pricingUnit": "kpl",
    "referencePrice": {
      "_type": "Big",
      "value": "135.52631578947368421053"
    },
    "visiblePrice": {
      "_type": "Big",
      "value": "5.15"
    },
    "visiblePriceUnit": "kpl",
    "isDiscounted": false
  },
  {
    "ean": "6430040250242",
    "urlSlug": "kaffa-roastery-lempea-voima-250g-papu-6430040250242",
    "name": "Kaffa Roastery Lempeä Voima 250g PAPU",
    "pictureUrls": [
      {
        "original": "https://public.keskofiles.com/f/k-ruoka/product/6430040250242"
      }
    ],
    "section": "3404",
    "departmentId": "108",
    "contentUnit": "KG",
    "contentSize": 0.25,
    "netWeight": 0.25,
    "available": true,
    "isUtility": false,
    "preprocessedPricing": {
      "products": {},
      "simplePromotions": {},
      "basketPromotions": {}
    },
    "tosPricing": {
      "basketPromotions": []
    },
    "simplePricePlussa": false,
    "pricingUnit": "kpl",
    "referencePrice": {
      "_type": "Big",
      "value": "33"
    },
    "visiblePrice": {
      "_type": "Big",
      "value": "8.25"
    },
    "visiblePriceUnit": "kpl",
    "isDiscounted": false
  },
  {
    "ean": "6420610111868",
    "urlSlug": "bonne-kirsikkanektari-premium-1l-6420610111868",
    "name": "Bonne premium kirsikkanektari 1l",
    "pictureUrls": [
      {
        "original": "https://public.keskofiles.com/f/k-ruoka/product/6420610111868"
      }
    ],
    "section": "3349",
    "departmentId": "108",
    "contentUnit": "L",
    "contentSize": 1,
    "netWeight": 1.03,
    "available": true,
    "isUtility": false,
    "preprocessedPricing": {
      "products": {},
      "simplePromotions": {},
      "basketPromotions": {}
    },
    "tosPricing": {
      "basketPromotions": []
    },
    "simplePricePlussa": false,
    "pricingUnit": "kpl",
    "referencePrice": {
      "_type": "Big",
      "value": "2.25"
    },
    "visiblePrice": {
      "_type": "Big",
      "value": "2.25"
    },
    "visiblePriceUnit": "kpl",
    "isDiscounted": false
  },
  {
    "ean": "6418785191013",
    "urlSlug": "vip-snadi-juoma-2dl-appelsiini-10-pack-6418785191013",
    "name": "Vip Snadi juoma 2dl appelsiini 10-pack",
    "pictureUrls": [
      {
        "original": "https://public.keskofiles.com/f/k-ruoka/product/6418785191013"
      }
    ],
    "section": "3301",
    "departmentId": "108",
    "contentUnit": "L",
    "contentSize": 2,
    "netWeight": 2,
    "available": true,
    "isUtility": false,
    "preprocessedPricing": {
      "products": {},
      "simplePromotions": {},
      "basketPromotions": {}
    },
    "tosPricing": {
      "basketPromotions": []
    },
    "simplePricePlussa": false,
    "pricingUnit": "kpl",
    "referencePrice": {
      "_type": "Big",
      "value": "1.625"
    },
    "visiblePrice": {
      "_type": "Big",
      "value": "3.25"
    },
    "visiblePriceUnit": "kpl",
    "isDiscounted": false,
    "discountType": "PLUSSA",
    "batchSize": 2,
    "batchPrice": {
      "_type": "Big",
      "value": "5"
    }
  },
  {
    "ean": "6417241970131",
    "urlSlug": "aten-mustikkataysmehu-05l-sokeroimaton-6417241970131",
    "name": "Aten kylmäpuristettu mustikkatäysmehu 0,5l sokeroimaton",
    "pictureUrls": [
      {
        "original": "https://public.keskofiles.com/f/k-ruoka/product/6417241970131"
      }
    ],
    "section": "3339",
    "departmentId": "108",
    "contentUnit": "L",
    "contentSize": 0.5,
    "netWeight": 0.536,
    "available": true,
    "isUtility": false,
    "preprocessedPricing": {
      "products": {},
      "simplePromotions": {},
      "basketPromotions": {}
    },
    "tosPricing": {
      "basketPromotions": []
    },
    "simplePricePlussa": false,
    "pricingUnit": "kpl",
    "referencePrice": {
      "_type": "Big",
      "value": "12.78"
    },
    "visiblePrice": {
      "_type": "Big",
      "value": "6.39"
    },
    "visiblePriceUnit": "kpl",
    "isDiscounted": false
  },
  {
    "ean": "5029396322782",
    "urlSlug": "fentimans-curiosity-cola-0275l-klp-5029396322782",
    "name": "Fentimans Curiosity Cola 27,5cl",
    "pictureUrls": [
      {
        "original": "https://public.keskofiles.com/f/k-ruoka/product/5029396322782"
      }
    ],
    "section": "5000",
    "departmentId": "108",
    "contentUnit": "L",
    "contentSize": 0.275,
    "netWeight": 0.275,
    "available": true,
    "isUtility": false,
    "preprocessedPricing": {
      "products": {},
      "simplePromotions": {},
      "basketPromotions": {}
    },
    "tosPricing": {
      "basketPromotions": []
    },
    "simplePricePlussa": false,
    "pricingUnit": "kpl",
    "referencePrice": {
      "_type": "Big",
      "value": "6.87272727272727272727"
    },
    "visiblePrice": {
      "_type": "Big",
      "value": "1.99"
    },
    "visiblePriceUnit": "kpl",
    "isDiscounted": false
  },
  {
    "ean": "6420101883526",
    "urlSlug": "kulta-katriina-450g-luomu-tumma-sj-6420101883526",
    "name": "Kulta Katriina 450g Luomu tumma sj",
    "pictureUrls": [
      {
        "original": "https://public.keskofiles.com/f/k-ruoka/product/6420101883526"
      }
    ],
    "section": "3401",
    "departmentId": "108",
    "contentUnit": "KG",
    "contentSize": 0.45,
    "netWeight": 0.45,
    "available": true,
    "isUtility": false,
    "preprocessedPricing": {
      "products": {},
      "simplePromotions": {},
      "basketPromotions": {}
    },
    "tosPricing": {
      "basketPromotions": []
    },
    "simplePricePlussa": false,
    "pricingUnit": "kpl",
    "referencePrice": {
      "_type": "Big",
      "value": "7.66666666666666666667"
    },
    "visiblePrice": {
      "_type": "Big",
      "value": "3.45"
    },
    "visiblePriceUnit": "kpl",
    "isDiscounted": false,
    "discountType": "PLUSSA",
    "batchSize": 3,
    "batchPrice": {
      "_type": "Big",
      "value": "10"
    }
  },
  {
    "ean": "8031301884398",
    "urlSlug": "lemondor-limetaysmehu-125ml-8031301884398",
    "name": "Lemondor limetäysmehu 125ml",
    "pictureUrls": [
      {
        "original": "https://public.keskofiles.com/f/k-ruoka/product/8031301884398"
      }
    ],
    "section": "3339",
    "departmentId": "108",
    "contentUnit": "L",
    "contentSize": 0.125,
    "netWeight": 0.13,
    "available": true,
    "isUtility": false,
    "preprocessedPricing": {
      "products": {},
      "simplePromotions": {},
      "basketPromotions": {}
    },
    "tosPricing": {
      "basketPromotions": []
    },
    "simplePricePlussa": false,
    "pricingUnit": "kpl",
    "referencePrice": {
      "_type": "Big",
      "value": "8.8"
    },
    "visiblePrice": {
      "_type": "Big",
      "value": "1.1"
    },
    "visiblePriceUnit": "kpl",
    "isDiscounted": false
  },
  {
    "ean": "6410402023073",
    "urlSlug": "pirkka-omenataysmehu-1l-6410402023073",
    "name": "Pirkka omenatäysmehu 1l",
    "pictureUrls": [
      {
        "original": "https://public.keskofiles.com/f/k-ruoka/product/6410402023073"
      }
    ],
    "section": "3331",
    "departmentId": "108",
    "contentUnit": "L",
    "contentSize": 1,
    "netWeight": 1.045,
    "available": true,
    "isUtility": false,
    "preprocessedPricing": {
      "products": {},
      "simplePromotions": {},
      "basketPromotions": {}
    },
    "tosPricing": {
      "basketPromotions": []
    },
    "simplePricePlussa": false,
    "pricingUnit": "kpl",
    "referencePrice": {
      "_type": "Big",
      "value": "0.99"
    },
    "visiblePrice": {
      "_type": "Big",
      "value": "0.99"
    },
    "visiblePriceUnit": "kpl",
    "isDiscounted": false
  },
  {
    "ean": "6415600502962",
    "urlSlug": "schweppes-ginger-ale-15l-kmp-6415600502962",
    "name": "Schweppes Ginger Ale 1,5l",
    "pictureUrls": [
      {
        "original": "https://public.keskofiles.com/f/k-ruoka/product/6415600502962"
      }
    ],
    "section": "5045",
    "departmentId": "108",
    "contentUnit": "L",
    "contentSize": 1.5,
    "netWeight": 1.598,
    "available": true,
    "isUtility": false,
    "preprocessedPricing": {
      "products": {},
      "simplePromotions": {},
      "basketPromotions": {}
    },
    "tosPricing": {
      "basketPromotions": []
    },
    "simplePricePlussa": false,
    "pricingUnit": "kpl",
    "referencePrice": {
      "_type": "Big",
      "value": "2.39333333333333333333"
    },
    "visiblePrice": {
      "_type": "Big",
      "value": "3.99"
    },
    "visiblePriceUnit": "kpl",
    "isDiscounted": false
  },
  {
    "ean": "6430065010173",
    "urlSlug": "bos-ice-rooibos-lime-ging-025l-tlk-luom-6430065010173",
    "name": "BOS Ice Rooibos Lime-Ging 0,25l",
    "pictureUrls": [],
    "section": "5043",
    "departmentId": "108",
    "contentUnit": "L",
    "contentSize": 0.25,
    "netWeight": 0.25,
    "available": true,
    "isUtility": false,
    "preprocessedPricing": {
      "products": {},
      "simplePromotions": {},
      "basketPromotions": {}
    },
    "tosPricing": {
      "basketPromotions": []
    },
    "simplePricePlussa": false,
    "pricingUnit": "kpl",
    "referencePrice": {
      "_type": "Big",
      "value": "7.36"
    },
    "visiblePrice": {
      "_type": "Big",
      "value": "1.99"
    },
    "visiblePriceUnit": "kpl",
    "isDiscounted": false
  },
  {
    "ean": "8712100625138",
    "urlSlug": "lipton-pyramid-tee-20ps-paaryna-sukl-rfa-8712100625138",
    "name": "Lipton Pyramid päärynä suklaa tee 20ps 32g",
    "pictureUrls": [
      {
        "original": "https://public.keskofiles.com/f/k-ruoka/product/8712100625138"
      }
    ],
    "section": "3445",
    "departmentId": "108",
    "contentUnit": "KG",
    "contentSize": 0.032,
    "netWeight": 0.032,
    "available": true,
    "isUtility": false,
    "preprocessedPricing": {
      "products": {},
      "simplePromotions": {},
      "basketPromotions": {}
    },
    "tosPricing": {
      "basketPromotions": []
    },
    "simplePricePlussa": false,
    "pricingUnit": "kpl",
    "referencePrice": {
      "_type": "Big",
      "value": "89.0625"
    },
    "visiblePrice": {
      "_type": "Big",
      "value": "2.85"
    },
    "visiblePriceUnit": "kpl",
    "isDiscounted": false
  },
  {
    "ean": "6418654001078",
    "urlSlug": "laitilan-sitruuna-limonaadi-033l-klp-6418654001078",
    "name": "Erikois sitruunasooda 0,33l",
    "pictureUrls": [
      {
        "original": "https://public.keskofiles.com/f/k-ruoka/product/6418654001078"
      }
    ],
    "section": "5002",
    "departmentId": "108",
    "contentUnit": "L",
    "contentSize": 0.33,
    "netWeight": 0.33,
    "available": true,
    "isUtility": false,
    "preprocessedPricing": {
      "products": {},
      "simplePromotions": {},
      "basketPromotions": {}
    },
    "tosPricing": {
      "basketPromotions": []
    },
    "simplePricePlussa": false,
    "pricingUnit": "kpl",
    "referencePrice": {
      "_type": "Big",
      "value": "5.90909090909090909091"
    },
    "visiblePrice": {
      "_type": "Big",
      "value": "2.05"
    },
    "visiblePriceUnit": "kpl",
    "isDiscounted": false
  },
  {
    "ean": "6430040250310",
    "urlSlug": "kaffa-roastery-tumma-monsuuni-250g-6430040250310",
    "name": "Kaffa Roastery Tumma Monsuuni 250g Suodatinjauhatus",
    "pictureUrls": [
      {
        "original": "https://public.keskofiles.com/f/k-ruoka/product/6430040250310"
      }
    ],
    "section": "3404",
    "departmentId": "108",
    "contentUnit": "KG",
    "contentSize": 0.25,
    "netWeight": 0.25,
    "available": true,
    "isUtility": false,
    "preprocessedPricing": {
      "products": {},
      "simplePromotions": {},
      "basketPromotions": {}
    },
    "tosPricing": {
      "basketPromotions": []
    },
    "simplePricePlussa": false,
    "pricingUnit": "kpl",
    "referencePrice": {
      "_type": "Big",
      "value": "33"
    },
    "visiblePrice": {
      "_type": "Big",
      "value": "8.25"
    },
    "visiblePriceUnit": "kpl",
    "isDiscounted": false
  },
  {
    "ean": "7613032743352",
    "urlSlug": "nescafe-dolce-gusto-cafe-american-16kaps-7613032743352",
    "name": "Nescafé DG 16 kaps/160g Caffè Americano",
    "pictureUrls": [
      {
        "original": "https://public.keskofiles.com/f/k-ruoka/product/7613032743352"
      }
    ],
    "section": "3411",
    "departmentId": "108",
    "contentUnit": "KG",
    "contentSize": 0.16,
    "netWeight": 0.16,
    "available": true,
    "isUtility": false,
    "preprocessedPricing": {
      "products": {},
      "simplePromotions": {},
      "basketPromotions": {}
    },
    "tosPricing": {
      "basketPromotions": []
    },
    "simplePricePlussa": false,
    "pricingUnit": "kpl",
    "referencePrice": {
      "_type": "Big",
      "value": "31.1875"
    },
    "visiblePrice": {
      "_type": "Big",
      "value": "4.99"
    },
    "visiblePriceUnit": "kpl",
    "isDiscounted": true
  },
  {
    "ean": "8001685122379",
    "urlSlug": "pellini-tradizionale-espresso-250g-jauhe-8001685122379",
    "name": "Pellini Tradizionale espresso 250g jauhe",
    "pictureUrls": [
      {
        "original": "https://public.keskofiles.com/f/k-ruoka/product/8001685122379"
      }
    ],
    "section": "3402",
    "departmentId": "108",
    "contentUnit": "KG",
    "contentSize": 0.25,
    "netWeight": 0.25,
    "available": true,
    "isUtility": false,
    "preprocessedPricing": {
      "products": {},
      "simplePromotions": {},
      "basketPromotions": {}
    },
    "tosPricing": {
      "basketPromotions": []
    },
    "simplePricePlussa": false,
    "pricingUnit": "kpl",
    "referencePrice": {
      "_type": "Big",
      "value": "19"
    },
    "visiblePrice": {
      "_type": "Big",
      "value": "4.75"
    },
    "visiblePriceUnit": "kpl",
    "isDiscounted": false
  },
  {
    "ean": "5600787049008",
    "urlSlug": "captain-kombucha-ananas-04l-plo-luomu-5600787049008",
    "name": "Captain Kombucha Ananas Peach Splash 0,4l luomu",
    "pictureUrls": [
      {
        "original": "https://public.keskofiles.com/f/k-ruoka/product/5600787049008"
      }
    ],
    "section": "5043",
    "departmentId": "108",
    "contentUnit": "L",
    "contentSize": 0.4,
    "netWeight": 0.4,
    "available": true,
    "isUtility": false,
    "preprocessedPricing": {
      "products": {},
      "simplePromotions": {},
      "basketPromotions": {}
    },
    "tosPricing": {
      "basketPromotions": []
    },
    "simplePricePlussa": false,
    "pricingUnit": "kpl",
    "referencePrice": {
      "_type": "Big",
      "value": "9.225"
    },
    "visiblePrice": {
      "_type": "Big",
      "value": "3.69"
    },
    "visiblePriceUnit": "kpl",
    "isDiscounted": false
  },
  {
    "ean": "6410405049490",
    "urlSlug": "pirkka-omenataysmehu-2dl-6410405049490",
    "name": "Pirkka omenatäysmehu 2 dl",
    "pictureUrls": [
      {
        "original": "https://public.keskofiles.com/f/k-ruoka/product/6410405049490"
      }
    ],
    "section": "3300",
    "departmentId": "108",
    "contentUnit": "L",
    "contentSize": 0.2,
    "netWeight": 0.209,
    "available": true,
    "isUtility": false,
    "preprocessedPricing": {
      "products": {},
      "simplePromotions": {},
      "basketPromotions": {}
    },
    "tosPricing": {
      "basketPromotions": []
    },
    "simplePricePlussa": false,
    "pricingUnit": "kpl",
    "referencePrice": {
      "_type": "Big",
      "value": "2.25"
    },
    "visiblePrice": {
      "_type": "Big",
      "value": "0.45"
    },
    "visiblePriceUnit": "kpl",
    "isDiscounted": false,
    "discountType": "PLUSSA",
    "batchSize": 4,
    "batchPrice": {
      "_type": "Big",
      "value": "1.5"
    }
  },
  {
    "ean": "4009427825032",
    "urlSlug": "carl-jung-rotlack-0375l-pv-alkoh-4009427825032",
    "name": "Carl Jung Rotlack 0,375l pv alkoh",
    "pictureUrls": [],
    "section": "5177",
    "departmentId": "108",
    "contentUnit": "L",
    "contentSize": 0.375,
    "netWeight": 0.284,
    "available": true,
    "isUtility": false,
    "preprocessedPricing": {
      "products": {},
      "simplePromotions": {},
      "basketPromotions": {}
    },
    "tosPricing": {
      "basketPromotions": []
    },
    "simplePricePlussa": false,
    "pricingUnit": "kpl",
    "referencePrice": {
      "_type": "Big",
      "value": "8.24"
    },
    "visiblePrice": {
      "_type": "Big",
      "value": "3.09"
    },
    "visiblePriceUnit": "kpl",
    "isDiscounted": false
  },
  {
    "ean": "4009427875051",
    "urlSlug": "carl-jung-kuohuviini-075l-alkoholiton-4009427875051",
    "name": "Carl Jung Schl.Boosenb.kuohuv0,75l alkoholiton",
    "pictureUrls": [
      {
        "original": "https://public.keskofiles.com/f/k-ruoka/product/4009427875051"
      }
    ],
    "section": "5177",
    "departmentId": "108",
    "contentUnit": "L",
    "contentSize": 0.75,
    "netWeight": 0.75,
    "available": true,
    "isUtility": false,
    "preprocessedPricing": {
      "products": {},
      "simplePromotions": {},
      "basketPromotions": {}
    },
    "tosPricing": {
      "basketPromotions": []
    },
    "simplePricePlussa": false,
    "pricingUnit": "kpl",
    "referencePrice": {
      "_type": "Big",
      "value": "7.8"
    },
    "visiblePrice": {
      "_type": "Big",
      "value": "5.85"
    },
    "visiblePriceUnit": "kpl",
    "isDiscounted": false
  },
  {
    "ean": "0041953000556",
    "urlSlug": "lavazza-tierra-organic-utz-340g-0041953000556",
    "name": "Lavazza Tierra Organic UTZ 340g",
    "pictureUrls": [
      {
        "original": "https://public.keskofiles.com/f/k-ruoka/product/0041953000556"
      }
    ],
    "section": "3401",
    "departmentId": "108",
    "contentUnit": "KG",
    "contentSize": 0.34,
    "netWeight": 0.34,
    "available": true,
    "isUtility": false,
    "preprocessedPricing": {
      "products": {},
      "simplePromotions": {},
      "basketPromotions": {}
    },
    "tosPricing": {
      "basketPromotions": []
    },
    "simplePricePlussa": false,
    "pricingUnit": "kpl",
    "referencePrice": {
      "_type": "Big",
      "value": "17.91176470588235294118"
    },
    "visiblePrice": {
      "_type": "Big",
      "value": "6.09"
    },
    "visiblePriceUnit": "kpl",
    "isDiscounted": false
  },
  {
    "ean": "5998815750904",
    "urlSlug": "torley-kuohuviini-05-075l-klp-5998815750904",
    "name": "Törley kuohujuoma 0,5% 0,75l klp",
    "pictureUrls": [
      {
        "original": "https://public.keskofiles.com/f/k-ruoka/product/5998815750904"
      }
    ],
    "section": "5177",
    "departmentId": "108",
    "contentUnit": "L",
    "contentSize": 0.75,
    "netWeight": 0.75,
    "available": true,
    "isUtility": false,
    "preprocessedPricing": {
      "products": {},
      "simplePromotions": {},
      "basketPromotions": {}
    },
    "tosPricing": {
      "basketPromotions": []
    },
    "simplePricePlussa": false,
    "pricingUnit": "kpl",
    "referencePrice": {
      "_type": "Big",
      "value": "9.06666666666666666667"
    },
    "visiblePrice": {
      "_type": "Big",
      "value": "6.9"
    },
    "visiblePriceUnit": "kpl",
    "isDiscounted": false
  },
  {
    "ean": "0615357112100",
    "urlSlug": "yorkshire-gold-musta-tee-80pss-250g-0615357112100",
    "name": "Yorkshire Gold Musta tee 80pss 250g",
    "pictureUrls": [
      {
        "original": "https://public.keskofiles.com/f/k-ruoka/product/0615357112100"
      }
    ],
    "section": "3444",
    "departmentId": "108",
    "contentUnit": "KG",
    "contentSize": 0.25,
    "netWeight": 0.16,
    "available": true,
    "isUtility": false,
    "preprocessedPricing": {
      "products": {},
      "simplePromotions": {},
      "basketPromotions": {}
    },
    "tosPricing": {
      "basketPromotions": []
    },
    "simplePricePlussa": false,
    "pricingUnit": "kpl",
    "referencePrice": {
      "_type": "Big",
      "value": "45.4"
    },
    "visiblePrice": {
      "_type": "Big",
      "value": "11.35"
    },
    "visiblePriceUnit": "kpl",
    "isDiscounted": false
  },
  {
    "ean": "6415130073222",
    "urlSlug": "mehukatti-mustikka-paarynamehu-2dl-luomu-6415130073222",
    "name": "Mehukatti mustikka-päärynämehu 2dl luomu",
    "pictureUrls": [
      {
        "original": "https://public.keskofiles.com/f/k-ruoka/product/6415130073222"
      }
    ],
    "section": "3300",
    "departmentId": "108",
    "contentUnit": "L",
    "contentSize": 0.2,
    "netWeight": 0.195,
    "available": true,
    "isUtility": false,
    "preprocessedPricing": {
      "products": {},
      "simplePromotions": {},
      "basketPromotions": {}
    },
    "tosPricing": {
      "basketPromotions": []
    },
    "simplePricePlussa": false,
    "pricingUnit": "kpl",
    "referencePrice": {
      "_type": "Big",
      "value": "3.95"
    },
    "visiblePrice": {
      "_type": "Big",
      "value": "0.79"
    },
    "visiblePriceUnit": "kpl",
    "isDiscounted": false
  },
  {
    "ean": "6413600159599",
    "urlSlug": "ed-gamer-light-05l-kmp-6413600159599",
    "name": "Ed Gamer Light 0,5l",
    "pictureUrls": [
      {
        "original": "https://public.keskofiles.com/f/k-ruoka/product/6413600159599"
      }
    ],
    "section": "5042",
    "departmentId": "108",
    "contentUnit": "L",
    "contentSize": 0.5,
    "netWeight": 0.505,
    "available": true,
    "isUtility": false,
    "preprocessedPricing": {
      "products": {},
      "simplePromotions": {},
      "basketPromotions": {}
    },
    "tosPricing": {
      "basketPromotions": []
    },
    "simplePricePlussa": false,
    "pricingUnit": "kpl",
    "referencePrice": {
      "_type": "Big",
      "value": "3.58"
    },
    "visiblePrice": {
      "_type": "Big",
      "value": "1.99"
    },
    "visiblePriceUnit": "kpl",
    "isDiscounted": true
  },
  {
    "ean": "6430032800769",
    "urlSlug": "raikastamo-saimnor-rypaletaysm02l-luomu-6430032800769",
    "name": "Raikastamo saimaannorpan rypäletäysmehu 0,2l luomu",
    "pictureUrls": [
      {
        "original": "https://public.keskofiles.com/f/k-ruoka/product/6430032800769"
      }
    ],
    "section": "3300",
    "departmentId": "108",
    "contentUnit": "L",
    "contentSize": 0.2,
    "netWeight": 0.215,
    "available": true,
    "isUtility": false,
    "preprocessedPricing": {
      "products": {},
      "simplePromotions": {},
      "basketPromotions": {}
    },
    "tosPricing": {
      "basketPromotions": []
    },
    "simplePricePlussa": false,
    "pricingUnit": "kpl",
    "referencePrice": {
      "_type": "Big",
      "value": "4.95"
    },
    "visiblePrice": {
      "_type": "Big",
      "value": "0.99"
    },
    "visiblePriceUnit": "kpl",
    "isDiscounted": false
  }
]