[
  {
    "ean": "6419800010043",
    "urlSlug": "olvi-export-olut-05l-52-tlk-6419800010043",
    "name": "Olvi Export olut 0,5l 5,2% tlk",
    "pictureUrls": [
      {
        "original": "https://public.keskofiles.com/f/k-ruoka/product/6419800010043"
      }
    ],
    "section": "5212",
    "departmentId": "108",
    "contentUnit": "L",
    "contentSize": 0.5,
    "netWeight": 0.503,
    "restriction": "alcoholNoWebStore",
    "available": true,
    "isUtility": false,
    "preprocessedPricing": {
      "products": {},
      "simplePromotions": {},
      "basketPromotions": {}
    },
    "tosPricing": {
      "basketPromotions": []
    },
    "simplePricePlussa": false,
    "pricingUnit": "kpl",
    "referencePrice": {
      "_type": "Big",
      "value": "5.88"
    },
    "visiblePrice": {
      "_type": "Big",
      "value": "3.09"
    },
    "visiblePriceUnit": "kpl",
    "isDiscounted": false
  },
  {
    "ean": "6419800010777",
    "urlSlug": "sandels-53--033l-tlk-6419800010777",
    "name": "Sandels 5,3 % 0,33l",
    "pictureUrls": [],
    "section": "5212",
    "departmentId": "108",
    "contentUnit": "L",
    "contentSize": 0.33,
    "netWeight": 0.332,
    "restriction": "alcoholNoWebStore",
    "available": true,
    "isUtility": false,
    "preprocessedPricing": {
      "products": {},
      "simplePromotions": {},
      "basketPromotions": {}
    },
    "tosPricing": {
      "basketPromotions": []
    },
    "simplePricePlussa": false,
    "pricingUnit": "kpl",
    "referencePrice": {
      "_type": "Big",
      "value": "5.90909090909090909091"
    },
    "visiblePrice": {
      "_type": "Big",
      "value": "2.1"
    },
    "visiblePriceUnit": "kpl",
    "isDiscounted": false
  },
  {
    "ean": "6419800011620",
    "urlSlug": "a-le-coq-premium-export-52-05l-tlk-6419800011620",
    "name": "A.Le Coq Premium Export 5,2% 0,5l",
    "pictureUrls": [
      {
        "original": "https://public.keskofiles.com/f/k-ruoka/product/6419800011620"
      }
    ],
    "section": "5212",
    "departmentId": "108",
    "contentUnit": "L",
    "contentSize": 0.5,
    "netWeight": 0.503,
    "restriction": "alcoholNoWebStore",
    "available": true,
    "isUtility": false,
    "preprocessedPricing": {
      "products": {},
      "simplePromotions": {},
      "basketPromotions": {}
    },
    "tosPricing": {
      "basketPromotions": []
    },
    "simplePricePlussa": false,
    "pricingUnit": "kpl",
    "referencePrice": {
      "_type": "Big",
      "value": "5.88"
    },
    "visiblePrice": {
      "_type": "Big",
      "value": "3.09"
    },
    "visiblePriceUnit": "kpl",
    "isDiscounted": false
  },
  {
    "ean": "6419800011637",
    "urlSlug": "sandels-53-05l-tlk-6419800011637",
    "name": "Sandels 5,3% 0,5l",
    "pictureUrls": [
      {
        "original": "https://public.keskofiles.com/f/k-ruoka/product/6419800011637"
      }
    ],
    "section": "5212",
    "departmentId": "108",
    "contentUnit": "L",
    "contentSize": 0.5,
    "netWeight": 0.503,
    "restriction": "alcoholNoWebStore",
    "available": true,
    "isUtility": false,
    "preprocessedPricing": {
      "products": {},
      "simplePromotions": {},
      "basketPromotions": {}
    },
    "tosPricing": {
      "basketPromotions": []
    },
    "simplePricePlussa": false,
    "pricingUnit": "kpl",
    "referencePrice": {
      "_type": "Big",
      "value": "6.48"
    },
    "visiblePrice": {
      "_type": "Big",
      "value": "3.39"
    },
    "visiblePriceUnit": "kpl",
    "isDiscounted": false
  },
  {
    "ean": "6419800020417",
    "urlSlug": "olvi-iii-45-033l-tlk-8-pack-6419800020417",
    "name": "Olvi III 4,5% 0,33l 8-pack",
    "pictureUrls": [
      {
        "original": "https://public.keskofiles.com/f/k-ruoka/product/6419800020417"
      }
    ],
    "section": "5213",
    "departmentId": "108",
    "contentUnit": "L",
    "contentSize": 2.64,
    "netWeight": 2.656,
    "restriction": "alcoholNoWebStore",
    "available": true,
    "isUtility": false,
    "preprocessedPricing": {
      "products": {},
      "simplePromotions": {},
      "basketPromotions": {}
    },
    "tosPricing": {
      "basketPromotions": []
    },
    "simplePricePlussa": false,
    "pricingUnit": "kpl",
    "referencePrice": {
      "_type": "Big",
      "value": "4.18181818181818181818"
    },
    "visiblePrice": {
      "_type": "Big",
      "value": "12.24"
    },
    "visiblePriceUnit": "kpl",
    "isDiscounted": false
  },
  {
    "ean": "6419800022039",
    "urlSlug": "a-le-coq-gold-olut-47-033l-tlk-6-pack-6419800022039",
    "name": "A.Le Coq Gold olut 4,7% 0,33l tlk 6-pack",
    "pictureUrls": [
      {
        "original": "https://public.keskofiles.com/f/k-ruoka/product/6419800022039"
      }
    ],
    "section": "5213",
    "departmentId": "108",
    "contentUnit": "L",
    "contentSize": 1.98,
    "netWeight": 1.992,
    "restriction": "alcoholNoWebStore",
    "available": true,
    "isUtility": false,
    "preprocessedPricing": {
      "products": {},
      "simplePromotions": {},
      "basketPromotions": {}
    },
    "tosPricing": {
      "basketPromotions": []
    },
    "simplePricePlussa": false,
    "pricingUnit": "kpl",
    "referencePrice": {
      "_type": "Big",
      "value": "4.81818181818181818182"
    },
    "visiblePrice": {
      "_type": "Big",
      "value": "10.44"
    },
    "visiblePriceUnit": "kpl",
    "isDiscounted": false
  },
  {
    "ean": "6419800022619",
    "urlSlug": "olvi-apa-47-05l-tlk-6419800022619",
    "name": "OLVI A.P.A. -olut 4,7% 0,5l",
    "pictureUrls": [
      {
        "original": "https://public.keskofiles.com/f/k-ruoka/product/6419800022619"
      }
    ],
    "section": "5222",
    "departmentId": "108",
    "contentUnit": "L",
    "contentSize": 0.5,
    "netWeight": 0.503,
    "restriction": "alcoholNoWebStore",
    "available": true,
    "isUtility": false,
    "preprocessedPricing": {
      "products": {},
      "simplePromotions": {},
      "basketPromotions": {}
    },
    "tosPricing": {
      "basketPromotions": []
    },
    "simplePricePlussa": false,
    "pricingUnit": "kpl",
    "referencePrice": {
      "_type": "Big",
      "value": "5.68"
    },
    "visiblePrice": {
      "_type": "Big",
      "value": "2.99"
    },
    "visiblePriceUnit": "kpl",
    "isDiscounted": false
  },
  {
    "ean": "6419800022725",
    "urlSlug": "olvi-xmas-ipa-47--05l-tlk-6419800022725",
    "name": "Olvi Xmas IPA 4,7 % 0,5l",
    "pictureUrls": [
      {
        "original": "https://public.keskofiles.com/f/k-ruoka/product/6419800022725"
      }
    ],
    "section": "5222",
    "departmentId": "108",
    "contentUnit": "L",
    "contentSize": 0.5,
    "netWeight": 0.503,
    "restriction": "alcoholNoWebStore",
    "available": true,
    "isUtility": false,
    "preprocessedPricing": {
      "products": {},
      "simplePromotions": {},
      "basketPromotions": {}
    },
    "tosPricing": {
      "basketPromotions": []
    },
    "simplePricePlussa": false,
    "pricingUnit": "kpl",
    "referencePrice": {
      "_type": "Big",
      "value": "6.28"
    },
    "visiblePrice": {
      "_type": "Big",
      "value": "3.29"
    },
    "visiblePriceUnit": "kpl",
    "isDiscounted": false
  },
  {
    "ean": "6419800030034",
    "urlSlug": "olvi-ykkonen-27-05l-tlk-6419800030034",
    "name": "Olvi Ykkönen 2,7% 0,5l",
    "pictureUrls": [
      {
        "original": "https://public.keskofiles.com/f/k-ruoka/product/6419800030034"
      }
    ],
    "section": "5217",
    "departmentId": "108",
    "contentUnit": "L",
    "contentSize": 0.5,
    "netWeight": 0.502,
    "restriction": "alcoholNoWebStore",
    "available": true,
    "isUtility": false,
    "preprocessedPricing": {
      "products": {},
      "simplePromotions": {},
      "basketPromotions": {}
    },
    "tosPricing": {
      "basketPromotions": []
    },
    "simplePricePlussa": false,
    "pricingUnit": "kpl",
    "referencePrice": {
      "_type": "Big",
      "value": "2.6"
    },
    "visiblePrice": {
      "_type": "Big",
      "value": "1.45"
    },
    "visiblePriceUnit": "kpl",
    "isDiscounted": false
  },
  {
    "ean": "6419800030119",
    "urlSlug": "olvi-ykkonen-27-033l-tlk-si-6419800030119",
    "name": "Olvi Ykkönen 2,7% 0,33l tlk",
    "pictureUrls": [
      {
        "original": "https://public.keskofiles.com/f/k-ruoka/product/6419800030119"
      }
    ],
    "section": "5217",
    "departmentId": "108",
    "contentUnit": "L",
    "contentSize": 0.33,
    "netWeight": 0.332,
    "restriction": "alcoholNoWebStore",
    "available": true,
    "isUtility": false,
    "preprocessedPricing": {
      "products": {},
      "simplePromotions": {},
      "basketPromotions": {}
    },
    "tosPricing": {
      "basketPromotions": []
    },
    "simplePricePlussa": false,
    "pricingUnit": "kpl",
    "referencePrice": {
      "_type": "Big",
      "value": "2.42424242424242424242"
    },
    "visiblePrice": {
      "_type": "Big",
      "value": "0.95"
    },
    "visiblePriceUnit": "kpl",
    "isDiscounted": false
  },
  {
    "ean": "6419800070382",
    "urlSlug": "fizz-original-dry-47-05l-tlk-6419800070382",
    "name": "FIZZ Original Dry 4,7% 0,5l",
    "pictureUrls": [
      {
        "original": "https://public.keskofiles.com/f/k-ruoka/product/6419800070382"
      }
    ],
    "section": "5113",
    "departmentId": "108",
    "contentUnit": "L",
    "contentSize": 0.5,
    "netWeight": 0.502,
    "restriction": "alcoholNoWebStore",
    "available": true,
    "isUtility": false,
    "preprocessedPricing": {
      "products": {},
      "simplePromotions": {},
      "basketPromotions": {}
    },
    "tosPricing": {
      "basketPromotions": []
    },
    "simplePricePlussa": false,
    "pricingUnit": "kpl",
    "referencePrice": {
      "_type": "Big",
      "value": "5.6"
    },
    "visiblePrice": {
      "_type": "Big",
      "value": "2.95"
    },
    "visiblePriceUnit": "kpl",
    "isDiscounted": false
  },
  {
    "ean": "6419800072508",
    "urlSlug": "fizz-red-dry-apple-47-05l-tlk-6419800072508",
    "name": "Fizz Red Dry Apple 4,7% 0,5l",
    "pictureUrls": [
      {
        "original": "https://public.keskofiles.com/f/k-ruoka/product/6419800072508"
      }
    ],
    "section": "5113",
    "departmentId": "108",
    "contentUnit": "L",
    "contentSize": 0.5,
    "netWeight": 0.502,
    "restriction": "alcoholNoWebStore",
    "available": true,
    "isUtility": false,
    "preprocessedPricing": {
      "products": {},
      "simplePromotions": {},
      "basketPromotions": {}
    },
    "tosPricing": {
      "basketPromotions": []
    },
    "simplePricePlussa": false,
    "pricingUnit": "kpl",
    "referencePrice": {
      "_type": "Big",
      "value": "5.6"
    },
    "visiblePrice": {
      "_type": "Big",
      "value": "2.95"
    },
    "visiblePriceUnit": "kpl",
    "isDiscounted": false
  },
  {
    "ean": "6419800072515",
    "urlSlug": "fizz-red-dry-apple-47-033l-tlk-6-pack-6419800072515",
    "name": "Fizz Red Dry Apple 4,7% 0,33l 6-pack",
    "pictureUrls": [
      {
        "original": "https://public.keskofiles.com/f/k-ruoka/product/6419800072515"
      }
    ],
    "section": "5118",
    "departmentId": "108",
    "contentUnit": "L",
    "contentSize": 1.98,
    "netWeight": 1.992,
    "restriction": "alcoholNoWebStore",
    "available": true,
    "isUtility": false,
    "preprocessedPricing": {
      "products": {},
      "simplePromotions": {},
      "basketPromotions": {}
    },
    "tosPricing": {
      "basketPromotions": []
    },
    "simplePricePlussa": false,
    "pricingUnit": "kpl",
    "referencePrice": {
      "_type": "Big",
      "value": "4.84848484848484848485"
    },
    "visiblePrice": {
      "_type": "Big",
      "value": "10.5"
    },
    "visiblePriceUnit": "kpl",
    "isDiscounted": false
  },
  {
    "ean": "6419800080695",
    "urlSlug": "olvi-mojitolonkero-47-05l-tlk-6419800080695",
    "name": "Olvi Mojitolonkero 4,7% 0,5l",
    "pictureUrls": [
      {
        "original": "https://public.keskofiles.com/f/k-ruoka/product/6419800080695"
      }
    ],
    "section": "5124",
    "departmentId": "108",
    "contentUnit": "L",
    "contentSize": 0.5,
    "netWeight": 0.514,
    "restriction": "alcoholNoWebStore",
    "available": true,
    "isUtility": false,
    "preprocessedPricing": {
      "products": {},
      "simplePromotions": {},
      "basketPromotions": {}
    },
    "tosPricing": {
      "basketPromotions": []
    },
    "simplePricePlussa": false,
    "pricingUnit": "kpl",
    "referencePrice": {
      "_type": "Big",
      "value": "5.88"
    },
    "visiblePrice": {
      "_type": "Big",
      "value": "3.09"
    },
    "visiblePriceUnit": "kpl",
    "isDiscounted": false
  },
  {
    "ean": "6419802020217",
    "urlSlug": "olvi-iii-45-033l-tlk-24-pack-dolly-6419802020217",
    "name": "Olvi III 4,5% 0,33l tlk 24-pack dolly",
    "pictureUrls": [
      {
        "original": "https://public.keskofiles.com/f/k-ruoka/product/6419802020217"
      }
    ],
    "section": "5215",
    "departmentId": "108",
    "contentUnit": "L",
    "contentSize": 7.92,
    "netWeight": 8.5,
    "restriction": "alcoholNoWebStore",
    "available": true,
    "isUtility": false,
    "preprocessedPricing": {
      "products": {},
      "simplePromotions": {},
      "basketPromotions": {}
    },
    "tosPricing": {
      "basketPromotions": []
    },
    "simplePricePlussa": false,
    "pricingUnit": "kpl",
    "referencePrice": {
      "_type": "Big",
      "value": "3.18181818181818181818"
    },
    "visiblePrice": {
      "_type": "Big",
      "value": "28.8"
    },
    "visiblePriceUnit": "kpl",
    "isDiscounted": false
  },
  {
    "ean": "6420613935355",
    "urlSlug": "brewers-alabama-ipa-28-05-tlk-glut-6420613935355",
    "name": "Brewer's Alabama IPA 2,8% 0,5 Gluteeniton",
    "pictureUrls": [
      {
        "original": "https://public.keskofiles.com/f/k-ruoka/product/6420613935355"
      }
    ],
    "section": "5225",
    "departmentId": "108",
    "contentUnit": "L",
    "contentSize": 0.5,
    "netWeight": 0.5,
    "restriction": "alcoholNoWebStore",
    "available": true,
    "isUtility": false,
    "preprocessedPricing": {
      "products": {},
      "simplePromotions": {},
      "basketPromotions": {}
    },
    "tosPricing": {
      "basketPromotions": []
    },
    "simplePricePlussa": false,
    "pricingUnit": "kpl",
    "referencePrice": {
      "_type": "Big",
      "value": "5.8"
    },
    "visiblePrice": {
      "_type": "Big",
      "value": "3.05"
    },
    "visiblePriceUnit": "kpl",
    "isDiscounted": false
  },
  {
    "ean": "6420613935393",
    "urlSlug": "saimaa-jouluolut-brown-ale-45-05l-tlk-6420613935393",
    "name": "Saimaa Jouluolut brown ale 4,5% 0,5l",
    "pictureUrls": [
      {
        "original": "https://public.keskofiles.com/f/k-ruoka/product/6420613935393"
      }
    ],
    "section": "5222",
    "departmentId": "108",
    "contentUnit": "KG",
    "contentSize": 0.5,
    "netWeight": 0.5,
    "restriction": "alcoholNoWebStore",
    "available": true,
    "isUtility": false,
    "preprocessedPricing": {
      "products": {},
      "simplePromotions": {},
      "basketPromotions": {}
    },
    "tosPricing": {
      "basketPromotions": []
    },
    "simplePricePlussa": false,
    "pricingUnit": "kpl",
    "referencePrice": {
      "_type": "Big",
      "value": "5.48"
    },
    "visiblePrice": {
      "_type": "Big",
      "value": "2.89"
    },
    "visiblePriceUnit": "kpl",
    "isDiscounted": false
  },
  {
    "ean": "6420613935607",
    "urlSlug": "yes-yes-mesimarja-cider-55-033l-tlk-6420613935607",
    "name": "Yes Yes Mesimarja Cider 5,5% 0,33l",
    "pictureUrls": [
      {
        "original": "https://public.keskofiles.com/f/k-ruoka/product/6420613935607"
      }
    ],
    "section": "5111",
    "departmentId": "108",
    "contentUnit": "L",
    "contentSize": 0.33,
    "netWeight": 0.33,
    "restriction": "alcoholNoWebStore",
    "available": true,
    "isUtility": false,
    "preprocessedPricing": {
      "products": {},
      "simplePromotions": {},
      "basketPromotions": {}
    },
    "tosPricing": {
      "basketPromotions": []
    },
    "simplePricePlussa": false,
    "pricingUnit": "kpl",
    "referencePrice": {
      "_type": "Big",
      "value": "8"
    },
    "visiblePrice": {
      "_type": "Big",
      "value": "2.79"
    },
    "visiblePriceUnit": "kpl",
    "isDiscounted": false
  },
  {
    "ean": "6420613936253",
    "urlSlug": "brewers-special-pale-ale-47-05l-tlk-6420613936253",
    "name": "Brewer's Special Pasific Pale Ale 4,7% 0,5l",
    "pictureUrls": [
      {
        "original": "https://public.keskofiles.com/f/k-ruoka/product/6420613936253"
      }
    ],
    "section": "5222",
    "departmentId": "108",
    "contentUnit": "L",
    "contentSize": 0.5,
    "netWeight": 0.5,
    "restriction": "alcoholNoWebStore",
    "available": true,
    "isUtility": false,
    "preprocessedPricing": {
      "products": {},
      "simplePromotions": {},
      "basketPromotions": {}
    },
    "tosPricing": {
      "basketPromotions": []
    },
    "simplePricePlussa": false,
    "pricingUnit": "kpl",
    "referencePrice": {
      "_type": "Big",
      "value": "5.88"
    },
    "visiblePrice": {
      "_type": "Big",
      "value": "3.09"
    },
    "visiblePriceUnit": "kpl",
    "isDiscounted": false
  },
  {
    "ean": "6420613937762",
    "urlSlug": "saimaa-utula-pale-ale-45-05l-tlk-luom-6420613937762",
    "name": "Saimaa Utula pale ale 4,5% 0,5l",
    "pictureUrls": [
      {
        "original": "https://public.keskofiles.com/f/k-ruoka/product/6420613937762"
      }
    ],
    "section": "5222",
    "departmentId": "108",
    "contentUnit": "L",
    "contentSize": 0.5,
    "netWeight": 0.5,
    "restriction": "alcoholNoWebStore",
    "available": true,
    "isUtility": false,
    "preprocessedPricing": {
      "products": {},
      "simplePromotions": {},
      "basketPromotions": {}
    },
    "tosPricing": {
      "basketPromotions": []
    },
    "simplePricePlussa": false,
    "pricingUnit": "kpl",
    "referencePrice": {
      "_type": "Big",
      "value": "5.48"
    },
    "visiblePrice": {
      "_type": "Big",
      "value": "2.89"
    },
    "visiblePriceUnit": "kpl",
    "isDiscounted": false
  },
  {
    "ean": "6420613937854",
    "urlSlug": "saimaa-pils-42-05l-tlk-6420613937854",
    "name": "Saimaa Pils Lager 4,2% 0,5l",
    "pictureUrls": [
      {
        "original": "https://public.keskofiles.com/f/k-ruoka/product/6420613937854"
      }
    ],
    "section": "5222",
    "departmentId": "108",
    "contentUnit": "L",
    "contentSize": 0.5,
    "netWeight": 0.5,
    "restriction": "alcoholNoWebStore",
    "available": true,
    "isUtility": false,
    "preprocessedPricing": {
      "products": {},
      "simplePromotions": {},
      "basketPromotions": {}
    },
    "tosPricing": {
      "basketPromotions": []
    },
    "simplePricePlussa": false,
    "pricingUnit": "kpl",
    "referencePrice": {
      "_type": "Big",
      "value": "4.08"
    },
    "visiblePrice": {
      "_type": "Big",
      "value": "2.19"
    },
    "visiblePriceUnit": "kpl",
    "isDiscounted": false
  },
  {
    "ean": "6427401320003",
    "urlSlug": "kaskein-omenain-juhlaglogi-55-07l-klp-6427401320003",
    "name": "Kaskein omenainen juhlaglögijuoma 5,5% 0,7l",
    "pictureUrls": [
      {
        "original": "https://public.keskofiles.com/f/k-ruoka/product/6427401320003"
      }
    ],
    "section": "5182",
    "departmentId": "108",
    "contentUnit": "L",
    "contentSize": 0.7,
    "netWeight": 0.712,
    "restriction": "alcoholNoWebStore",
    "available": true,
    "isUtility": false,
    "preprocessedPricing": {
      "products": {},
      "simplePromotions": {},
      "basketPromotions": {}
    },
    "tosPricing": {
      "basketPromotions": []
    },
    "simplePricePlussa": false,
    "pricingUnit": "kpl",
    "referencePrice": {
      "_type": "Big",
      "value": "11.12857142857142857143"
    },
    "visiblePrice": {
      "_type": "Big",
      "value": "7.89"
    },
    "visiblePriceUnit": "kpl",
    "isDiscounted": false
  },
  {
    "ean": "6430018523705",
    "urlSlug": "stallhagen-delikat-47-0355l-tlk-6430018523705",
    "name": "Stallhagen Delikat 4,7% 0,355l",
    "pictureUrls": [
      {
        "original": "https://public.keskofiles.com/f/k-ruoka/product/6430018523705"
      }
    ],
    "section": "5222",
    "departmentId": "108",
    "contentUnit": "L",
    "contentSize": 0.355,
    "netWeight": 0.357,
    "restriction": "alcoholNoWebStore",
    "available": true,
    "isUtility": false,
    "preprocessedPricing": {
      "products": {},
      "simplePromotions": {},
      "basketPromotions": {}
    },
    "tosPricing": {
      "basketPromotions": []
    },
    "simplePricePlussa": false,
    "pricingUnit": "kpl",
    "referencePrice": {
      "_type": "Big",
      "value": "6.76056338028169014085"
    },
    "visiblePrice": {
      "_type": "Big",
      "value": "2.55"
    },
    "visiblePriceUnit": "kpl",
    "isDiscounted": false
  },
  {
    "ean": "6430018523736",
    "urlSlug": "stallhagen-honungsol-47-05l-tlk-6430018523736",
    "name": "Stallhagen Honungsöl 4,7% 0,5l",
    "pictureUrls": [
      {
        "original": "https://public.keskofiles.com/f/k-ruoka/product/6430018523736"
      }
    ],
    "section": "5222",
    "departmentId": "108",
    "contentUnit": "L",
    "contentSize": 0.5,
    "netWeight": 0.504,
    "restriction": "alcoholNoWebStore",
    "available": true,
    "isUtility": false,
    "preprocessedPricing": {
      "products": {},
      "simplePromotions": {},
      "basketPromotions": {}
    },
    "tosPricing": {
      "basketPromotions": []
    },
    "simplePricePlussa": false,
    "pricingUnit": "kpl",
    "referencePrice": {
      "_type": "Big",
      "value": "6.2"
    },
    "visiblePrice": {
      "_type": "Big",
      "value": "3.25"
    },
    "visiblePriceUnit": "kpl",
    "isDiscounted": false
  },
  {
    "ean": "6430018524023",
    "urlSlug": "stallhagen-pale-ale-55-033l-klp-6430018524023",
    "name": "Stallhagen pale ale 5,5% 0,33l",
    "pictureUrls": [
      {
        "original": "https://public.keskofiles.com/f/k-ruoka/product/6430018524023"
      }
    ],
    "section": "5220",
    "departmentId": "108",
    "contentUnit": "L",
    "contentSize": 0.33,
    "netWeight": 0.33,
    "restriction": "alcoholNoWebStore",
    "available": true,
    "isUtility": false,
    "preprocessedPricing": {
      "products": {},
      "simplePromotions": {},
      "basketPromotions": {}
    },
    "tosPricing": {
      "basketPromotions": []
    },
    "simplePricePlussa": false,
    "pricingUnit": "kpl",
    "referencePrice": {
      "_type": "Big",
      "value": "9.36363636363636363636"
    },
    "visiblePrice": {
      "_type": "Big",
      "value": "3.19"
    },
    "visiblePriceUnit": "kpl",
    "isDiscounted": false
  },
  {
    "ean": "4000856091418",
    "urlSlug": "warsteiner-premium-olut-47-05l-tlk-4000856091418",
    "name": "Warsteiner Premium olut 4,7% 0,5l",
    "pictureUrls": [
      {
        "original": "https://public.keskofiles.com/f/k-ruoka/product/4000856091418"
      }
    ],
    "section": "5232",
    "departmentId": "108",
    "contentUnit": "L",
    "contentSize": 0.5,
    "netWeight": 0.52,
    "restriction": "alcoholNoWebStore",
    "available": true,
    "isUtility": false,
    "preprocessedPricing": {
      "products": {},
      "simplePromotions": {},
      "basketPromotions": {}
    },
    "tosPricing": {
      "basketPromotions": []
    },
    "simplePricePlussa": false,
    "pricingUnit": "kpl",
    "referencePrice": {
      "_type": "Big",
      "value": "5.88"
    },
    "visiblePrice": {
      "_type": "Big",
      "value": "3.09"
    },
    "visiblePriceUnit": "kpl",
    "isDiscounted": false
  },
  {
    "ean": "4049366004006",
    "urlSlug": "charles-dulac-sparkling-55-075l-klp-4049366004006",
    "name": "Charles Dulac Sparkling 5,5% 0,75l",
    "pictureUrls": [
      {
        "original": "https://public.keskofiles.com/f/k-ruoka/product/4049366004006"
      }
    ],
    "section": "5174",
    "departmentId": "108",
    "contentUnit": "L",
    "contentSize": 0.75,
    "netWeight": 0.738,
    "restriction": "alcoholNoWebStore",
    "available": true,
    "isUtility": false,
    "preprocessedPricing": {
      "products": {},
      "simplePromotions": {},
      "basketPromotions": {}
    },
    "tosPricing": {
      "basketPromotions": []
    },
    "simplePricePlussa": false,
    "pricingUnit": "kpl",
    "referencePrice": {
      "_type": "Big",
      "value": "10.25333333333333333333"
    },
    "visiblePrice": {
      "_type": "Big",
      "value": "7.79"
    },
    "visiblePriceUnit": "kpl",
    "isDiscounted": false
  },
  {
    "ean": "4100080000931",
    "urlSlug": "berliner-kindl-premium-pils-5105l-klp-4100080000931",
    "name": "Berliner Kindl Premium pils 5,1%0,5l",
    "pictureUrls": [
      {
        "original": "https://public.keskofiles.com/f/k-ruoka/product/4100080000931"
      }
    ],
    "section": "5240",
    "departmentId": "108",
    "contentUnit": "L",
    "contentSize": 0.5,
    "netWeight": 0.602,
    "restriction": "alcoholNoWebStore",
    "available": true,
    "isUtility": false,
    "preprocessedPricing": {
      "products": {},
      "simplePromotions": {},
      "basketPromotions": {}
    },
    "tosPricing": {
      "basketPromotions": []
    },
    "simplePricePlussa": false,
    "pricingUnit": "kpl",
    "referencePrice": {
      "_type": "Big",
      "value": "7.18"
    },
    "visiblePrice": {
      "_type": "Big",
      "value": "3.69"
    },
    "visiblePriceUnit": "kpl",
    "isDiscounted": false
  },
  {
    "ean": "4104170030204",
    "urlSlug": "ayinger-brau-weisse-51-05l-klp-4104170030204",
    "name": "Ayinger Bräu-Weisse 5,1% 0,5l",
    "pictureUrls": [
      {
        "original": "https://public.keskofiles.com/f/k-ruoka/product/4104170030204"
      }
    ],
    "section": "5240",
    "departmentId": "108",
    "contentUnit": "L",
    "contentSize": 0.5,
    "netWeight": 0.5,
    "restriction": "alcoholNoWebStore",
    "available": true,
    "isUtility": false,
    "preprocessedPricing": {
      "products": {},
      "simplePromotions": {},
      "basketPromotions": {}
    },
    "tosPricing": {
      "basketPromotions": []
    },
    "simplePricePlussa": false,
    "pricingUnit": "kpl",
    "referencePrice": {
      "_type": "Big",
      "value": "6.98"
    },
    "visiblePrice": {
      "_type": "Big",
      "value": "3.59"
    },
    "visiblePriceUnit": "kpl",
    "isDiscounted": false
  },
  {
    "ean": "4740019111132",
    "urlSlug": "saku-manchester-red-42-05l-klp-4740019111132",
    "name": "Saku Manchester Red olut 4,2% 0,5l",
    "pictureUrls": [
      {
        "original": "https://public.keskofiles.com/f/k-ruoka/product/4740019111132"
      }
    ],
    "section": "5240",
    "departmentId": "108",
    "contentUnit": "L",
    "contentSize": 0.5,
    "netWeight": 0.5,
    "restriction": "alcoholNoWebStore",
    "available": true,
    "isUtility": false,
    "preprocessedPricing": {
      "products": {},
      "simplePromotions": {},
      "basketPromotions": {}
    },
    "tosPricing": {
      "basketPromotions": []
    },
    "simplePricePlussa": false,
    "pricingUnit": "kpl",
    "referencePrice": {
      "_type": "Big",
      "value": "6.3"
    },
    "visiblePrice": {
      "_type": "Big",
      "value": "3.25"
    },
    "visiblePriceUnit": "kpl",
    "isDiscounted": false
  }
]