[
  {
    "ean": "5000157074065",
    "urlSlug": "heinz-chili-beans-valk-papu-390g-tomkast-5000157074065",
    "name": "Heinz Chili beans valkoisia papuja 390g mausteisessa tomaattikastikkeessa",
    "pictureUrls": [
      {
        "original": "https://public.keskofiles.com/f/k-ruoka/product/5000157074065"
      }
    ],
    "section": "3222",
    "departmentId": "115",
    "contentUnit": "KG",
    "contentSize": 0.39,
    "netWeight": 0.39,
    "available": true,
    "isUtility": false,
    "preprocessedPricing": {
      "products": {},
      "simplePromotions": {},
      "basketPromotions": {}
    },
    "tosPricing": {
      "basketPromotions": []
    },
    "simplePricePlussa": false,
    "pricingUnit": "kpl",
    "referencePrice": {
      "_type": "Big",
      "value": "4.84615384615384615385"
    },
    "visiblePrice": {
      "_type": "Big",
      "value": "1.89"
    },
    "visiblePriceUnit": "kpl",
    "isDiscounted": false
  },
  {
    "ean": "5016786050004",
    "urlSlug": "reilu-kauppa-mysli-500g-5016786050004",
    "name": "Alara fair trade mysli 500g",
    "pictureUrls": [
      {
        "original": "https://public.keskofiles.com/f/k-ruoka/product/5016786050004"
      }
    ],
    "section": "3088",
    "departmentId": "115",
    "contentUnit": "KG",
    "contentSize": 0.5,
    "netWeight": 0.5,
    "available": true,
    "isUtility": false,
    "preprocessedPricing": {
      "products": {},
      "simplePromotions": {},
      "basketPromotions": {}
    },
    "tosPricing": {
      "basketPromotions": []
    },
    "simplePricePlussa": false,
    "pricingUnit": "kpl",
    "referencePrice": {
      "_type": "Big",
      "value": "7.98"
    },
    "visiblePrice": {
      "_type": "Big",
      "value": "3.99"
    },
    "visiblePriceUnit": "kpl",
    "isDiscounted": false
  },
  {
    "ean": "7312631410886",
    "urlSlug": "risenta-mysli-650g-chia-kookos-taateli-7312631410886",
    "name": "Risenta mysli 650g chia-kookos-taateli",
    "pictureUrls": [
      {
        "original": "https://public.keskofiles.com/f/k-ruoka/product/7312631410886"
      }
    ],
    "section": "3088",
    "departmentId": "115",
    "contentUnit": "KG",
    "contentSize": 0.65,
    "netWeight": 0.65,
    "available": true,
    "isUtility": false,
    "preprocessedPricing": {
      "products": {},
      "simplePromotions": {},
      "basketPromotions": {}
    },
    "tosPricing": {
      "basketPromotions": []
    },
    "simplePricePlussa": false,
    "pricingUnit": "kpl",
    "referencePrice": {
      "_type": "Big",
      "value": "4.75384615384615384615"
    },
    "visiblePrice": {
      "_type": "Big",
      "value": "3.09"
    },
    "visiblePriceUnit": "kpl",
    "isDiscounted": false
  },
  {
    "ean": "7311312000859",
    "urlSlug": "sm-tex-mex-chunky-salsa-mild-230g-7311312000859",
    "name": "SM Tex Mex Chunky Salsa Mild 230g",
    "pictureUrls": [
      {
        "original": "https://public.keskofiles.com/f/k-ruoka/product/7311312000859"
      }
    ],
    "section": "4730",
    "departmentId": "115",
    "contentUnit": "KG",
    "contentSize": 0.23,
    "netWeight": 0.23,
    "available": true,
    "isUtility": false,
    "preprocessedPricing": {
      "products": {},
      "simplePromotions": {},
      "basketPromotions": {}
    },
    "tosPricing": {
      "basketPromotions": []
    },
    "simplePricePlussa": false,
    "pricingUnit": "kpl",
    "referencePrice": {
      "_type": "Big",
      "value": "12.13043478260869565217"
    },
    "visiblePrice": {
      "_type": "Big",
      "value": "2.79"
    },
    "visiblePriceUnit": "kpl",
    "isDiscounted": false
  },
  {
    "ean": "6409941301209",
    "urlSlug": "reformi-aktiv-soijalesitiinirae-250g-6409941301209",
    "name": "Reformi aktiv soijalesitiinirae 250g",
    "pictureUrls": [
      {
        "original": "https://public.keskofiles.com/f/k-ruoka/product/6409941301209"
      }
    ],
    "section": "4539",
    "departmentId": "115",
    "contentUnit": "KG",
    "contentSize": 0.25,
    "netWeight": 0.25,
    "available": true,
    "isUtility": false,
    "preprocessedPricing": {
      "products": {},
      "simplePromotions": {},
      "basketPromotions": {}
    },
    "tosPricing": {
      "basketPromotions": []
    },
    "simplePricePlussa": false,
    "pricingUnit": "kpl",
    "referencePrice": {
      "_type": "Big",
      "value": "45.2"
    },
    "visiblePrice": {
      "_type": "Big",
      "value": "11.3"
    },
    "visiblePriceUnit": "kpl",
    "isDiscounted": false
  },
  {
    "ean": "5719642208037",
    "urlSlug": "knorr-lasagne-262g-5719642208037",
    "name": "Knorr Lasagne ateria-ainekset 262 g",
    "pictureUrls": [
      {
        "original": "https://public.keskofiles.com/f/k-ruoka/product/5719642208037"
      }
    ],
    "section": "4012",
    "departmentId": "115",
    "contentUnit": "KG",
    "contentSize": 0.262,
    "netWeight": 0.262,
    "available": true,
    "isUtility": false,
    "preprocessedPricing": {
      "products": {},
      "simplePromotions": {},
      "basketPromotions": {}
    },
    "tosPricing": {
      "basketPromotions": []
    },
    "simplePricePlussa": false,
    "pricingUnit": "kpl",
    "referencePrice": {
      "_type": "Big",
      "value": "9.3511450381679389313"
    },
    "visiblePrice": {
      "_type": "Big",
      "value": "2.45"
    },
    "visiblePriceUnit": "kpl",
    "isDiscounted": false
  },
  {
    "ean": "7322550031475",
    "urlSlug": "bla-band-ransk-sipulikeitto-2x49g-gton-7322550031475",
    "name": "Blå Band Gluteeniton Ranskalainen sipulikeitto 2x49g",
    "pictureUrls": [
      {
        "original": "https://public.keskofiles.com/f/k-ruoka/product/7322550031475"
      }
    ],
    "section": "4016",
    "departmentId": "115",
    "contentUnit": "KG",
    "contentSize": 0.098,
    "netWeight": 0.098,
    "available": true,
    "isUtility": false,
    "preprocessedPricing": {
      "products": {},
      "simplePromotions": {},
      "basketPromotions": {}
    },
    "tosPricing": {
      "basketPromotions": []
    },
    "simplePricePlussa": false,
    "pricingUnit": "kpl",
    "referencePrice": {
      "_type": "Big",
      "value": "16.22448979591836734694"
    },
    "visiblePrice": {
      "_type": "Big",
      "value": "1.59"
    },
    "visiblePriceUnit": "kpl",
    "isDiscounted": false
  },
  {
    "ean": "5201119007989",
    "urlSlug": "palirria-stifado-sipulia-280g-oljyssa-5201119007989",
    "name": "Palirria stifado-sipulia öljyssä 280g",
    "pictureUrls": [
      {
        "original": "https://public.keskofiles.com/f/k-ruoka/product/5201119007989"
      }
    ],
    "section": "3229",
    "departmentId": "115",
    "contentUnit": "KG",
    "contentSize": 0.28,
    "netWeight": 0.28,
    "available": true,
    "isUtility": false,
    "preprocessedPricing": {
      "products": {},
      "simplePromotions": {},
      "basketPromotions": {}
    },
    "tosPricing": {
      "basketPromotions": []
    },
    "simplePricePlussa": false,
    "pricingUnit": "kpl",
    "referencePrice": {
      "_type": "Big",
      "value": "13.53571428571428571429"
    },
    "visiblePrice": {
      "_type": "Big",
      "value": "3.79"
    },
    "visiblePriceUnit": "kpl",
    "isDiscounted": false
  },
  {
    "ean": "6410405054753",
    "urlSlug": "pirkka-mansikkahillo-700g-6410405054753",
    "name": "Pirkka mansikkahillo 700 g",
    "pictureUrls": [
      {
        "original": "https://public.keskofiles.com/f/k-ruoka/product/6410405054753"
      }
    ],
    "section": "3200",
    "departmentId": "106",
    "contentUnit": "KG",
    "contentSize": 0.7,
    "netWeight": 0.7,
    "available": true,
    "isUtility": false,
    "preprocessedPricing": {
      "products": {},
      "simplePromotions": {},
      "basketPromotions": {}
    },
    "tosPricing": {
      "basketPromotions": []
    },
    "simplePricePlussa": false,
    "pricingUnit": "kpl",
    "referencePrice": {
      "_type": "Big",
      "value": "4.12857142857142857143"
    },
    "visiblePrice": {
      "_type": "Big",
      "value": "2.89"
    },
    "visiblePriceUnit": "kpl",
    "isDiscounted": false
  },
  {
    "ean": "8410076410108",
    "urlSlug": "old-el-pasotaco-kastike--230g-mild-8410076410108",
    "name": "Old El Paso Taco kastike  230g mild",
    "pictureUrls": [
      {
        "original": "https://public.keskofiles.com/f/k-ruoka/product/8410076410108"
      }
    ],
    "section": "4730",
    "departmentId": "115",
    "contentUnit": "KG",
    "contentSize": 0.23,
    "netWeight": 0.23,
    "available": true,
    "isUtility": false,
    "preprocessedPricing": {
      "products": {},
      "simplePromotions": {},
      "basketPromotions": {}
    },
    "tosPricing": {
      "basketPromotions": []
    },
    "simplePricePlussa": false,
    "pricingUnit": "kpl",
    "referencePrice": {
      "_type": "Big",
      "value": "9.34782608695652173913"
    },
    "visiblePrice": {
      "_type": "Big",
      "value": "2.15"
    },
    "visiblePriceUnit": "kpl",
    "isDiscounted": false
  },
  {
    "ean": "7350028543557",
    "urlSlug": "naturdiet-rtd-mansikkajuoma-330ml-7350028543557",
    "name": "Naturdiet ateriankorvike mansikkajuoma 330ml",
    "pictureUrls": [
      {
        "original": "https://public.keskofiles.com/f/k-ruoka/product/7350028543557"
      }
    ],
    "section": "4573",
    "departmentId": "115",
    "contentUnit": "L",
    "contentSize": 0.33,
    "netWeight": 0.337,
    "available": true,
    "isUtility": false,
    "preprocessedPricing": {
      "products": {},
      "simplePromotions": {},
      "basketPromotions": {}
    },
    "tosPricing": {
      "basketPromotions": []
    },
    "simplePricePlussa": false,
    "pricingUnit": "kpl",
    "referencePrice": {
      "_type": "Big",
      "value": "5.12121212121212121212"
    },
    "visiblePrice": {
      "_type": "Big",
      "value": "1.69"
    },
    "visiblePriceUnit": "kpl",
    "isDiscounted": false
  },
  {
    "ean": "6430067840792",
    "urlSlug": "leader-zircca-protpatukka-30g-pahkina-6430067840792",
    "name": "Leader Zircca proteiinipatukka 30g pähkinäsekoitus ja kaakao",
    "pictureUrls": [
      {
        "original": "https://public.keskofiles.com/f/k-ruoka/product/6430067840792"
      }
    ],
    "section": "4553",
    "departmentId": "115",
    "contentUnit": "KG",
    "contentSize": 0.03,
    "netWeight": 0.03,
    "available": true,
    "isUtility": false,
    "preprocessedPricing": {
      "products": {},
      "simplePromotions": {},
      "basketPromotions": {}
    },
    "tosPricing": {
      "basketPromotions": []
    },
    "simplePricePlussa": false,
    "pricingUnit": "kpl",
    "referencePrice": {
      "_type": "Big",
      "value": "66.33333333333333333333"
    },
    "visiblePrice": {
      "_type": "Big",
      "value": "1.99"
    },
    "visiblePriceUnit": "kpl",
    "isDiscounted": false
  },
  {
    "ean": "6410405125262",
    "urlSlug": "pirkka-valkosipulimurska-145g-6410405125262",
    "name": "Pirkka valkosipulimurska 145g",
    "pictureUrls": [
      {
        "original": "https://public.keskofiles.com/f/k-ruoka/product/6410405125262"
      }
    ],
    "section": "3229",
    "departmentId": "115",
    "contentUnit": "KG",
    "contentSize": 0.145,
    "netWeight": 0.145,
    "available": true,
    "isUtility": false,
    "preprocessedPricing": {
      "products": {},
      "simplePromotions": {},
      "basketPromotions": {}
    },
    "tosPricing": {
      "basketPromotions": []
    },
    "simplePricePlussa": false,
    "pricingUnit": "kpl",
    "referencePrice": {
      "_type": "Big",
      "value": "17.86206896551724137931"
    },
    "visiblePrice": {
      "_type": "Big",
      "value": "2.59"
    },
    "visiblePriceUnit": "kpl",
    "isDiscounted": false
  },
  {
    "ean": "3083680664790",
    "urlSlug": "bonduelle-vihreita-papuja-400220g-kok-3083680664790",
    "name": "Bonduelle Kokonaisia vihreitä papuja 400/220g",
    "pictureUrls": [
      {
        "original": "https://public.keskofiles.com/f/k-ruoka/product/3083680664790"
      }
    ],
    "section": "3222",
    "departmentId": "115",
    "contentUnit": "KG",
    "contentSize": 0.22,
    "netWeight": 0.4,
    "available": true,
    "isUtility": false,
    "preprocessedPricing": {
      "products": {},
      "simplePromotions": {},
      "basketPromotions": {}
    },
    "tosPricing": {
      "basketPromotions": []
    },
    "simplePricePlussa": false,
    "pricingUnit": "kpl",
    "referencePrice": {
      "_type": "Big",
      "value": "7.68181818181818181818"
    },
    "visiblePrice": {
      "_type": "Big",
      "value": "1.69"
    },
    "visiblePriceUnit": "kpl",
    "isDiscounted": false
  },
  {
    "ean": "6416248008038",
    "urlSlug": "hart-sport-urheilujuomajauhe-54g-6416248008038",
    "name": "Hart-Sport Energy urheilujuomajauhe 54 g",
    "pictureUrls": [
      {
        "original": "https://public.keskofiles.com/f/k-ruoka/product/6416248008038"
      }
    ],
    "section": "4551",
    "departmentId": "115",
    "contentUnit": "KG",
    "contentSize": 0.054,
    "netWeight": 0.054,
    "available": true,
    "isUtility": false,
    "preprocessedPricing": {
      "products": {},
      "simplePromotions": {},
      "basketPromotions": {}
    },
    "tosPricing": {
      "basketPromotions": []
    },
    "simplePricePlussa": false,
    "pricingUnit": "kpl",
    "referencePrice": {
      "_type": "Big",
      "value": "32.40740740740740740741"
    },
    "visiblePrice": {
      "_type": "Big",
      "value": "1.75"
    },
    "visiblePriceUnit": "kpl",
    "isDiscounted": false
  },
  {
    "ean": "6410840073005",
    "urlSlug": "herkkumaa-gourmet-mansikkahillo-460g-6410840073005",
    "name": "Herkkumaa Gourmet mansikkahillo 460g",
    "pictureUrls": [
      {
        "original": "https://public.keskofiles.com/f/k-ruoka/product/6410840073005"
      }
    ],
    "section": "3200",
    "departmentId": "106",
    "contentUnit": "KG",
    "contentSize": 0.46,
    "netWeight": 0.46,
    "available": true,
    "isUtility": false,
    "preprocessedPricing": {
      "products": {},
      "simplePromotions": {},
      "basketPromotions": {}
    },
    "tosPricing": {
      "basketPromotions": []
    },
    "simplePricePlussa": false,
    "pricingUnit": "kpl",
    "referencePrice": {
      "_type": "Big",
      "value": "6.93478260869565217391"
    },
    "visiblePrice": {
      "_type": "Big",
      "value": "3.19"
    },
    "visiblePriceUnit": "kpl",
    "isDiscounted": false
  },
  {
    "ean": "6411200107897",
    "urlSlug": "provena-pikapuuro-200g-gton-vadelma-6411200107897",
    "name": "Provena gluteeniton pikapuuro vadelma 200 g",
    "pictureUrls": [
      {
        "original": "https://public.keskofiles.com/f/k-ruoka/product/6411200107897"
      }
    ],
    "section": "3046",
    "departmentId": "115",
    "contentUnit": "KG",
    "contentSize": 0.2,
    "netWeight": 0.2,
    "available": true,
    "isUtility": false,
    "preprocessedPricing": {
      "products": {},
      "simplePromotions": {},
      "basketPromotions": {}
    },
    "tosPricing": {
      "basketPromotions": []
    },
    "simplePricePlussa": false,
    "pricingUnit": "kpl",
    "referencePrice": {
      "_type": "Big",
      "value": "14.95"
    },
    "visiblePrice": {
      "_type": "Big",
      "value": "2.99"
    },
    "visiblePriceUnit": "kpl",
    "isDiscounted": false
  },
  {
    "ean": "4008100154537",
    "urlSlug": "hengstenberg-hapankaali-400g-mieto-4008100154537",
    "name": "Hengstenberg Mieto hapankaali 400g",
    "pictureUrls": [
      {
        "original": "https://public.keskofiles.com/f/k-ruoka/product/4008100154537"
      }
    ],
    "section": "3224",
    "departmentId": "115",
    "contentUnit": "KG",
    "contentSize": 0.4,
    "netWeight": 0.4,
    "available": true,
    "isUtility": false,
    "preprocessedPricing": {
      "products": {},
      "simplePromotions": {},
      "basketPromotions": {}
    },
    "tosPricing": {
      "basketPromotions": []
    },
    "simplePricePlussa": false,
    "pricingUnit": "kpl",
    "referencePrice": {
      "_type": "Big",
      "value": "3.975"
    },
    "visiblePrice": {
      "_type": "Big",
      "value": "1.59"
    },
    "visiblePriceUnit": "kpl",
    "isDiscounted": false
  },
  {
    "ean": "6417187104201",
    "urlSlug": "diasporal-magnesiumjauhe-20ps-100g-6417187104201",
    "name": "Diasporal magnesium 300 annospussi 20 kpl",
    "pictureUrls": [
      {
        "original": "https://public.keskofiles.com/f/k-ruoka/product/6417187104201"
      }
    ],
    "section": "4560",
    "departmentId": "115",
    "contentUnit": "KG",
    "contentSize": 0.1,
    "netWeight": 0.1,
    "available": true,
    "isUtility": false,
    "preprocessedPricing": {
      "products": {},
      "simplePromotions": {},
      "basketPromotions": {}
    },
    "tosPricing": {
      "basketPromotions": []
    },
    "simplePricePlussa": false,
    "pricingUnit": "kpl",
    "referencePrice": {
      "_type": "Big",
      "value": "123.5"
    },
    "visiblePrice": {
      "_type": "Big",
      "value": "12.35"
    },
    "visiblePriceUnit": "kpl",
    "isDiscounted": false
  },
  {
    "ean": "7070866022716",
    "urlSlug": "nutrilett-smoothie-330ml-cocoa-oat-7070866022716",
    "name": "Nutrilett smoothie 330ml cocoa-oat",
    "pictureUrls": [
      {
        "original": "https://public.keskofiles.com/f/k-ruoka/product/7070866022716"
      }
    ],
    "section": "4573",
    "departmentId": "115",
    "contentUnit": "L",
    "contentSize": 0.33,
    "netWeight": 0.33,
    "available": true,
    "isUtility": false,
    "preprocessedPricing": {
      "products": {},
      "simplePromotions": {},
      "basketPromotions": {}
    },
    "tosPricing": {
      "basketPromotions": []
    },
    "simplePricePlussa": false,
    "pricingUnit": "kpl",
    "referencePrice": {
      "_type": "Big",
      "value": "6.03030303030303030303"
    },
    "visiblePrice": {
      "_type": "Big",
      "value": "1.99"
    },
    "visiblePriceUnit": "kpl",
    "isDiscounted": false
  },
  {
    "ean": "6420260850803",
    "urlSlug": "kymppi-hernekeitto-435-g-kasvis-6420260850803",
    "name": "Kymppi Kasvishernekeitto 435g",
    "pictureUrls": [
      {
        "original": "https://public.keskofiles.com/f/k-ruoka/product/6420260850803"
      }
    ],
    "section": "3273",
    "departmentId": "115",
    "contentUnit": "KG",
    "contentSize": 0.435,
    "netWeight": 0.435,
    "available": true,
    "isUtility": false,
    "preprocessedPricing": {
      "products": {},
      "simplePromotions": {},
      "basketPromotions": {}
    },
    "tosPricing": {
      "basketPromotions": []
    },
    "simplePricePlussa": false,
    "pricingUnit": "kpl",
    "referencePrice": {
      "_type": "Big",
      "value": "2.96551724137931034483"
    },
    "visiblePrice": {
      "_type": "Big",
      "value": "1.29"
    },
    "visiblePriceUnit": "kpl",
    "isDiscounted": false
  },
  {
    "ean": "6419641600014",
    "urlSlug": "jarki-sarki-tomaatti-ja-yrtit-275180g-6419641600014",
    "name": "Järki särki luomu tomaatti & yrtit 275g/180g",
    "pictureUrls": [
      {
        "original": "https://public.keskofiles.com/f/k-ruoka/product/6419641600014"
      }
    ],
    "section": "3259",
    "departmentId": "115",
    "contentUnit": "KG",
    "contentSize": 0.18,
    "netWeight": 0.275,
    "available": true,
    "isUtility": false,
    "preprocessedPricing": {
      "products": {},
      "simplePromotions": {},
      "basketPromotions": {}
    },
    "tosPricing": {
      "basketPromotions": []
    },
    "simplePricePlussa": false,
    "pricingUnit": "kpl",
    "referencePrice": {
      "_type": "Big",
      "value": "34.38888888888888888889"
    },
    "visiblePrice": {
      "_type": "Big",
      "value": "6.19"
    },
    "visiblePriceUnit": "kpl",
    "isDiscounted": false
  },
  {
    "ean": "5010338022402",
    "urlSlug": "blue-dragon-kokojyvanuudeli-300g-5010338022402",
    "name": "Blue Dragon kuivattu kokojyvänuudeli 300g",
    "pictureUrls": [
      {
        "original": "https://public.keskofiles.com/f/k-ruoka/product/5010338022402"
      }
    ],
    "section": "3013",
    "departmentId": "115",
    "contentUnit": "KG",
    "contentSize": 0.3,
    "netWeight": 0.3,
    "available": true,
    "isUtility": false,
    "preprocessedPricing": {
      "products": {},
      "simplePromotions": {},
      "basketPromotions": {}
    },
    "tosPricing": {
      "basketPromotions": []
    },
    "simplePricePlussa": false,
    "pricingUnit": "kpl",
    "referencePrice": {
      "_type": "Big",
      "value": "7.16666666666666666667"
    },
    "visiblePrice": {
      "_type": "Big",
      "value": "2.15"
    },
    "visiblePriceUnit": "kpl",
    "isDiscounted": false
  },
  {
    "ean": "5010338202620",
    "urlSlug": "blue-dragon-rich-hoisin-kastike-190ml-5010338202620",
    "name": "Blue Dragon Rich Hoisin kastike 190ml",
    "pictureUrls": [
      {
        "original": "https://public.keskofiles.com/f/k-ruoka/product/5010338202620"
      }
    ],
    "section": "4602",
    "departmentId": "106",
    "contentUnit": "L",
    "contentSize": 0.19,
    "netWeight": 0.19,
    "available": true,
    "isUtility": false,
    "preprocessedPricing": {
      "products": {},
      "simplePromotions": {},
      "basketPromotions": {}
    },
    "tosPricing": {
      "basketPromotions": []
    },
    "simplePricePlussa": false,
    "pricingUnit": "kpl",
    "referencePrice": {
      "_type": "Big",
      "value": "18.89473684210526315789"
    },
    "visiblePrice": {
      "_type": "Big",
      "value": "3.59"
    },
    "visiblePriceUnit": "kpl",
    "isDiscounted": false
  },
  {
    "ean": "8714100695814",
    "urlSlug": "knorr-valmiskastike-300ml-pippuri-8714100695814",
    "name": "Knorr valmiskastike 300ml pippuri",
    "pictureUrls": [
      {
        "original": "https://public.keskofiles.com/f/k-ruoka/product/8714100695814"
      }
    ],
    "section": "4019",
    "departmentId": "115",
    "contentUnit": "L",
    "contentSize": 0.3,
    "netWeight": 0.311,
    "available": true,
    "isUtility": false,
    "preprocessedPricing": {
      "products": {},
      "simplePromotions": {},
      "basketPromotions": {}
    },
    "tosPricing": {
      "basketPromotions": []
    },
    "simplePricePlussa": false,
    "pricingUnit": "kpl",
    "referencePrice": {
      "_type": "Big",
      "value": "7.83333333333333333333"
    },
    "visiblePrice": {
      "_type": "Big",
      "value": "2.35"
    },
    "visiblePriceUnit": "kpl",
    "isDiscounted": false
  },
  {
    "ean": "6430039221796",
    "urlSlug": "puhdistamo-tripla-magnesium-60kaps--6430039221796",
    "name": "Puhdistamo Tripla Magnesium 60kaps.",
    "pictureUrls": [
      {
        "original": "https://public.keskofiles.com/f/k-ruoka/product/6430039221796"
      }
    ],
    "section": "4560",
    "departmentId": "115",
    "contentUnit": "KPL",
    "contentSize": 1,
    "netWeight": 0.161,
    "available": true,
    "isUtility": false,
    "preprocessedPricing": {
      "products": {},
      "simplePromotions": {},
      "basketPromotions": {}
    },
    "tosPricing": {
      "basketPromotions": []
    },
    "simplePricePlussa": false,
    "pricingUnit": "kpl",
    "referencePrice": {
      "_type": "Big",
      "value": "11.95"
    },
    "visiblePrice": {
      "_type": "Big",
      "value": "11.95"
    },
    "visiblePriceUnit": "kpl",
    "isDiscounted": false
  },
  {
    "ean": "6410405183217",
    "urlSlug": "pirkka-tonnikala-170g-inkivaari-seesami-6410405183217",
    "name": "Pirkka tonnikala inkivääri-seesami 170g",
    "pictureUrls": [
      {
        "original": "https://public.keskofiles.com/f/k-ruoka/product/6410405183217"
      }
    ],
    "section": "3251",
    "departmentId": "115",
    "contentUnit": "KG",
    "contentSize": 0.17,
    "netWeight": 0.17,
    "available": true,
    "isUtility": false,
    "preprocessedPricing": {
      "products": {},
      "simplePromotions": {},
      "basketPromotions": {}
    },
    "tosPricing": {
      "basketPromotions": []
    },
    "simplePricePlussa": false,
    "pricingUnit": "kpl",
    "referencePrice": {
      "_type": "Big",
      "value": "10.52941176470588235294"
    },
    "visiblePrice": {
      "_type": "Big",
      "value": "1.79"
    },
    "visiblePriceUnit": "kpl",
    "isDiscounted": false
  },
  {
    "ean": "5900020023759",
    "urlSlug": "nestle-lion-muro-600g-5900020023759",
    "name": "Nestlé Lion 600g suklaan ja toffeen makuisia täysjyvämuroja",
    "pictureUrls": [
      {
        "original": "https://public.keskofiles.com/f/k-ruoka/product/5900020023759"
      }
    ],
    "section": "3083",
    "departmentId": "115",
    "contentUnit": "KG",
    "contentSize": 0.6,
    "netWeight": 0.6,
    "available": true,
    "isUtility": false,
    "preprocessedPricing": {
      "products": {},
      "simplePromotions": {},
      "basketPromotions": {}
    },
    "tosPricing": {
      "basketPromotions": []
    },
    "simplePricePlussa": false,
    "pricingUnit": "kpl",
    "referencePrice": {
      "_type": "Big",
      "value": "7.58333333333333333333"
    },
    "visiblePrice": {
      "_type": "Big",
      "value": "4.55"
    },
    "visiblePriceUnit": "kpl",
    "isDiscounted": false
  },
  {
    "ean": "6416597814083",
    "urlSlug": "elovena-hetki-kaurahiut-210g-ome-mus-vad-6416597814083",
    "name": "Elovena Hetki omena-mustikka-vadelma pikapuuro  210 g",
    "pictureUrls": [
      {
        "original": "https://public.keskofiles.com/f/k-ruoka/product/6416597814083"
      }
    ],
    "section": "3048",
    "departmentId": "115",
    "contentUnit": "KG",
    "contentSize": 0.21,
    "netWeight": 0.21,
    "available": true,
    "isUtility": false,
    "preprocessedPricing": {
      "products": {},
      "simplePromotions": {},
      "basketPromotions": {}
    },
    "tosPricing": {
      "basketPromotions": []
    },
    "simplePricePlussa": false,
    "pricingUnit": "kpl",
    "referencePrice": {
      "_type": "Big",
      "value": "10.9047619047619047619"
    },
    "visiblePrice": {
      "_type": "Big",
      "value": "2.29"
    },
    "visiblePriceUnit": "kpl",
    "isDiscounted": false
  },
  {
    "ean": "8008343880039",
    "urlSlug": "rummo-spaghetti-no3-400g-gluteeniton-8008343880039",
    "name": "Rummo spaghetti No 3 400g gluteeniton",
    "pictureUrls": [
      {
        "original": "https://public.keskofiles.com/f/k-ruoka/product/8008343880039"
      }
    ],
    "section": "3078",
    "departmentId": "115",
    "contentUnit": "KG",
    "contentSize": 0.4,
    "netWeight": 0.4,
    "available": true,
    "isUtility": false,
    "preprocessedPricing": {
      "products": {},
      "simplePromotions": {},
      "basketPromotions": {}
    },
    "tosPricing": {
      "basketPromotions": []
    },
    "simplePricePlussa": false,
    "pricingUnit": "kpl",
    "referencePrice": {
      "_type": "Big",
      "value": "8.225"
    },
    "visiblePrice": {
      "_type": "Big",
      "value": "3.29"
    },
    "visiblePriceUnit": "kpl",
    "isDiscounted": false
  }
]