[
  {
    "ean": "6412000034994",
    "urlSlug": "saarioinen-evas-tuorepuuro-130g-omen-kan-6412000034994",
    "name": "Saarioinen Eväs tuorepuuro omena-kaneli 130g",
    "pictureUrls": [
      {
        "original": "https://public.keskofiles.com/f/k-ruoka/product/6412000034994"
      }
    ],
    "section": "1307",
    "departmentId": "103",
    "contentUnit": "KG",
    "contentSize": 0.13,
    "netWeight": 0.13,
    "available": true,
    "isUtility": false,
    "preprocessedPricing": {
      "products": {},
      "simplePromotions": {},
      "basketPromotions": {}
    },
    "tosPricing": {
      "basketPromotions": []
    },
    "simplePricePlussa": false,
    "pricingUnit": "kpl",
    "referencePrice": {
      "_type": "Big",
      "value": "11.92307692307692307692"
    },
    "visiblePrice": {
      "_type": "Big",
      "value": "1.55"
    },
    "visiblePriceUnit": "kpl",
    "isDiscounted": false
  },
  {
    "ean": "6430030380003",
    "urlSlug": "vaissi-kasviskaalikaaryle-350g-6430030380003",
    "name": "Vaissi kasviskaalikääryle 350g kaura-puolukka-punajuuri",
    "pictureUrls": [
      {
        "original": "https://public.keskofiles.com/f/k-ruoka/product/6430030380003"
      }
    ],
    "section": "1310",
    "departmentId": "103",
    "contentUnit": "KG",
    "contentSize": 0.35,
    "netWeight": 0.35,
    "available": true,
    "isUtility": false,
    "preprocessedPricing": {
      "products": {},
      "simplePromotions": {},
      "basketPromotions": {}
    },
    "tosPricing": {
      "basketPromotions": []
    },
    "simplePricePlussa": false,
    "pricingUnit": "kpl",
    "referencePrice": {
      "_type": "Big",
      "value": "13.28571428571428571429"
    },
    "visiblePrice": {
      "_type": "Big",
      "value": "4.65"
    },
    "visiblePriceUnit": "kpl",
    "isDiscounted": false
  },
  {
    "ean": "6412000030415",
    "urlSlug": "saarioinen-lihaperunalaatikko-350g-6412000030415",
    "name": "Saarioinen Lihaperunalaatikko 350 g",
    "pictureUrls": [
      {
        "original": "https://public.keskofiles.com/f/k-ruoka/product/6412000030415"
      }
    ],
    "section": "1300",
    "departmentId": "103",
    "contentUnit": "KG",
    "contentSize": 0.35,
    "netWeight": 0.365,
    "available": true,
    "isUtility": false,
    "preprocessedPricing": {
      "products": {},
      "simplePromotions": {},
      "basketPromotions": {}
    },
    "tosPricing": {
      "basketPromotions": []
    },
    "simplePricePlussa": false,
    "pricingUnit": "kpl",
    "referencePrice": {
      "_type": "Big",
      "value": "8.54285714285714285714"
    },
    "visiblePrice": {
      "_type": "Big",
      "value": "2.99"
    },
    "visiblePriceUnit": "kpl",
    "isDiscounted": false
  },
  {
    "ean": "8001665128681",
    "urlSlug": "casa-gusto-rana-tortellin-kinkjuust-250g-8001665128681",
    "name": "Rana 250g Tortelliini Kinkkutuorepasta",
    "pictureUrls": [
      {
        "original": "https://public.keskofiles.com/f/k-ruoka/product/8001665128681"
      }
    ],
    "section": "1302",
    "departmentId": "103",
    "contentUnit": "KG",
    "contentSize": 0.25,
    "netWeight": 0.25,
    "available": true,
    "isUtility": false,
    "preprocessedPricing": {
      "products": {},
      "simplePromotions": {},
      "basketPromotions": {}
    },
    "tosPricing": {
      "basketPromotions": []
    },
    "simplePricePlussa": false,
    "pricingUnit": "kpl",
    "referencePrice": {
      "_type": "Big",
      "value": "18.6"
    },
    "visiblePrice": {
      "_type": "Big",
      "value": "4.65"
    },
    "visiblePriceUnit": "kpl",
    "isDiscounted": false
  },
  {
    "ean": "6409100076122",
    "urlSlug": "hk-kalapaistos-300g-6409100076122",
    "name": "HK Kalapaistos 300g",
    "pictureUrls": [
      {
        "original": "https://public.keskofiles.com/f/k-ruoka/product/6409100076122"
      }
    ],
    "section": "1305",
    "departmentId": "103",
    "contentUnit": "KG",
    "contentSize": 0.3,
    "netWeight": 0.3,
    "available": true,
    "isUtility": false,
    "preprocessedPricing": {
      "products": {},
      "simplePromotions": {},
      "basketPromotions": {}
    },
    "tosPricing": {
      "basketPromotions": []
    },
    "simplePricePlussa": false,
    "pricingUnit": "kpl",
    "referencePrice": {
      "_type": "Big",
      "value": "8.63333333333333333333"
    },
    "visiblePrice": {
      "_type": "Big",
      "value": "2.59"
    },
    "visiblePriceUnit": "kpl",
    "isDiscounted": false
  },
  {
    "ean": "6409710007011",
    "urlSlug": "pouttu-party-pack-400g-6409710007011",
    "name": "Pouttu party pack 400g",
    "pictureUrls": [
      {
        "original": "https://public.keskofiles.com/f/k-ruoka/product/6409710007011"
      }
    ],
    "section": "1319",
    "departmentId": "103",
    "contentUnit": "KG",
    "contentSize": 0.4,
    "netWeight": 0.4,
    "available": true,
    "isUtility": false,
    "preprocessedPricing": {
      "products": {},
      "simplePromotions": {},
      "basketPromotions": {}
    },
    "tosPricing": {
      "basketPromotions": []
    },
    "simplePricePlussa": false,
    "pricingUnit": "kpl",
    "referencePrice": {
      "_type": "Big",
      "value": "8.725"
    },
    "visiblePrice": {
      "_type": "Big",
      "value": "3.49"
    },
    "visiblePriceUnit": "kpl",
    "isDiscounted": false
  },
  {
    "ean": "6412000031160",
    "urlSlug": "saarioinen-poronkaristys-ja-muusi-350g-6412000031160",
    "name": "Saarioinen poronkäristys ja muusi 350g",
    "pictureUrls": [
      {
        "original": "https://public.keskofiles.com/f/k-ruoka/product/6412000031160"
      }
    ],
    "section": "1305",
    "departmentId": "103",
    "contentUnit": "KG",
    "contentSize": 0.35,
    "netWeight": 0.35,
    "available": true,
    "isUtility": false,
    "preprocessedPricing": {
      "products": {},
      "simplePromotions": {},
      "basketPromotions": {}
    },
    "tosPricing": {
      "basketPromotions": []
    },
    "simplePricePlussa": false,
    "pricingUnit": "kpl",
    "referencePrice": {
      "_type": "Big",
      "value": "16.25714285714285714286"
    },
    "visiblePrice": {
      "_type": "Big",
      "value": "5.69"
    },
    "visiblePriceUnit": "kpl",
    "isDiscounted": false
  },
  {
    "ean": "6412000030460",
    "urlSlug": "saarioinen-kermaperunat-320g-6412000030460",
    "name": "Saarioinen Kermaperunat 320 g",
    "pictureUrls": [
      {
        "original": "https://public.keskofiles.com/f/k-ruoka/product/6412000030460"
      }
    ],
    "section": "1313",
    "departmentId": "103",
    "contentUnit": "KG",
    "contentSize": 0.32,
    "netWeight": 0.32,
    "available": true,
    "isUtility": false,
    "preprocessedPricing": {
      "products": {},
      "simplePromotions": {},
      "basketPromotions": {}
    },
    "tosPricing": {
      "basketPromotions": []
    },
    "simplePricePlussa": false,
    "pricingUnit": "kpl",
    "referencePrice": {
      "_type": "Big",
      "value": "7.46875"
    },
    "visiblePrice": {
      "_type": "Big",
      "value": "2.39"
    },
    "visiblePriceUnit": "kpl",
    "isDiscounted": false
  },
  {
    "ean": "6412000031702",
    "urlSlug": "saarioinen-malesial-kana-kookoskeit-310g-6412000031702",
    "name": "Saarioinen malesialainen kana-kookoskeitto 310g",
    "pictureUrls": [
      {
        "original": "https://public.keskofiles.com/f/k-ruoka/product/6412000031702"
      }
    ],
    "section": "1304",
    "departmentId": "103",
    "contentUnit": "KG",
    "contentSize": 0.31,
    "netWeight": 0.31,
    "available": true,
    "isUtility": false,
    "preprocessedPricing": {
      "products": {},
      "simplePromotions": {},
      "basketPromotions": {}
    },
    "tosPricing": {
      "basketPromotions": []
    },
    "simplePricePlussa": false,
    "pricingUnit": "kpl",
    "referencePrice": {
      "_type": "Big",
      "value": "9.64516129032258064516"
    },
    "visiblePrice": {
      "_type": "Big",
      "value": "2.99"
    },
    "visiblePriceUnit": "kpl",
    "isDiscounted": false
  },
  {
    "ean": "6434600011144",
    "urlSlug": "dennis-kebabpizza-370g-6434600011144",
    "name": "Dennis kebabpizza 370g",
    "pictureUrls": [
      {
        "original": "https://public.keskofiles.com/f/k-ruoka/product/6434600011144"
      }
    ],
    "section": "1320",
    "departmentId": "103",
    "contentUnit": "KG",
    "contentSize": 0.37,
    "netWeight": 0.4,
    "available": true,
    "isUtility": false,
    "preprocessedPricing": {
      "products": {},
      "simplePromotions": {},
      "basketPromotions": {}
    },
    "tosPricing": {
      "basketPromotions": []
    },
    "simplePricePlussa": false,
    "pricingUnit": "kpl",
    "referencePrice": {
      "_type": "Big",
      "value": "9.7027027027027027027"
    },
    "visiblePrice": {
      "_type": "Big",
      "value": "3.59"
    },
    "visiblePriceUnit": "kpl",
    "isDiscounted": false,
    "discountType": "PLUSSA",
    "batchSize": 3,
    "batchPrice": {
      "_type": "Big",
      "value": "10"
    }
  },
  {
    "ean": "6430056260242",
    "urlSlug": "baba-falafel-220g-6430056260242",
    "name": "Baba falafel 220g",
    "pictureUrls": [
      {
        "original": "https://public.keskofiles.com/f/k-ruoka/product/6430056260242"
      }
    ],
    "section": "1310",
    "departmentId": "103",
    "contentUnit": "KG",
    "contentSize": 0.22,
    "netWeight": 0.22,
    "available": true,
    "isUtility": false,
    "preprocessedPricing": {
      "products": {},
      "simplePromotions": {},
      "basketPromotions": {}
    },
    "tosPricing": {
      "basketPromotions": []
    },
    "simplePricePlussa": false,
    "pricingUnit": "kpl",
    "referencePrice": {
      "_type": "Big",
      "value": "22.68181818181818181818"
    },
    "visiblePrice": {
      "_type": "Big",
      "value": "4.99"
    },
    "visiblePriceUnit": "kpl",
    "isDiscounted": false
  },
  {
    "ean": "6407860060894",
    "urlSlug": "atria-vegan-pasanda-350g-6407860060894",
    "name": "Atria vegan pasanda 350g",
    "pictureUrls": [
      {
        "original": "https://public.keskofiles.com/f/k-ruoka/product/6407860060894"
      }
    ],
    "section": "1305",
    "departmentId": "103",
    "contentUnit": "KG",
    "contentSize": 0.35,
    "netWeight": 0.35,
    "available": true,
    "isUtility": false,
    "preprocessedPricing": {
      "products": {},
      "simplePromotions": {},
      "basketPromotions": {}
    },
    "tosPricing": {
      "basketPromotions": []
    },
    "simplePricePlussa": false,
    "pricingUnit": "kpl",
    "referencePrice": {
      "_type": "Big",
      "value": "8.82857142857142857143"
    },
    "visiblePrice": {
      "_type": "Big",
      "value": "3.09"
    },
    "visiblePriceUnit": "kpl",
    "isDiscounted": false
  },
  {
    "ean": "6407810017022",
    "urlSlug": "atria-kanan-minifileet-200g-kypsa-6407810017022",
    "name": "Atria kanan minifileet 200g kypsä",
    "pictureUrls": [
      {
        "original": "https://public.keskofiles.com/f/k-ruoka/product/6407810017022"
      }
    ],
    "section": "1312",
    "departmentId": "103",
    "contentUnit": "KG",
    "contentSize": 0.2,
    "netWeight": 0.2,
    "available": true,
    "isUtility": false,
    "preprocessedPricing": {
      "products": {},
      "simplePromotions": {},
      "basketPromotions": {}
    },
    "tosPricing": {
      "basketPromotions": []
    },
    "simplePricePlussa": false,
    "pricingUnit": "kpl",
    "referencePrice": {
      "_type": "Big",
      "value": "17.5"
    },
    "visiblePrice": {
      "_type": "Big",
      "value": "3.5"
    },
    "visiblePriceUnit": "kpl",
    "isDiscounted": false
  },
  {
    "ean": "7316150375497",
    "urlSlug": "fontana-hummus-200g-pesto-7316150375497",
    "name": "Fontana pesto hummus 200g",
    "pictureUrls": [
      {
        "original": "https://public.keskofiles.com/f/k-ruoka/product/7316150375497"
      }
    ],
    "section": "1319",
    "departmentId": "103",
    "contentUnit": "KG",
    "contentSize": 0.2,
    "netWeight": 0.2,
    "available": true,
    "isUtility": false,
    "preprocessedPricing": {
      "products": {},
      "simplePromotions": {},
      "basketPromotions": {}
    },
    "tosPricing": {
      "basketPromotions": []
    },
    "simplePricePlussa": false,
    "pricingUnit": "kpl",
    "referencePrice": {
      "_type": "Big",
      "value": "12.45"
    },
    "visiblePrice": {
      "_type": "Big",
      "value": "2.49"
    },
    "visiblePriceUnit": "kpl",
    "isDiscounted": true
  },
  {
    "ean": "6412000031917",
    "urlSlug": "saarioinen-balanssi-juures-papukeit-360g-6412000031917",
    "name": "Saarioinen Balanssi juures-papukeitto 360g",
    "pictureUrls": [
      {
        "original": "https://public.keskofiles.com/f/k-ruoka/product/6412000031917"
      }
    ],
    "section": "1304",
    "departmentId": "103",
    "contentUnit": "KG",
    "contentSize": 0.36,
    "netWeight": 0.36,
    "available": true,
    "isUtility": false,
    "preprocessedPricing": {
      "products": {},
      "simplePromotions": {},
      "basketPromotions": {}
    },
    "tosPricing": {
      "basketPromotions": []
    },
    "simplePricePlussa": false,
    "pricingUnit": "kpl",
    "referencePrice": {
      "_type": "Big",
      "value": "8.58333333333333333333"
    },
    "visiblePrice": {
      "_type": "Big",
      "value": "3.09"
    },
    "visiblePriceUnit": "kpl",
    "isDiscounted": false
  },
  {
    "ean": "6410400039748",
    "urlSlug": "pirkka-lihapyorykat-ja-perunasose-300g-6410400039748",
    "name": "Pirkka lihapyörykät ja perunasose 300 g",
    "pictureUrls": [
      {
        "original": "https://public.keskofiles.com/f/k-ruoka/product/6410400039748"
      }
    ],
    "section": "1305",
    "departmentId": "103",
    "contentUnit": "KG",
    "contentSize": 0.3,
    "netWeight": 0.3,
    "available": true,
    "isUtility": false,
    "preprocessedPricing": {
      "products": {},
      "simplePromotions": {},
      "basketPromotions": {}
    },
    "tosPricing": {
      "basketPromotions": []
    },
    "simplePricePlussa": false,
    "pricingUnit": "kpl",
    "referencePrice": {
      "_type": "Big",
      "value": "6.63333333333333333333"
    },
    "visiblePrice": {
      "_type": "Big",
      "value": "1.99"
    },
    "visiblePriceUnit": "kpl",
    "isDiscounted": false,
    "discountType": "PLUSSA",
    "batchSize": 2,
    "batchPrice": {
      "_type": "Big",
      "value": "3.5"
    }
  },
  {
    "ean": "6410405135445",
    "urlSlug": "pirkka-salaatti-235g-cheddar-taco-6410405135445",
    "name": "Pirkka cheddar-tacosalaatti 235g",
    "pictureUrls": [
      {
        "original": "https://public.keskofiles.com/f/k-ruoka/product/6410405135445"
      }
    ],
    "section": "1314",
    "departmentId": "103",
    "contentUnit": "KG",
    "contentSize": 0.235,
    "netWeight": 0.235,
    "available": true,
    "isUtility": false,
    "preprocessedPricing": {
      "products": {},
      "simplePromotions": {},
      "basketPromotions": {}
    },
    "tosPricing": {
      "basketPromotions": []
    },
    "simplePricePlussa": false,
    "pricingUnit": "kpl",
    "referencePrice": {
      "_type": "Big",
      "value": "15.70212765957446808511"
    },
    "visiblePrice": {
      "_type": "Big",
      "value": "3.69"
    },
    "visiblePriceUnit": "kpl",
    "isDiscounted": false
  },
  {
    "ean": "6407850056487",
    "urlSlug": "atria-rahkaohukainen-omena-kaneli-380g-6407850056487",
    "name": "Atria rahkaohukainen omena-kaneli 380g",
    "pictureUrls": [
      {
        "original": "https://public.keskofiles.com/f/k-ruoka/product/6407850056487"
      }
    ],
    "section": "1317",
    "departmentId": "103",
    "contentUnit": "KG",
    "contentSize": 0.38,
    "netWeight": 0.38,
    "available": true,
    "isUtility": false,
    "preprocessedPricing": {
      "products": {},
      "simplePromotions": {},
      "basketPromotions": {}
    },
    "tosPricing": {
      "basketPromotions": []
    },
    "simplePricePlussa": false,
    "pricingUnit": "kpl",
    "referencePrice": {
      "_type": "Big",
      "value": "5.5"
    },
    "visiblePrice": {
      "_type": "Big",
      "value": "2.09"
    },
    "visiblePriceUnit": "kpl",
    "isDiscounted": false
  },
  {
    "ean": "7392555340414",
    "urlSlug": "ridderheims-antipastolajitelma-255g-7392555340414",
    "name": "Ridderheims antipastolajitelma 255g",
    "pictureUrls": [
      {
        "original": "https://public.keskofiles.com/f/k-ruoka/product/7392555340414"
      }
    ],
    "section": "1319",
    "departmentId": "103",
    "contentUnit": "KG",
    "contentSize": 0.255,
    "netWeight": 0.255,
    "available": true,
    "isUtility": false,
    "preprocessedPricing": {
      "products": {},
      "simplePromotions": {},
      "basketPromotions": {}
    },
    "tosPricing": {
      "basketPromotions": []
    },
    "simplePricePlussa": false,
    "pricingUnit": "kpl",
    "referencePrice": {
      "_type": "Big",
      "value": "30.98039215686274509804"
    },
    "visiblePrice": {
      "_type": "Big",
      "value": "7.9"
    },
    "visiblePriceUnit": "kpl",
    "isDiscounted": true
  },
  {
    "ean": "6406300009752",
    "urlSlug": "kivikyla-palvarin-maksapihvit-380g-6406300009752",
    "name": "Kivikylä palvarin maksapihvit 380g",
    "pictureUrls": [
      {
        "original": "https://public.keskofiles.com/f/k-ruoka/product/6406300009752"
      }
    ],
    "section": "1310",
    "departmentId": "103",
    "contentUnit": "KG",
    "contentSize": 0.38,
    "netWeight": 0.38,
    "available": true,
    "isUtility": false,
    "preprocessedPricing": {
      "products": {},
      "simplePromotions": {},
      "basketPromotions": {}
    },
    "tosPricing": {
      "basketPromotions": []
    },
    "simplePricePlussa": false,
    "pricingUnit": "kpl",
    "referencePrice": {
      "_type": "Big",
      "value": "5.23684210526315789474"
    },
    "visiblePrice": {
      "_type": "Big",
      "value": "1.99"
    },
    "visiblePriceUnit": "kpl",
    "isDiscounted": true,
    "discountType": "PLUSSA",
    "plussaDiscountPercentage": {
      "_type": "Big",
      "value": "-28.673835125448028674"
    }
  },
  {
    "ean": "6412000034505",
    "urlSlug": "saarioinen-jauhelihapizza-200g-6412000034505",
    "name": "Saarioinen Jauhelihapizza 200 g",
    "pictureUrls": [
      {
        "original": "https://public.keskofiles.com/f/k-ruoka/product/6412000034505"
      }
    ],
    "section": "1320",
    "departmentId": "103",
    "contentUnit": "KG",
    "contentSize": 0.2,
    "netWeight": 0.2,
    "available": true,
    "isUtility": false,
    "preprocessedPricing": {
      "products": {},
      "simplePromotions": {},
      "basketPromotions": {}
    },
    "tosPricing": {
      "basketPromotions": []
    },
    "simplePricePlussa": false,
    "pricingUnit": "kpl",
    "referencePrice": {
      "_type": "Big",
      "value": "5.75"
    },
    "visiblePrice": {
      "_type": "Big",
      "value": "1.15"
    },
    "visiblePriceUnit": "kpl",
    "isDiscounted": false
  },
  {
    "ean": "6412000036929",
    "urlSlug": "saarioinen-raikas-kasvissalaatti-250g-6412000036929",
    "name": "Saarioinen Raikas kasvissalaatti 250g",
    "pictureUrls": [
      {
        "original": "https://public.keskofiles.com/f/k-ruoka/product/6412000036929"
      }
    ],
    "section": "1316",
    "departmentId": "103",
    "contentUnit": "KG",
    "contentSize": 0.25,
    "netWeight": 0.25,
    "available": true,
    "isUtility": false,
    "preprocessedPricing": {
      "products": {},
      "simplePromotions": {},
      "basketPromotions": {}
    },
    "tosPricing": {
      "basketPromotions": []
    },
    "simplePricePlussa": false,
    "pricingUnit": "kpl",
    "referencePrice": {
      "_type": "Big",
      "value": "8.36"
    },
    "visiblePrice": {
      "_type": "Big",
      "value": "2.09"
    },
    "visiblePriceUnit": "kpl",
    "isDiscounted": false
  },
  {
    "ean": "6407850052526",
    "urlSlug": "atria-italiansalaatti-400g-kevyt-6407850052526",
    "name": "Atria kevyt italiansalaatti 400g",
    "pictureUrls": [
      {
        "original": "https://public.keskofiles.com/f/k-ruoka/product/6407850052526"
      }
    ],
    "section": "1315",
    "departmentId": "103",
    "contentUnit": "KG",
    "contentSize": 0.4,
    "netWeight": 0.4,
    "available": true,
    "isUtility": false,
    "preprocessedPricing": {
      "products": {},
      "simplePromotions": {},
      "basketPromotions": {}
    },
    "tosPricing": {
      "basketPromotions": []
    },
    "simplePricePlussa": false,
    "pricingUnit": "kpl",
    "referencePrice": {
      "_type": "Big",
      "value": "5.375"
    },
    "visiblePrice": {
      "_type": "Big",
      "value": "2.15"
    },
    "visiblePriceUnit": "kpl",
    "isDiscounted": false
  },
  {
    "ean": "6430051361074",
    "urlSlug": "jesse-remoulademajo-175ml-6430051361074",
    "name": "Jesse remoulademajo 175ml",
    "pictureUrls": [
      {
        "original": "https://public.keskofiles.com/f/k-ruoka/product/6430051361074"
      }
    ],
    "section": "1318",
    "departmentId": "103",
    "contentUnit": "L",
    "contentSize": 0.175,
    "netWeight": 0,
    "available": true,
    "isUtility": false,
    "preprocessedPricing": {
      "products": {},
      "simplePromotions": {},
      "basketPromotions": {}
    },
    "tosPricing": {
      "basketPromotions": []
    },
    "simplePricePlussa": false,
    "pricingUnit": "kpl",
    "referencePrice": {
      "_type": "Big",
      "value": "11.42857142857142857143"
    },
    "visiblePrice": {
      "_type": "Big",
      "value": "2"
    },
    "visiblePriceUnit": "kpl",
    "isDiscounted": false
  },
  {
    "ean": "6412000031641",
    "urlSlug": "saarioinen-jauhelihapihvit-ja-muusi-320g-6412000031641",
    "name": "Saarioinen jauhelihapihvit ja muusi 320g",
    "pictureUrls": [
      {
        "original": "https://public.keskofiles.com/f/k-ruoka/product/6412000031641"
      }
    ],
    "section": "1305",
    "departmentId": "103",
    "contentUnit": "KG",
    "contentSize": 0.32,
    "netWeight": 0.32,
    "available": true,
    "isUtility": false,
    "preprocessedPricing": {
      "products": {},
      "simplePromotions": {},
      "basketPromotions": {}
    },
    "tosPricing": {
      "basketPromotions": []
    },
    "simplePricePlussa": false,
    "pricingUnit": "kpl",
    "referencePrice": {
      "_type": "Big",
      "value": "8.71875"
    },
    "visiblePrice": {
      "_type": "Big",
      "value": "2.79"
    },
    "visiblePriceUnit": "kpl",
    "isDiscounted": false
  },
  {
    "ean": "6412000033560",
    "urlSlug": "evas-power-bowl-260g-cheddar-6412000033560",
    "name": "Eväs Power Bowl cheddar 260g",
    "pictureUrls": [
      {
        "original": "https://public.keskofiles.com/f/k-ruoka/product/6412000033560"
      }
    ],
    "section": "1314",
    "departmentId": "103",
    "contentUnit": "KG",
    "contentSize": 0.26,
    "netWeight": 0.26,
    "available": true,
    "isUtility": false,
    "preprocessedPricing": {
      "products": {},
      "simplePromotions": {},
      "basketPromotions": {}
    },
    "tosPricing": {
      "basketPromotions": []
    },
    "simplePricePlussa": false,
    "pricingUnit": "kpl",
    "referencePrice": {
      "_type": "Big",
      "value": "14.96153846153846153846"
    },
    "visiblePrice": {
      "_type": "Big",
      "value": "3.89"
    },
    "visiblePriceUnit": "kpl",
    "isDiscounted": false
  },
  {
    "ean": "6409054505006",
    "urlSlug": "huhtahyvat-waldorfin-salaatti-250g-gourm-6409054505006",
    "name": "Huhtahyvät waldorfin salaatti 250g gourmet",
    "pictureUrls": [
      {
        "original": "https://public.keskofiles.com/f/k-ruoka/product/6409054505006"
      }
    ],
    "section": "1315",
    "departmentId": "103",
    "contentUnit": "KG",
    "contentSize": 0.25,
    "netWeight": 0.25,
    "available": true,
    "isUtility": false,
    "preprocessedPricing": {
      "products": {},
      "simplePromotions": {},
      "basketPromotions": {}
    },
    "tosPricing": {
      "basketPromotions": []
    },
    "simplePricePlussa": false,
    "pricingUnit": "kpl",
    "referencePrice": {
      "_type": "Big",
      "value": "12.76"
    },
    "visiblePrice": {
      "_type": "Big",
      "value": "3.19"
    },
    "visiblePriceUnit": "kpl",
    "isDiscounted": false
  },
  {
    "ean": "6412000030040",
    "urlSlug": "saarioinen-maksalaat-400g-ltonrusinaton-6412000030040",
    "name": "Saarioinen Maksalaatikko 400 g laktoositon/rusinaton",
    "pictureUrls": [
      {
        "original": "https://public.keskofiles.com/f/k-ruoka/product/6412000030040"
      }
    ],
    "section": "1300",
    "departmentId": "103",
    "contentUnit": "KG",
    "contentSize": 0.4,
    "netWeight": 0.415,
    "available": true,
    "isUtility": false,
    "preprocessedPricing": {
      "products": {},
      "simplePromotions": {},
      "basketPromotions": {}
    },
    "tosPricing": {
      "basketPromotions": []
    },
    "simplePricePlussa": false,
    "pricingUnit": "kpl",
    "referencePrice": {
      "_type": "Big",
      "value": "4.975"
    },
    "visiblePrice": {
      "_type": "Big",
      "value": "1.99"
    },
    "visiblePriceUnit": "kpl",
    "isDiscounted": false
  },
  {
    "ean": "6410400032855",
    "urlSlug": "pirkka-pinaattiohukainen-400g-6410400032855",
    "name": "Pirkka pinaattiohukainen 400 g",
    "pictureUrls": [
      {
        "original": "https://public.keskofiles.com/f/k-ruoka/product/6410400032855"
      }
    ],
    "section": "1317",
    "departmentId": "103",
    "contentUnit": "KG",
    "contentSize": 0.4,
    "netWeight": 0.4,
    "available": true,
    "isUtility": false,
    "preprocessedPricing": {
      "products": {},
      "simplePromotions": {},
      "basketPromotions": {}
    },
    "tosPricing": {
      "basketPromotions": []
    },
    "simplePricePlussa": false,
    "pricingUnit": "kpl",
    "referencePrice": {
      "_type": "Big",
      "value": "4.225"
    },
    "visiblePrice": {
      "_type": "Big",
      "value": "1.69"
    },
    "visiblePriceUnit": "kpl",
    "isDiscounted": false,
    "discountType": "PLUSSA",
    "batchSize": 2,
    "batchPrice": {
      "_type": "Big",
      "value": "3"
    }
  },
  {
    "ean": "5701018033428",
    "urlSlug": "pastella-tortel-tuorepasta-250g-ricot-ba-5701018033428",
    "name": "Pastella tortellini tuorepasta ricotta-basilika 250g",
    "pictureUrls": [
      {
        "original": "https://public.keskofiles.com/f/k-ruoka/product/5701018033428"
      }
    ],
    "section": "1319",
    "departmentId": "103",
    "contentUnit": "KG",
    "contentSize": 0.25,
    "netWeight": 0.25,
    "available": true,
    "isUtility": false,
    "preprocessedPricing": {
      "products": {},
      "simplePromotions": {},
      "basketPromotions": {}
    },
    "tosPricing": {
      "basketPromotions": []
    },
    "simplePricePlussa": false,
    "pricingUnit": "kpl",
    "referencePrice": {
      "_type": "Big",
      "value": "10.4"
    },
    "visiblePrice": {
      "_type": "Big",
      "value": "2.6"
    },
    "visiblePriceUnit": "kpl",
    "isDiscounted": false
  }
]